20;20;1.000000;1.000000
10.000000;10.000000
1.284093;-1.261390
1.276407;-1.269167
1.250865;-1.294348
1.195331;-1.345802
1.090782;-1.431850
0.913185;-1.551159
0.651781;-1.677850
0.347283;-1.766181
0.091436;-1.797676
-0.041265;-1.799527
-0.073552;-1.798496
-0.221333;-1.786340
-0.477512;-1.735506
-0.755611;-1.633723
-0.976794;-1.511911
-1.119681;-1.409366
-1.200534;-1.341163
-1.240876;-1.303927
-1.256469;-1.288909
-1.258884;-1.286550
1.288610;-1.256775
1.284161;-1.261320
1.274450;-1.271132
1.238671;-1.306022
1.155950;-1.379775
0.994535;-1.500300
0.726795;-1.646745
0.387509;-1.757793
0.099661;-1.797239
-0.040624;-1.799541
-0.076435;-1.798376
-0.237069;-1.784320
-0.525455;-1.721597
-0.828007;-1.598250
-1.046795;-1.464316
-1.171872;-1.366278
-1.232545;-1.311805
-1.255383;-1.289966
-1.258889;-1.286545
-1.269791;-1.275787
1.309433;-1.235065
1.290779;-1.254547
1.284303;-1.261177
1.270176;-1.275403
1.215569;-1.327551
1.084837;-1.436360
0.831679;-1.596343
0.465363;-1.738803
0.130354;-1.795274
-0.037986;-1.799599
-0.084128;-1.798033
-0.279206;-1.778214
-0.609050;-1.693829
-0.922934;-1.545377
-1.120836;-1.408448
-1.217261;-1.326000
-1.253350;-1.291941
-1.259082;-1.286356
-1.272472;-1.273112
-1.297305;-1.247797
1.354968;-1.184931
1.321133;-1.222542
1.295175;-1.250009
1.284570;-1.260904
1.262892;-1.282615
1.175136;-1.363472
0.961817;-1.521482
0.584716;-1.702383
0.182350;-1.790740
-0.034142;-1.799676
-0.096646;-1.797404
-0.349046;-1.765833
-0.729583;-1.645511
-1.033558;-1.473688
-1.190859;-1.349761
-1.249824;-1.295353
-1.259385;-1.286059
-1.278527;-1.267032
-1.310001;-1.234462
-1.349077;-1.191634
1.433450;-1.088679
1.388664;-1.145256
1.343215;-1.198238
1.303215;-1.241624
1.285054;-1.260411
1.250519;-1.294683
1.103228;-1.422282
0.751549;-1.635596
0.265376;-1.780330
-0.028631;-1.799772
-0.117386;-1.796168
-0.458299;-1.740679
-0.885234;-1.567278
-1.145139;-1.388761
-1.243797;-1.301141
-1.259844;-1.285610
-1.288875;-1.256503
-1.333629;-1.208898
-1.383070;-1.152006
-1.431993;-1.090594
1.545030;-0.923516
1.502172;-0.991705
1.446907;-1.070729
1.381693;-1.153657
1.317785;-1.226149
1.285906;-1.259542
1.228238;-1.315839
0.963996;-1.520103
0.404161;-1.754039
-0.020257;-1.799886
-0.154927;-1.793320
-0.629520;-1.686329
-1.061120;-1.453968
-1.233249;-1.311143
-1.260532;-1.284935
-1.306157;-1.238529
-1.372862;-1.164151
-1.439948;-1.080069
-1.498136;-0.997791
-1.544990;-0.923583
1.667818;-0.677040
1.644016;-0.732946
1.602161;-0.820414
1.536599;-0.937477
1.446363;-1.071464
1.344968;-1.196269
1.287519;-1.257893
1.182443;-1.357140
0.654731;-1.676701
-0.005824;-1.799991
-0.235870;-1.784479
-0.885824;-1.566945
-1.213188;-1.329727
-1.261593;-1.283894
-1.335559;-1.206765
-1.435528;-1.085937
-1.524989;-0.956247
-1.592416;-0.839173
-1.638219;-0.745814
-1.667085;-0.678842
1.758752;-0.383134
1.755319;-0.398568
1.741093;-0.456721
1.710826;-0.559529
1.653832;-0.710520
1.552863;-0.910284
1.401304;-1.129755
1.291259;-1.254053
1.070484;-1.447088
0.064446;-1.798846
-0.491069;-1.731719
-1.170634;-1.367339
-1.263314;-1.282200
-1.389131;-1.144689
-1.533503;-0.942533
-1.635688;-0.751348
-1.697265;-0.599410
-1.732191;-0.489401
-1.750678;-0.418481
-1.758475;-0.384403
1.795344;-0.129378
1.796421;-0.113447
1.795079;-0.133009
1.791540;-0.174308
1.783610;-0.242351
1.764308;-0.356677
1.710069;-0.561839
1.540590;-0.930905
1.299761;-1.245239
0.714718;-1.652022
-1.067002;-1.449658
-1.265555;-1.279989
-1.496756;-0.999860
-1.675700;-0.657290
-1.747297;-0.432382
-1.775100;-0.298360
-1.787336;-0.213147
-1.793148;-0.156908
-1.796024;-0.119572
-1.796385;-0.114026
1.799999;0.001772
1.799975;0.009447
1.799978;0.008922
1.799982;0.008121
1.799987;0.006886
1.799993;0.005021
1.799998;0.002340
1.799999;-0.001444
1.768950;-0.332888
1.544987;-0.923589
-1.413696;-1.114209
-1.686947;-0.627862
-1.793759;-0.149768
-1.798747;-0.067160
-1.799895;-0.019482
-1.799935;-0.015237
-1.799990;0.006118
-1.799972;0.010104
-1.799279;0.050932
-1.798572;0.071682
1.798793;0.065903
1.799080;0.057554
1.798802;0.065665
1.798106;0.082541
1.796600;0.110580
1.792977;0.158849
1.782346;0.251477
1.738403;0.466856
1.493262;1.005071
0.944648;1.532201
-1.246275;1.298768
-1.637587;0.747200
-1.784022;0.239298
-1.795172;0.131746
-1.797148;0.101291
-1.798702;0.068341
-1.798817;0.065256
-1.799172;0.054602
-1.797687;0.091217
-1.795630;0.125345
1.780687;0.262970
1.779943;0.267959
1.773845;0.305735
1.759919;0.377734
1.731509;0.491810
1.672765;0.664724
1.552746;0.910482
1.356234;1.183481
1.273099;1.272485
0.403052;1.754295
-0.839421;1.592285
-1.269451;1.276124
-1.462611;1.049175
-1.642169;0.737076
-1.724051;0.517347
-1.759717;0.378674
-1.775887;0.293643
-1.783346;0.244289
-1.785460;0.228326
-1.783835;0.240692
1.716721;0.541173
1.702683;0.583842
1.674454;0.660456
1.624909;0.774385
1.545834;0.922170
1.433863;1.088134
1.311801;1.232549
1.274774;1.270807
0.964792;1.519598
0.122951;1.795796
-0.318749;1.771553
-1.121925;1.407581
-1.277046;1.268524
-1.374650;1.162039
-1.508034;0.982768
-1.609143;0.806633
-1.672873;0.664452
-1.709630;0.563173
-1.728513;0.502238
-1.735698;0.476813
1.605408;0.814042
1.569661;0.881003
1.518103;0.967142
1.449003;1.067891
1.367588;1.170342
1.293271;1.251978
1.275335;1.270245
1.127893;1.402803
0.632430;1.685240
0.067447;1.798736
-0.164543;1.792464
-0.818481;1.603150
-1.205343;1.336842
-1.279370;1.266181
-1.333744;1.208771
-1.422179;1.103362
-1.505157;0.987168
-1.569193;0.881834
-1.613070;0.798752
-1.640626;0.740503
1.483504;1.019420
1.437232;1.083680
1.384275;1.150557
1.329250;1.213711
1.284064;1.261420
1.275527;1.270051
1.192623;1.348202
0.922967;1.545358
0.422635;1.749680
0.044846;1.799441
-0.098800;1.797286
-0.578290;1.704576
-1.037553;1.470878
-1.239099;1.305616
-1.280305;1.265234
-1.311982;1.232357
-1.368777;1.168952
-1.428504;1.095161
-1.481265;1.022671
-1.524102;0.957660
1.385505;1.149077
1.344464;1.196836
1.306968;1.237673
1.279214;1.266338
1.275587;1.269991
1.225062;1.318796
1.068596;1.448483
0.734762;1.643206
0.297816;1.775192
0.033365;1.799691
-0.064085;1.798859
-0.418876;1.750584
-0.861203;1.580610
-1.140948;1.392206
-1.256070;1.289297
-1.280762;1.264772
-1.299525;1.245485
-1.336071;1.206198
-1.378560;1.157398
-1.421520;1.104210
1.321787;1.221834
1.294351;1.250862
1.276704;1.268869
1.275595;1.269983
1.243382;1.301538
1.148198;1.386232
0.938445;1.536008
0.588259;1.701162
0.221217;1.786355
0.026787;1.799801
-0.043513;1.799474
-0.315979;1.772049
-0.711523;1.653401
-1.027552;1.477882
-1.196327;1.344917
-1.265587;1.279956
-1.281015;1.264516
-1.292315;1.252965
-1.316831;1.227174
-1.349301;1.191381
1.287696;1.257712
1.275449;1.270130
1.275586;1.269992
1.254186;1.291130
1.193890;1.347080
1.062918;1.452654
0.823091;1.600788
0.484681;1.733518
0.173819;1.791588
0.022742;1.799856
-0.030742;1.799737
-0.251324;1.782368
-0.599578;1.697205
-0.920631;1.546751
-1.124237;1.405735
-1.227739;1.316304
-1.271139;1.274444
-1.281171;1.264358
-1.288255;1.257139
-1.306647;1.238012
1.274721;1.270861
1.275573;1.270005
1.260484;1.284983
1.220008;1.323472
1.135575;1.396592
0.980503;1.509508
0.732837;1.644065
0.420700;1.750146
0.149097;1.793814
0.020287;1.799886
-0.024115;1.799838
-0.218097;1.786738
-0.526877;1.721163
-0.832350;1.595993
-1.051101;1.461228
-1.179473;1.359721
-1.245608;1.299408
-1.274364;1.271219
-1.281275;1.264253
-1.286394;1.259043
1.275560;1.270018
1.262966;1.282543
1.233202;1.311188
1.175189;1.363426
1.072770;1.445394
0.906754;1.554927
0.669336;1.670925
0.392553;1.756674
0.152319;1.793544
0.022439;1.799860
-0.034160;1.799676
-0.219356;1.786584
-0.490480;1.731886
-0.766556;1.628616
-0.983002;1.507882
-1.125451;1.404763
-1.209540;1.333047
-1.254804;1.290530
-1.275792;1.269785
-1.281244;1.264284
