20;20;1.000000;1.000000
10.000000;10.000000
1.286613;-1.258819
1.275887;-1.269690
1.247812;-1.297291
1.191280;-1.349389
1.089497;-1.432828
0.922067;-1.545896
0.680270;-1.666503
0.398452;-1.755345
0.158469;-1.793011
0.038556;-1.799587
-0.001729;-1.799999
-0.173229;-1.791645
-0.445428;-1.744017
-0.733975;-1.643557
-0.964152;-1.520004
-1.115554;-1.412635
-1.203850;-1.338187
-1.250300;-1.294894
-1.270798;-1.274783
-1.275376;-1.270203
1.287661;-1.257748
1.286618;-1.258815
1.272936;-1.272649
1.234118;-1.310326
1.151310;-1.383649
0.997084;-1.498607
0.748753;-1.636878
0.436002;-1.746397
0.167319;-1.792207
0.040068;-1.799554
-0.002218;-1.799999
-0.185874;-1.790377
-0.492842;-1.731215
-0.808291;-1.608311
-1.037996;-1.470566
-1.172515;-1.365726
-1.240727;-1.304069
-1.269306;-1.276268
-1.275423;-1.270156
-1.282351;-1.263161
1.301936;-1.242965
1.288893;-1.256485
1.286618;-1.258814
1.267385;-1.278176
1.209566;-1.333022
1.081668;-1.438748
0.845320;-1.589161
0.509907;-1.726266
0.199304;-1.788932
0.043352;-1.799478
-0.009662;-1.799974
-0.226169;-1.785735
-0.575514;-1.705515
-0.905340;-1.555750
-1.116528;-1.411866
-1.223082;-1.320632
-1.266438;-1.279115
-1.275499;-1.270079
-1.285175;-1.260288
-1.306224;-1.238458
1.337998;-1.204061
1.310789;-1.233626
1.291382;-1.253927
1.286601;-1.258832
1.258352;-1.287071
1.168171;-1.369444
0.965665;-1.519043
0.622266;-1.689019
0.253111;-1.782115
0.048616;-1.799343
-0.021858;-1.799867
-0.294177;-1.775798
-0.695594;-1.660165
-1.019760;-1.483270
-1.192448;-1.348358
-1.261547;-1.283939
-1.275654;-1.269924
-1.290755;-1.254572
-1.319142;-1.224689
-1.354889;-1.185022
1.404018;-1.126380
1.365123;-1.173218
1.327128;-1.216031
1.296248;-1.248896
1.286493;-1.258943
1.243602;-1.301328
1.097562;-1.426659
0.776300;-1.623994
0.338243;-1.767934
0.057329;-1.799087
-0.041099;-1.799531
-0.399618;-1.755080
-0.852587;-1.585274
-1.138367;-1.394317
-1.253121;-1.292164
-1.275939;-1.269637
-1.300406;-1.244566
-1.342436;-1.199110
-1.389396;-1.144368
-1.435395;-1.086112
1.503235;-0.990094
1.462055;-1.049950
1.411765;-1.116656
1.355843;-1.183930
1.305460;-1.239263
1.286186;-1.259256
1.218045;-1.325279
0.968174;-1.517445
0.475597;-1.736032
0.072872;-1.798524
-0.073502;-1.798499
-0.562622;-1.709812
-1.035434;-1.472371
-1.237796;-1.306851
-1.276444;-1.269130
-1.316826;-1.227180
-1.381087;-1.154383
-1.446196;-1.071689
-1.502180;-0.991693
-1.546338;-0.921325
1.622733;-0.778934
1.594512;-0.835183
1.549875;-0.915362
1.485694;-1.016225
1.404703;-1.125526
1.322872;-1.220660
1.285508;-1.259948
1.166947;-1.370487
0.700466;-1.658116
0.104087;-1.796988
-0.134966;-1.794933
-0.809011;-1.607949
-1.206092;-1.336167
-1.277391;-1.268177
-1.345516;-1.195653
-1.442894;-1.076131
-1.530045;-0.948137
-1.595371;-0.833540
-1.639218;-0.743616
-1.665998;-0.681506
1.727131;-0.506968
1.719218;-0.533189
1.698111;-0.597008
1.657887;-0.701008
1.590169;-0.843422
1.486932;-1.014412
1.358456;-1.180930
1.283985;-1.261500
1.032340;-1.474542
0.180473;-1.790930
-0.276393;-1.778653
-1.120660;-1.408588
-1.279658;-1.265889
-1.400712;-1.130489
-1.540002;-0.931876
-1.637912;-0.746489
-1.697007;-0.600140
-1.730550;-0.495172
-1.748146;-0.428937
-1.755124;-0.399425
1.783924;-0.240030
1.785205;-0.230307
1.781412;-0.258012
1.771943;-0.316573
1.752530;-0.410657
1.711786;-0.556585
1.623197;-0.777966
1.447011;-1.070588
1.280142;-1.265400
0.454069;-1.741787
-0.713162;-1.652695
-1.288663;-1.256721
-1.525719;-0.955082
-1.681595;-0.642058
-1.746189;-0.436834
-1.772947;-0.310899
-1.784973;-0.232104
-1.790732;-0.182421
-1.793326;-0.154862
-1.793385;-0.154180
1.798966;-0.060992
1.799386;-0.047018
1.799223;-0.052866
1.798863;-0.063959
1.798147;-0.081656
1.796573;-0.111026
1.792474;-0.164427
1.778623;-0.276588
1.707919;-0.568340
1.278860;-1.266695
-1.416825;-1.110228
-1.771503;-0.319024
-1.794576;-0.139627
-1.798265;-0.079010
-1.799253;-0.051842
-1.799610;-0.037471
-1.799766;-0.029021
-1.799844;-0.023717
-1.799884;-0.020402
-1.799881;-0.020736
1.799997;-0.003461
1.799981;-0.008154
1.799990;-0.005878
1.799999;-0.001820
1.799994;0.004591
1.799935;0.015316
1.799654;0.035310
1.798243;0.079521
1.787664;0.210372
1.527194;0.952721
-1.244156;1.300798
-1.731914;0.490380
-1.786622;0.219045
-1.795976;0.120298
-1.798480;0.073957
-1.799346;0.048500
-1.799696;0.033066
-1.799850;0.023237
-1.799915;0.017499
-1.799887;0.020135
1.794573;0.139669
1.795093;0.132816
1.793463;0.153261
1.789281;0.196143
1.780275;0.265745
1.760001;0.377355
1.710378;0.560897
1.584338;0.854327
1.347353;1.193583
1.031907;1.474845
-0.445190;1.744077
-1.270089;1.275490
-1.470859;1.037581
-1.643547;0.733998
-1.724966;0.514287
-1.761170;0.371859
-1.778077;0.280077
-1.786318;0.221516
-1.790047;0.189029
-1.790478;0.184900
1.757995;0.386591
1.752637;0.410199
1.738441;0.466714
1.710488;0.560562
1.660502;0.694790
1.576205;0.869241
1.451261;1.064820
1.327805;1.215292
1.226076;1.317853
0.418232;1.750738
-0.149339;1.793794
-1.060048;1.454750
-1.291004;1.254316
-1.376524;1.159820
-1.506857;0.984571
-1.608013;0.808883
-1.673308;0.663356
-1.712235;0.555203
-1.733706;0.484006
-1.743558;0.447220
1.673449;0.663000
1.649874;0.719663
1.612048;0.800813
1.555348;0.906030
1.478499;1.026664
1.390162;1.143438
1.323239;1.220262
1.271471;1.274112
0.920827;1.546635
0.199593;1.788900
-0.086758;1.797908
-0.695882;1.660045
-1.189610;1.350862
-1.298633;1.246416
-1.340119;1.201699
-1.424054;1.100941
-1.505947;0.985963
-1.570930;0.878738
-1.616951;0.790867
-1.647062;0.726077
1.562101;0.894337
1.522807;0.959718
1.473751;1.033468
1.416502;1.110641
1.359138;1.180145
1.321662;1.221969
1.290405;1.254932
1.109981;1.417019
0.649657;1.678674
0.108017;1.796756
-0.063893;1.798866
-0.460226;1.740170
-0.977357;1.511546
-1.238119;1.306546
-1.302094;1.242799
-1.323126;1.220384
-1.375419;1.161131
-1.433357;1.088802
-1.485931;1.015879
-1.529534;0.948960
1.460601;1.051972
1.419993;1.106174
1.378993;1.156883
1.342317;1.199243
1.321062;1.222618
1.300659;1.244302
1.195933;1.345268
0.925134;1.544062
0.462408;1.739591
0.061303;1.798956
-0.053262;1.799212
-0.322208;1.770927
-0.774466;1.624870
-1.111527;1.415806
-1.262687;1.282818
-1.303875;1.240932
-1.314470;1.229702
-1.346988;1.193995
-1.387099;1.147152
-1.428530;1.095127
1.388180;1.145843
1.357257;1.182308
1.333091;1.209491
1.320873;1.222822
1.306951;1.237691
1.242216;1.302651
1.079106;1.440670
0.760600;1.631407
0.340282;1.767543
0.034341;1.799672
-0.047596;1.799371
-0.239165;1.784040
-0.614377;1.691904
-0.973324;1.514147
-1.184502;1.355343
-1.277149;1.268421
-1.304826;1.239931
-1.310004;1.234460
-1.330793;1.212019
-1.360033;1.179115
1.345469;1.195706
1.328092;1.214978
1.320856;1.222841
1.310994;1.233408
1.269224;1.276351
1.167854;1.369714
0.963914;1.520154
0.632763;1.685114
0.262266;1.780791
0.017806;1.799912
-0.044309;1.799454
-0.187784;1.790178
-0.500015;1.729157
-0.848506;1.587462
-1.095167;1.428499
-1.227265;1.316746
-1.286135;1.259308
-1.305211;1.239525
-1.307743;1.236854
-1.322088;1.221508
1.325578;1.217721
1.320902;1.222791
1.313569;1.230664
1.285245;1.260217
1.219527;1.323916
1.089998;1.432447
0.864819;1.578635
0.544434;1.715690
0.217382;1.786825
0.008481;1.799980
-0.042310;1.799503
-0.158105;1.793043
-0.427404;1.748521
-0.750494;1.636080
-1.008636;1.490857
-1.167902;1.369673
-1.252517;1.292749
-1.291674;1.253626
-1.305083;1.239661
-1.306660;1.237998
1.320893;1.222800
1.314918;1.229223
1.294145;1.251075
1.248821;1.296320
1.163418;1.373484
1.016109;1.485773
0.787933;1.618382
0.493141;1.731130
0.204114;1.788390
0.010156;1.799971
-0.041255;1.799527
-0.153540;1.793440
-0.394813;1.756167
-0.683754;1.665077
-0.933128;1.539244
-1.105266;1.420699
-1.209167;1.333385
-1.266402;1.279151
-1.294516;1.250691
-1.304958;1.239792
