20;20;1.000000;1.000000
10.000000;10.000000;r;10.013755;4.566713
1.777333;-0.284760
1.764417;-0.356135
1.748911;-0.425808
1.748699;-0.426674
1.744497;-0.443543
1.730686;-0.494698
1.702310;-0.584928
1.656551;-0.704158
1.561826;-0.894818
1.179425;-1.359763
-0.539929;-1.717113
-1.479327;-1.025471
-1.629673;-0.764307
-1.661658;-0.692021
-1.667442;-0.677965
-1.664030;-0.686298
-1.667998;-0.676597
-1.707384;-0.569947
-1.783524;-0.242984
-1.799873;-0.021335
1.789709;-0.192203
1.767833;-0.338772
1.743125;-0.448905
1.728818;-0.501186
1.723874;-0.517938
1.707815;-0.568653
1.654621;-0.708682
1.584800;-0.853469
1.483373;-1.019610
1.085515;-1.435847
-0.546163;-1.715140
-1.445376;-1.072795
-1.588830;-0.845943
-1.609213;-0.806495
-1.609886;-0.805151
-1.591384;-0.841128
-1.500697;-0.993936
-1.676726;-0.654667
-1.770242;-0.325951
-1.798153;-0.081523
1.798087;0.082957
1.797011;-0.103686
1.784554;-0.235302
1.766891;-0.343650
1.741481;-0.455241
1.695537;-0.604279
1.583078;-0.856658
1.461596;-1.050589
1.397591;-1.134345
1.011665;-1.488803
-0.626863;-1.687318
-1.449993;-1.066546
-1.553164;-0.909770
-1.528639;-0.950401
-1.485623;-1.016328
-1.593174;-0.837733
-1.652953;-0.712564
-1.739944;-0.461080
-1.789343;-0.195575
-1.799220;0.052985
1.730889;0.493986
1.773608;0.307108
1.793895;0.148125
1.799982;-0.008026
1.789500;-0.194137
1.742088;-0.452912
1.598769;-0.827005
1.373247;-1.163698
1.308174;-1.236399
0.950931;-1.528310
-0.810650;-1.607124
-1.494980;-1.002514
-1.525165;-0.955966
-1.352408;-1.187852
-1.549617;-0.915799
-1.701238;-0.588040
-1.771798;-0.317384
-1.799024;-0.059251
-1.790564;0.184063
-1.751670;0.414308
1.538159;0.934915
1.614950;0.794945
1.677896;0.651663
1.732955;0.486690
1.778910;0.274734
1.799950;-0.013404
1.751752;-0.413963
1.548324;-0.917983
1.215801;-1.327338
0.847573;-1.587961
-1.129294;-1.401676
-1.562197;-0.894170
-1.471110;-1.037224
-1.627115;-0.769737
-1.760754;-0.373823
-1.799899;-0.019030
-1.780167;0.266470
-1.729357;0.499323
-1.662480;0.690043
-1.584016;0.854923
1.268602;1.276969
1.357452;1.182085
1.456138;1.058140
1.566460;0.886681
1.677553;0.652547
1.763032;0.362929
1.798449;0.074704
1.774812;-0.300069
1.477568;-1.028004
0.822095;-1.601299
-1.387621;-1.146520
-1.576310;-0.869050
-1.743978;-0.445579
-1.797495;-0.094918
-1.792779;0.161065
-1.740919;0.457383
-1.646049;0.728368
-1.522512;0.960186
-1.414935;1.112636
-1.326035;1.217223
0.999243;1.497168
1.098003;1.426321
1.247621;1.297475
1.435857;1.085501
1.627265;0.769420
1.777700;0.282461
1.793803;0.149235
1.799993;0.005048
1.648438;-0.722946
1.150692;-1.384163
-0.998942;-1.497369
-1.253135;-1.292150
-1.753379;-0.407016
-1.799530;0.041152
-1.766250;0.346931
-1.685278;0.632327
-1.609983;0.804956
-1.283987;1.261498
-1.133546;1.398239
-1.052842;1.459974
0.747228;1.637574
0.836045;1.594060
1.051676;1.460814
1.392623;1.140438
1.449243;1.067565
1.565123;0.889039
1.647794;0.724414
1.727943;0.504194
1.758922;-0.382351
1.144598;-1.389207
-1.041484;-1.468098
-1.481635;-1.022134
-1.797836;0.088236
-1.700907;0.588994
-1.588037;0.847430
-1.443548;1.075254
-1.214607;1.328431
-0.824683;1.599968
-0.827649;1.598436
-0.797059;1.613907
0.505373;1.727599
0.526245;1.721356
0.481861;1.734304
0.808557;1.608178
0.956146;1.525053
0.980864;1.509273
0.848305;1.587570
0.118813;1.796075
-0.097720;1.797345
0.105667;1.796896
-0.117436;1.796165
0.134774;1.794947
0.052773;1.799226
-0.782323;1.621101
-0.982548;1.508177
-0.952481;1.527344
-0.792457;1.616172
-0.414007;1.751741
-0.571284;1.706937
-0.581220;1.703579
0.289360;1.776589
0.250216;1.782524
0.055413;1.799147
0.299704;1.774874
0.375641;1.760368
0.278918;1.778259
0.072750;1.798529
-0.607852;1.694260
-1.118455;1.410339
0.000000;0.000000
0.000000;0.000000
1.433906;1.088078
1.452494;1.063138
0.176572;1.791319
-0.258404;1.781355
-0.429041;1.748120
-0.480443;1.734697
-0.544079;1.715802
-0.527179;1.721070
-0.404773;1.753898
0.114705;1.796341
0.075581;1.798413
0.010673;1.799968
0.050244;1.799299
-0.013915;1.799946
-0.185751;1.790390
-0.239062;1.784054
-0.371608;1.761223
-0.548743;1.714316
0.000000;0.000000
0.000000;0.000000
0.871390;1.575017
0.683230;1.665292
0.351847;1.765277
0.182750;1.790699
-0.016849;1.799921
-0.174505;1.791521
-0.263182;1.780656
-0.258574;1.781331
-0.211107;1.787578
-0.030206;1.799747
-0.057451;1.799083
-0.017694;1.799913
-0.111699;1.796531
-0.245609;1.783165
-0.347906;1.766058
-0.491689;1.731543
-0.428706;1.748202
-0.253429;1.782070
-0.037232;1.799615
0.070062;1.798636
0.353005;1.765046
0.507446;1.726991
0.452934;1.742082
0.347542;1.766130
0.262533;1.780752
0.111998;1.796512
0.015706;1.799931
-0.002226;1.799999
-0.010257;1.799971
-0.162191;1.792678
-0.207429;1.788008
-0.223596;1.786058
-0.298706;1.775042
-0.416687;1.751106
-0.650810;1.678227
-0.924853;1.544230
-0.722534;1.648619
-0.379579;1.759523
-0.053651;1.799200
0.074539;1.798456
0.444233;1.744321
0.752449;1.635182
0.797597;1.613641
0.604971;1.695290
0.471782;1.737073
0.365893;1.762419
0.267515;1.780010
0.161101;1.792776
0.183146;1.790658
-0.281279;1.777887
-0.361732;1.763278
-0.478011;1.735369
-0.531749;1.719664
-0.562215;1.709946
-0.700515;1.658095
-1.029352;1.476629
-1.196461;1.344798
-0.810310;1.607295
-0.111037;1.796572
0.137509;1.794740
0.928671;1.541937
1.330358;1.212497
1.170414;1.367527
0.785636;1.619499
0.663762;1.673147
0.626607;1.687413
0.598835;1.697468
0.509739;1.726316
0.380516;1.759320
-0.376983;1.760081
-0.480486;1.734686
-0.627576;1.687053
-0.775296;1.624474
-0.725001;1.647535
-0.715330;1.651757
-0.840912;1.591498
-1.142782;1.390701
-1.539764;0.932269
-0.164573;1.792461
0.185678;1.790398
1.483578;1.019311
1.260516;1.284951
1.003794;1.494121
0.872243;1.574545
0.867208;1.577324
0.909525;1.553308
0.931724;1.540094
0.708963;1.654500
0.536506;1.718185
-0.443621;1.744477
-0.551484;1.713437
-0.694342;1.660689
-0.913231;1.551131
-0.856272;1.583287
-0.777995;1.623183
-0.741079;1.640366
-0.703055;1.657019
-0.495082;1.730576
-0.077661;1.798324
0.097189;1.797374
0.559187;1.710938
0.832499;1.595915
0.932403;1.539683
1.018717;1.483986
1.112876;1.414746
1.198888;1.342634
1.027130;1.478176
0.800741;1.612084
0.630701;1.685887
-0.483928;1.733728
-0.585554;1.702095
-0.704406;1.656446
-0.823295;1.600683
-0.897395;1.560347
-0.925305;1.543960
-0.813464;1.605701
-0.632476;1.685222
-0.340354;1.767529
-0.048188;1.799355
0.077229;1.798342
0.454903;1.741569
0.835913;1.594129
1.093462;1.429805
1.266800;1.278756
1.404665;1.125574
1.212786;1.330094
1.006378;1.492382
0.825074;1.599767
0.673834;1.669116
-0.503939;1.728018
-0.598139;1.697713
-0.706190;1.655686
-0.830976;1.596709
-0.997698;1.498198
-1.192831;1.348019
-1.026616;1.478533
-0.844429;1.589635
-0.480072;1.734800
-0.069529;1.798657
0.108549;1.796724
0.648216;1.679231
1.130036;1.401078
1.392831;1.140185
1.453651;1.061555
1.287891;1.257512
1.118503;1.410301
0.956720;1.524693
0.809826;1.607539
0.680788;1.666292
-0.508153;1.726783
-0.595108;1.698778
-0.695738;1.660105
-0.815467;1.604685
-0.963730;1.520271
-1.130007;1.401101
-1.251916;1.293331
-1.320174;1.223577
-1.078100;1.441423
-0.215119;1.787099
0.238614;1.784114
1.155150;1.380445
1.519545;0.964874
1.397289;1.134717
1.262430;1.283071
1.135585;1.396584
1.010161;1.489824
0.886918;1.566326
0.770168;1.626912
0.663200;1.673369
-0.499205;1.729391
-0.577610;1.704807
-0.668009;1.671456
-0.774838;1.624692
-0.905344;1.555748
-1.074349;1.444221
-1.332632;1.209996
-1.682791;0.638916
-1.789239;0.196529
-1.194878;1.346205
0.918566;1.547978
1.407808;1.121640
1.238929;1.305777
1.149543;1.385118
1.069609;1.447735
0.986018;1.505911
0.897437;1.560323
0.806182;1.609370
0.715831;1.651540
0.629565;1.686312
