20;20;1.000000;1.000000
10.000000;10.000000;r;9.903714;7.235213
0.961040;1.521973
1.116157;1.412159
1.281256;1.264272
1.445476;1.072660
1.593515;0.837084
1.709637;0.563152
1.782475;0.250561
1.795178;-0.131666
1.663031;-0.688715
0.817002;-1.603904
-1.134398;-1.397548
-1.700618;-0.589830
-1.796885;-0.105844
-1.783356;0.244216
-1.717838;0.537619
-1.613785;0.797307
-1.481819;1.021867
-1.336406;1.205827
-1.191049;1.349593
-1.054901;1.458487
0.946554;1.531024
1.111928;1.415492
1.291205;1.254109
1.471484;1.036693
1.631314;0.760799
1.744577;0.443229
1.797099;0.102154
1.774735;-0.300524
1.578476;-0.865109
0.743880;-1.639098
-0.922048;-1.545907
-1.613726;-0.797427
-1.779105;-0.273471
-1.796771;0.107773
-1.746879;0.434065
-1.641606;0.738329
-1.495354;1.001957
-1.333129;1.209449
-1.174188;1.364288
-1.029117;1.476793
0.895163;1.561628
1.064713;1.451339
1.254864;1.290471
1.453955;1.061139
1.639230;0.743589
1.762809;0.364010
1.799635;0.036239
1.771162;-0.320912
1.567258;-0.885270
0.773607;-1.625279
-0.864125;-1.579015
-1.585565;-0.852047
-1.773693;-0.306616
-1.799515;0.041793
-1.763111;0.362546
-1.644118;0.732719
-1.469817;1.039056
-1.287595;1.257815
-1.117883;1.410793
-0.969449;1.516631
0.800713;1.612097
0.963988;1.520107
1.157967;1.378083
1.367975;1.169891
1.599309;0.825960
1.792061;0.168865
1.799990;0.006094
1.794330;-0.142752
1.543697;-0.925742
0.881147;-1.569579
-0.917316;-1.548719
-1.546818;-0.920518
-1.794424;-0.141577
-1.799986;0.007096
-1.792086;0.168602
-1.600700;0.823262
-1.378003;1.158062
-1.183931;1.355842
-1.010843;1.489361
-0.869479;1.576073
0.659290;1.674914
0.795575;1.614640
0.986937;1.505309
1.224335;1.319471
1.428242;1.095502
1.698542;0.595782
1.799944;0.014206
1.670929;-0.669325
1.229282;-1.314864
1.205843;-1.336392
-1.207964;-1.334475
-1.261403;-1.284081
-1.689583;-0.620734
-1.799631;0.036453
-1.700004;0.591597
-1.434686;1.087049
-1.226964;1.317027
-1.006423;1.492352
-0.838257;1.592898
-0.725022;1.647526
0.477119;1.735614
0.547319;1.714772
0.599424;1.697260
0.867660;1.577075
1.143192;1.390364
1.539455;0.932780
1.799741;-0.030513
1.370733;-1.166658
0.614033;-1.692029
0.148302;-1.793880
-0.177973;-1.791180
-0.724818;-1.647616
-1.499238;-0.996135
-1.798812;0.065396
-1.558081;0.901324
-1.176412;1.362371
-0.881503;1.569380
-0.613131;1.692356
-0.588339;1.701134
-0.542128;1.716420
0.280347;1.778034
0.281073;1.777919
0.173221;1.791646
0.338423;1.767900
0.694889;1.660460
1.233097;1.311286
1.797395;-0.096799
1.179487;-1.359710
0.500069;-1.729142
0.035345;-1.799653
-0.083588;-1.798058
-0.662179;-1.673774
-1.490350;-1.009384
-1.793078;0.157711
-1.337449;1.204670
-0.786634;1.619014
-0.370665;1.761422
-0.185340;1.790433
-0.323087;1.770767
-0.346494;1.766336
0.095817;1.797448
0.073616;1.798494
0.006673;1.799988
0.069074;1.798674
0.274679;1.778919
0.769836;1.627068
1.798938;0.061814
1.273149;-1.272436
1.009583;-1.490216
0.054481;-1.799175
-0.166396;-1.792292
-1.265532;-1.280011
-1.682954;-0.638486
-1.789032;0.198407
-1.086877;1.434816
-0.424109;1.749323
-0.109370;1.796674
-0.020137;1.799887
-0.118062;1.796124
-0.164166;1.792498
-0.074470;1.798459
-0.102539;1.797077
-0.085311;1.797977
-0.120209;1.795982
-0.097063;1.797381
0.238997;1.784063
1.454264;1.060715
1.678497;-0.650113
1.302766;-1.242095
0.281417;-1.777865
-1.072426;-1.445650
-1.678465;-0.650196
-1.755746;-0.396679
-1.724487;0.515893
-0.741838;1.640023
-0.074171;1.798471
0.078409;1.798291
0.070009;1.798638
0.055286;1.799151
0.003435;1.799997
-0.237146;1.784310
-0.304395;1.774075
-0.351949;1.765257
-0.478997;1.735097
-0.526351;1.721324
-0.277624;1.778461
0.802894;1.611013
1.660990;0.693624
1.705905;0.574357
1.175793;1.362905
-1.412043;1.116304
-1.757766;0.387632
-1.754639;0.401549
-1.473157;1.034315
-0.166298;1.792302
0.393489;1.756464
0.446698;1.743692
0.333567;1.768822
0.253367;1.782079
0.162908;1.792613
-0.379498;1.759540
-0.502753;1.728363
-0.696168;1.659925
-1.155416;1.380223
-0.994732;1.500169
-0.782086;1.621216
-0.046895;1.799389
1.217990;1.325330
1.056352;1.457436
0.768201;1.627841
-0.856283;1.583281
-1.128759;1.402107
-1.306756;1.237896
-0.498595;1.729567
0.586403;1.701802
0.942973;1.533233
1.151278;1.383676
0.667324;1.671729
0.445465;1.744007
0.301320;1.774600
-0.478633;1.735197
-0.623469;1.688575
-0.833847;1.595211
-1.114053;1.413819
-1.313844;1.230372
-1.171206;1.366849
-0.860227;1.581142
-0.166069;1.792323
0.666709;1.671975
0.413073;1.751962
-0.419664;1.750395
-0.869720;1.575940
-0.100327;1.797202
0.715118;1.651849
1.128377;1.402414
1.310874;1.233535
1.094642;1.428901
0.790408;1.617175
0.558208;1.711258
0.396197;1.755855
-0.528095;1.720789
-0.662530;1.673635
-0.832890;1.595711
-1.028127;1.477482
-1.219733;1.323726
-1.443588;1.075200
-1.286979;1.258446
-0.924517;1.544431
-0.327619;1.769934
-0.066081;1.798787
0.008460;1.799980
0.284673;1.777347
0.863467;1.579375
1.266900;1.278657
1.442119;1.077169
1.200498;1.341195
0.990195;1.503168
0.776708;1.623800
0.590057;1.700539
0.442109;1.744861
-0.537179;1.717975
-0.649385;1.678779
-0.780747;1.621861
-0.924533;1.544422
-1.072105;1.445887
-1.222516;1.321157
-1.378703;1.157229
-1.349496;1.191159
-0.891879;1.563506
-0.313729;1.772449
0.266821;1.780114
0.869640;1.575984
1.344718;1.196550
1.373264;1.163678
1.203031;1.338924
1.036928;1.471319
0.874091;1.573520
0.716223;1.651370
0.572315;1.706592
0.449296;1.743024
-0.518628;1.723666
-0.606222;1.694843
-0.702457;1.657273
-0.802285;1.611316
-0.899856;1.558929
-0.991297;1.502442
-1.077730;1.441700
-1.165584;1.371646
-1.185875;1.354142
-0.418618;1.750645
0.409594;1.752778
1.185065;1.354851
1.160354;1.376073
1.061429;1.453743
0.961570;1.521639
0.856551;1.583136
0.746157;1.638063
0.634589;1.684427
0.527816;1.720875
0.430918;1.747658
-0.483338;1.733893
-0.547515;1.714709
-0.612780;1.692484
-0.673979;1.669057
-0.724637;1.647696
-0.757660;1.632774
-0.765937;1.628908
-0.744603;1.638770
-0.718831;1.650237
-0.407251;1.753325
0.425258;1.749044
0.726871;1.646711
0.747120;1.637624
0.753712;1.634600
0.729798;1.645416
0.682304;1.665671
0.618737;1.690315
0.546123;1.715153
0.470788;1.737342
0.397747;1.755505
-0.439685;1.745473
-0.483459;1.733859
-0.523137;1.722303
-0.553442;1.712805
-0.567665;1.708144
-0.558093;1.711296
-0.517542;1.723992
-0.445737;1.743938
-0.373953;1.760727
-0.344845;1.766658
0.437120;1.746117
0.429053;1.748117
0.476416;1.735808
0.522840;1.722393
0.541446;1.716635
0.532897;1.719308
0.503718;1.728082
0.460895;1.739993
0.410572;1.752550
0.357637;1.764113
-0.393703;1.756416
-0.420999;1.750074
-0.441237;1.745082
-0.449625;1.742939
-0.440431;1.745285
-0.407787;1.753200
-0.348082;1.766023
-0.266605;1.780146
-0.195834;1.789315
-0.372790;1.760973
0.459171;1.740449
0.296961;1.775335
0.325337;1.770355
0.372240;1.761090
0.404402;1.753984
0.415312;1.751433
0.407213;1.753333
0.384812;1.758386
0.352976;1.765052
0.315903;1.772062
-0.349341;1.765775
-0.364219;1.762766
-0.370903;1.761372
-0.365546;1.762491
-0.343991;1.766825
-0.302682;1.774369
-0.240642;1.783842
-0.163198;1.792586
-0.089145;1.797791
-0.122540;1.795824
0.228193;1.785477
0.202241;1.788602
0.235155;1.784573
0.276229;1.778678
0.308889;1.773298
0.326841;1.770078
0.329764;1.769535
0.320067;1.771315
0.301009;1.774653
0.275782;1.778748
-0.308826;1.773309
-0.314924;1.772237
-0.312926;1.772591
-0.300052;1.774815
-0.273655;1.779076
-0.231985;1.784988
-0.175399;1.791434
-0.107820;1.796768
-0.037644;1.799606
0.029717;1.799755
0.124592;1.795683
0.145116;1.794141
0.178115;1.791166
0.212949;1.787359
0.241974;1.783662
0.260946;1.780985
0.268762;1.779822
0.266365;1.780182
0.255690;1.781747
0.238945;1.784070
