20;20;1.000000;1.000000
10.000000;10.000000
1.305136;-1.239604
1.163232;-1.373641
0.985695;-1.506122
0.782022;-1.621247
0.572517;-1.706524
0.381150;-1.759183
0.225852;-1.785775
0.114162;-1.796376
0.045181;-1.799433
0.013693;-1.799948
0.007606;-1.799984
-0.020914;-1.799878
-0.086053;-1.797942
-0.192740;-1.789651
-0.341816;-1.767247
-0.526314;-1.721335
-0.729693;-1.645463
-0.929584;-1.541387
-1.106451;-1.419776
-1.250354;-1.294842
1.428793;-1.094783
1.302382;-1.242498
1.129357;-1.401625
0.912383;-1.551631
0.672510;-1.669650
0.443860;-1.744416
0.256367;-1.781650
0.123982;-1.795725
0.046106;-1.799409
0.013732;-1.799948
0.007480;-1.799984
-0.022512;-1.799859
-0.096776;-1.797397
-0.223983;-1.786010
-0.404804;-1.753891
-0.626344;-1.687511
-0.860779;-1.580841
-1.075794;-1.443145
-1.250380;-1.294816
-1.380520;-1.155061
1.548689;-0.917366
1.449703;-1.066940
1.299045;-1.245986
1.085968;-1.435505
0.821975;-1.601361
0.548657;-1.714344
0.315536;-1.772128
0.150437;-1.793703
0.054785;-1.799166
0.014863;-1.799939
0.006538;-1.799988
-0.030816;-1.799736
-0.122743;-1.795810
-0.282343;-1.777718
-0.508459;-1.726693
-0.775236;-1.624503
-1.036046;-1.471941
-1.250343;-1.294852
-1.405085;-1.125049
-1.508981;-0.981314
1.650725;-0.717708
1.585842;-0.851530
1.475545;-1.030905
1.295288;-1.249891
1.031896;-1.474852
0.715653;-1.651617
0.418873;-1.750584
0.199949;-1.788860
0.071420;-1.798583
0.016784;-1.799922
0.004941;-1.799993
-0.046475;-1.799400
-0.170513;-1.791906
-0.383152;-1.758748
-0.673038;-1.669437
-0.985304;-1.506378
-1.250038;-1.295147
-1.435248;-1.086307
-1.551190;-0.913132
-1.620904;-0.782733
1.724613;-0.515471
1.690691;-0.617707
1.626976;-0.770031
1.506690;-0.984828
1.291674;-1.253626
0.965761;-1.518982
0.593967;-1.699177
0.287974;-1.776815
0.100739;-1.797179
0.020007;-1.799889
0.002275;-1.799998
-0.073930;-1.798481
-0.254943;-1.781854
-0.553515;-1.712782
-0.920728;-1.546693
-1.248976;-1.296170
-1.470871;-1.037563
-1.598079;-0.828338
-1.666996;-0.679061
-1.704464;-0.578620
1.768981;-0.332725
1.755530;-0.397638
1.727979;-0.504073
1.669639;-0.672538
1.543866;-0.925462
1.289252;-1.256117
0.881848;-1.569186
0.449818;-1.742890
0.155135;-1.793302
0.025778;-1.799815
-0.002450;-1.799998
-0.124505;-1.795689
-0.409452;-1.752812
-0.834635;-1.594799
-1.246251;-1.298791
-1.511566;-0.977328
-1.646391;-0.727597
-1.710492;-0.560550
-1.741428;-0.455443
-1.756816;-0.391916
1.790414;-0.185517
1.786685;-0.218532
1.778236;-0.279066
1.758865;-0.382615
1.711664;-0.556962
1.589794;-0.844129
1.289589;-1.255771
0.761001;-1.631219
0.268482;-1.779864
0.037319;-1.799613
-0.011775;-1.799961
-0.228721;-1.785409
-0.706092;-1.655728
-1.240341;-1.304436
-1.558811;-0.900060
-1.693054;-0.611202
-1.746651;-0.434983
-1.769294;-0.331057
-1.779412;-0.271465
-1.783911;-0.240127
1.798204;-0.080396
1.797613;-0.092673
1.795988;-0.120112
1.792010;-0.169407
1.781712;-0.255931
1.751709;-0.414146
1.650554;-0.718102
1.295619;-1.249549
0.552754;-1.713027
0.065270;-1.798816
-0.034095;-1.799677
-0.486443;-1.733024
-1.228475;-1.315617
-1.618770;-0.787137
-1.736978;-0.472130
-1.773564;-0.307360
-1.786752;-0.217988
-1.792142;-0.168005
-1.794440;-0.141374
-1.795226;-0.131012
1.799926;-0.016288
1.799900;-0.018970
1.799783;-0.027923
1.799459;-0.044130
1.798549;-0.072260
1.795729;-0.123929
1.785195;-0.230389
1.730961;-0.493736
1.318945;-1.224901
0.169124;-1.792037
-0.116436;-1.796230
-1.205966;-1.336281
-1.701344;-0.587730
-1.775682;-0.294881
-1.791282;-0.176946
-1.795950;-0.120680
-1.797714;-0.090689
-1.798482;-0.073903
-1.798816;-0.065272
-1.798857;-0.064146
1.799960;0.011951
1.799962;0.011629
1.799969;0.010603
1.799978;0.008920
1.799989;0.006165
1.799999;0.001364
1.799982;-0.007973
1.799752;-0.029878
1.796916;-0.105321
1.465140;-1.045641
-1.289523;-1.255838
-1.788264;-0.205209
-1.797705;-0.090869
-1.799013;-0.059583
-1.799386;-0.047012
-1.799534;-0.040939
-1.799606;-0.037675
-1.799644;-0.035811
-1.799664;-0.034758
-1.799665;-0.034733
1.799916;0.017384
1.799911;0.017847
1.799900;0.018960
1.799879;0.020830
1.799839;0.024034
1.799752;0.029902
1.799512;0.041895
1.798583;0.071414
1.791120;0.178571
1.185997;1.354035
-1.568895;0.882365
-1.798922;0.062275
-1.799988;0.006646
-1.799966;-0.011098
-1.799899;-0.019074
-1.799849;-0.023337
-1.799814;-0.025857
-1.799791;-0.027426
-1.799777;-0.028343
-1.799785;-0.027857
1.799473;0.043561
1.799399;0.046493
1.799138;0.055701
1.798545;0.072371
1.797128;0.101644
1.793204;0.156272
1.779504;0.270857
1.710992;0.559023
1.211492;1.331273
0.061316;1.798955
-0.261149;1.780955
-1.417404;1.109490
-1.745913;0.437935
-1.788635;0.201955
-1.797000;0.103878
-1.799153;0.055194
-1.799777;0.028333
-1.799953;0.012936
-1.799993;0.005164
-1.799992;0.005373
1.796939;0.104925
1.796186;0.117114
1.794187;0.144544
1.789508;0.194068
1.777824;0.281675
1.744506;0.443507
1.632824;0.757554
1.242380;1.302494
0.460606;1.740070
-0.013005;1.799953
-0.121106;1.795921
-0.643263;1.681135
-1.353944;1.186101
-1.668023;0.676535
-1.757223;0.390088
-1.783999;0.239476
-1.793190;0.156426
-1.796672;0.109405
-1.798014;0.084540
-1.798397;0.075953
1.788124;0.206427
1.784108;0.238658
1.775100;0.298363
1.754712;0.401233
1.705393;0.575878
1.577740;0.866450
1.260217;1.285244
0.701634;1.657622
0.194295;1.789483
-0.033214;1.799694
-0.084882;1.797998
-0.328956;1.769686
-0.822850;1.600911
-1.324963;1.218389
-1.602838;0.819091
-1.716165;0.542935
-1.760556;0.374756
-1.778853;0.275104
-1.786746;0.218036
-1.790076;0.188749
1.765775;0.349342
1.752076;0.412587
1.724086;0.517230
1.664839;0.684333
1.536325;0.937926
1.272550;1.273034
0.844847;1.589413
0.391726;1.756858
0.087604;1.797867
-0.041602;1.799519
-0.070590;1.798615
-0.203868;1.788418
-0.499884;1.729195
-0.920810;1.546644
-1.308526;1.236026
-1.549874;0.915364
-1.670312;0.670864
-1.726843;0.507949
-1.753709;0.405590
-1.766792;0.344160
1.720845;0.527915
1.686921;0.627932
1.623026;0.778323
1.501524;0.992686
1.281392;1.264134
0.942254;1.533674
0.551519;1.713425
0.230481;1.785183
0.036028;1.799639
-0.045867;1.799416
-0.063749;1.798871
-0.144735;1.794172
-0.330855;1.769332
-0.629966;1.686162
-0.987408;1.505000
-1.298565;1.246487
-1.505121;0.987224
-1.622222;0.779998
-1.685081;0.632852
-1.718890;0.534244
1.646521;0.727302
1.581683;0.859231
1.470711;1.037791
1.287283;1.258134
1.015326;1.486309
0.684643;1.664711
0.372537;1.761027
0.142509;1.794350
0.008065;1.799982
-0.048301;1.799352
-0.060093;1.798996
-0.113351;1.796427
-0.239347;1.784016
-0.452448;1.742209
-0.738214;1.641658
-1.040476;1.468812
-1.292707;1.252561
-1.467214;1.042729
-1.575600;0.870336
-1.640314;0.741195
1.543366;0.926294
1.443720;1.075023
1.290705;1.254623
1.071794;1.446118
0.797451;1.613714
0.511204;1.725883
0.266347;1.780185
0.092853;1.797604
-0.007801;1.799983
-0.049769;1.799312
-0.058005;1.799065
-0.095720;1.797453
-0.188173;1.790137
-0.347961;1.766047
-0.572127;1.706655
-0.833140;1.595581
-1.084915;1.436300
-1.289519;1.255843
-1.436081;1.085205
-1.533886;0.941910
1.420835;1.105092
1.292337;1.252942
1.114928;1.413129
0.890413;1.564342
0.640376;1.682236
0.401117;1.754738
0.204749;1.788317
0.066022;1.798789
-0.015957;1.799929
-0.050582;1.799289
-0.056785;1.799104
-0.086412;1.797925
-0.160923;1.792792
-0.288466;1.776735
-0.468376;1.737994
-0.686419;1.663980
-0.914442;1.550418
-1.121345;1.408044
-1.287928;1.257474
-1.411327;1.117209
1.292851;1.252412
1.147316;1.386962
0.963956;1.520128
0.752289;1.635255
0.533696;1.719060
0.333771;1.768784
0.171617;1.791800
0.055078;1.799157
-0.017000;1.799920
-0.050289;1.799297
-0.056399;1.799116
-0.085081;1.797988
-0.150882;1.793665
-0.258084;1.781402
-0.406692;1.753454
-0.588815;1.700969
-0.787443;1.618621
-0.980682;1.509392
-1.150195;1.384576
-1.287193;1.258226
