20;20;1.000000;1.000000
10.000000;10.000000;r;9.867257;1.592920
1.777510;0.283650
1.799146;0.055428
1.794547;-0.140001
1.776561;-0.289537
1.751454;-0.415223
1.719413;-0.532560
1.678513;-0.650073
1.609230;-0.806461
1.443506;-1.075310
0.884783;-1.567533
-0.612600;-1.692549
-1.476347;-1.029757
-1.686407;-0.629309
-1.752733;-0.409791
-1.781210;-0.259406
-1.794925;-0.135074
-1.799848;-0.023355
-1.798044;0.083900
-1.788654;0.201782
-1.767267;0.341710
1.777775;0.281987
1.799793;0.027274
1.790704;-0.182704
1.772750;-0.312019
1.741838;-0.453874
1.694721;-0.606566
1.652338;-0.713988
1.581041;-0.860413
1.408441;-1.120845
0.847730;-1.587877
-0.578263;-1.704586
-1.431114;-1.091748
-1.656202;-0.704978
-1.732138;-0.489590
-1.768606;-0.334716
-1.789509;-0.194051
-1.798644;-0.069860
-1.799716;0.031955
-1.794221;0.144121
-1.775688;0.294845
1.767336;0.341354
1.798980;0.060585
1.791159;-0.178185
1.788242;-0.205406
1.760809;-0.373565
1.645580;-0.729429
1.630892;-0.761702
1.560184;-0.897679
1.383543;-1.151437
0.824793;-1.599911
-0.581414;-1.703513
-1.408205;-1.121141
-1.632839;-0.757519
-1.709636;-0.563155
-1.751495;-0.415049
-1.784750;-0.233810
-1.798676;-0.069036
-1.799980;0.008502
-1.797042;0.103143
-1.778789;0.275519
1.735589;0.477212
1.789741;0.191907
1.797596;-0.092993
1.775084;-0.298458
1.714473;-0.548253
1.636945;-0.748606
1.637622;-0.747124
1.545282;-0.923095
1.352625;-1.187605
0.806698;-1.609111
-0.603545;-1.695799
-1.394294;-1.138395
-1.621548;-0.781397
-1.682938;-0.638531
-1.711008;-0.558975
-1.760338;-0.375779
-1.799971;-0.010250
-1.799999;0.001691
-1.797305;0.098454
-1.772536;0.313233
1.666629;0.679961
1.745693;0.438813
1.793097;0.157490
1.795618;-0.125530
1.756139;-0.394938
1.687827;-0.625491
1.603976;-0.816859
1.469052;-1.040138
1.292665;-1.252604
0.769877;-1.627049
-0.593219;-1.699438
-1.328109;-1.214960
-1.608865;-0.807188
-1.681090;-0.643378
-1.727385;-0.506103
-1.783224;-0.245174
-1.799700;-0.032866
-1.798054;0.083683
-1.784804;0.233398
-1.741867;0.453759
1.558120;0.901257
1.640292;0.741243
1.716608;0.541532
1.774265;0.303290
1.799819;0.025520
1.774502;-0.301898
1.660616;-0.694517
1.397437;-1.134534
1.012397;-1.488305
0.635183;-1.684204
-0.545412;-1.715379
-0.726429;-1.646906
-1.465342;-1.045357
-1.697496;-0.598754
-1.778554;-0.277032
-1.799970;-0.010324
-1.789991;0.189562
-1.766515;0.345578
-1.725967;0.510920
-1.660992;0.693618
1.435005;1.086628
1.499942;0.995074
1.568154;0.883682
1.637019;0.748444
1.703736;0.580762
1.766690;0.344686
1.798012;-0.084581
1.582664;-0.857423
0.871711;-1.574840
0.467439;-1.738246
-0.693716;-1.660951
-0.957127;-1.524437
-1.565534;-0.888315
-1.794671;-0.138410
-1.778366;0.278237
-1.728846;0.501089
-1.683320;0.637521
-1.638284;0.745670
-1.584714;0.853628
-1.520197;0.963847
1.326484;1.216733
1.378262;1.157754
1.438781;1.081623
1.510286;0.979304
1.586006;0.851226
1.629091;0.765547
1.630787;0.761927
1.740259;0.459889
1.658014;-0.700706
0.630653;-1.685905
-0.916471;-1.549219
-1.679942;-0.646370
-1.751379;0.415536
-1.591088;0.841689
-1.516778;0.969218
-1.486638;1.014844
-1.463966;1.047283
-1.435624;1.085809
-1.398821;1.132828
-1.354844;1.185072
1.241138;1.303678
1.290868;1.254456
1.359268;1.179995
1.463573;1.047834
1.609961;0.805000
1.737928;0.468621
1.360339;1.178761
1.207497;1.334898
1.666569;-0.680108
1.729533;-0.498714
-1.738171;-0.467720
-1.667015;-0.679014
-1.189326;1.351112
-1.160581;1.375882
-1.321653;1.221979
-1.333911;1.208586
-1.312846;1.231436
-1.281299;1.264228
-1.246626;1.298431
-1.211901;1.330900
1.170605;1.367363
1.222444;1.321223
1.292820;1.252445
1.396075;1.136210
1.499018;0.996467
1.416322;1.110870
0.841699;1.591082
0.579209;1.704264
0.738260;1.641637
1.126667;1.403788
-1.352957;1.187227
-0.722821;1.648493
-0.570985;1.707037
-0.807802;1.608557
-1.355707;1.184086
-1.374612;1.162086
-1.290691;1.254639
-1.211671;1.331109
-1.150448;1.384366
-1.105357;1.420629
1.099910;1.424850
1.161141;1.375410
1.248577;1.296555
1.267725;1.277839
1.231060;1.313199
0.950361;1.528664
0.276706;1.778604
-0.701550;1.657657
-0.902094;1.557635
-1.335611;1.206708
1.056752;1.457146
1.390106;1.143505
0.702665;1.657185
-0.359947;1.763643
-1.058086;1.456178
-1.318616;1.225256
-1.316155;1.227899
-1.184211;1.355597
-1.084215;1.436829
-1.020305;1.482895
1.009923;1.489985
1.003576;1.494267
1.129213;1.401741
1.110520;1.416596
0.974149;1.513616
0.622900;1.688785
0.052861;1.799224
-0.613647;1.692170
-1.359276;1.179987
-1.058083;1.456180
1.024086;1.480286
1.358967;1.180343
0.590674;1.700325
-0.159513;1.792918
-0.764334;1.629660
-1.078577;1.441066
-1.184170;1.355633
-1.140912;1.392236
-1.009995;1.489936
-0.931745;1.540081
0.911240;1.552302
0.941908;1.533887
1.000577;1.496277
0.947962;1.530153
0.765596;1.629068
0.445392;1.744026
0.063175;1.798891
-0.248823;1.782719
-0.315042;1.772216
0.035073;1.799658
-0.041664;1.799518
0.294074;1.775815
0.200775;1.788767
-0.162645;1.792637
-0.571200;1.706965
-0.856047;1.583409
-0.978104;1.511064
-0.977275;1.511600
-0.892019;1.563426
-0.813787;1.605538
0.896821;1.560677
0.909307;1.553435
0.896107;1.561087
0.800159;1.612372
0.609394;1.693706
0.351141;1.765418
0.103670;1.797012
-0.045526;1.799424
-0.049101;1.799330
0.001733;1.799999
-0.005539;1.799991
0.028563;1.799773
-0.002229;1.799999
-0.188754;1.790076
-0.455905;1.741307
-0.681189;1.666128
-0.789684;1.617529
-0.772475;1.625817
-0.647268;1.679596
-0.644340;1.680722
0.862657;1.579817
0.843877;1.589928
0.786291;1.619180
0.669645;1.670801
0.494953;1.730613
0.294529;1.775740
0.123099;1.795786
0.027021;1.799797
0.018350;1.799906
0.053171;1.799214
-0.056780;1.799104
-0.036365;1.799633
-0.070693;1.798611
-0.196694;1.789221
-0.383014;1.758778
-0.554404;1.712494
-0.640006;1.682377
-0.589456;1.700747
-0.301068;1.774643
-0.436200;1.746347
0.783930;1.620325
0.747015;1.637672
0.674354;1.668906
0.559674;1.710779
0.411725;1.752279
0.256739;1.781596
0.128629;1.795398
0.052390;1.799237
0.036234;1.799635
0.054501;1.799175
-0.058666;1.799044
-0.054838;1.799165
-0.095511;1.797464
-0.195818;1.789317
-0.334755;1.768598
-0.466747;1.738432
-0.540269;1.717006
-0.510872;1.725981
-0.352669;1.765113
-0.416782;1.751083
0.696574;1.659754
0.649744;1.678640
0.575154;1.705637
0.472521;1.736872
0.351386;1.765369
0.230154;1.785225
0.129202;1.795357
0.062226;1.798924
0.031548;1.799724
0.013689;1.799948
-0.033648;1.799685
-0.060979;1.798967
-0.110001;1.796636
-0.194536;1.789457
-0.302546;1.774392
-0.407165;1.753344
-0.477532;1.735501
-0.494443;1.730759
-0.476249;1.735853
-0.492642;1.731272
0.614704;1.691786
0.564429;1.709216
0.494049;1.730871
0.405595;1.753708
0.306931;1.773638
0.210240;1.787680
0.127759;1.795460
0.066994;1.798753
0.027242;1.799794
-0.002694;1.799998
-0.034653;1.799666
-0.070977;1.798600
-0.122196;1.795847
-0.194242;1.789489
-0.280543;1.778003
-0.365568;1.762487
-0.432065;1.747375
-0.471044;1.737273
-0.490520;1.731875
-0.510138;1.726198
0.543012;1.716141
0.493333;1.731076
0.429486;1.748011
0.354035;1.764840
0.272846;1.779201
0.193830;1.789533
0.124397;1.795696
0.068781;1.798685
0.026283;1.799808
-0.008568;1.799980
-0.042650;1.799495
-0.081736;1.798143
-0.131304;1.795205
-0.193517;1.789567
-0.264378;1.780479
-0.334942;1.768563
-0.395439;1.756026
-0.440444;1.745282
-0.472003;1.737013
-0.496959;1.730038
0.481933;1.734284
0.434900;1.746672
0.377905;1.759883
0.313315;1.772522
0.245326;1.783203
0.179062;1.791071
0.119071;1.796057
0.067843;1.798721
0.024951;1.799827
-0.012688;1.799955
-0.049467;1.799320
-0.089717;1.797763
-0.136739;1.794799
-0.191421;1.789793
-0.251260;1.782377
-0.311043;1.772922
-0.365040;1.762596
-0.409619;1.752773
-0.444658;1.744213
-0.472614;1.736846
