20;20;1.000000;1.000000
10.000000;10.000000
1.237930;-1.306725
1.234124;-1.310319
1.221978;-1.321655
1.198756;-1.342753
1.157365;-1.378589
1.085777;-1.435649
0.963819;-1.520215
0.760524;-1.631442
0.442675;-1.744717
0.016709;-1.799922
-0.425935;-1.748879
-0.776078;-1.624100
-1.005522;-1.492958
-1.143402;-1.390191
-1.223816;-1.319952
-1.269944;-1.275634
-1.295586;-1.249583
-1.308804;-1.235731
-1.314384;-1.229794
-1.315187;-1.228936
1.239928;-1.304829
1.240058;-1.304705
1.234221;-1.310228
1.219295;-1.324130
1.188627;-1.351727
1.130450;-1.400744
1.023583;-1.480634
0.831577;-1.596396
0.506248;-1.727343
0.039222;-1.799573
-0.455039;-1.741534
-0.829053;-1.597708
-1.056686;-1.457194
-1.183681;-1.356061
-1.252583;-1.292685
-1.288942;-1.256435
-1.306819;-1.237831
-1.314036;-1.230166
-1.315112;-1.229016
-1.317609;-1.226339
1.244672;-1.300304
1.240402;-1.304378
1.239880;-1.304874
1.232535;-1.311814
1.212406;-1.330440
1.168289;-1.369343
1.078794;-1.440903
0.902978;-1.557122
0.575268;-1.705599
0.062556;-1.798913
-0.492740;-1.731244
-0.889069;-1.565106
-1.109200;-1.417630
-1.221590;-1.322013
-1.277278;-1.268291
-1.303307;-1.241528
-1.313473;-1.230768
-1.315022;-1.229112
-1.318326;-1.225567
-1.325860;-1.217413
1.257412;-1.287989
1.246628;-1.298429
1.240956;-1.303852
1.239653;-1.305091
1.229585;-1.314580
1.199885;-1.341744
1.129900;-1.401187
0.975803;-1.512550
0.652921;-1.677407
0.088121;-1.797842
-0.542430;-1.716324
-0.957654;-1.524106
-1.162806;-1.374002
-1.256522;-1.288857
-1.297364;-1.247736
-1.312584;-1.231716
-1.314953;-1.229186
-1.319677;-1.224112
-1.328874;-1.214123
-1.342399;-1.199152
1.282638;-1.262870
1.264006;-1.281518
1.250230;-1.294961
1.241837;-1.303012
1.239357;-1.305371
1.224487;-1.319330
1.176265;-1.362498
1.050550;-1.461624
0.743819;-1.639126
0.118951;-1.796065
-0.609175;-1.693784
-1.035898;-1.472045
-1.216145;-1.327024
-1.286755;-1.258675
-1.311123;-1.233270
-1.315153;-1.228972
-1.321914;-1.221697
-1.334408;-1.208038
-1.351040;-1.189408
-1.371478;-1.165782
1.326840;-1.216345
1.299660;-1.245345
1.275979;-1.269597
1.256494;-1.288885
1.243337;-1.301581
1.238959;-1.305749
1.214847;-1.328212
1.125405;-1.404800
0.853389;-1.584843
0.161551;-1.792736
-0.700538;-1.658085
-1.123028;-1.406701
-1.265577;-1.279966
-1.308533;-1.236019
-1.315446;-1.228658
-1.325764;-1.217518
-1.343923;-1.197443
-1.366349;-1.171790
-1.391453;-1.141866
-1.418782;-1.107726
1.398411;-1.133335
1.363911;-1.174626
1.330089;-1.212791
1.297487;-1.247609
1.267944;-1.277622
1.246086;-1.298949
1.238386;-1.306293
1.193378;-1.347535
0.984852;-1.506674
0.231699;-1.785025
-0.827112;-1.598714
-1.213351;-1.329579
-1.303314;-1.241521
-1.315940;-1.228129
-1.332944;-1.209653
-1.361131;-1.177846
-1.393308;-1.139602
-1.426185;-1.098178
-1.458639;-1.054690
-1.490538;-1.009107
1.504849;-0.987638
1.468683;-1.040658
1.429194;-1.094260
1.385818;-1.148699
1.338815;-1.203151
1.291105;-1.254212
1.251757;-1.293485
1.237457;-1.307173
1.128451;-1.402354
0.374670;-1.760574
-0.998580;-1.497611
-1.289962;-1.255388
-1.316875;-1.227127
-1.348253;-1.192566
-1.395600;-1.136794
-1.443831;-1.074873
-1.487564;-1.013486
-1.525872;-0.954838
-1.559456;-0.898941
-1.589341;-0.844982
1.641296;-0.739017
1.615668;-0.793484
1.584394;-0.854222
1.545013;-0.923545
1.494150;-1.003751
1.428230;-1.095518
1.347068;-1.193905
1.266151;-1.279399
1.235530;-1.308994
0.707002;-1.655339
-1.188223;-1.352082
-1.318962;-1.224884
-1.390454;-1.143083
-1.477389;-1.028261
-1.547329;-0.919659
-1.598549;-0.827431
-1.635814;-0.751074
-1.663637;-0.687250
-1.685222;-0.632478
-1.702649;-0.583941
1.765241;-0.352028
1.759926;-0.377704
1.752713;-0.409875
1.742239;-0.452331
1.725853;-0.511303
1.697962;-0.597433
1.645543;-0.729511
1.537254;-0.936402
1.336436;-1.205793
1.205310;-1.336872
-1.362659;-1.176079
-1.612333;-0.800238
-1.707454;-0.569736
-1.746886;-0.434037
-1.764718;-0.354642
-1.774037;-0.304619
-1.779508;-0.270834
-1.783040;-0.246516
-1.785521;-0.227849
-1.787407;-0.212548
1.794909;0.135287
1.792111;0.168338
1.788145;0.206247
1.782378;0.251252
1.773494;0.307762
1.758456;0.384488
1.729210;0.499831
1.660279;0.695323
1.487872;1.013033
1.288865;1.256514
-1.267323;1.278238
-1.470581;1.037974
-1.613833;0.797209
-1.690809;0.617387
-1.730541;0.495203
-1.752903;0.409060
-1.766666;0.344804
-1.775786;0.294249
-1.782179;0.252663
-1.786835;0.217304
1.701851;0.586263
1.675181;0.658611
1.641948;0.737568
1.599631;0.825337
1.544220;0.924870
1.470189;1.038530
1.372970;1.164024
1.261884;1.283608
1.206233;1.336040
0.762935;1.630316
-1.079269;1.440548
-1.255434;1.289917
-1.313479;1.230761
-1.404626;1.125623
-1.487129;1.014123
-1.552423;0.911033
-1.602567;0.819620
-1.641393;0.738802
-1.672094;0.666409
-1.696879;0.600502
1.556612;0.903857
1.511726;0.977080
1.462296;1.049614
1.407893;1.121533
1.348491;1.192297
1.286385;1.259052
1.230250;1.313957
1.203602;1.338410
1.128594;1.402240
0.501304;1.728784
-0.858553;1.582051
-1.216623;1.326585
-1.255479;1.289873
-1.283868;1.261619
-1.334283;1.208175
-1.389474;1.144273
-1.442211;1.077046
-1.490330;1.009414
-1.533756;0.942122
-1.572956;0.875105
1.427349;1.096665
1.380903;1.154602
1.335339;1.207009
1.291450;1.253857
1.250945;1.294271
1.218216;1.325123
1.203083;1.338877
1.174116;1.364350
1.004088;1.493923
0.357983;1.764043
-0.685596;1.664319
-1.128803;1.402071
-1.238650;1.306042
-1.255546;1.289808
-1.272443;1.273141
-1.303648;1.241169
-1.341139;1.200560
-1.381036;1.154443
-1.421738;1.103930
-1.462609;1.049177
1.334467;1.207972
1.295606;1.249562
1.261676;1.283812
1.233342;1.311055
1.212322;1.330517
1.203022;1.338931
1.188517;1.351824
1.116086;1.412216
0.884062;1.567940
0.274427;1.778957
-0.569090;1.707670
-1.032630;1.474339
-1.196457;1.344802
-1.246909;1.298159
-1.255599;1.289756
-1.266825;1.278731
-1.287863;1.257541
-1.314884;1.229260
-1.346207;1.194875
-1.381194;1.154254
1.274139;1.271443
1.245403;1.299604
1.223694;1.320066
1.209038;1.333502
1.202903;1.339039
1.194806;1.346268
1.156431;1.379372
1.048742;1.462921
0.780466;1.621996
0.218701;1.786665
-0.490212;1.731962
-0.944129;1.532521
-1.144151;1.389575
-1.223416;1.320323
-1.250769;1.294440
-1.255637;1.289720
-1.263684;1.281836
-1.278956;1.266598
-1.299993;1.244998
-1.326618;1.216587
1.237484;1.307147
1.218433;1.324923
1.207091;1.335265
1.202779;1.339149
1.198038;1.343393
1.175010;1.363580
1.115365;1.412785
0.979734;1.510007
0.692198;1.661584
0.176831;1.791293
-0.435220;1.746592
-0.867370;1.577235
-1.089378;1.432919
-1.192008;1.348747
-1.236566;1.308015
-1.252782;1.292492
-1.255661;1.289696
-1.261814;1.283677
-1.273908;1.271676
-1.292286;1.252995
1.216769;1.326451
1.206017;1.336235
1.202669;1.339249
1.199864;1.341763
1.184728;1.355146
1.147524;1.386791
1.068634;1.448454
0.911089;1.552391
0.615092;1.691645
0.142071;1.794384
-0.395766;1.755952
-0.801698;1.611608
-1.035358;1.472424
-1.156305;1.379478
-1.216163;1.327007
-1.243696;1.301238
-1.253898;1.291410
-1.255677;1.289680
-1.260784;1.284688
-1.272009;1.273575
1.206233;1.336040
1.202510;1.339391
1.200917;1.340820
1.189953;1.350560
1.164296;1.372740
1.113023;1.414631
1.016728;1.485350
0.842322;1.590753
0.545172;1.715455
0.110917;1.796579
-0.366752;1.762241
-0.745052;1.638566
-0.982942;1.507921
-1.117744;1.410903
-1.191071;1.349574
-1.229416;1.314738
-1.247754;1.297347
-1.254536;1.290791
-1.255700;1.289658
-1.261118;1.284361
1.199766;1.341850
1.199511;1.342078
1.191239;1.349426
1.171825;1.366318
1.135279;1.396833
1.070470;1.447099
0.958899;1.523323
0.772343;1.625880
0.479629;1.734922
0.081604;1.798149
-0.344967;1.766635
-0.695359;1.660264
-0.931963;1.539950
-1.076608;1.442538
-1.161491;1.375114
-1.210037;1.332595
-1.236654;1.307932
-1.249902;1.295278
-1.254885;1.290451
-1.256705;1.288678
