0.2,0,0,0,0
0.3,0,0,0,0
0.4,0,0,0,0
0.5,0,0,0,0
0.6,0,0,0,0
0.7,0,0,0,0
0.8,0,0,0,0
0.9,0,0,0,0
1,-0.15,0,-1,0
1.1,-0.3,0,-1,0
1.2,-0.3,0,-1,0
1.3,-0.3,0,-1,0
1.4,-0.3,0,-1,0
1.5,-0.3,0,-1,0
1.6,-0.3,0,-1,0
1.7,-0.3,0,-1,0
1.8,-0.3,0,-1,0
1.9,-0.3,0,-1,0
2,-0.3,0,-1,0
2.1,-0.3,0,-1,0
2.2,-0.3,0,-1,0
2.3,-0.3,0,-1,0
2.4,-0.3,0,-1,0
2.5,-0.3,0,-1,0
2.6,-0.3,0,-1,0
2.7,-0.3,0,-1,0
2.8,-0.3,0,-1,0
2.9,-0.3,0,-1,0
3,-0.375,0,-1,0
3.1,-0.45,0,-1,0
3.2,-0.525,0,-1,0
3.3,-0.6,0,-1,0
3.4,-0.675,0,-1,0
3.5,-0.75,0,-1,0
3.6,-0.75,0,-1,0
3.7,-0.75,0,-1,0
3.8,-0.75,0,-1,0
3.9,-0.75,0,-1,0
4,-0.795,0,-1,0
4.1,-0.84,0,-1,0
4.2,-0.885,0,-1,0
4.3,-0.93,0,-1,0
4.4,-0.975,0,-1,0
4.5,-1.02,0,-1,0
4.6,-1.065,0,-1,0
4.7,-1.11,0,-1,0
4.8,-1.155,0,-1,0
4.9,-1.2,0,-1,0
5,-1.245,0,-1,0
5.1,-1.29,0,-1,0
5.2,-1.335,0,-1,0
5.3,-1.38,0,-1,0
5.4,-1.425,0,-1,0
5.5,-1.47,0,-1,0
5.6,-1.515,0,-1,0
5.7,-1.56,0,-1,0
5.8,-1.59,0,-1,0
5.9,-1.62,0,-1,0
6,-1.65,0,-1,0
6.1,-1.68,0,-1,0
6.2,-1.71,0,-1,0
6.3,-1.74,0,-1,0
6.4,-1.77,0,-1,0
6.5,-1.8,0,-1,0
6.6,-1.83,0,-1,0
6.7,-1.86,0,-1,0
6.8,-1.89,0,-1,0
6.9,-1.92,0,-1,0
7,-1.95,0,-1,0
7.1,-1.98,0,-1,0
7.2,-2.01,0,-1,0
7.3,-2.04,0,-1,0
7.4,-2.07,0,-1,0
7.5,-2.1,0,-1,0
7.6,-2.13,0,-1,0
7.7,-2.16,0,-1,0
7.8,-2.19,0,-1,0
7.9,-2.22,0,-1,0
8,-2.25,0,-1,0
8.1,-2.28,0,-1,0
8.2,-2.31,0,-1,0
8.3,-2.34,0,-1,0
8.4,-2.37,0,-1,0
8.5,-2.4,0,-1,0
8.6,-2.43,0,-1,0
8.7,-2.46,0,-1,0
8.8,-2.49,0,-1,0
8.9,-2.52,0,-1,0
9,-2.55,0,-1,0
9.1,-2.58,0,-1,0
9.2,-2.61,0,-1,0
9.3,-2.64,0,-1,0
9.4,-2.67,0,-1,0
9.5,-2.7,0,-1,0
9.6,-2.73,0,-1,0
9.7,-2.76,0,-1,0
9.8,-2.79,0,-1,0
9.9,-2.82,0,-1,0
10,-2.85,0,-1,0
10.1,-2.88,0,-1,0
10.2,-2.91,0,-1,0
10.3,-2.94,0,-1,0
10.4,-2.97,0,-1,0
10.5,-3,0,-1,0
10.6,-3.03,0,-1,0
10.7,-3.06,0,-1,0
10.8,-3.09,0,-1,0
10.9,-3.12,0,-1,0
11,-3.15,0,-1,0
11.1,-3.18,0,-1,0
11.2,-3.21,0,-1,0
11.3,-3.24,0,-1,0
11.4,-3.27,0,-1,0
11.5,-3.3,0,-1,0
11.6,-3.33,0,-1,0
11.7,-3.36,0,-1,0
11.8,-3.39,0,-1,0
11.9,-3.42,0,-1,0
12,-3.465,0,-1,0
12.1,-3.51,0,-1,0
12.2,-3.555,0,-1,0
12.3,-3.6,0,-1,0
12.4,-3.645,0,-1,0
12.5,-3.69,0,-1,0
12.6,-3.735,0,-1,0
12.7,-3.78,0,-1,0
12.8,-3.825,0,-1,0
12.9,-3.87,0,-1,0
13,-3.915,0,-1,0
13.1,-3.96,0,-1,0
13.2,-4.005,0,-1,0
13.3,-4.05,0,-1,0
13.4,-4.095,0,-1,0
13.5,-4.14,0,-1,0
13.6,-4.185,0,-1,0
13.7,-4.23,0,-1,0
13.8,-4.275,0,-1,0
13.9,-4.32,0,-1,0
14,-4.365,0,-1,0
14.1,-4.41,0,-1,0
14.2,-4.455,0,-1,0
14.3,-4.5,0,-1,0
14.4,-4.545,0,-1,0
14.5,-4.59,0,-1,0
14.6,-4.635,0,-1,0
14.7,-4.68,0,-1,0
14.8,-4.725,0,-1,0
14.9,-4.77,0,-1,0
15,-4.815,0,-1,0
15.1,-4.86,0,-1,0
15.2,-4.905,0,-1,0
15.3,-4.95,0,-1,0
15.4,-4.995,0,-1,0
15.5,-5.04,0,-1,0
15.6,-5.085,0,-1,0
15.7,-5.13,0,-1,0
15.8,-5.175,0,-1,0
15.9,-5.22,0,-1,0
16,-5.265,0,-1,0
16.1,-5.31,0,-1,0
16.2,-5.355,0,-1,0
16.3,-5.4,0,-1,0
16.4,-5.445,0,-1,0
16.5,-5.49,0,-1,0
16.6,-5.535,0,-1,0
16.7,-5.58,0,-1,0
16.8,-5.625,0,-1,0
16.9,-5.67,0,-1,0
17,-5.715,0,-1,0
17.1,-5.76,0,-1,0
17.2,-5.805,0,-1,0
17.3,-5.865,0,-1,0
17.4,-5.925,0,-1,0
17.5,-5.985,0,-1,0
17.6,-6.045,0,-1,0
17.7,-6.105,0,-1,0
17.8,-6.165,0,-1,0
17.9,-6.225,0,-1,0
18,-6.285,0,-1,0
18.1,-6.345,0,-1,0
18.2,-6.405,0,-1,0
18.3,-6.465,0,-1,0
18.4,-6.525,0,-1,0
18.5,-6.585,0,-1,0
18.6,-6.645,0,-1,0
18.7,-6.705,0,-1,0
18.8,-6.765,0,-1,0
18.9,-6.825,0,-1,0
19,-6.885,0,-1,0
19.1,-6.945,0,-1,0
19.2,-7.005,0,-1,0
19.3,-7.04743,0.0424264,-0.707107,0.707107
19.4,-7.08985,0.0848528,-0.707107,0.707107
19.5,-7.13228,0.127279,-0.707107,0.707107
19.6,-7.17471,0.169706,-0.707107,0.707107
19.7,-7.21713,0.212132,-0.707107,0.707107
19.8,-7.25956,0.254558,-0.707107,0.707107
19.9,-7.30199,0.296985,-0.707107,0.707107
20,-7.34441,0.339411,-0.707107,0.707107
20.1,-7.38684,0.381838,-0.707107,0.707107
20.2,-7.42927,0.424264,-0.707107,0.707107
20.3,-7.47169,0.46669,-0.707107,0.707107
20.4,-7.51412,0.509117,-0.707107,0.707107
20.5,-7.55655,0.551543,-0.707107,0.707107
20.6,-7.59897,0.59397,-0.707107,0.707107
20.7,-7.6414,0.636396,-0.707107,0.707107
20.8,-7.6414,0.696396,0,1
20.9,-7.6414,0.756396,0,1
21,-7.6414,0.816396,0,1
21.1,-7.6414,0.876396,0,1
21.2,-7.6414,0.936396,0,1
21.3,-7.6414,0.996396,0,1
21.4,-7.6414,1.0564,0,1
21.5,-7.6414,1.1164,0,1
21.6,-7.6414,1.1764,0,1
21.7,-7.6414,1.2364,0,1
21.8,-7.6414,1.2964,0,1
21.9,-7.6414,1.3564,0,1
22,-7.6414,1.4164,0,1
22.1,-7.6414,1.4764,0,1
22.2,-7.6414,1.5364,0,1
22.3,-7.6414,1.5964,0,1
22.4,-7.6414,1.6564,0,1
22.5,-7.6414,1.7164,0,1
22.6,-7.6414,1.7764,0,1
22.7,-7.6414,1.8364,0,1
22.8,-7.6414,1.8964,0,1
22.9,-7.6414,1.9564,0,1
23,-7.6414,2.0164,0,1
23.1,-7.6414,2.0764,0,1
23.2,-7.6414,2.13639,0,1
23.3,-7.6414,2.19639,0,1
23.4,-7.59897,2.23882,0.707107,0.707107
23.5,-7.55655,2.28125,0.707107,0.707107
23.6,-7.51412,2.32367,0.707107,0.707107
23.7,-7.47169,2.3661,0.707107,0.707107
23.8,-7.42927,2.40853,0.707107,0.707107
23.9,-7.38684,2.45095,0.707107,0.707107
24,-7.34441,2.49338,0.707107,0.707107
24.1,-7.30199,2.53581,0.707107,0.707107
24.2,-7.25956,2.57823,0.707107,0.707107
24.3,-7.21713,2.62066,0.707107,0.707107
24.4,-7.17471,2.66308,0.707107,0.707107
24.5,-7.13228,2.70551,0.707107,0.707107
24.6,-7.08985,2.74794,0.707107,0.707107
24.7,-7.02985,2.74794,1,0
24.8,-6.96985,2.74794,1,0
24.9,-6.90985,2.74794,1,0
25,-6.84985,2.74794,1,0
25.1,-6.78985,2.74794,1,0
25.2,-6.72985,2.74794,1,0
25.3,-6.66985,2.74794,1,0
25.4,-6.59485,2.74794,1,0
25.5,-6.51985,2.74794,1,0
25.6,-6.44485,2.74794,1,0
25.7,-6.36985,2.74794,1,0
25.8,-6.29485,2.74794,1,0
25.9,-6.21985,2.74794,1,0
26,-6.14486,2.74794,1,0
26.1,-6.06986,2.74794,1,0
26.2,-5.99486,2.74794,1,0
26.3,-5.91986,2.74794,1,0
26.4,-5.84486,2.74794,1,0
26.5,-5.76986,2.74794,1,0
26.6,-5.69486,2.74794,1,0
26.7,-5.61986,2.74794,1,0
26.8,-5.54486,2.74794,1,0
26.9,-5.46986,2.74794,1,0
27,-5.39486,2.74794,1,0
27.1,-5.31986,2.74794,1,0
27.2,-5.22986,2.74794,1,0
27.3,-5.13986,2.74794,1,0
27.4,-5.04986,2.74794,1,0
27.5,-4.95986,2.74794,1,0
27.6,-4.86986,2.74794,1,0
27.7,-4.77986,2.74794,1,0
27.8,-4.68986,2.74794,1,0
27.9,-4.59986,2.74794,1,0
28,-4.50986,2.74794,1,0
28.1,-4.41986,2.74794,1,0
28.2,-4.32986,2.74794,1,0
28.3,-4.23986,2.74794,1,0
28.4,-4.13486,2.74794,1,0
28.5,-4.02986,2.74794,1,0
28.6,-3.92486,2.74794,1,0
28.7,-3.81986,2.74794,1,0
28.8,-3.71486,2.74794,1,0
28.9,-3.60986,2.74794,1,0
29,-3.50486,2.74794,1,0
29.1,-3.38486,2.74794,1,0
29.2,-3.26486,2.74794,1,0
29.3,-3.14486,2.74794,1,0
29.4,-3.02486,2.74794,1,0
29.5,-2.90486,2.74794,1,0
29.6,-2.78486,2.74794,1,0
29.7,-2.64986,2.74794,1,0
29.8,-2.51486,2.74794,1,0
29.9,-2.37986,2.74794,1,0
30,-2.24486,2.74794,1,0
30.1,-2.10986,2.74794,1,0
30.2,-1.97486,2.74794,1,0
30.3,-1.83986,2.74794,1,0
30.4,-1.70486,2.74794,1,0
30.5,-1.56986,2.74794,1,0
30.6,-1.43486,2.74794,1,0
30.7,-1.29986,2.74794,1,0
30.8,-1.16486,2.74794,1,0
30.9,-1.02986,2.74794,1,0
31,-0.894856,2.74794,1,0
31.1,-0.744856,2.74794,1,0
31.2,-0.594856,2.74794,1,0
31.3,-0.444856,2.74794,1,0
31.4,-0.294856,2.74794,1,0
31.5,-0.144856,2.74794,1,0
31.6,0.005144,2.74794,1,0
31.7,0.155144,2.74794,1,0
31.8,0.305144,2.74794,1,0
31.9,0.455144,2.74794,1,0
32,0.605144,2.74794,1,0
32.1,0.755144,2.74794,1,0
32.2,0.905144,2.74794,1,0
32.3,1.05514,2.74794,1,0
32.4,1.20514,2.74794,1,0
32.5,1.35514,2.74794,1,0
32.6,1.50514,2.74794,1,0
32.7,1.65514,2.74794,1,0
32.8,1.80514,2.74794,1,0
32.9,1.95514,2.74794,1,0
33,2.10514,2.74794,1,0
33.1,2.25514,2.74794,1,0
33.2,2.40514,2.74794,1,0
33.3,2.55514,2.74794,1,0
33.4,2.70514,2.74794,1,0
33.5,2.85514,2.74794,1,0
33.6,3.00514,2.74794,1,0
33.7,3.15514,2.74794,1,0
33.8,3.30514,2.74794,1,0
33.9,3.45514,2.74794,1,0
34,3.60514,2.74794,1,0
34.1,3.75514,2.74794,1,0
34.2,3.90514,2.74794,1,0
34.3,4.05514,2.74794,1,0
34.4,4.20514,2.74794,1,0
34.5,4.35514,2.74794,1,0
34.6,4.50515,2.74794,1,0
34.7,4.65515,2.74794,1,0
34.8,4.80515,2.74794,1,0
34.9,4.95515,2.74794,1,0
35,5.10515,2.74794,1,0
35.1,5.25515,2.74794,1,0
35.2,5.40515,2.74794,1,0
35.3,5.55515,2.74794,1,0
35.4,5.70515,2.74794,1,0
35.5,5.85515,2.74794,1,0
35.6,6.00515,2.74794,1,0
35.7,6.15515,2.74794,1,0
35.8,6.30515,2.74794,1,0
35.9,6.45515,2.74794,1,0
36,6.60515,2.74794,1,0
36.1,6.75515,2.74794,1,0
36.2,6.90515,2.74794,1,0
36.3,7.05515,2.74794,1,0
36.4,7.20515,2.74794,1,0
36.5,7.35515,2.74794,1,0
36.6,7.50515,2.74794,1,0
36.7,7.65515,2.74794,1,0
36.8,7.80515,2.74794,1,0
36.9,7.95515,2.74794,1,0
37,8.10515,2.74794,1,0
37.1,8.25515,2.74794,1,0
37.2,8.40515,2.74794,1,0
37.3,8.55515,2.74794,1,0
37.4,8.70515,2.74794,1,0
37.5,8.81121,2.64187,0.707107,-0.707107
37.6,8.91728,2.53581,0.707107,-0.707107
37.7,9.02334,2.42974,0.707107,-0.707107
37.8,9.12941,2.32367,0.707107,-0.707107
37.9,9.23547,2.21761,0.707107,-0.707107
38,9.34154,2.11154,0.707107,-0.707107
38.1,9.44761,2.00548,0.707107,-0.707107
38.2,9.55367,1.89941,0.707107,-0.707107
38.3,9.65974,1.79334,0.707107,-0.707107
38.4,9.7658,1.68728,0.707107,-0.707107
38.5,9.87187,1.58121,0.707107,-0.707107
38.6,9.97793,1.47515,0.707107,-0.707107
38.7,10.084,1.36908,0.707107,-0.707107
38.8,10.1901,1.26301,0.707107,-0.707107
38.9,10.1901,1.11301,0,-1
39,10.1901,0.963014,0,-1
39.1,10.1901,0.813014,0,-1
39.2,10.1901,0.663014,0,-1
39.3,10.1901,0.513014,0,-1
39.4,10.1901,0.363014,0,-1
39.5,10.1901,0.213014,0,-1
39.6,10.1901,0.0630137,0,-1
39.7,10.1901,-0.0869863,0,-1
39.8,10.1901,-0.236986,0,-1
39.9,10.1901,-0.386986,0,-1
40,10.1901,-0.536986,0,-1
40.1,10.1901,-0.686986,0,-1
40.2,10.1901,-0.836986,0,-1
40.3,10.1901,-0.986986,0,-1
40.4,10.1901,-1.13699,0,-1
40.5,10.1901,-1.28699,0,-1
40.6,10.1901,-1.43699,0,-1
40.7,10.1901,-1.58699,0,-1
40.8,10.084,-1.69305,-0.707107,-0.707107
40.9,9.97793,-1.79912,-0.707107,-0.707107
41,9.87187,-1.90518,-0.707107,-0.707107
41.1,9.7658,-2.01125,-0.707107,-0.707107
41.2,9.65974,-2.11732,-0.707107,-0.707107
41.3,9.55367,-2.22338,-0.707107,-0.707107
41.4,9.44761,-2.32945,-0.707107,-0.707107
41.5,9.29761,-2.32945,-1,0
41.6,9.14761,-2.32945,-1,0
41.7,8.99761,-2.32945,-1,0
41.8,8.84761,-2.32945,-1,0
41.9,8.69761,-2.32945,-1,0
42,8.54761,-2.32945,-1,0
42.1,8.39761,-2.32945,-1,0
42.2,8.24761,-2.32945,-1,0
42.3,8.09761,-2.32945,-1,0
42.4,7.94761,-2.32945,-1,0
42.5,7.79761,-2.32945,-1,0
42.6,7.64761,-2.32945,-1,0
42.7,7.49761,-2.32945,-1,0
42.8,7.34761,-2.32945,-1,0
42.9,7.19761,-2.32945,-1,0
43,7.04761,-2.32945,-1,0
43.1,6.89761,-2.32945,-1,0
43.2,6.74761,-2.32945,-1,0
43.3,6.59761,-2.32945,-1,0
43.4,6.44761,-2.32945,-1,0
43.5,6.29761,-2.32945,-1,0
43.6,6.14761,-2.32945,-1,0
43.7,5.99761,-2.32945,-1,0
43.8,5.84761,-2.32945,-1,0
43.9,5.69761,-2.32945,-1,0
44,5.54761,-2.32945,-1,0
44.1,5.39761,-2.32945,-1,0
44.2,5.26261,-2.32945,-1,0
44.3,5.12761,-2.32945,-1,0
44.4,4.99261,-2.32945,-1,0
44.5,4.85761,-2.32945,-1,0
44.6,4.72261,-2.32945,-1,0
44.7,4.58761,-2.32945,-1,0
44.8,4.45261,-2.32945,-1,0
44.9,4.31761,-2.32945,-1,0
45,4.18261,-2.32945,-1,0
45.1,4.04761,-2.32945,-1,0
45.2,3.91261,-2.32945,-1,0
45.3,3.77761,-2.32945,-1,0
45.4,3.64261,-2.32945,-1,0
45.5,3.50761,-2.32945,-1,0
45.6,3.37261,-2.32945,-1,0
45.7,3.23761,-2.32945,-1,0
45.8,3.10261,-2.32945,-1,0
45.9,2.98261,-2.32945,-1,0
46,2.86261,-2.32945,-1,0
46.1,2.74261,-2.32945,-1,0
46.2,2.62261,-2.32945,-1,0
46.3,2.50261,-2.32945,-1,0
46.4,2.38261,-2.32945,-1,0
46.5,2.26261,-2.32945,-1,0
46.6,2.14261,-2.32945,-1,0
46.7,2.02261,-2.32945,-1,0
46.8,1.90261,-2.32945,-1,0
46.9,1.78261,-2.32945,-1,0
47,1.66261,-2.32945,-1,0
47.1,1.54261,-2.32945,-1,0
47.2,1.42261,-2.32945,-1,0
47.3,1.30261,-2.32945,-1,0
47.4,1.18261,-2.32945,-1,0
47.5,1.06261,-2.32945,-1,0
47.6,0.942607,-2.32945,-1,0
47.7,0.822607,-2.32945,-1,0
47.8,0.702607,-2.32945,-1,0
47.9,0.582607,-2.32945,-1,0
48,0.477607,-2.32945,-1,0
48.1,0.372607,-2.32945,-1,0
48.2,0.267607,-2.32945,-1,0
48.3,0.162607,-2.32945,-1,0
48.4,0.0576066,-2.32945,-1,0
48.5,-0.0473934,-2.32945,-1,0
48.6,-0.152393,-2.32945,-1,0
48.7,-0.242393,-2.32945,-1,0
48.8,-0.332393,-2.32945,-1,0
48.9,-0.422393,-2.32945,-1,0
49,-0.512393,-2.32945,-1,0
49.1,-0.602393,-2.32945,-1,0
49.2,-0.692393,-2.32945,-1,0
49.3,-0.782393,-2.32945,-1,0
49.4,-0.872393,-2.32945,-1,0
49.5,-0.962393,-2.32945,-1,0
49.6,-1.05239,-2.32945,-1,0
49.7,-1.12739,-2.32945,-1,0
49.8,-1.20239,-2.32945,-1,0
49.9,-1.27739,-2.32945,-1,0
50,-1.35239,-2.32945,-1,0
50.1,-1.42739,-2.32945,-1,0
50.2,-1.50239,-2.32945,-1,0
50.3,-1.57739,-2.32945,-1,0
50.4,-1.65239,-2.32945,-1,0
50.5,-1.72739,-2.32945,-1,0
50.6,-1.80239,-2.32945,-1,0
50.7,-1.86239,-2.32945,-1,0
50.8,-1.92239,-2.32945,-1,0
50.9,-1.98239,-2.32945,-1,0
51,-2.04239,-2.32945,-1,0
51.1,-2.10239,-2.32945,-1,0
51.2,-2.16239,-2.32945,-1,0
51.3,-2.22239,-2.32945,-1,0
51.4,-2.28239,-2.32945,-1,0
51.5,-2.34239,-2.32945,-1,0
51.6,-2.40239,-2.32945,-1,0
51.7,-2.46239,-2.32945,-1,0
51.8,-2.52239,-2.32945,-1,0
51.9,-2.58239,-2.32945,-1,0
52,-2.64239,-2.32945,-1,0
52.1,-2.70239,-2.32945,-1,0
52.2,-2.76239,-2.32945,-1,0
52.3,-2.82239,-2.32945,-1,0
52.4,-2.88239,-2.32945,-1,0
52.5,-2.94239,-2.32945,-1,0
52.6,-3.00239,-2.32945,-1,0
52.7,-3.06239,-2.32945,-1,0
52.8,-3.12239,-2.32945,-1,0
52.9,-3.18239,-2.32945,-1,0
53,-3.24239,-2.32945,-1,0
53.1,-3.30239,-2.32945,-1,0
53.2,-3.36239,-2.32945,-1,0
53.3,-3.42239,-2.32945,-1,0
53.4,-3.48239,-2.32945,-1,0
53.5,-3.54239,-2.32945,-1,0
53.6,-3.60239,-2.32945,-1,0
53.7,-3.66239,-2.32945,-1,0
53.8,-3.72239,-2.32945,-1,0
53.9,-3.78239,-2.32945,-1,0
54,-3.82739,-2.32945,-1,0
54.1,-3.87239,-2.32945,-1,0
54.2,-3.91739,-2.32945,-1,0
54.3,-3.96239,-2.32945,-1,0
54.4,-4.00739,-2.32945,-1,0
54.5,-4.05239,-2.32945,-1,0
54.6,-4.09739,-2.32945,-1,0
54.7,-4.14239,-2.32945,-1,0
54.8,-4.18739,-2.32945,-1,0
54.9,-4.23239,-2.32945,-1,0
55,-4.27739,-2.32945,-1,0
55.1,-4.32239,-2.32945,-1,0
55.2,-4.38239,-2.32945,-1,0
55.3,-4.44239,-2.32945,-1,0
55.4,-4.50239,-2.32945,-1,0
55.5,-4.56239,-2.32945,-1,0
55.6,-4.62239,-2.32945,-1,0
55.7,-4.68239,-2.32945,-1,0
55.8,-4.74239,-2.32945,-1,0
55.9,-4.80239,-2.32945,-1,0
56,-4.86239,-2.32945,-1,0
56.1,-4.90739,-2.32945,-1,0
56.2,-4.95239,-2.32945,-1,0
56.3,-4.99739,-2.32945,-1,0
56.4,-5.04239,-2.32945,-1,0
56.5,-5.08739,-2.32945,-1,0
56.6,-5.13239,-2.32945,-1,0
56.7,-5.17739,-2.32945,-1,0
56.8,-5.22239,-2.32945,-1,0
56.9,-5.26739,-2.32945,-1,0
57,-5.31239,-2.32945,-1,0
57.1,-5.35739,-2.32945,-1,0
57.2,-5.40239,-2.32945,-1,0
57.3,-5.44739,-2.32945,-1,0
57.4,-5.49239,-2.32945,-1,0
57.5,-5.53739,-2.32945,-1,0
57.6,-5.58239,-2.32945,-1,0
57.7,-5.62739,-2.32945,-1,0
57.8,-5.67239,-2.32945,-1,0
57.9,-5.71739,-2.32945,-1,0
58,-5.76239,-2.32945,-1,0
58.1,-5.80739,-2.32945,-1,0
58.2,-5.85239,-2.32945,-1,0
58.3,-5.89739,-2.32945,-1,0
58.4,-5.94239,-2.32945,-1,0
58.5,-5.98739,-2.32945,-1,0
58.6,-6.03239,-2.32945,-1,0
58.7,-6.07739,-2.32945,-1,0
58.8,-6.12239,-2.32945,-1,0
58.9,-6.16739,-2.32945,-1,0
59,-6.21239,-2.32945,-1,0
59.1,-6.25739,-2.32945,-1,0
59.2,-6.30239,-2.32945,-1,0
59.3,-6.34739,-2.32945,-1,0
59.4,-6.39239,-2.32945,-1,0
59.5,-6.43739,-2.32945,-1,0
59.6,-6.48239,-2.32945,-1,0
59.7,-6.52739,-2.32945,-1,0
59.8,-6.57239,-2.32945,-1,0
59.9,-6.61739,-2.32945,-1,0
60,-6.6474,-2.32945,-1,0
60.1,-6.6774,-2.32945,-1,0
60.2,-6.7074,-2.32945,-1,0
60.3,-6.7374,-2.32945,-1,0
60.4,-6.7674,-2.32945,-1,0
60.5,-6.7974,-2.32945,-1,0
60.6,-6.8274,-2.32945,-1,0
60.7,-6.8574,-2.32945,-1,0
60.8,-6.8574,-2.32945,-1,0
60.9,-6.8574,-2.32945,-1,0
61,-6.8574,-2.32945,-1,0
61.1,-6.8574,-2.32945,-1,0
61.2,-6.8574,-2.32945,-1,0
61.3,-6.8574,-2.32945,-1,0
61.4,-6.8574,-2.32945,-1,0
61.5,-6.8574,-2.32945,-1,0
61.6,-6.8574,-2.32945,-1,0
61.7,-6.8574,-2.32945,-1,0
61.8,-6.8574,-2.32945,-1,0
61.9,-6.8574,-2.32945,-1,0
62,-6.8574,-2.32945,-1,0
62.1,-6.8574,-2.32945,-1,0
62.2,-6.8574,-2.32945,-1,0
62.3,-6.8574,-2.32945,-1,0
62.4,-6.8574,-2.32945,-1,0
62.5,-6.8574,-2.32945,-1,0
62.6,-6.8574,-2.32945,-1,0
62.7,-6.8574,-2.32945,-1,0
62.8,-6.8574,-2.32945,-1,0
