0.2,0,0,0,0
0.3,0,0,0,0
0.4,0,0,0,0
0.5,0,0,0,0
0.6,0,0,0,0
0.7,0,0,0,0
0.8,0,0,0,0
0.9,0,0,0,0
1,0,0,0,0
1.1,0,0,0,0
1.2,0,0,0,0
1.3,0,0,0,0
1.4,0,0,0,0
1.5,0,0,0,0
1.6,0,0,0,0
1.7,0,0,0,0
1.8,0,0,0,0
1.9,0,0,0,0
2,0,0,0,0
2.1,0,0,0,0
2.2,0,0,0,0
2.3,0,0,0,0
2.4,0,0,0,0
2.5,-0.18,0,-1,0
2.6,-0.36,0,-1,0
2.7,-0.36,0.18,0,1
2.8,-0.36,0.36,0,1
2.9,-0.487279,0.487279,-0.707107,0.707107
3,-0.487279,0.487279,-1,0
3.1,-0.487279,0.487279,-1,0
3.2,-0.487279,0.487279,-1,0
3.3,-0.487279,0.487279,-1,0
3.4,-0.487279,0.487279,-1,0
3.5,-0.487279,0.487279,-1,0
3.6,-0.487279,0.487279,-1,0
3.7,-0.487279,0.487279,-1,0
3.8,-0.487279,0.487279,-1,0
3.9,-0.487279,0.487279,-1,0
4,-0.487279,0.487279,-1,0
4.1,-0.487279,0.487279,-1,0
4.2,-0.487279,0.487279,-1,0
4.3,-0.487279,0.487279,-1,0
4.4,-0.487279,0.487279,-1,0
4.5,-0.487279,0.487279,-1,0
4.6,-0.487279,0.487279,-1,0
4.7,-0.487279,0.487279,-1,0
4.8,-0.487279,0.487279,-1,0
4.9,-0.487279,0.487279,-1,0
5,-0.487279,0.487279,-1,0
5.1,-0.487279,0.487279,-1,0
5.2,-0.487279,0.487279,-1,0
5.3,-0.667279,0.487279,-1,0
5.4,-0.847279,0.487279,-1,0
5.5,-0.847279,0.667279,0,1
5.6,-0.847279,0.847279,0,1
5.7,-0.847279,1.02728,0,1
5.8,-0.847279,1.20728,0,1
5.9,-0.847279,1.20728,0,1
6,-0.847279,1.20728,0,1
6.1,-0.847279,1.20728,0,1
6.2,-0.847279,1.20728,0,1
6.3,-0.847279,1.20728,0,1
6.4,-0.847279,1.20728,0,1
6.5,-0.847279,1.20728,0,1
6.6,-0.847279,1.20728,0,1
6.7,-0.847279,1.20728,0,1
6.8,-0.847279,1.20728,0,1
6.9,-0.847279,1.20728,0,1
7,-0.847279,1.20728,0,1
7.1,-0.847279,1.20728,0,1
7.2,-0.847279,1.20728,0,1
7.3,-0.847279,1.20728,0,1
7.4,-0.847279,1.20728,0,1
7.5,-0.847279,1.20728,0,1
7.6,-0.847279,1.20728,0,1
7.7,-0.847279,1.20728,0,1
7.8,-0.847279,1.20728,0,1
0.2,0,0,0,0
0.3,0,0,0,0
0.4,0,0,0,0
0.5,0,0,0,0
0.6,0,0,0,0
0.7,0,0,0,0
0.8,0,0,0,0
0.9,0,0,0,0
1,0,0,0,0
1.1,0,0,0,0
1.2,0,0,0,0
1.3,0,0,0,0
1.4,0,0,0,0
1.5,0,0,0,0
1.6,0,0,0,0
1.7,0,0,0,0
1.8,0,0,0,0
1.9,0,0,0,0
2,0,0,0,0
2.1,0,0,0,0
2.2,0,0,0,0
2.3,0,0,0,0
2.4,0,0,0,0
2.5,0,0,0,0
2.6,0,0,0,0
2.7,0,0,0,0
2.8,0,0,0,0
2.9,0,0,0,0
3,0,0,0,0
3.1,0,0,0,0
3.2,0,0,0,0
3.3,0,0,0,0
3.4,0,0,0,0
3.5,0,0,0,0
3.6,0,0,0,0
3.7,0,0,0,0
3.8,0,0,0,0
3.9,0,0,0,0
4,0,0,0,0
4.1,0,0,0,0
0.2,0,0,0,0
0.3,0,0,0,0
0.4,0,0,0,0
0.5,0,0,0,0
0.6,0,0,0,0
0.7,0,0,0,0
0.8,0,0,0,0
0.9,0,0,0,0
0.2,0,0,0,0
0.3,0,0,0,0
0.4,0,0,0,0
0.5,0,0,0,0
0.6,0,0,0,0
0.7,0,0,0,0
0.8,0,0,0,0
0.9,0,0,0,0
1,0,0,0,0
1.1,0,0,0,0
1.2,0,0,0,0
1.3,0,0,0,0
1.4,0,0,0,0
1.5,0,0,0,0
1.6,0,0,0,0
1.7,0,0,0,0
1.8,0,0,0,0
1.9,0,0,0,0
2,0,0,0,0
2.1,0,0,0,0
0.2,0,0,0,0
0.3,0,0,0,0
0.4,0,0,0,0
0.2,0,0,0,0
0.3,0,0,0,0
0.4,0,0,0,0
0.5,0,0,0,0
0.6,0,0,0,0
0.7,0,0,0,0
0.8,0,0,0,0
0.9,0,0,0,0
1,0,0,0,0
1.1,0,0,0,0
1.2,0,0,0,0
1.3,0,0,0,0
1.4,0,0,0,0
1.5,0,0,0,0
1.6,0,0,0,0
1.7,0,0,0,0
1.8,0,0,0,0
1.9,0,0,0,0
2,0,0,0,0
2.1,0,0,0,0
2.2,0,0,0,0
2.3,0,0,0,0
2.4,0,0,0,0
2.5,0,0,0,0
2.6,0,0,0,0
2.7,0,0,0,0
2.8,0,0,0,0
2.9,0,0,0,0
3,0,0,0,0
3.1,0,0,0,0
3.2,0,0,0,0
3.3,0,0,0,0
3.4,0,0,0,0
3.5,0,0,0,0
3.6,0,0,0,0
3.7,0,0,0,0
3.8,0,0,0,0
3.9,0,0,0,0
4,0,0,0,0
4.1,0,0,0,0
4.2,0,0,0,0
4.3,0,0,0,0
4.4,0,0,0,0
4.5,0,0,0,0
4.6,0,0,0,0
4.7,0,0,0,0
4.8,0,0,0,0
4.9,0,0,0,0
5,0,0,0,0
5.1,0,0,0,0
5.2,0,0,0,0
5.3,0,0,0,0
0.2,0,0,0,0
0.3,0,0,0,0
0.4,-0.15,0,-1,0
0.5,-0.3,0,-1,0
0.6,-0.45,0,-1,0
0.7,-0.6,0,-1,0
0.8,-0.75,0,-1,0
0.9,-0.9,0,-1,0
1,-1.05,0,-1,0
1.1,-1.2,0,-1,0
1.2,-1.35,0,-1,0
1.3,-1.5,0,-1,0
1.4,-1.65,0,-1,0
1.5,-1.785,0,-1,0
1.6,-1.875,0,-1,0
1.7,-1.965,0,-1,0
1.8,-2.055,0,-1,0
1.9,-2.145,0,-1,0
2,-2.235,0,-1,0
2.1,-2.325,0,-1,0
2.2,-2.325,0,-1,0
2.3,-2.325,0,-1,0
2.4,-2.325,0,-1,0
2.5,-2.325,0,-1,0
2.6,-2.325,0,-1,0
2.7,-2.325,0,-1,0
2.8,-2.325,0,-1,0
2.9,-2.325,0,-1,0
0.2,0,0,0,0
0.3,0,0,0,0
0.4,0,0,0,0
0.5,0,0,0,0
0.6,0,0,0,0
0.7,0,0,0,0
0.8,-0.16,0,-1,0
0.9,-0.32,0,-1,0
1,-0.48,0,-1,0
1.1,-0.64,0,-1,0
1.2,-0.8,0,-1,0
1.3,-0.96,0,-1,0
1.4,-1.12,0,-1,0
1.5,-1.28,0,-1,0
1.6,-1.44,0,-1,0
1.7,-1.6,0,-1,0
1.8,-1.76,0,-1,0
1.9,-1.92,0,-1,0
2,-2.08,0,-1,0
2.1,-2.24,0,-1,0
2.2,-2.4,0,-1,0
2.3,-2.56,0,-1,0
2.4,-2.72,0,-1,0
2.5,-2.88,0,-1,0
2.6,-3.04,0,-1,0
2.7,-3.2,0,-1,0
2.8,-3.36,0,-1,0
2.9,-3.52,0,-1,0
3,-3.68,0,-1,0
3.1,-3.84,0,-1,0
3.2,-4,0,-1,0
3.3,-4.16,0,-1,0
3.4,-4.32,0,-1,0
3.5,-4.48,0,-1,0
3.6,-4.64,0,-1,0
3.7,-4.8,0,-1,0
3.8,-4.96,0,-1,0
3.9,-5.12,0,-1,0
4,-5.28,0,-1,0
4.1,-5.44,0,-1,0
4.2,-5.6,0,-1,0
4.3,-5.76,0,-1,0
4.4,-5.92,0,-1,0
4.5,-6.08,0,-1,0
4.6,-6.24,0,-1,0
4.7,-6.4,0,-1,0
4.8,-6.56,0,-1,0
4.9,-6.72,0,-1,0
5,-6.88,0,-1,0
5.1,-7.04,0,-1,0
5.2,-7.2,0,-1,0
5.3,-7.36,0,-1,0
5.4,-7.52,0,-1,0
5.5,-7.68,0,-1,0
5.6,-7.84,0,-1,0
5.7,-8,0,-1,0
5.8,-8.16,0,-1,0
5.9,-8.32,0,-1,0
6,-8.48,0,-1,0
6.1,-8.64,0,-1,0
6.2,-8.8,0,-1,0
6.3,-8.96,0,-1,0
6.4,-9.12,0,-1,0
6.5,-9.28,0,-1,0
6.6,-9.44,0,-1,0
6.7,-9.6,0,-1,0
6.8,-9.76,0,-1,0
6.9,-9.92,0,-1,0
7,-10.08,0,-1,0
7.1,-10.24,0,-1,0
7.2,-10.4,0,-1,0
7.3,-10.56,0,-1,0
7.4,-10.72,0,-1,0
7.5,-10.88,0,-1,0
7.6,-11.04,0,-1,0
7.7,-11.2,0,-1,0
7.8,-11.36,0,-1,0
7.9,-11.52,0,-1,0
8,-11.6331,-0.113137,-0.707107,-0.707107
8.1,-11.7463,-0.226274,-0.707107,-0.707107
8.2,-11.8594,-0.339411,-0.707107,-0.707107
8.3,-11.9725,-0.452548,-0.707107,-0.707107
8.4,-12.0857,-0.565685,-0.707107,-0.707107
8.5,-12.1988,-0.678823,-0.707107,-0.707107
8.6,-12.312,-0.79196,-0.707107,-0.707107
8.7,-12.4251,-0.905097,-0.707107,-0.707107
8.8,-12.5382,-1.01823,-0.707107,-0.707107
8.9,-12.6514,-1.13137,-0.707107,-0.707107
9,-12.7645,-1.24451,-0.707107,-0.707107
9.1,-12.8776,-1.35765,-0.707107,-0.707107
9.2,-12.9908,-1.47078,-0.707107,-0.707107
9.3,-13.1039,-1.58392,-0.707107,-0.707107
9.4,-13.2171,-1.69706,-0.707107,-0.707107
9.5,-13.3302,-1.81019,-0.707107,-0.707107
9.6,-13.4433,-1.92333,-0.707107,-0.707107
9.7,-13.5565,-2.03647,-0.707107,-0.707107
9.8,-13.6696,-2.1496,-0.707107,-0.707107
9.9,-13.7827,-2.26274,-0.707107,-0.707107
10,-13.8959,-2.37588,-0.707107,-0.707107
10.1,-14.009,-2.48902,-0.707107,-0.707107
10.2,-14.1222,-2.60215,-0.707107,-0.707107
10.3,-14.2353,-2.71529,-0.707107,-0.707107
10.4,-14.3484,-2.82843,-0.707107,-0.707107
10.5,-14.4616,-2.94156,-0.707107,-0.707107
10.6,-14.5747,-3.0547,-0.707107,-0.707107
10.7,-14.6878,-3.16784,-0.707107,-0.707107
10.8,-14.801,-3.28097,-0.707107,-0.707107
10.9,-14.9141,-3.39411,-0.707107,-0.707107
11,-15.0272,-3.50725,-0.707107,-0.707107
11.1,-15.1404,-3.62039,-0.707107,-0.707107
11.2,-15.2535,-3.73352,-0.707107,-0.707107
11.3,-15.3667,-3.84666,-0.707107,-0.707107
11.4,-15.4798,-3.9598,-0.707107,-0.707107
11.5,-15.5929,-4.07293,-0.707107,-0.707107
11.6,-15.7061,-4.18607,-0.707107,-0.707107
11.7,-15.8192,-4.29921,-0.707107,-0.707107
11.8,-15.9323,-4.41235,-0.707107,-0.707107
11.9,-16.0455,-4.52548,-0.707107,-0.707107
12,-16.1586,-4.63862,-0.707107,-0.707107
12.1,-16.2718,-4.75176,-0.707107,-0.707107
12.2,-16.2718,-4.91176,0,-1
12.3,-16.2718,-5.07176,0,-1
12.4,-16.2718,-5.23176,0,-1
12.5,-16.2718,-5.39176,0,-1
12.6,-16.2718,-5.55176,0,-1
12.7,-16.2718,-5.71176,0,-1
12.8,-16.2718,-5.87176,0,-1
12.9,-16.2718,-6.03176,0,-1
13,-16.2718,-6.19176,0,-1
13.1,-16.2718,-6.35176,0,-1
13.2,-16.2718,-6.51176,0,-1
13.3,-16.2718,-6.67176,0,-1
13.4,-16.2718,-6.83176,0,-1
13.5,-16.2718,-6.99176,0,-1
13.6,-16.2718,-7.15176,0,-1
13.7,-16.2718,-7.31176,0,-1
13.8,-16.2718,-7.47176,0,-1
13.9,-16.1586,-7.58489,0.707107,-0.707107
14,-16.0455,-7.69803,0.707107,-0.707107
14.1,-15.9323,-7.81117,0.707107,-0.707107
14.2,-15.8192,-7.9243,0.707107,-0.707107
14.3,-15.7061,-8.03744,0.707107,-0.707107
14.4,-15.5929,-8.15058,0.707107,-0.707107
14.5,-15.4798,-8.26372,0.707107,-0.707107
14.6,-15.3667,-8.37685,0.707107,-0.707107
14.7,-15.2535,-8.48999,0.707107,-0.707107
14.8,-15.1404,-8.60313,0.707107,-0.707107
14.9,-15.0272,-8.71626,0.707107,-0.707107
15,-14.9141,-8.8294,0.707107,-0.707107
15.1,-14.801,-8.94254,0.707107,-0.707107
15.2,-14.6878,-9.05568,0.707107,-0.707107
15.3,-14.5747,-9.16881,0.707107,-0.707107
15.4,-14.4616,-9.28195,0.707107,-0.707107
15.5,-14.3484,-9.39509,0.707107,-0.707107
15.6,-14.2353,-9.50823,0.707107,-0.707107
15.7,-14.1221,-9.62136,0.707107,-0.707107
15.8,-14.009,-9.7345,0.707107,-0.707107
15.9,-13.8959,-9.84764,0.707107,-0.707107
16,-13.7827,-9.96077,0.707107,-0.707107
16.1,-13.6696,-10.0739,0.707107,-0.707107
16.2,-13.5565,-10.187,0.707107,-0.707107
16.3,-13.4433,-10.3002,0.707107,-0.707107
16.4,-13.3302,-10.4133,0.707107,-0.707107
16.5,-13.2171,-10.5265,0.707107,-0.707107
16.6,-13.1039,-10.6396,0.707107,-0.707107
16.7,-12.9908,-10.7527,0.707107,-0.707107
16.8,-12.8776,-10.8659,0.707107,-0.707107
16.9,-12.7645,-10.979,0.707107,-0.707107
17,-12.6514,-11.0921,0.707107,-0.707107
17.1,-12.5382,-11.2053,0.707107,-0.707107
17.2,-12.4251,-11.3184,0.707107,-0.707107
17.3,-12.312,-11.4316,0.707107,-0.707107
17.4,-12.1988,-11.5447,0.707107,-0.707107
17.5,-12.0857,-11.6578,0.707107,-0.707107
17.6,-11.9725,-11.771,0.707107,-0.707107
17.7,-11.8594,-11.8841,0.707107,-0.707107
17.8,-11.6994,-11.8841,1,0
17.9,-11.5394,-11.8841,1,0
18,-11.3794,-11.8841,1,0
18.1,-11.2194,-11.8841,1,0
18.2,-11.0594,-11.8841,1,0
18.3,-10.8994,-11.8841,1,0
18.4,-10.7394,-11.8841,1,0
18.5,-10.5794,-11.8841,1,0
18.6,-10.4194,-11.8841,1,0
18.7,-10.2594,-11.8841,1,0
18.8,-10.0994,-11.8841,1,0
18.9,-9.93941,-11.8841,1,0
19,-9.77941,-11.8841,1,0
19.1,-9.61941,-11.8841,1,0
19.2,-9.45941,-11.8841,1,0
19.3,-9.29941,-11.8841,1,0
19.4,-9.13941,-11.8841,1,0
19.5,-8.97941,-11.8841,1,0
19.6,-8.81941,-11.8841,1,0
19.7,-8.65941,-11.8841,1,0
19.8,-8.49941,-11.8841,1,0
19.9,-8.33941,-11.8841,1,0
20,-8.17941,-11.8841,1,0
20.1,-8.01941,-11.8841,1,0
20.2,-7.85941,-11.8841,1,0
20.3,-7.69941,-11.8841,1,0
20.4,-7.53941,-11.8841,1,0
20.5,-7.37941,-11.8841,1,0
20.6,-7.21941,-11.8841,1,0
20.7,-7.05941,-11.8841,1,0
20.8,-6.89941,-11.8841,1,0
20.9,-6.73941,-11.8841,1,0
21,-6.57941,-11.8841,1,0
21.1,-6.41941,-11.8841,1,0
21.2,-6.25941,-11.8841,1,0
21.3,-6.09941,-11.8841,1,0
21.4,-5.93941,-11.8841,1,0
21.5,-5.77941,-11.8841,1,0
21.6,-5.61941,-11.8841,1,0
21.7,-5.45941,-11.8841,1,0
21.8,-5.29941,-11.8841,1,0
21.9,-5.13941,-11.8841,1,0
22,-4.97941,-11.8841,1,0
22.1,-4.81941,-11.8841,1,0
22.2,-4.65941,-11.8841,1,0
22.3,-4.49941,-11.8841,1,0
22.4,-4.33941,-11.8841,1,0
22.5,-4.17941,-11.8841,1,0
22.6,-4.01941,-11.8841,1,0
22.7,-3.85941,-11.8841,1,0
22.8,-3.69941,-11.8841,1,0
22.9,-3.53941,-11.8841,1,0
23,-3.37941,-11.8841,1,0
23.1,-3.21941,-11.8841,1,0
23.2,-3.05941,-11.8841,1,0
23.3,-2.89941,-11.8841,1,0
23.4,-2.73941,-11.8841,1,0
23.5,-2.57941,-11.8841,1,0
23.6,-2.41941,-11.8841,1,0
23.7,-2.25941,-11.8841,1,0
23.8,-2.09941,-11.8841,1,0
23.9,-1.93941,-11.8841,1,0
24,-1.77941,-11.8841,1,0
24.1,-1.61941,-11.8841,1,0
24.2,-1.45941,-11.8841,1,0
24.3,-1.29941,-11.8841,1,0
24.4,-1.13941,-11.8841,1,0
24.5,-0.979411,-11.8841,1,0
24.6,-0.819411,-11.8841,1,0
24.7,-0.659411,-11.8841,1,0
24.8,-0.499411,-11.8841,1,0
24.9,-0.339411,-11.8841,1,0
25,-0.179411,-11.8841,1,0
25.1,-0.0194111,-11.8841,1,0
25.2,0.140589,-11.8841,1,0
25.3,0.300589,-11.8841,1,0
25.4,0.460589,-11.8841,1,0
25.5,0.620589,-11.8841,1,0
25.6,0.780589,-11.8841,1,0
25.7,0.940589,-11.8841,1,0
25.8,1.10059,-11.8841,1,0
25.9,1.26059,-11.8841,1,0
26,1.42059,-11.8841,1,0
26.1,1.58059,-11.8841,1,0
26.2,1.74059,-11.8841,1,0
26.3,1.90059,-11.8841,1,0
26.4,2.06059,-11.8841,1,0
26.5,2.22059,-11.8841,1,0
26.6,2.38059,-11.8841,1,0
26.7,2.54059,-11.8841,1,0
26.8,2.70059,-11.8841,1,0
26.9,2.86059,-11.8841,1,0
27,3.02059,-11.8841,1,0
27.1,3.18059,-11.8841,1,0
27.2,3.34059,-11.8841,1,0
27.3,3.50059,-11.8841,1,0
27.4,3.66059,-11.8841,1,0
27.5,3.82059,-11.8841,1,0
27.6,3.98059,-11.8841,1,0
27.7,4.14059,-11.8841,1,0
27.8,4.30059,-11.8841,1,0
27.9,4.46059,-11.8841,1,0
28,4.62059,-11.8841,1,0
28.1,4.78059,-11.8841,1,0
28.2,4.94059,-11.8841,1,0
28.3,5.10059,-11.8841,1,0
28.4,5.26059,-11.8841,1,0
28.5,5.42059,-11.8841,1,0
28.6,5.58059,-11.8841,1,0
28.7,5.74059,-11.8841,1,0
28.8,5.90059,-11.8841,1,0
28.9,6.06059,-11.8841,1,0
29,6.22059,-11.8841,1,0
29.1,6.38059,-11.8841,1,0
29.2,6.54059,-11.8841,1,0
29.3,6.70059,-11.8841,1,0
29.4,6.86059,-11.8841,1,0
29.5,7.02059,-11.8841,1,0
29.6,7.18059,-11.8841,1,0
29.7,7.34059,-11.8841,1,0
29.8,7.50059,-11.8841,1,0
29.9,7.66059,-11.8841,1,0
30,7.82059,-11.8841,1,0
30.1,7.98059,-11.8841,1,0
30.2,8.14059,-11.8841,1,0
30.3,8.30059,-11.8841,1,0
30.4,8.46059,-11.8841,1,0
30.5,8.62059,-11.8841,1,0
30.6,8.78059,-11.8841,1,0
30.7,8.94059,-11.8841,1,0
30.8,9.10058,-11.8841,1,0
30.9,9.26058,-11.8841,1,0
31,9.42058,-11.8841,1,0
31.1,9.58058,-11.8841,1,0
31.2,9.74058,-11.8841,1,0
31.3,9.90058,-11.8841,1,0
31.4,10.0606,-11.8841,1,0
31.5,10.2206,-11.8841,1,0
31.6,10.3806,-11.8841,1,0
31.7,10.5406,-11.8841,1,0
31.8,10.7006,-11.8841,1,0
31.9,10.8606,-11.8841,1,0
32,11.0206,-11.8841,1,0
32.1,11.1806,-11.8841,1,0
32.2,11.3406,-11.8841,1,0
32.3,11.5006,-11.8841,1,0
32.4,11.6606,-11.8841,1,0
32.5,11.8206,-11.8841,1,0
32.6,11.9806,-11.8841,1,0
32.7,12.1406,-11.8841,1,0
32.8,12.3006,-11.8841,1,0
32.9,12.4606,-11.8841,1,0
33,12.6206,-11.8841,1,0
33.1,12.7806,-11.8841,1,0
33.2,12.9406,-11.8841,1,0
33.3,13.1006,-11.8841,1,0
33.4,13.2606,-11.8841,1,0
33.5,13.4206,-11.8841,1,0
33.6,13.5806,-11.8841,1,0
33.7,13.7406,-11.8841,1,0
33.8,13.9006,-11.8841,1,0
33.9,14.0606,-11.8841,1,0
34,14.2206,-11.8841,1,0
34.1,14.3806,-11.8841,1,0
34.2,14.5406,-11.8841,1,0
34.3,14.7006,-11.8841,1,0
34.4,14.8606,-11.8841,1,0
34.5,15.0206,-11.8841,1,0
34.6,15.1337,-11.771,0.707107,0.707107
34.7,15.2469,-11.6578,0.707107,0.707107
34.8,15.36,-11.5447,0.707107,0.707107
34.9,15.4731,-11.4316,0.707107,0.707107
35,15.5863,-11.3184,0.707107,0.707107
35.1,15.6994,-11.2053,0.707107,0.707107
35.2,15.8125,-11.0921,0.707107,0.707107
35.3,15.9257,-10.979,0.707107,0.707107
35.4,16.0388,-10.8659,0.707107,0.707107
35.5,16.152,-10.7527,0.707107,0.707107
35.6,16.2651,-10.6396,0.707107,0.707107
35.7,16.3782,-10.5265,0.707107,0.707107
35.8,16.4914,-10.4133,0.707107,0.707107
35.9,16.6045,-10.3002,0.707107,0.707107
36,16.7176,-10.187,0.707107,0.707107
36.1,16.8308,-10.0739,0.707107,0.707107
36.2,16.9439,-9.96077,0.707107,0.707107
36.3,17.057,-9.84764,0.707107,0.707107
36.4,17.1702,-9.7345,0.707107,0.707107
36.5,17.2833,-9.62136,0.707107,0.707107
36.6,17.3965,-9.50823,0.707107,0.707107
36.7,17.5096,-9.39509,0.707107,0.707107
36.8,17.6227,-9.28195,0.707107,0.707107
36.9,17.7359,-9.16881,0.707107,0.707107
37,17.849,-9.05568,0.707107,0.707107
37.1,17.9621,-8.94254,0.707107,0.707107
37.2,18.0753,-8.8294,0.707107,0.707107
37.3,18.1884,-8.71626,0.707107,0.707107
37.4,18.3015,-8.60313,0.707107,0.707107
37.5,18.4147,-8.48999,0.707107,0.707107
37.6,18.5278,-8.37685,0.707107,0.707107
37.7,18.6409,-8.26372,0.707107,0.707107
37.8,18.7541,-8.15058,0.707107,0.707107
37.9,18.8672,-8.03744,0.707107,0.707107
38,18.9804,-7.9243,0.707107,0.707107
38.1,19.0935,-7.81117,0.707107,0.707107
38.2,19.2066,-7.69803,0.707107,0.707107
38.3,19.3198,-7.58489,0.707107,0.707107
38.4,19.4329,-7.47176,0.707107,0.707107
38.5,19.546,-7.35862,0.707107,0.707107
38.6,19.6592,-7.24548,0.707107,0.707107
38.7,19.7723,-7.13234,0.707107,0.707107
38.8,19.8854,-7.01921,0.707107,0.707107
38.9,19.9986,-6.90607,0.707107,0.707107
39,20.1117,-6.79293,0.707107,0.707107
39.1,20.2249,-6.67979,0.707107,0.707107
39.2,20.338,-6.56666,0.707107,0.707107
39.3,20.4511,-6.45352,0.707107,0.707107
39.4,20.5643,-6.34038,0.707107,0.707107
39.5,20.6774,-6.22725,0.707107,0.707107
39.6,20.7905,-6.11411,0.707107,0.707107
39.7,20.9037,-6.00097,0.707107,0.707107
39.8,21.0168,-5.88783,0.707107,0.707107
39.9,21.1299,-5.7747,0.707107,0.707107
40,21.2431,-5.66156,0.707107,0.707107
40.1,21.3562,-5.54842,0.707107,0.707107
40.2,21.4694,-5.43528,0.707107,0.707107
40.3,21.5825,-5.32215,0.707107,0.707107
40.4,21.6956,-5.20901,0.707107,0.707107
40.5,21.8088,-5.09587,0.707107,0.707107
40.6,21.9219,-4.98274,0.707107,0.707107
40.7,22.035,-4.8696,0.707107,0.707107
40.8,22.1482,-4.75646,0.707107,0.707107
40.9,22.2613,-4.64332,0.707107,0.707107
41,22.3744,-4.53019,0.707107,0.707107
41.1,22.4876,-4.41705,0.707107,0.707107
41.2,22.6007,-4.30391,0.707107,0.707107
41.3,22.7139,-4.19077,0.707107,0.707107
41.4,22.827,-4.07764,0.707107,0.707107
41.5,22.9401,-3.9645,0.707107,0.707107
41.6,23.0533,-3.85136,0.707107,0.707107
41.7,23.1664,-3.73823,0.707107,0.707107
41.8,23.1664,-3.57823,0,1
41.9,23.1664,-3.41823,0,1
42,23.1664,-3.25823,0,1
42.1,23.1664,-3.09823,0,1
42.2,23.1664,-2.93823,0,1
42.3,23.1664,-2.77823,0,1
42.4,23.1664,-2.61823,0,1
42.5,23.1664,-2.45823,0,1
42.6,23.1664,-2.29823,0,1
42.7,23.1664,-2.13823,0,1
42.8,23.1664,-1.97823,0,1
42.9,23.1664,-1.81823,0,1
43,23.1664,-1.65823,0,1
43.1,23.1664,-1.49823,0,1
43.2,23.1664,-1.33823,0,1
43.3,23.1664,-1.17823,0,1
43.4,23.1664,-1.01823,0,1
43.5,23.1664,-0.858226,0,1
43.6,23.1664,-0.698226,0,1
43.7,23.1664,-0.538226,0,1
43.8,23.1664,-0.378226,0,1
43.9,23.1664,-0.218226,0,1
44,23.1664,-0.0582259,0,1
44.1,23.1664,0.101774,0,1
44.2,23.1664,0.261774,0,1
44.3,23.1664,0.421774,0,1
44.4,23.1664,0.581774,0,1
44.5,23.1664,0.741774,0,1
44.6,23.1664,0.901774,0,1
44.7,23.1664,1.06177,0,1
44.8,23.1664,1.22177,0,1
44.9,23.1664,1.38177,0,1
45,23.1664,1.54177,0,1
45.1,23.1664,1.70177,0,1
45.2,23.1664,1.86177,0,1
45.3,23.1664,2.02177,0,1
45.4,23.1664,2.18177,0,1
45.5,23.1664,2.34177,0,1
45.6,23.1664,2.50177,0,1
45.7,23.1664,2.66177,0,1
45.8,23.1664,2.82177,0,1
45.9,23.1664,2.98177,0,1
46,23.1664,3.14177,0,1
46.1,23.1664,3.30177,0,1
46.2,23.0533,3.41491,-0.707107,0.707107
46.3,22.9401,3.52805,-0.707107,0.707107
46.4,22.827,3.64119,-0.707107,0.707107
46.5,22.7139,3.75432,-0.707107,0.707107
46.6,22.6007,3.86746,-0.707107,0.707107
46.7,22.4876,3.9806,-0.707107,0.707107
46.8,22.3744,4.09373,-0.707107,0.707107
46.9,22.2613,4.20687,-0.707107,0.707107
47,22.1482,4.32001,-0.707107,0.707107
47.1,22.035,4.43315,-0.707107,0.707107
47.2,21.9219,4.54628,-0.707107,0.707107
47.3,21.8088,4.65942,-0.707107,0.707107
47.4,21.6956,4.77256,-0.707107,0.707107
47.5,21.5825,4.88569,-0.707107,0.707107
47.6,21.4694,4.99883,-0.707107,0.707107
47.7,21.3562,5.11197,-0.707107,0.707107
47.8,21.2431,5.22511,-0.707107,0.707107
47.9,21.1299,5.33824,-0.707107,0.707107
48,21.0168,5.45138,-0.707107,0.707107
48.1,20.9037,5.56452,-0.707107,0.707107
48.2,20.7905,5.67766,-0.707107,0.707107
48.3,20.6774,5.79079,-0.707107,0.707107
48.4,20.5174,5.79079,-1,0
48.5,20.3574,5.79079,-1,0
48.6,20.1974,5.79079,-1,0
48.7,20.0374,5.79079,-1,0
48.8,19.8774,5.79079,-1,0
48.9,19.7174,5.79079,-1,0
49,19.5574,5.79079,-1,0
49.1,19.3974,5.79079,-1,0
49.2,19.2374,5.79079,-1,0
49.3,19.0774,5.79079,-1,0
49.4,18.9174,5.79079,-1,0
49.5,18.7574,5.79079,-1,0
49.6,18.5974,5.79079,-1,0
49.7,18.4374,5.79079,-1,0
49.8,18.2774,5.79079,-1,0
49.9,18.1174,5.79079,-1,0
50,17.9574,5.79079,-1,0
50.1,17.7974,5.79079,-1,0
50.2,17.6374,5.79079,-1,0
50.3,17.4774,5.79079,-1,0
50.4,17.3174,5.79079,-1,0
50.5,17.1574,5.79079,-1,0
50.6,16.9974,5.79079,-1,0
50.7,16.8374,5.79079,-1,0
50.8,16.6774,5.79079,-1,0
50.9,16.5174,5.79079,-1,0
51,16.3574,5.79079,-1,0
51.1,16.3574,5.79079,-1,0
51.2,16.3574,5.79079,-1,0
51.3,16.3574,5.79079,-1,0
0.2,0,0,0,0
0.3,0,0,0,0
0.4,0,0,0,0
0.5,0,0,0,0
0.6,0,0,0,0
0.7,0,0,0,0
0.8,0,0,0,0
0.9,0,0,0,0
1,0,0,0,0
1.1,0,0,0,0
1.2,-0.15,0,-1,0
1.3,-0.3,0,-1,0
1.4,-0.45,0,-1,0
1.5,-0.6,0,-1,0
1.6,-0.75,0,-1,0
1.7,-0.9,0,-1,0
1.8,-1.05,0,-1,0
1.9,-1.2,0,-1,0
2,-1.35,0,-1,0
2.1,-1.5,0,-1,0
2.2,-1.65,0,-1,0
2.3,-1.8,0,-1,0
2.4,-1.95,0,-1,0
2.5,-2.1,0,-1,0
2.6,-2.25,0,-1,0
2.7,-2.4,0,-1,0
2.8,-2.55,0,-1,0
2.9,-2.7,0,-1,0
3,-2.85,0,-1,0
3.1,-3,0,-1,0
3.2,-3.15,0,-1,0
3.3,-3.285,0,-1,0
3.4,-3.42,0,-1,0
3.5,-3.555,0,-1,0
3.6,-3.69,0,-1,0
3.7,-3.825,0,-1,0
3.8,-3.96,0,-1,0
3.9,-4.095,0,-1,0
4,-4.23,0,-1,0
4.1,-4.365,0,-1,0
4.2,-4.5,0,-1,0
4.3,-4.635,0,-1,0
4.4,-4.77,0,-1,0
4.5,-4.905,0,-1,0
4.6,-5.04,0,-1,0
4.7,-5.175,0,-1,0
4.8,-5.31,0,-1,0
4.9,-5.445,0,-1,0
5,-5.58,0,-1,0
5.1,-5.715,0,-1,0
5.2,-5.85,0,-1,0
5.3,-5.985,0,-1,0
5.4,-6.12,0,-1,0
5.5,-6.255,0,-1,0
5.6,-6.39,0,-1,0
5.7,-6.525,0,-1,0
5.8,-6.66,0,-1,0
5.9,-6.795,0,-1,0
6,-6.93001,0,-1,0
6.1,-7.06501,0,-1,0
6.2,-7.20001,0,-1,0
6.3,-7.33501,0,-1,0
6.4,-7.47001,0,-1,0
6.5,-7.60501,0,-1,0
6.6,-7.74001,0,-1,0
6.7,-7.87501,0,-1,0
6.8,-8.01001,0,-1,0
6.9,-8.14501,0,-1,0
7,-8.28001,0,-1,0
7.1,-8.41501,0,-1,0
7.2,-8.55001,0,-1,0
7.3,-8.68501,0,-1,0
7.4,-8.82001,0,-1,0
7.5,-8.95501,0,-1,0
7.6,-9.09001,0,-1,0
7.7,-9.22501,0,-1,0
7.8,-9.36001,0,-1,0
7.9,-9.49501,0,-1,0
8,-9.63001,0,-1,0
8.1,-9.76501,0,-1,0
8.2,-9.90001,0,-1,0
8.3,-10.035,0,-1,0
8.4,-10.17,0,-1,0
8.5,-10.305,0,-1,0
8.6,-10.44,0,-1,0
8.7,-10.575,0,-1,0
8.8,-10.71,0,-1,0
8.9,-10.845,0,-1,0
9,-10.98,0,-1,0
9.1,-11.115,0,-1,0
9.2,-11.25,0,-1,0
9.3,-11.385,0,-1,0
9.4,-11.52,0,-1,0
9.5,-11.655,0,-1,0
9.6,-11.79,0,-1,0
9.7,-11.925,0,-1,0
9.8,-12.06,0,-1,0
9.9,-12.195,0,-1,0
10,-12.33,0,-1,0
10.1,-12.465,0,-1,0
10.2,-12.6,0,-1,0
10.3,-12.735,0,-1,0
10.4,-12.87,0,-1,0
10.5,-13.005,0,-1,0
10.6,-13.14,0,-1,0
10.7,-13.275,0,-1,0
10.8,-13.41,0,-1,0
10.9,-13.545,0,-1,0
11,-13.68,0,-1,0
11.1,-13.815,0,-1,0
11.2,-13.95,0,-1,0
11.3,-14.085,0,-1,0
11.4,-14.22,0,-1,0
11.5,-14.355,0,-1,0
11.6,-14.49,0,-1,0
11.7,-14.5855,-0.0954594,-0.707107,-0.707107
11.8,-14.6809,-0.190919,-0.707107,-0.707107
11.9,-14.7764,-0.286378,-0.707107,-0.707107
12,-14.8719,-0.381838,-0.707107,-0.707107
12.1,-14.9673,-0.477297,-0.707107,-0.707107
12.2,-15.0628,-0.572756,-0.707107,-0.707107
12.3,-15.1582,-0.668216,-0.707107,-0.707107
12.4,-15.2537,-0.763675,-0.707107,-0.707107
12.5,-15.3491,-0.859135,-0.707107,-0.707107
12.6,-15.4446,-0.954594,-0.707107,-0.707107
12.7,-15.5401,-1.05005,-0.707107,-0.707107
12.8,-15.6355,-1.14551,-0.707107,-0.707107
12.9,-15.731,-1.24097,-0.707107,-0.707107
13,-15.8264,-1.33643,-0.707107,-0.707107
13.1,-15.9219,-1.43189,-0.707107,-0.707107
13.2,-16.0174,-1.52735,-0.707107,-0.707107
13.3,-16.1128,-1.62281,-0.707107,-0.707107
13.4,-16.2083,-1.71827,-0.707107,-0.707107
13.5,-16.3037,-1.81373,-0.707107,-0.707107
13.6,-16.3992,-1.90919,-0.707107,-0.707107
13.7,-16.4947,-2.00465,-0.707107,-0.707107
13.8,-16.5901,-2.10011,-0.707107,-0.707107
13.9,-16.6856,-2.19557,-0.707107,-0.707107
14,-16.781,-2.29103,-0.707107,-0.707107
14.1,-16.8765,-2.38649,-0.707107,-0.707107
14.2,-16.972,-2.48195,-0.707107,-0.707107
14.3,-17.0674,-2.5774,-0.707107,-0.707107
14.4,-17.1629,-2.67286,-0.707107,-0.707107
14.5,-17.2583,-2.76832,-0.707107,-0.707107
14.6,-17.3538,-2.86378,-0.707107,-0.707107
14.7,-17.4492,-2.95924,-0.707107,-0.707107
14.8,-17.5447,-3.0547,-0.707107,-0.707107
14.9,-17.5447,-3.1897,0,-1
15,-17.5447,-3.3247,0,-1
15.1,-17.5447,-3.4597,0,-1
15.2,-17.5447,-3.5947,0,-1
15.3,-17.5447,-3.7297,0,-1
15.4,-17.5447,-3.8647,0,-1
15.5,-17.5447,-3.9997,0,-1
15.6,-17.5447,-4.1347,0,-1
15.7,-17.5447,-4.2697,0,-1
15.8,-17.5447,-4.4047,0,-1
15.9,-17.5447,-4.5397,0,-1
16,-17.5447,-4.6747,0,-1
16.1,-17.5447,-4.8097,0,-1
16.2,-17.5447,-4.9447,0,-1
16.3,-17.5447,-5.0797,0,-1
16.4,-17.5447,-5.2147,0,-1
16.5,-17.5447,-5.3497,0,-1
16.6,-17.5447,-5.4847,0,-1
16.7,-17.5447,-5.6197,0,-1
16.8,-17.5447,-5.7547,0,-1
16.9,-17.5447,-5.8897,0,-1
17,-17.5447,-6.0247,0,-1
17.1,-17.5447,-6.15971,0,-1
17.2,-17.5447,-6.29471,0,-1
17.3,-17.5447,-6.42971,0,-1
17.4,-17.5447,-6.56471,0,-1
17.5,-17.5447,-6.69971,0,-1
17.6,-17.5447,-6.83471,0,-1
17.7,-17.5447,-6.96971,0,-1
17.8,-17.5447,-7.10471,0,-1
17.9,-17.5447,-7.23971,0,-1
18,-17.5447,-7.37471,0,-1
18.1,-17.5447,-7.50971,0,-1
18.2,-17.5447,-7.64471,0,-1
18.3,-17.5447,-7.77971,0,-1
18.4,-17.5447,-7.91471,0,-1
18.5,-17.5447,-8.04971,0,-1
18.6,-17.5447,-8.18471,0,-1
18.7,-17.5447,-8.31971,0,-1
18.8,-17.5447,-8.45471,0,-1
18.9,-17.5447,-8.58971,0,-1
19,-17.5447,-8.72471,0,-1
19.1,-17.5447,-8.85971,0,-1
19.2,-17.5447,-8.99471,0,-1
19.3,-17.5447,-9.12971,0,-1
19.4,-17.5447,-9.26471,0,-1
19.5,-17.5447,-9.39971,0,-1
19.6,-17.5447,-9.53471,0,-1
19.7,-17.5447,-9.66971,0,-1
19.8,-17.5447,-9.80471,0,-1
19.9,-17.5447,-9.93971,0,-1
20,-17.5447,-10.0747,0,-1
20.1,-17.5447,-10.2097,0,-1
20.2,-17.5447,-10.3447,0,-1
20.3,-17.5447,-10.4797,0,-1
20.4,-17.5447,-10.6147,0,-1
20.5,-17.5447,-10.7497,0,-1
20.6,-17.5447,-10.8847,0,-1
20.7,-17.5447,-11.0197,0,-1
20.8,-17.5447,-11.1547,0,-1
20.9,-17.4492,-11.2502,0.707107,-0.707107
21,-17.3538,-11.3456,0.707107,-0.707107
21.1,-17.2583,-11.4411,0.707107,-0.707107
21.2,-17.1629,-11.5365,0.707107,-0.707107
21.3,-17.0674,-11.632,0.707107,-0.707107
21.4,-16.972,-11.7275,0.707107,-0.707107
21.5,-16.8765,-11.8229,0.707107,-0.707107
21.6,-16.781,-11.9184,0.707107,-0.707107
21.7,-16.6856,-12.0138,0.707107,-0.707107
21.8,-16.5901,-12.1093,0.707107,-0.707107
21.9,-16.4947,-12.2048,0.707107,-0.707107
22,-16.3992,-12.3002,0.707107,-0.707107
22.1,-16.3037,-12.3957,0.707107,-0.707107
22.2,-16.2083,-12.4911,0.707107,-0.707107
22.3,-16.0733,-12.4911,1,0
22.4,-15.9383,-12.4911,1,0
22.5,-15.8033,-12.4911,1,0
22.6,-15.6683,-12.4911,1,0
22.7,-15.5333,-12.4911,1,0
22.8,-15.3983,-12.4911,1,0
22.9,-15.2633,-12.4911,1,0
23,-15.1283,-12.4911,1,0
23.1,-14.9933,-12.4911,1,0
23.2,-14.8583,-12.4911,1,0
23.3,-14.7233,-12.4911,1,0
23.4,-14.5883,-12.4911,1,0
23.5,-14.4533,-12.4911,1,0
23.6,-14.3183,-12.4911,1,0
23.7,-14.1833,-12.4911,1,0
23.8,-14.0483,-12.4911,1,0
23.9,-13.9133,-12.4911,1,0
24,-13.7783,-12.4911,1,0
24.1,-13.6433,-12.4911,1,0
24.2,-13.5083,-12.4911,1,0
24.3,-13.3733,-12.4911,1,0
24.4,-13.2383,-12.4911,1,0
24.5,-13.1033,-12.4911,1,0
24.6,-12.9683,-12.4911,1,0
24.7,-12.8333,-12.4911,1,0
24.8,-12.6983,-12.4911,1,0
24.9,-12.5633,-12.4911,1,0
25,-12.4283,-12.4911,1,0
25.1,-12.2933,-12.4911,1,0
25.2,-12.1583,-12.4911,1,0
25.3,-12.0233,-12.4911,1,0
25.4,-11.8883,-12.4911,1,0
25.5,-11.7533,-12.4911,1,0
25.6,-11.6183,-12.4911,1,0
25.7,-11.4833,-12.4911,1,0
25.8,-11.3483,-12.4911,1,0
25.9,-11.2133,-12.4911,1,0
26,-11.0783,-12.4911,1,0
26.1,-10.9433,-12.4911,1,0
26.2,-10.8083,-12.4911,1,0
26.3,-10.6733,-12.4911,1,0
26.4,-10.5383,-12.4911,1,0
26.5,-10.4033,-12.4911,1,0
26.6,-10.2683,-12.4911,1,0
26.7,-10.1333,-12.4911,1,0
26.8,-9.99827,-12.4911,1,0
26.9,-9.86327,-12.4911,1,0
27,-9.72827,-12.4911,1,0
27.1,-9.59327,-12.4911,1,0
27.2,-9.45827,-12.4911,1,0
27.3,-9.32327,-12.4911,1,0
27.4,-9.18827,-12.4911,1,0
27.5,-9.05327,-12.4911,1,0
27.6,-8.91827,-12.4911,1,0
27.7,-8.78327,-12.4911,1,0
27.8,-8.64827,-12.4911,1,0
27.9,-8.51327,-12.4911,1,0
28,-8.37827,-12.4911,1,0
28.1,-8.24327,-12.4911,1,0
28.2,-8.10827,-12.4911,1,0
28.3,-7.97327,-12.4911,1,0
28.4,-7.83827,-12.4911,1,0
28.5,-7.70327,-12.4911,1,0
28.6,-7.56827,-12.4911,1,0
28.7,-7.43327,-12.4911,1,0
28.8,-7.29827,-12.4911,1,0
28.9,-7.16327,-12.4911,1,0
29,-7.02826,-12.4911,1,0
29.1,-6.89326,-12.4911,1,0
29.2,-6.75826,-12.4911,1,0
29.3,-6.62326,-12.4911,1,0
29.4,-6.48826,-12.4911,1,0
29.5,-6.35326,-12.4911,1,0
29.6,-6.21826,-12.4911,1,0
29.7,-6.08326,-12.4911,1,0
29.8,-5.94826,-12.4911,1,0
29.9,-5.81326,-12.4911,1,0
30,-5.67826,-12.4911,1,0
30.1,-5.54326,-12.4911,1,0
30.2,-5.40826,-12.4911,1,0
30.3,-5.27326,-12.4911,1,0
30.4,-5.13826,-12.4911,1,0
30.5,-5.00326,-12.4911,1,0
30.6,-4.86826,-12.4911,1,0
30.7,-4.73326,-12.4911,1,0
30.8,-4.59826,-12.4911,1,0
30.9,-4.46326,-12.4911,1,0
31,-4.32826,-12.4911,1,0
31.1,-4.19326,-12.4911,1,0
31.2,-4.05826,-12.4911,1,0
31.3,-3.92326,-12.4911,1,0
31.4,-3.78826,-12.4911,1,0
31.5,-3.65326,-12.4911,1,0
31.6,-3.51826,-12.4911,1,0
31.7,-3.38326,-12.4911,1,0
31.8,-3.24826,-12.4911,1,0
31.9,-3.11326,-12.4911,1,0
32,-2.97826,-12.4911,1,0
32.1,-2.84326,-12.4911,1,0
32.2,-2.70826,-12.4911,1,0
32.3,-2.57326,-12.4911,1,0
32.4,-2.43826,-12.4911,1,0
32.5,-2.30326,-12.4911,1,0
32.6,-2.16826,-12.4911,1,0
32.7,-2.03326,-12.4911,1,0
32.8,-1.89826,-12.4911,1,0
32.9,-1.76326,-12.4911,1,0
33,-1.62826,-12.4911,1,0
33.1,-1.49326,-12.4911,1,0
33.2,-1.35826,-12.4911,1,0
33.3,-1.22326,-12.4911,1,0
33.4,-1.08826,-12.4911,1,0
33.5,-0.95326,-12.4911,1,0
33.6,-0.81826,-12.4911,1,0
33.7,-0.68326,-12.4911,1,0
33.8,-0.54826,-12.4911,1,0
33.9,-0.41326,-12.4911,1,0
34,-0.27826,-12.4911,1,0
34.1,-0.14326,-12.4911,1,0
34.2,-0.00826025,-12.4911,1,0
34.3,0.12674,-12.4911,1,0
34.4,0.26174,-12.4911,1,0
34.5,0.39674,-12.4911,1,0
34.6,0.53174,-12.4911,1,0
34.7,0.66674,-12.4911,1,0
34.8,0.80174,-12.4911,1,0
34.9,0.93674,-12.4911,1,0
35,1.07174,-12.4911,1,0
35.1,1.20674,-12.4911,1,0
35.2,1.34174,-12.4911,1,0
35.3,1.47674,-12.4911,1,0
35.4,1.61174,-12.4911,1,0
35.5,1.74674,-12.4911,1,0
35.6,1.88174,-12.4911,1,0
35.7,2.01674,-12.4911,1,0
35.8,2.15174,-12.4911,1,0
35.9,2.28674,-12.4911,1,0
36,2.42174,-12.4911,1,0
36.1,2.55674,-12.4911,1,0
36.2,2.69174,-12.4911,1,0
36.3,2.82674,-12.4911,1,0
36.4,2.96174,-12.4911,1,0
36.5,3.09674,-12.4911,1,0
36.6,3.23174,-12.4911,1,0
36.7,3.36674,-12.4911,1,0
36.8,3.50174,-12.4911,1,0
36.9,3.63674,-12.4911,1,0
37,3.77174,-12.4911,1,0
37.1,3.90674,-12.4911,1,0
37.2,4.04174,-12.4911,1,0
37.3,4.17674,-12.4911,1,0
37.4,4.31174,-12.4911,1,0
37.5,4.44674,-12.4911,1,0
37.6,4.58174,-12.4911,1,0
37.7,4.71674,-12.4911,1,0
37.8,4.85174,-12.4911,1,0
37.9,4.98674,-12.4911,1,0
38,5.12174,-12.4911,1,0
38.1,5.25674,-12.4911,1,0
38.2,5.39174,-12.4911,1,0
38.3,5.52674,-12.4911,1,0
38.4,5.66174,-12.4911,1,0
38.5,5.79674,-12.4911,1,0
38.6,5.93174,-12.4911,1,0
38.7,6.06674,-12.4911,1,0
38.8,6.20174,-12.4911,1,0
38.9,6.33674,-12.4911,1,0
39,6.47174,-12.4911,1,0
39.1,6.60674,-12.4911,1,0
39.2,6.74174,-12.4911,1,0
39.3,6.87674,-12.4911,1,0
39.4,7.01174,-12.4911,1,0
39.5,7.14674,-12.4911,1,0
39.6,7.28174,-12.4911,1,0
39.7,7.41675,-12.4911,1,0
39.8,7.55175,-12.4911,1,0
39.9,7.68675,-12.4911,1,0
40,7.82175,-12.4911,1,0
40.1,7.95675,-12.4911,1,0
40.2,8.09175,-12.4911,1,0
40.3,8.22675,-12.4911,1,0
40.4,8.36175,-12.4911,1,0
40.5,8.49675,-12.4911,1,0
40.6,8.63175,-12.4911,1,0
40.7,8.76675,-12.4911,1,0
40.8,8.90175,-12.4911,1,0
40.9,9.03675,-12.4911,1,0
41,9.17175,-12.4911,1,0
41.1,9.30675,-12.4911,1,0
41.2,9.44175,-12.4911,1,0
41.3,9.57675,-12.4911,1,0
41.4,9.71175,-12.4911,1,0
41.5,9.84675,-12.4911,1,0
41.6,9.98175,-12.4911,1,0
41.7,10.1167,-12.4911,1,0
41.8,10.2517,-12.4911,1,0
41.9,10.3472,-12.3957,0.707107,0.707107
42,10.4427,-12.3002,0.707107,0.707107
42.1,10.5381,-12.2048,0.707107,0.707107
42.2,10.6336,-12.1093,0.707107,0.707107
42.3,10.729,-12.0138,0.707107,0.707107
42.4,10.8245,-11.9184,0.707107,0.707107
42.5,10.92,-11.8229,0.707107,0.707107
42.6,11.0154,-11.7275,0.707107,0.707107
42.7,11.1109,-11.632,0.707107,0.707107
42.8,11.2063,-11.5365,0.707107,0.707107
42.9,11.3018,-11.4411,0.707107,0.707107
43,11.3973,-11.3456,0.707107,0.707107
43.1,11.4927,-11.2502,0.707107,0.707107
43.2,11.5882,-11.1547,0.707107,0.707107
43.3,11.6836,-11.0593,0.707107,0.707107
43.4,11.7791,-10.9638,0.707107,0.707107
43.5,11.8746,-10.8683,0.707107,0.707107
43.6,11.97,-10.7729,0.707107,0.707107
43.7,12.0655,-10.6774,0.707107,0.707107
43.8,12.1609,-10.582,0.707107,0.707107
43.9,12.2564,-10.4865,0.707107,0.707107
44,12.3518,-10.391,0.707107,0.707107
44.1,12.4473,-10.2956,0.707107,0.707107
44.2,12.5428,-10.2001,0.707107,0.707107
44.3,12.6382,-10.1047,0.707107,0.707107
44.4,12.6382,-9.96966,0,1
44.5,12.6382,-9.83466,0,1
44.6,12.6382,-9.69966,0,1
44.7,12.6382,-9.56466,0,1
44.8,12.6382,-9.42966,0,1
44.9,12.6382,-9.29466,0,1
45,12.6382,-9.15966,0,1
45.1,12.6382,-9.02466,0,1
45.2,12.6382,-8.88966,0,1
45.3,12.6382,-8.75466,0,1
45.4,12.6382,-8.61966,0,1
45.5,12.6382,-8.48466,0,1
45.6,12.6382,-8.34966,0,1
45.7,12.6382,-8.21466,0,1
45.8,12.6382,-8.07966,0,1
45.9,12.6382,-7.94466,0,1
46,12.6382,-7.80966,0,1
46.1,12.6382,-7.67466,0,1
46.2,12.6382,-7.53966,0,1
46.3,12.6382,-7.40466,0,1
46.4,12.6382,-7.26966,0,1
46.5,12.6382,-7.13466,0,1
46.6,12.6382,-6.99966,0,1
46.7,12.6382,-6.86466,0,1
46.8,12.6382,-6.72966,0,1
46.9,12.6382,-6.59466,0,1
47,12.6382,-6.45966,0,1
47.1,12.6382,-6.32466,0,1
47.2,12.6382,-6.18966,0,1
47.3,12.6382,-6.05466,0,1
47.4,12.6382,-5.91966,0,1
47.5,12.6382,-5.78466,0,1
47.6,12.6382,-5.64966,0,1
47.7,12.6382,-5.51466,0,1
47.8,12.6382,-5.37966,0,1
47.9,12.6382,-5.24466,0,1
48,12.6382,-5.10966,0,1
48.1,12.6382,-4.97466,0,1
48.2,12.6382,-4.83966,0,1
48.3,12.6382,-4.70466,0,1
48.4,12.6382,-4.56966,0,1
48.5,12.6382,-4.43466,0,1
48.6,12.6382,-4.29965,0,1
48.7,12.6382,-4.16465,0,1
48.8,12.6382,-4.02965,0,1
48.9,12.6382,-3.89465,0,1
49,12.6382,-3.75965,0,1
49.1,12.6382,-3.62465,0,1
49.2,12.6382,-3.48965,0,1
49.3,12.6382,-3.35465,0,1
49.4,12.6382,-3.21965,0,1
49.5,12.6382,-3.08465,0,1
49.6,12.6382,-2.94965,0,1
49.7,12.6382,-2.81465,0,1
49.8,12.6382,-2.67965,0,1
49.9,12.6382,-2.54465,0,1
50,12.6382,-2.40965,0,1
50.1,12.6382,-2.27465,0,1
50.2,12.6382,-2.13965,0,1
50.3,12.6382,-2.00465,0,1
50.4,12.6382,-1.86965,0,1
50.5,12.6382,-1.73465,0,1
50.6,12.6382,-1.59965,0,1
50.7,12.6382,-1.46465,0,1
50.8,12.6382,-1.32965,0,1
50.9,12.6382,-1.19465,0,1
51,12.6382,-1.05965,0,1
51.1,12.6382,-0.924655,0,1
51.2,12.6382,-0.789655,0,1
51.3,12.6382,-0.654655,0,1
51.4,12.6382,-0.519655,0,1
51.5,12.6382,-0.384655,0,1
51.6,12.6382,-0.249655,0,1
51.7,12.6382,-0.114655,0,1
51.8,12.6382,0.0203452,0,1
51.9,12.6382,0.155345,0,1
52,12.6382,0.290345,0,1
52.1,12.6382,0.425345,0,1
52.2,12.6382,0.560345,0,1
52.3,12.6382,0.695345,0,1
52.4,12.6382,0.830345,0,1
52.5,12.6382,0.965345,0,1
52.6,12.6382,1.10035,0,1
52.7,12.6382,1.23535,0,1
52.8,12.6382,1.37035,0,1
52.9,12.6382,1.50535,0,1
53,12.6382,1.64035,0,1
53.1,12.6382,1.77535,0,1
53.2,12.6382,1.91035,0,1
53.3,12.6382,2.04535,0,1
53.4,12.6382,2.18035,0,1
53.5,12.6382,2.31535,0,1
53.6,12.6382,2.45035,0,1
53.7,12.6382,2.58535,0,1
53.8,12.6382,2.72035,0,1
53.9,12.6382,2.85535,0,1
54,12.6382,2.99035,0,1
54.1,12.5428,3.0858,-0.707107,0.707107
54.2,12.4473,3.18126,-0.707107,0.707107
54.3,12.3123,3.18126,-1,0
54.4,12.1773,3.18126,-1,0
54.5,12.0423,3.18126,-1,0
54.6,11.9073,3.18126,-1,0
54.7,11.7723,3.18126,-1,0
54.8,11.6373,3.18126,-1,0
54.9,11.5023,3.18126,-1,0
55,11.3673,3.18126,-1,0
55.1,11.2323,3.18126,-1,0
55.2,11.0973,3.18126,-1,0
55.3,10.9623,3.18126,-1,0
55.4,10.8273,3.18126,-1,0
55.5,10.6923,3.18126,-1,0
55.6,10.5573,3.18126,-1,0
55.7,10.4223,3.18126,-1,0
55.8,10.2873,3.18126,-1,0
55.9,10.1523,3.18126,-1,0
56,10.0173,3.18126,-1,0
56.1,9.8823,3.18126,-1,0
56.2,9.7473,3.18126,-1,0
56.3,9.6123,3.18126,-1,0
56.4,9.4773,3.18126,-1,0
56.5,9.3423,3.18126,-1,0
56.6,9.2073,3.18126,-1,0
56.7,9.0723,3.18126,-1,0
56.8,8.9373,3.18126,-1,0
56.9,8.8023,3.18126,-1,0
57,8.6673,3.18126,-1,0
57.1,8.5323,3.18126,-1,0
57.2,8.3973,3.18126,-1,0
57.3,8.2623,3.18126,-1,0
57.4,8.1273,3.18126,-1,0
57.5,7.9923,3.18126,-1,0
57.6,7.8573,3.18126,-1,0
57.7,7.7223,3.18126,-1,0
57.8,7.5873,3.18126,-1,0
57.9,7.4523,3.18126,-1,0
58,7.3173,3.18126,-1,0
58.1,7.1823,3.18126,-1,0
58.2,7.0473,3.18126,-1,0
58.3,6.9123,3.18126,-1,0
58.4,6.7773,3.18126,-1,0
58.5,6.6423,3.18126,-1,0
58.6,6.5073,3.18126,-1,0
58.7,6.3723,3.18126,-1,0
58.8,6.2373,3.18126,-1,0
58.9,6.1023,3.18126,-1,0
59,5.9673,3.18126,-1,0
59.1,5.8323,3.18126,-1,0
59.2,5.6973,3.18126,-1,0
59.3,5.56229,3.18126,-1,0
59.4,5.42729,3.18126,-1,0
59.5,5.29229,3.18126,-1,0
59.6,5.15729,3.18126,-1,0
59.7,5.02229,3.18126,-1,0
59.8,4.88729,3.18126,-1,0
59.9,4.75229,3.18126,-1,0
60,4.61729,3.18126,-1,0
60.1,4.48229,3.18126,-1,0
60.2,4.34729,3.18126,-1,0
60.3,4.21229,3.18126,-1,0
60.4,4.07729,3.18126,-1,0
60.5,3.94229,3.18126,-1,0
60.6,3.80729,3.18126,-1,0
60.7,3.67229,3.18126,-1,0
60.8,3.53729,3.18126,-1,0
60.9,3.40229,3.18126,-1,0
61,3.26729,3.18126,-1,0
61.1,3.26729,3.18126,-1,0
61.2,3.26729,3.18126,-1,0
61.3,3.26729,3.18126,-1,0
61.4,3.26729,3.18126,-1,0
61.5,3.26729,3.18126,-1,0
61.6,3.26729,3.18126,-1,0
61.7,3.26729,3.18126,-1,0
61.8,3.26729,3.18126,-1,0
61.9,3.26729,3.18126,-1,0
62,3.26729,3.18126,-1,0
62.1,3.26729,3.18126,-1,0
62.2,3.26729,3.18126,-1,0
62.3,3.26729,3.18126,-1,0
62.4,3.26729,3.18126,-1,0
62.5,3.26729,3.18126,-1,0
62.6,3.26729,3.18126,-1,0
