0.2,4,-1,0,0
0.3,3.82,-1,-1,0
0.4,3.82,-1,-1,0
0.5,3.82,-1,-1,0
0.6,3.82,-1,-1,0
0.7,3.82,-1,-1,0
0.8,3.802,-1,-1,0
0.9,3.784,-1,-1,0
1,3.766,-1,-1,0
1.1,3.748,-1,-1,0
1.2,3.73,-1,-1,0
1.3,3.712,-1,-1,0
1.4,3.694,-1,-1,0
1.5,3.676,-1,-1,0
1.6,3.658,-1,-1,0
1.7,3.64,-1,-1,0
1.8,3.622,-1,-1,0
1.9,3.55,-1,-1,0
2,3.46,-1,-1,0
2.1,3.37,-1,-1,0
2.2,3.28,-1,-1,0
2.3,3.19,-1,-1,0
2.4,3.1,-1,-1,0
2.5,3.01,-1,-1,0
2.6,2.92,-1,-1,0
2.7,2.83,-1,-1,0
2.8,2.74,-1,-1,0
2.9,2.65,-1,-1,0
3,2.56,-1,-1,0
3.1,2.47,-1,-1,0
3.2,2.38,-1,-1,0
3.3,2.29,-1,-1,0
3.4,2.2,-1,-1,0
3.5,2.11,-1,-1,0
3.6,2.02,-1,-1,0
3.7,1.948,-1,-1,0
3.8,1.93,-1,-1,0
3.9,1.912,-1,-1,0
4,1.894,-1,-1,0
4.1,1.876,-1,-1,0
4.2,1.858,-1,-1,0
4.3,1.84,-1,-1,0
4.4,1.822,-1,-1,0
4.5,1.804,-1,-1,0
4.6,1.786,-1,-1,0
4.7,1.768,-1,-1,0
4.8,1.75,-1,-1,0
4.9,1.732,-1,-1,0
5,1.714,-1,-1,0
5.1,1.696,-1,-1,0
5.2,1.678,-1,-1,0
5.3,1.66,-1,-1,0
5.4,1.642,-1,-1,0
5.5,1.624,-1,-1,0
5.6,1.606,-1,-1,0
5.7,1.588,-1,-1,0
5.8,1.57,-1,-1,0
5.9,1.552,-1,-1,0
6,1.534,-1,-1,0
6.1,1.516,-1,-1,0
6.2,1.498,-1,-1,0
6.3,1.48,-1,-1,0
6.4,1.462,-1,-1,0
6.5,1.444,-1,-1,0
6.6,1.426,-1,-1,0
6.7,1.408,-1,-1,0
6.8,1.39,-1,-1,0
6.9,1.372,-1,-1,0
7,1.354,-1,-1,0
7.1,1.336,-1,-1,0
7.2,1.318,-1,-1,0
7.3,1.3,-1,-1,0
7.4,1.282,-1,-1,0
7.5,1.264,-1,-1,0
7.6,1.246,-1,-1,0
7.7,1.228,-1,-1,0
7.8,1.21,-1,-1,0
7.9,1.192,-1,-1,0
8,1.174,-1,-1,0
8.1,1.156,-1,-1,0
8.2,1.138,-1,-1,0
8.3,1.12,-1,-1,0
8.4,1.102,-1,-1,0
8.5,1.084,-1,-1,0
8.6,1.066,-1,-1,0
8.7,1.048,-1,-1,0
8.8,1.03,-1,-1,0
8.9,1.012,-1,-1,0
9,0.994002,-1,-1,0
9.1,0.976002,-1,-1,0
9.2,0.958002,-1,-1,0
9.3,0.940002,-1,-1,0
9.4,0.922002,-1,-1,0
9.5,0.904002,-1,-1,0
9.6,0.886002,-1,-1,0
9.7,0.850002,-1,-1,0
9.8,0.814002,-1,-1,0
9.9,0.778002,-1,-1,0
10,0.742002,-1,-1,0
10.1,0.706002,-1,-1,0
10.2,0.670002,-1,-1,0
10.3,0.634002,-1,-1,0
10.4,0.598002,-1,-1,0
10.5,0.544002,-1,-1,0
10.6,0.490002,-1,-1,0
10.7,0.436002,-1,-1,0
10.8,0.382002,-1,-1,0
10.9,0.328002,-1,-1,0
11,0.274002,-1,-1,0
11.1,0.220002,-1,-1,0
11.2,0.166002,-1,-1,0
11.3,0.112002,-1,-1,0
11.4,0.0580022,-1,-1,0
11.5,-0.0139978,-1,-1,0
11.6,-0.0859978,-1,-1,0
11.7,-0.157998,-1,-1,0
11.8,-0.229998,-1,-1,0
11.9,-0.301998,-1,-1,0
12,-0.373998,-1,-1,0
12.1,-0.445998,-1,-1,0
12.2,-0.517998,-1,-1,0
12.3,-0.589998,-1,-1,0
12.4,-0.661998,-1,-1,0
12.5,-0.733998,-1,-1,0
12.6,-0.805998,-1,-1,0
12.7,-0.877998,-1,-1,0
12.8,-0.949998,-1,-1,0
12.9,-1.022,-1,-1,0
13,-1.094,-1,-1,0
13.1,-1.166,-1,-1,0
13.2,-1.238,-1,-1,0
13.3,-1.31,-1,-1,0
13.4,-1.382,-1,-1,0
13.5,-1.454,-1,-1,0
13.6,-1.526,-1,-1,0
13.7,-1.598,-1,-1,0
13.8,-1.67,-1,-1,0
13.9,-1.76,-1,-1,0
14,-1.85,-1,-1,0
14.1,-1.94,-1,-1,0
14.2,-2.03,-1,-1,0
14.3,-2.12,-1,-1,0
14.4,-2.228,-1,-1,0
14.5,-2.336,-1,-1,0
14.6,-2.444,-1,-1,0
14.7,-2.552,-1,-1,0
14.8,-2.66,-1,-1,0
14.9,-2.768,-1,-1,0
15,-2.876,-1,-1,0
15.1,-2.984,-1,-1,0
15.2,-3.092,-1,-1,0
15.3,-3.2,-1,-1,0
15.4,-3.308,-1,-1,0
15.5,-3.416,-1,-1,0
15.6,-3.524,-1,-1,0
15.7,-3.632,-1,-1,0
15.8,-3.74,-1,-1,0
15.9,-3.848,-1,-1,0
16,-3.956,-1,-1,0
16.1,-4.064,-1,-1,0
16.2,-4.172,-1,-1,0
16.3,-4.28,-1,-1,0
16.4,-4.388,-1,-1,0
16.5,-4.496,-1,-1,0
16.6,-4.604,-1,-1,0
16.7,-4.712,-1,-1,0
16.8,-4.82,-1,-1,0
16.9,-4.928,-1,-1,0
17,-5.036,-1,-1,0
17.1,-5.162,-1,-1,0
17.2,-5.288,-1,-1,0
17.3,-5.414,-1,-1,0
17.4,-5.54,-1,-1,0
17.5,-5.666,-1,-1,0
17.6,-5.792,-1,-1,0
17.7,-5.918,-1,-1,0
17.8,-6.044,-1,-1,0
17.9,-6.188,-1,-1,0
18,-6.35,-1,-1,0
18.1,-6.512,-1,-1,0
18.2,-6.674,-1,-1,0
18.3,-6.836,-1,-1,0
18.4,-6.998,-1,-1,0
18.5,-7.16,-1,-1,0
18.6,-7.322,-1,-1,0
18.7,-7.484,-1,-1,0
18.8,-7.646,-1,-1,0
18.9,-7.808,-1,-1,0
19,-7.97,-1,-1,0
19.1,-8.132,-1,-1,0
19.2,-8.294,-1,-1,0
19.3,-8.456,-1,-1,0
19.4,-8.618,-1,-1,0
19.5,-8.78,-1,-1,0
19.6,-8.78,-1,-1,0
19.7,-8.78,-1,-1,0
19.8,-8.78,-1,-1,0
19.9,-8.78,-1,-1,0
20,-8.78,-1,-1,0
20.1,-8.942,-1,-1,0
20.2,-9.104,-1,-1,0
20.3,-9.266,-1,-1,0
20.4,-9.428,-1,-1,0
20.5,-9.59,-1,-1,0
20.6,-9.752,-1,-1,0
20.7,-9.59,-1,1,0
20.8,-9.428,-1,1,0
20.9,-9.248,-1,1,0
21,-9.068,-1,1,0
21.1,-8.88799,-1,1,0
21.2,-8.70799,-1,1,0
21.3,-8.52799,-1,1,0
21.4,-8.34799,-1,1,0
21.5,-8.16799,-1,1,0
21.6,-7.98799,-1,1,0
21.7,-7.80799,-1,1,0
21.8,-7.62799,-1,1,0
21.9,-7.44799,-1,1,0
22,-7.26799,-1,1,0
22.1,-7.08799,-1,1,0
22.2,-6.90799,-1,1,0
22.3,-6.72799,-1,1,0
22.4,-6.548,-1,1,0
22.5,-6.368,-1,1,0
22.6,-6.188,-1,1,0
22.7,-6.008,-1,1,0
22.8,-5.828,-1,1,0
22.9,-5.648,-1,1,0
23,-5.468,-1,1,0
23.1,-5.288,-1,1,0
23.2,-5.108,-1,1,0
23.3,-4.928,-1,1,0
23.4,-4.748,-1,1,0
23.5,-4.568,-1,1,0
23.6,-4.388,-1,1,0
23.7,-4.208,-1,1,0
23.8,-4.028,-1,1,0
23.9,-3.848,-1,1,0
24,-3.668,-1,1,0
24.1,-3.488,-1,1,0
24.2,-3.308,-1,1,0
24.3,-3.128,-1,1,0
24.4,-2.948,-1,1,0
24.5,-2.768,-1,1,0
24.6,-2.588,-1,1,0
24.7,-2.408,-1,1,0
24.8,-2.228,-1,1,0
24.9,-2.048,-1,1,0
25,-1.868,-1,1,0
25.1,-1.688,-1,1,0
25.2,-1.508,-1,1,0
25.3,-1.328,-1,1,0
25.4,-1.148,-1,1,0
25.5,-0.967997,-1,1,0
25.6,-0.787997,-1,1,0
25.7,-0.607997,-1,1,0
25.8,-0.427997,-1,1,0
25.9,-0.247997,-1,1,0
26,-0.067997,-1,1,0
26.1,0.112003,-1,1,0
26.2,0.292003,-1,1,0
26.3,0.472003,-1,1,0
26.4,0.652003,-1,1,0
26.5,0.832003,-1,1,0
26.6,1.012,-1,1,0
26.7,1.192,-1,1,0
26.8,1.372,-1,1,0
26.9,1.552,-1,1,0
27,1.732,-1,1,0
27.1,1.912,-1,1,0
27.2,2.092,-1,1,0
27.3,2.272,-1,1,0
27.4,2.452,-1,1,0
27.5,2.632,-1,1,0
27.6,2.812,-1,1,0
27.7,2.992,-1,1,0
27.8,3.172,-1,1,0
27.9,3.352,-1,1,0
28,3.532,-1,1,0
28.1,3.532,-1,1,0
28.2,3.532,-1,1,0
28.3,3.532,-1,1,0
28.4,3.352,-1,-1,0
28.5,3.352,-1,-1,0
28.6,3.352,-1,-1,0
28.7,3.352,-1,-1,0
28.8,3.352,-1,-1,0
28.9,3.352,-1,-1,0
29,3.172,-1,-1,0
29.1,2.992,-1,-1,0
29.2,2.812,-1,-1,0
29.3,2.632,-1,-1,0
29.4,2.452,-1,-1,0
29.5,2.272,-1,-1,0
29.6,2.092,-1,-1,0
29.7,1.912,-1,-1,0
29.8,1.732,-1,-1,0
29.9,1.552,-1,-1,0
30,1.372,-1,-1,0
30.1,1.192,-1,-1,0
30.2,1.012,-1,-1,0
30.3,0.832003,-1,-1,0
30.4,0.652003,-1,-1,0
30.5,0.472003,-1,-1,0
30.6,0.292003,-1,-1,0
30.7,0.112003,-1,-1,0
30.8,-0.0679971,-1,-1,0
30.9,-0.247997,-1,-1,0
31,-0.427997,-1,-1,0
31.1,-0.607997,-1,-1,0
31.2,-0.787997,-1,-1,0
31.3,-0.967997,-1,-1,0
31.4,-1.148,-1,-1,0
31.5,-1.328,-1,-1,0
31.6,-1.508,-1,-1,0
31.7,-1.688,-1,-1,0
31.8,-1.868,-1,-1,0
31.9,-2.048,-1,-1,0
32,-2.048,-1,-1,0
32.1,-2.048,-1,-1,0
32.2,-2.048,-1,-1,0
32.3,-2.048,-1,-1,0
32.4,-2.048,-1,-1,0
32.5,-2.048,-1,-1,0
32.6,-2.048,-1,-1,0
32.7,-2.048,-1,-1,0
32.8,-2.048,-1,-1,0
32.9,-2.048,-1,-1,0
33,-2.048,-1,-1,0
33.1,-2.048,-1,-1,0
33.2,-2.048,-1,-1,0
33.3,-2.174,-1,-1,0
33.4,-2.3,-1,-1,0
33.5,-2.426,-1,-1,0
33.6,-2.426,-1,-1,0
33.7,-2.552,-1,-1,0
33.8,-2.696,-1,-1,0
33.9,-2.84,-1,-1,0
34,-2.984,-1,-1,0
34.1,-2.984,-1,-1,0
34.2,-2.984,-1,-1,0
34.3,-2.984,-1,-1,0
34.4,-2.984,-1,-1,0
34.5,-3.128,-1,-1,0
34.6,-3.272,-1,-1,0
34.7,-3.434,-1,-1,0
34.8,-3.614,-1,-1,0
34.9,-3.794,-1,-1,0
35,-3.974,-1,-1,0
35.1,-4.154,-1,-1,0
35.2,-4.334,-1,-1,0
35.3,-4.514,-1,-1,0
35.4,-4.694,-1,-1,0
35.5,-4.874,-1,-1,0
35.6,-5.054,-1,-1,0
35.7,-5.234,-1,-1,0
35.8,-5.414,-1,-1,0
35.9,-5.594,-1,-1,0
36,-5.774,-1,-1,0
36.1,-5.954,-1,-1,0
36.2,-6.134,-1,-1,0
36.3,-6.134,-1,-1,0
36.4,-6.134,-1,-1,0
36.5,-6.134,-1,-1,0
36.6,-6.134,-1,-1,0
36.7,-6.134,-1,-1,0
36.8,-6.31399,-1,-1,0
36.9,-6.49399,-1,-1,0
37,-6.67399,-1,-1,0
37.1,-6.85399,-1,-1,0
37.2,-7.03399,-1,-1,0
37.3,-7.21399,-1,-1,0
37.4,-7.39399,-1,-1,0
37.5,-7.57399,-1,-1,0
37.6,-7.57399,-1,-1,0
37.7,-7.57399,-1,-1,0
