20;20;1.000000;1.000000
10.000000;10.000000
1.352028;-1.188285
1.353462;-1.186651
1.348458;-1.192334
1.328226;-1.214832
1.268227;-1.277341
1.108283;-1.418347
0.772837;-1.625645
0.368521;-1.761872
0.122435;-1.795831
0.034364;-1.799672
0.022921;-1.799854
-0.036197;-1.799636
-0.250746;-1.782449
-0.636539;-1.683692
-0.978949;-1.510516
-1.157392;-1.378566
-1.233281;-1.311113
-1.264244;-1.281283
-1.276034;-1.269541
-1.278933;-1.266621
1.358693;-1.180657
1.352100;-1.188202
1.353016;-1.187160
1.345265;-1.195936
1.307965;-1.236619
1.174358;-1.364142
0.819357;-1.602702
0.353375;-1.764972
0.105728;-1.796892
0.033351;-1.799691
0.025133;-1.799824
-0.015437;-1.799934
-0.227075;-1.785619
-0.678275;-1.667316
-1.048374;-1.463185
-1.204036;-1.338020
-1.257588;-1.287817
-1.274991;-1.270590
-1.278906;-1.266648
-1.281226;-1.264302
1.376967;-1.159294
1.361449;-1.177478
1.352836;-1.187365
1.352930;-1.187258
1.338498;-1.203504
1.244398;-1.300567
0.890256;-1.564431
0.337735;-1.768031
0.090496;-1.797724
0.033479;-1.799688
0.029909;-1.799752
0.021908;-1.799867
-0.172826;-1.791684
-0.727371;-1.646490
-1.119829;-1.409249
-1.242149;-1.302715
-1.273014;-1.272570
-1.278859;-1.266696
-1.281964;-1.263554
-1.292102;-1.253184
1.417564;-1.109285
1.389279;-1.144510
1.368171;-1.169662
1.354554;-1.185404
1.357909;-1.181560
1.320005;-1.223760
0.972861;-1.514444
0.108368;-1.796735
0.014906;-1.799938
0.034244;-1.799674
0.045257;-1.799431
0.191117;-1.789825
0.236331;-1.784418
-0.680079;-1.666581
-1.175632;-1.363044
-1.267641;-1.277922
-1.278775;-1.266781
-1.283303;-1.262194
-1.297871;-1.247209
-1.321080;-1.222598
1.499151;-0.996266
1.460129;-1.052627
1.425396;-1.099203
1.403461;-1.127075
1.419688;-1.106566
0.000000;0.000000
0.000000;0.000000
0.000000;0.000000
0.000000;0.000000
0.000000;0.000000
0.000000;0.000000
0.000000;0.000000
0.000000;0.000000
0.000000;0.000000
0.000000;0.000000
-1.273800;-1.271783
-1.286222;-1.259219
-1.310661;-1.233762
-1.346543;-1.194497
-1.387884;-1.146201
1.629156;-0.765410
1.600089;-0.824449
1.572796;-0.875393
1.574327;-0.872636
0.000000;0.000000
0.000000;0.000000
-1.211609;1.331166
-1.055166;1.458295
-0.517524;1.723998
-0.025516;1.799819
0.092152;1.797639
0.694458;1.660641
1.162841;1.373973
1.276198;1.269377
0.000000;0.000000
0.000000;0.000000
-1.354206;-1.185801
-1.411276;-1.117274
-1.469160;-1.039985
-1.518055;-0.967216
1.750593;-0.418838
1.748678;-0.426763
1.754891;-0.400448
1.798531;-0.072702
0.000000;0.000000
-1.258150;1.287268
-1.275670;1.269908
-1.199694;1.341914
-0.724273;1.647856
-0.056970;1.799098
0.132403;1.795124
0.846416;1.588578
1.234205;1.310243
1.275523;1.270055
1.315564;1.228532
0.000000;0.000000
-1.630455;-0.762638
-1.638464;-0.745276
-1.666206;-0.680997
-1.684918;-0.633287
1.795882;-0.121680
1.797622;-0.092491
1.799913;-0.017666
1.755311;0.398601
0.000000;0.000000
-1.389894;1.143763
-1.331920;1.210780
-1.276168;1.269408
-1.054617;1.458692
-0.132332;1.795129
0.258491;1.781343
1.120677;1.408575
1.275753;1.269825
1.352702;1.187517
1.441259;1.078319
0.000000;0.000000
-1.798238;0.079634
-1.785834;-0.225382
-1.781696;-0.256047
-1.779733;-0.269350
1.799959;0.012176
1.799819;0.025516
1.799099;0.056940
1.789568;0.193513
0.000000;0.000000
-1.699973;0.591684
-1.649232;0.721133
-1.481492;1.022341
-1.277522;1.268045
-0.334565;1.768634
0.620953;1.689502
1.278004;1.267559
1.485012;1.017221
1.646207;0.728013
1.703968;0.580081
0.000000;0.000000
-1.797556;0.093761
-1.799775;-0.028422
-1.799203;-0.053548
-1.798711;-0.068102
1.799704;0.032659
1.799698;0.032943
1.799643;0.035834
1.799414;0.045940
0.000000;0.000000
-1.799773;0.028615
-1.799581;0.038839
-1.798139;0.081818
-1.788915;0.199458
-1.425585;1.098958
1.436281;1.084940
1.758427;0.384622
1.793263;0.155585
1.798275;0.078787
1.799154;0.055181
0.000000;0.000000
-1.799999;0.001957
-1.799985;-0.007460
-1.799971;-0.010216
-1.799964;-0.011350
1.799395;0.046656
1.799443;0.044775
1.799428;0.045378
1.799389;0.046891
0.000000;0.000000
-1.798297;-0.078281
-1.793665;-0.150881
-1.767440;-0.340818
-1.581876;-0.858876
-0.914218;-1.550550
1.309647;-1.234838
1.730535;-0.495226
1.788625;-0.202043
1.797481;-0.095188
1.799112;-0.056527
0.000000;0.000000
-1.799984;-0.007537
-1.799998;-0.002902
-1.799999;-0.001304
-1.800000;0.000606
1.791740;0.172244
1.792868;0.160076
1.792570;0.163377
1.792922;0.159465
0.000000;0.000000
-1.686679;-0.628582
-1.561267;-0.895793
-1.315575;-1.228520
-1.161242;-1.375324
-0.211103;-1.787578
0.669743;-1.670762
1.304598;-1.240171
1.478605;-1.026512
1.643828;-0.733369
1.714297;-0.548805
0.000000;0.000000
-1.800000;0.001216
-1.798908;0.062693
-1.798393;0.076029
-1.797652;0.091908
1.745198;0.440775
1.741929;0.453525
1.729018;0.500496
1.710010;0.562018
0.000000;0.000000
0.000000;0.000000
-1.219208;-1.324210
-1.171966;-1.366198
-0.879839;-1.570313
-0.050065;-1.799304
0.305489;-1.773887
1.129770;-1.401292
1.304163;-1.240629
1.371833;-1.165364
1.481067;-1.022956
0.000000;0.000000
-1.778028;0.280385
-1.767529;0.340353
-1.769243;0.331331
-1.768293;0.336361
1.621417;0.781668
1.591450;0.841003
1.541846;0.928822
1.479680;1.024962
1.455481;1.059044
0.000000;0.000000
-1.138868;-1.393908
-1.061338;-1.453809
-0.539320;-1.717304
0.011300;-1.799964
0.175469;-1.791427
0.851047;-1.586102
1.250393;-1.294804
1.304396;-1.240384
0.000000;0.000000
0.000000;0.000000
-1.532169;0.944701
-1.591028;0.841801
-1.631888;0.759566
-1.654897;0.708036
1.472130;1.035777
1.427364;1.096645
1.375922;1.160534
1.327922;1.215164
1.299031;1.246001
0.000000;0.000000
0.000000;0.000000
-0.725003;-1.647535
-0.259503;-1.781196
0.047719;-1.799367
0.137007;-1.794778
0.700645;-1.658040
1.166473;-1.370890
0.000000;0.000000
0.000000;0.000000
-1.292094;1.253193
-1.343563;1.197847
-1.395733;1.136631
-1.448341;1.068789
-1.492353;1.006420
1.366948;1.171091
1.331324;1.211435
1.299705;1.245298
1.276196;1.269379
1.263814;1.281707
1.280098;1.265444
0.000000;0.000000
0.000000;0.000000
0.000000;0.000000
0.000000;0.000000
0.000000;0.000000
0.000000;0.000000
0.000000;0.000000
0.000000;0.000000
-1.209367;1.333203
-1.293547;1.251693
-1.300668;1.244292
-1.318429;1.225456
-1.346664;1.194360
-1.379621;1.156134
1.309196;1.235315
1.287185;1.258235
1.271624;1.273959
1.263458;1.282058
1.263561;1.281957
1.242850;1.302046
1.130419;1.400769
0.720368;1.649566
0.213177;1.787332
0.021438;1.799872
0.027603;1.799788
0.148844;1.793835
0.002906;1.799998
-0.792796;1.616006
-1.188552;1.351793
-1.282766;1.262739
-1.299194;1.245831
-1.299717;1.245285
-1.309105;1.235412
-1.325587;1.217710
1.280560;1.264976
1.269045;1.276528
1.263331;1.282183
1.262294;1.283204
1.246268;1.298775
1.184046;1.355742
0.979454;1.510188
0.536674;1.718133
0.153551;1.793439
0.012344;1.799958
0.005345;1.799992
-0.001046;1.800000
-0.219184;1.786605
-0.751298;1.635711
-1.122507;1.407117
-1.251000;1.294217
-1.288704;1.256679
-1.299099;1.245930
-1.298927;1.246110
-1.304283;1.240502
1.267677;1.277887
1.263323;1.282192
1.262419;1.283081
1.251480;1.293754
1.215876;1.327270
1.115737;1.412491
0.867247;1.577302
0.458144;1.740719
0.136605;1.794809
0.009579;1.799974
-0.001189;1.799999
-0.034258;1.799674
-0.246021;1.783108
-0.681398;1.666042
-1.042378;1.467463
-1.205849;1.336386
-1.267874;1.277691
-1.291048;1.254271
-1.298934;1.246102
-1.298401;1.246657
1.263349;1.282166
1.262663;1.282841
1.254949;1.290388
1.232506;1.311842
1.177668;1.361285
1.051635;1.460843
0.797102;1.613886
0.436836;1.746188
0.146613;1.794019
0.011165;1.799965
-0.002940;1.799998
-0.050814;1.799283
-0.257634;1.781467
-0.628345;1.686767
-0.964968;1.519485
-1.151542;1.383456
-1.237062;1.307546
-1.275245;1.270335
-1.292131;1.253154
-1.298840;1.246200
