20;20;1.000000;1.000000
10.000000;10.000000
1.272126;-1.273458
1.271594;-1.273989
1.261060;-1.284417
1.231055;-1.313204
1.161271;-1.375300
1.011031;-1.489233
0.730017;-1.645319
0.364383;-1.762732
0.098442;-1.797306
0.007484;-1.799984
-0.021634;-1.799870
-0.211379;-1.787545
-0.577929;-1.704699
-0.951234;-1.528121
-1.172439;-1.365791
-1.272718;-1.272866
-1.313842;-1.230374
-1.328228;-1.214830
-1.330001;-1.212888
-1.330793;-1.212019
1.276845;-1.268726
1.272238;-1.273346
1.270943;-1.274639
1.255543;-1.289811
1.208459;-1.334026
1.087145;-1.434613
0.812653;-1.606112
0.396208;-1.755853
0.096021;-1.797437
0.007749;-1.799983
-0.017977;-1.799910
-0.206619;-1.788102
-0.629330;-1.686399
-1.036151;-1.471866
-1.232282;-1.312052
-1.303831;-1.240977
-1.326436;-1.216786
-1.329763;-1.213148
-1.331312;-1.211449
-1.344244;-1.197083
1.293782;-1.251450
1.278266;-1.267295
1.272495;-1.273089
1.270119;-1.275460
1.246435;-1.298615
1.166604;-1.370778
0.935952;-1.537528
0.476714;-1.735726
0.106390;-1.796853
0.006769;-1.799987
-0.020853;-1.799879
-0.242816;-1.783547
-0.755762;-1.633654
-1.151681;-1.383341
-1.288500;-1.256888
-1.324756;-1.218615
-1.329771;-1.213140
-1.333127;-1.209451
-1.347785;-1.193095
-1.371036;-1.166302
1.329769;-1.213142
1.301168;-1.243769
1.280924;-1.264608
1.272917;-1.272668
1.269793;-1.275785
1.234761;-1.309720
1.090473;-1.432086
0.635788;-1.683976
0.121491;-1.795895
0.002613;-1.799998
-0.025676;-1.799817
-0.337721;-1.768034
-0.986216;-1.505781
-1.272627;-1.272957
-1.326411;-1.216813
-1.330188;-1.212682
-1.336421;-1.205811
-1.356370;-1.183326
-1.384219;-1.150625
-1.419422;-1.106906
1.397862;-1.134011
1.353723;-1.186353
1.314509;-1.229661
1.285041;-1.260424
1.273681;-1.271903
1.274241;-1.271341
1.241451;-1.303380
1.006767;-1.492119
0.022792;-1.799856
-0.069075;-1.798674
-0.103483;-1.797023
-0.987516;-1.504929
-1.392805;-1.140217
-1.355362;-1.184480
-1.331707;-1.211014
-1.343475;-1.197946
-1.372572;-1.164494
-1.410663;-1.118047
-1.454039;-1.061023
-1.499070;-0.996388
1.511818;-0.976937
1.458533;-1.054837
1.397418;-1.134559
1.337196;-1.204950
1.291550;-1.253753
1.275619;-1.269959
1.372632;-1.164423
0.000000;0.000000
0.000000;0.000000
0.000000;0.000000
0.000000;0.000000
0.000000;0.000000
0.000000;0.000000
-1.427420;-1.096573
-1.371610;-1.165627
-1.410640;-1.118077
-1.461798;-1.050308
-1.517580;-0.967962
-1.568715;-0.882684
-1.610893;-0.803133
1.658374;-0.699854
1.621902;-0.780662
1.563308;-0.892227
1.480412;-1.023904
1.389675;-1.144030
1.346285;-1.194788
0.000000;0.000000
-1.110479;1.416628
-0.663259;1.673346
-0.110920;1.796579
0.040232;1.799550
0.662357;1.673704
1.077435;1.441920
0.000000;0.000000
-1.640698;-0.740345
-1.587597;-0.848254
-1.628837;-0.766088
-1.672556;-0.665248
-1.703903;-0.580272
-1.723804;-0.518169
1.766664;-0.344816
1.760146;-0.376676
1.744298;-0.444326
1.713430;-0.551506
1.672164;-0.666233
0.000000;0.000000
-1.248927;1.296218
-1.214729;1.328320
-0.998745;1.497501
-0.201745;1.788658
0.157023;1.793138
0.983486;1.507566
1.063892;1.451941
1.010858;1.489351
0.000000;0.000000
-1.786910;-0.216685
-1.775703;-0.294751
-1.780334;-0.265352
-1.784512;-0.235620
-1.786552;-0.219613
1.798504;-0.073377
1.798683;-0.068836
1.798497;-0.073537
1.798611;-0.070711
1.798851;0.064301
0.000000;0.000000
-1.585233;0.852664
-1.393300;1.139611
-1.216057;1.327104
-0.472198;1.736960
0.458686;1.740577
1.071318;1.446471
1.288489;1.256899
1.501487;0.992741
0.000000;0.000000
-1.787422;0.212418
-1.799948;0.013622
-1.799946;-0.013954
-1.799895;-0.019432
-1.799842;-0.023819
1.799618;0.037098
1.799579;0.038932
1.799515;0.041794
1.799311;0.049818
1.797239;0.099666
0.000000;0.000000
-1.797246;0.099525
-1.787485;0.211885
-1.714128;0.549331
-1.243354;1.301565
1.042806;1.467159
1.632620;0.757992
1.766839;0.343921
1.787779;0.209393
0.000000;0.000000
-1.795799;0.122905
-1.799053;0.058386
-1.799372;0.047531
-1.799467;0.043784
-1.799479;0.043327
1.799163;0.054871
1.799122;0.056196
1.799000;0.059992
1.798789;0.066019
1.797295;0.098649
0.000000;0.000000
-1.799399;-0.046493
-1.795263;-0.130501
-1.764685;-0.354804
-1.410033;-1.118841
1.519627;-0.964745
1.794315;-0.142941
1.799990;-0.006045
1.799393;0.046728
0.000000;0.000000
-1.798080;0.083125
-1.799065;0.058008
-1.799217;0.053082
-1.799307;0.049949
-1.799340;0.048734
1.791722;0.172431
1.791666;0.173011
1.789194;0.196937
1.782950;0.247166
1.756135;0.394955
0.000000;0.000000
-1.695268;-0.605033
-1.532281;-0.944518
-1.397686;-1.134228
-0.585085;-1.702256
0.586166;-1.701884
1.207262;-1.335110
1.531848;-0.945220
1.731715;-0.491084
0.000000;0.000000
-1.768805;0.333659
-1.787107;0.215058
-1.791140;0.178376
-1.792796;0.160874
-1.792524;0.163880
1.748456;0.427671
1.740943;0.457294
1.718562;0.535299
1.666899;0.679298
1.535054;0.940005
0.000000;0.000000
-1.470739;-1.037750
-1.399403;-1.132108
-1.165990;-1.371301
-0.187044;-1.790256
0.223237;-1.786103
1.071353;-1.446445
1.181433;-1.358019
1.306934;-1.237709
0.000000;0.000000
-1.628367;0.767085
-1.701215;0.588104
-1.734886;0.479760
-1.750237;0.420320
-1.754712;0.401231
1.638117;0.746037
1.605290;0.814275
1.547477;0.919410
1.459857;1.053003
1.352382;1.187882
1.257495;1.287908
0.000000;0.000000
-1.336450;-1.205779
-0.732391;-1.644264
-0.070743;-1.798609
0.093224;-1.797584
0.805813;-1.609555
1.140645;-1.392454
0.000000;0.000000
-1.408739;1.120471
-1.445467;1.072672
-1.523267;0.958988
-1.589996;0.843748
-1.634269;0.754430
-1.658969;0.698443
1.500569;0.994128
1.454510;1.060377
1.398651;1.133038
1.342340;1.199218
1.302391;1.242488
1.294165;1.251055
1.280108;1.265434
0.000000;0.000000
0.000000;0.000000
0.000000;0.000000
0.000000;0.000000
0.000000;0.000000
0.000000;0.000000
-1.360949;1.178057
-1.344710;1.196560
-1.362005;1.176835
-1.400302;1.130997
-1.449931;1.066630
-1.497581;0.998624
-1.536085;0.938320
1.396686;1.135460
1.359894;1.179275
1.326731;1.216464
1.303543;1.241279
1.297154;1.247955
1.287141;1.258280
1.215252;1.327841
0.932426;1.539669
0.259275;1.781229
0.000000;0.000000
0.000000;0.000000
-0.388092;1.757665
-1.064136;1.451763
-1.295997;1.249156
-1.335234;1.207125
-1.340882;1.200848
-1.351734;1.188619
-1.375271;1.161305
-1.406136;1.123735
-1.439232;1.081023
1.337351;1.204779
1.315752;1.228331
1.301814;1.243093
1.298362;1.246698
1.289801;1.255553
1.242373;1.302501
1.096718;1.427309
0.696762;1.659675
0.155998;1.793227
-0.057829;1.799071
-0.087887;1.797853
-0.284133;1.777433
-0.792972;1.615919
-1.171172;1.366878
-1.296804;1.248319
-1.333184;1.209389
-1.340397;1.201390
-1.346301;1.194769
-1.360778;1.178254
-1.381542;1.153838
1.309187;1.235326
1.300357;1.244617
1.299080;1.245949
1.292175;1.253110
1.259583;1.285866
1.174091;1.364371
0.960060;1.522591
0.534536;1.718799
0.111830;1.796523
-0.056456;1.799114
-0.084999;1.797992
-0.234508;1.784658
-0.624735;1.688107
-1.029543;1.476497
-1.230055;1.314140
-1.306376;1.238298
-1.333666;1.208857
-1.340484;1.201293
-1.343345;1.198091
-1.352860;1.187337
1.299328;1.245692
1.299556;1.245454
1.293898;1.251331
1.270739;1.274842
1.216199;1.326975
1.094502;1.429009
0.840286;1.591829
0.438812;1.745693
0.089556;1.797771
-0.056734;1.799106
-0.082467;1.798110
-0.207332;1.788019
-0.526738;1.721205
-0.907807;1.554312
-1.150874;1.384012
-1.264898;1.280638
-1.314383;1.229796
-1.334492;1.207945
-1.340625;1.201134
-1.341844;1.199773
1.299794;1.245205
1.294709;1.250491
1.276877;1.268694
1.239081;1.305633
1.163294;1.373589
1.015482;1.486202
0.752063;1.635360
0.393615;1.756436
0.089336;1.797782
-0.055016;1.799159
-0.081405;1.798158
-0.203053;1.788510
-0.482112;1.734234
-0.821452;1.601630
-1.073643;1.444746
-1.214058;1.328933
-1.284731;1.260740
-1.319127;1.224705
-1.334790;1.207615
-1.340402;1.201384
