20;20;1.000000;1.000000
10.000000;10.000000
1.284422;-1.261055
1.217836;-1.325472
1.146885;-1.387319
1.049801;-1.462162
0.889791;-1.564696
0.646879;-1.679746
0.370014;-1.761559
0.156321;-1.793199
0.043889;-1.799465
0.007225;-1.799986
-0.007225;-1.799985
-0.043890;-1.799465
-0.156321;-1.793199
-0.370014;-1.761559
-0.646879;-1.679746
-0.889790;-1.564696
-1.049801;-1.462162
-1.146886;-1.387319
-1.217835;-1.325472
-1.284422;-1.261055
1.347245;-1.193705
1.285065;-1.260400
1.234892;-1.309596
1.175430;-1.363219
1.052051;-1.460544
0.810410;-1.607245
0.468666;-1.737916
0.183471;-1.790625
0.045517;-1.799424
0.006573;-1.799988
-0.006573;-1.799988
-0.045517;-1.799425
-0.183471;-1.790625
-0.468667;-1.737916
-0.810410;-1.607245
-1.052051;-1.460544
-1.175429;-1.363219
-1.234892;-1.309596
-1.285064;-1.260400
-1.347245;-1.193705
1.404930;-1.125243
1.332022;-1.210668
1.285949;-1.259498
1.262261;-1.283237
1.190907;-1.349719
1.004592;-1.493585
0.634864;-1.684324
0.241850;-1.783678
0.052981;-1.799220
0.006385;-1.799989
-0.006385;-1.799989
-0.052981;-1.799220
-0.241850;-1.783678
-0.634864;-1.684324
-1.004592;-1.493585
-1.190907;-1.349719
-1.262262;-1.283236
-1.285949;-1.259498
-1.332021;-1.210669
-1.404929;-1.125244
1.472658;-1.035026
1.378196;-1.157832
1.304228;-1.240560
1.286388;-1.259050
1.265137;-1.280402
1.168949;-1.368780
0.872594;-1.574350
0.351775;-1.765292
0.060671;-1.798977
0.005449;-1.799992
-0.005449;-1.799992
-0.060671;-1.798977
-0.351775;-1.765292
-0.872594;-1.574350
-1.168949;-1.368780
-1.265136;-1.280402
-1.286388;-1.259050
-1.304228;-1.240560
-1.378196;-1.157832
-1.472658;-1.035026
1.567374;-0.885065
1.465763;-1.044768
1.362207;-1.176602
1.302479;-1.242396
1.286409;-1.259028
1.261766;-1.283723
1.125833;-1.404457
0.566642;-1.708484
0.015554;-1.799933
-0.000677;-1.800000
0.000677;-1.800000
-0.015554;-1.799933
-0.566642;-1.708484
-1.125833;-1.404457
-1.261766;-1.283724
-1.286409;-1.259028
-1.302480;-1.242396
-1.362206;-1.176602
-1.465762;-1.044768
-1.567374;-0.885065
1.677894;-0.651669
1.604592;-0.815649
1.494324;-1.003492
1.380148;-1.155505
1.306347;-1.238329
1.286453;-1.258983
0.000000;0.000000
0.000000;0.000000
0.000000;0.000000
0.000000;0.000000
0.000000;0.000000
0.000000;0.000000
0.000000;0.000000
-1.277259;-1.268310
-1.286453;-1.258983
-1.306347;-1.238328
-1.380147;-1.155506
-1.494324;-1.003492
-1.604592;-0.815649
-1.677894;-0.651668
1.759865;-0.377987
1.734667;-0.480552
1.678997;-0.648822
1.570110;-0.880201
1.413040;-1.115042
0.000000;0.000000
0.000000;0.000000
-1.168749;1.368951
-0.567353;1.708248
-0.048962;1.799334
0.048961;1.799334
0.567353;1.708248
0.000000;0.000000
0.000000;0.000000
-1.297681;-1.247407
-1.413040;-1.115041
-1.570110;-0.880201
-1.678996;-0.648822
-1.734667;-0.480552
-1.759865;-0.377987
1.792754;-0.161344
1.789844;-0.190940
1.782067;-0.253451
1.761415;-0.370699
1.696644;-0.601163
0.000000;0.000000
0.000000;0.000000
-1.285623;1.259830
-0.964344;1.519882
-0.121263;1.795911
0.121263;1.795911
0.964343;1.519882
1.285624;1.259830
0.000000;0.000000
0.000000;0.000000
-1.696644;-0.601164
-1.761415;-0.370700
-1.782067;-0.253452
-1.789844;-0.190940
-1.792754;-0.161345
1.799424;-0.045515
1.799369;-0.047664
1.799122;-0.056220
1.798776;-0.066364
1.799646;-0.035688
0.000000;0.000000
-1.711523;0.557394
-1.532374;0.944367
-1.285220;1.260242
-0.369282;1.761712
0.369282;1.761712
1.285220;1.260242
1.532374;0.944367
1.711523;0.557395
0.000000;0.000000
-1.799646;-0.035688
-1.798776;-0.066364
-1.799122;-0.056220
-1.799369;-0.047664
-1.799424;-0.045515
1.799985;-0.007355
1.799987;-0.006741
1.799988;-0.006629
1.799991;-0.005811
0.000000;0.000000
0.000000;0.000000
-1.799364;0.047833
-1.796153;0.117619
-1.765383;0.351317
-1.282840;1.262665
1.282840;1.262664
1.765383;0.351318
1.796153;0.117619
1.799364;0.047833
0.000000;0.000000
-1.800000;-0.000203
-1.799991;-0.005811
-1.799988;-0.006629
-1.799987;-0.006741
-1.799985;-0.007355
1.799985;0.007355
1.799987;0.006741
1.799988;0.006629
1.799991;0.005811
1.800000;0.000203
0.000000;0.000000
-1.799364;-0.047834
-1.796153;-0.117619
-1.765383;-0.351318
-1.282840;-1.262664
1.282840;-1.262665
1.765383;-0.351318
1.796153;-0.117619
1.799364;-0.047833
0.000000;0.000000
-1.800000;0.000203
-1.799991;0.005811
-1.799988;0.006629
-1.799987;0.006741
-1.799985;0.007355
1.799424;0.045515
1.799369;0.047664
1.799122;0.056220
1.798776;0.066364
1.799646;0.035689
0.000000;0.000000
-1.711523;-0.557396
-1.532374;-0.944367
-1.285219;-1.260242
-0.369282;-1.761713
0.369282;-1.761712
1.285221;-1.260241
1.532374;-0.944367
1.711522;-0.557396
0.000000;0.000000
-1.799646;0.035688
-1.798776;0.066364
-1.799122;0.056219
-1.799369;0.047664
-1.799424;0.045515
1.792754;0.161344
1.789844;0.190940
1.782067;0.253451
1.761415;0.370699
1.696645;0.601163
0.000000;0.000000
0.000000;0.000000
-1.285624;-1.259830
-0.964344;-1.519882
-0.121263;-1.795911
0.121263;-1.795911
0.964344;-1.519882
1.285623;-1.259830
0.000000;0.000000
0.000000;0.000000
-1.696644;0.601163
-1.761415;0.370699
-1.782067;0.253452
-1.789844;0.190941
-1.792754;0.161344
1.759865;0.377987
1.734667;0.480552
1.678997;0.648822
1.570110;0.880201
1.413040;1.115041
1.297681;1.247407
0.000000;0.000000
0.000000;0.000000
-0.567353;-1.708248
-0.048961;-1.799334
0.048961;-1.799334
0.567353;-1.708248
0.000000;0.000000
0.000000;0.000000
-1.297681;1.247406
-1.413040;1.115041
-1.570110;0.880201
-1.678996;0.648823
-1.734667;0.480552
-1.759865;0.377987
1.677894;0.651669
1.604592;0.815650
1.494323;1.003493
1.380147;1.155506
1.306347;1.238328
1.286453;1.258984
1.277260;1.268309
0.000000;0.000000
0.000000;0.000000
0.000000;0.000000
0.000000;0.000000
0.000000;0.000000
0.000000;0.000000
-1.277260;1.268309
-1.286453;1.258983
-1.306347;1.238329
-1.380147;1.155506
-1.494323;1.003493
-1.604592;0.815650
-1.677894;0.651669
1.567374;0.885065
1.465762;1.044768
1.362206;1.176603
1.302480;1.242395
1.286408;1.259029
1.261766;1.283723
1.125833;1.404457
0.566641;1.708484
0.015554;1.799933
-0.000677;1.800000
0.000677;1.800000
-0.015554;1.799933
-0.566642;1.708484
-1.125832;1.404458
-1.261767;1.283723
-1.286408;1.259029
-1.302480;1.242395
-1.362206;1.176603
-1.465763;1.044768
-1.567374;0.885064
1.472658;1.035026
1.378197;1.157831
1.304228;1.240560
1.286388;1.259050
1.265137;1.280402
1.168949;1.368780
0.872594;1.574350
0.351775;1.765292
0.060671;1.798977
0.005449;1.799992
-0.005449;1.799992
-0.060671;1.798977
-0.351775;1.765292
-0.872594;1.574350
-1.168949;1.368780
-1.265137;1.280402
-1.286387;1.259050
-1.304228;1.240560
-1.378197;1.157831
-1.472658;1.035026
1.404929;1.125244
1.332021;1.210669
1.285949;1.259498
1.262261;1.283237
1.190907;1.349719
1.004592;1.493584
0.634863;1.684324
0.241850;1.783678
0.052981;1.799220
0.006385;1.799989
-0.006385;1.799989
-0.052981;1.799220
-0.241850;1.783679
-0.634863;1.684324
-1.004592;1.493585
-1.190907;1.349719
-1.262261;1.283237
-1.285949;1.259498
-1.332022;1.210669
-1.404929;1.125244
1.347245;1.193705
1.285065;1.260400
1.234892;1.309596
1.175429;1.363219
1.052051;1.460544
0.810410;1.607245
0.468666;1.737916
0.183471;1.790625
0.045517;1.799424
0.006573;1.799988
-0.006573;1.799988
-0.045517;1.799424
-0.183471;1.790625
-0.468666;1.737916
-0.810410;1.607245
-1.052051;1.460544
-1.175430;1.363218
-1.234892;1.309596
-1.285065;1.260400
-1.347245;1.193704
1.284423;1.261054
1.217836;1.325472
1.146885;1.387319
1.049801;1.462162
0.889790;1.564696
0.646879;1.679746
0.370014;1.761559
0.156321;1.793199
0.043889;1.799465
0.007225;1.799985
-0.007225;1.799986
-0.043890;1.799465
-0.156321;1.793199
-0.370014;1.761559
-0.646879;1.679746
-0.889790;1.564696
-1.049801;1.462162
-1.146885;1.387319
-1.217836;1.325471
-1.284423;1.261055
