20;20;1.000000;1.000000
10.000000;10.000000
1.687408;-0.626620
1.565288;-0.888748
1.336399;-1.205835
0.991253;-1.502470
0.617489;-1.690771
0.325102;-1.770398
0.143091;-1.794304
0.044749;-1.799444
-0.003309;-1.799997
-0.023923;-1.799841
-0.028372;-1.799776
-0.026617;-1.799803
-0.029839;-1.799753
-0.051858;-1.799253
-0.115445;-1.796294
-0.251618;-1.782327
-0.486793;-1.732926
-0.810186;-1.607358
-1.147878;-1.386498
-1.413683;-1.114226
1.748107;-0.429094
1.677180;-0.653504
1.513105;-0.974942
1.187930;-1.352339
0.743824;-1.639124
0.364512;-1.762706
0.137898;-1.794710
0.028099;-1.799781
-0.018533;-1.799905
-0.036687;-1.799626
-0.037896;-1.799601
-0.031385;-1.799726
-0.029828;-1.799753
-0.050693;-1.799286
-0.130585;-1.795257
-0.322154;-1.770937
-0.658041;-1.675405
-1.069209;-1.448030
-1.402324;-1.128488
-1.597745;-0.828982
1.784025;-0.239276
1.755841;-0.396260
1.676265;-0.655848
1.455060;-1.059623
0.994141;-1.500561
0.476730;-1.735721
0.159912;-1.792883
0.023853;-1.799842
-0.023993;-1.799840
-0.038629;-1.799585
-0.038939;-1.799579
-0.030941;-1.799734
-0.023227;-1.799850
-0.042824;-1.799491
-0.157318;-1.793112
-0.464508;-1.739032
-0.962627;-1.520970
-1.400859;-1.130307
-1.627224;-0.769508
-1.722153;-0.523630
1.798000;-0.084840
1.792015;-0.169362
1.771724;-0.317798
1.695060;-0.605617
1.407787;-1.121666
0.768536;-1.627683
0.240835;-1.783816
0.033162;-1.799695
-0.024320;-1.799836
-0.038695;-1.799584
-0.037965;-1.799600
-0.021685;-1.799869
0.006428;-1.799989
-0.003673;-1.799996
-0.210156;-1.787690
-0.796772;-1.614049
-1.418852;-1.107636
-1.675864;-0.656871
-1.753309;-0.407319
-1.779733;-0.269352
1.799901;0.018896
1.799955;-0.012755
1.798927;-0.062129
1.792911;-0.159593
1.755922;-0.395901
1.493600;-1.004569
0.597052;-1.698096
0.060448;-1.798985
-0.027652;-1.799788
-0.034290;-1.799673
-0.023875;-1.799842
0.064673;-1.798838
0.269029;-1.779782
0.369406;-1.761686
-0.336857;-1.768199
-1.513462;-0.974388
-1.747544;-0.431381
-1.783934;-0.239960
-1.793268;-0.155527
-1.796884;-0.105868
1.798533;0.072660
1.798765;0.066678
1.798663;0.069359
1.797625;0.092439
1.789846;0.190922
1.664487;0.685189
0.000000;0.000000
0.000000;0.000000
0.000000;0.000000
0.000000;0.000000
0.000000;0.000000
0.000000;0.000000
0.000000;0.000000
0.000000;0.000000
0.436734;1.746214
-1.774629;0.301151
-1.799972;0.010003
-1.799692;-0.033317
-1.799612;-0.037355
-1.799780;-0.028147
1.797830;0.088353
1.797885;0.087236
1.797132;0.101572
1.793337;0.154733
1.763341;0.361424
0.000000;0.000000
0.000000;0.000000
-0.354585;1.764729
-0.071755;1.798569
0.032166;1.799712
0.048170;1.799355
0.174591;1.791513
0.586417;1.701798
0.000000;0.000000
0.000000;0.000000
-1.667026;0.678988
-1.797266;0.099176
-1.799982;0.008008
-1.799960;-0.011943
-1.799978;-0.008961
1.798141;0.081793
1.798409;0.075665
1.798091;0.082885
1.796066;0.118947
0.000000;0.000000
0.000000;0.000000
-1.323499;1.219979
-0.932873;1.539399
-0.247480;1.782906
0.018679;1.799903
0.055263;1.799151
0.315981;1.772048
1.064895;1.451206
1.553073;0.909925
0.000000;0.000000
-1.729396;0.499188
-1.799691;0.033366
-1.799874;-0.021266
-1.799761;-0.029318
-1.799898;-0.019173
1.798754;0.066963
1.799182;0.054257
1.799198;0.053731
1.798762;0.066737
0.000000;0.000000
-1.557907;0.901625
-1.766343;0.346454
-1.683911;0.635960
-0.960125;1.522550
-0.054807;1.799165
0.095538;1.797463
0.875753;1.572595
1.679151;0.648423
1.774201;0.303661
0.000000;0.000000
0.000000;0.000000
-1.799565;-0.039578
-1.799095;-0.057081
-1.799152;-0.055244
-1.799618;-0.037092
1.799164;0.054845
1.799665;0.034724
1.799686;0.033618
1.799659;0.035021
0.000000;0.000000
-1.798021;0.084379
-1.799562;0.039704
-1.798808;0.065491
-1.773467;0.307919
-0.924910;1.544196
0.520584;1.723076
1.710719;0.559858
1.796117;0.118169
1.798020;0.084404
1.797973;0.085398
0.000000;0.000000
-1.798428;-0.075203
-1.798354;-0.076961
-1.798405;-0.075754
-1.799368;-0.047713
1.798937;0.061850
1.799555;0.040035
1.799598;0.038028
1.799538;0.040753
0.000000;0.000000
-1.799807;0.026375
-1.799987;0.006764
-1.799996;-0.003741
-1.796320;-0.115049
-1.240440;-1.304342
0.723920;-1.648010
1.787445;-0.212223
1.799330;0.049119
1.798811;0.065413
0.000000;0.000000
0.000000;0.000000
-1.798801;-0.065675
-1.798705;-0.068277
-1.798917;-0.062419
-1.799680;-0.033929
1.797391;0.096876
1.798422;0.075357
1.798610;0.070722
1.798181;0.080902
0.000000;0.000000
0.000000;0.000000
-1.798858;-0.064111
-1.777216;-0.285489
-1.292169;-1.253116
-0.071775;-1.798568
0.112948;-1.796453
1.054800;-1.458560
1.769052;-0.332348
1.799827;-0.024933
0.000000;0.000000
-1.777845;0.281542
-1.799981;-0.008331
-1.799834;-0.024405
-1.799931;-0.015776
-1.799934;0.015399
1.792396;0.165279
1.794030;0.146480
1.793913;0.147901
1.791047;0.179311
1.772575;0.313016
0.000000;0.000000
-1.764856;-0.353952
-1.427131;-1.096949
-0.390575;-1.757114
0.027535;-1.799789
0.071374;-1.798584
0.388524;-1.757569
1.375912;-1.160546
1.773498;-0.307742
0.000000;0.000000
-1.510067;0.979641
-1.791826;0.171343
-1.797335;0.097911
-1.797652;0.091899
-1.796045;0.119255
1.777541;0.283456
1.777953;0.280859
1.772835;0.311535
1.753400;0.406927
1.661067;0.693439
0.000000;0.000000
0.000000;0.000000
-0.911133;-1.552365
-0.144813;-1.794165
0.045661;-1.799421
0.067387;-1.798738
0.250976;-1.782417
0.000000;0.000000
0.000000;0.000000
0.000000;0.000000
-0.829825;1.597307
-1.681346;0.642710
-1.757027;0.390969
-1.771761;0.317587
-1.772519;0.313329
1.738194;0.467635
1.727649;0.505203
1.696113;0.602660
1.605069;0.814710
1.311675;1.232683
0.508298;1.726740
0.000000;0.000000
0.000000;0.000000
0.000000;0.000000
0.000000;0.000000
0.000000;0.000000
0.000000;0.000000
0.000000;0.000000
0.979426;1.510207
0.514591;1.724876
-0.394649;1.756204
-1.231547;1.312742
-1.553189;0.909728
-1.654633;0.708653
-1.687009;0.627695
1.651454;0.716029
1.606375;0.812133
1.505485;0.986668
1.283577;1.261915
0.869498;1.576062
0.381598;1.759086
0.080146;1.798215
-0.002097;1.799999
0.011644;1.799962
0.017483;1.799915
0.023087;1.799852
0.081597;1.798150
0.164044;1.792509
0.205115;1.788275
0.107002;1.796817
-0.209633;1.787751
-0.692983;1.661257
-1.116416;1.411954
-1.362156;1.176660
-1.480451;1.023848
1.502205;0.991655
1.400336;1.130955
1.217651;1.325642
0.926952;1.542971
0.571206;1.706963
0.272181;1.779302
0.102008;1.797107
0.035213;1.799656
0.015323;1.799935
0.006446;1.799989
0.006148;1.799989
0.023615;1.799845
0.050199;1.799300
0.063848;1.798867
0.020512;1.799883
-0.125900;1.795592
-0.385626;1.758207
-0.700132;1.658257
-0.976167;1.512315
-1.167075;1.370378
1.307495;1.237117
1.157240;1.378694
0.939419;1.535412
0.670252;1.670557
0.406842;1.753419
0.208624;1.787869
0.092365;1.797629
0.037475;1.799610
0.014966;1.799938
0.005535;1.799991
0.004808;1.799994
0.013220;1.799951
0.024434;1.799834
0.027282;1.799793
-0.000314;1.800000
-0.083460;1.798064
-0.235055;1.784586
-0.441235;1.745082
-0.662176;1.673775
-0.855985;1.583442
1.108872;1.417887
0.940533;1.534730
0.733246;1.643883
0.513295;1.725262
0.318398;1.771616
0.174914;1.791481
0.085966;1.797946
0.038419;1.799590
0.015611;1.799932
0.005353;1.799992
0.004388;1.799995
0.010431;1.799970
0.016599;1.799923
0.015589;1.799932
-0.005100;1.799993
-0.059679;1.799010
-0.157256;1.793118
-0.295096;1.775646
-0.456727;1.741092
-0.618372;1.690449
0.938379;1.536049
0.776008;1.624134
0.596424;1.698316
0.420860;1.750108
0.271120;1.779464
0.159573;1.792913
0.086221;1.797934
0.042902;1.799489
0.019304;1.799896
0.006946;1.799987
0.005388;1.799992
0.011116;1.799966
0.014857;1.799939
0.011927;1.799960
-0.005224;1.799992
-0.045004;1.799437
-0.113314;1.796430
-0.210187;1.787686
-0.328349;1.769799
-0.455079;1.741523
