4;4;0.250000;0.250000
0.508301;0.505859
-0.845217;0.534424
-0.752033;0.659126
0.752033;0.659126
0.845217;0.534424
-0.907542;0.419961
-0.826881;0.562376
0.826881;0.562377
0.907542;0.419961
-0.907542;-0.419961
-0.826881;-0.562376
0.826881;-0.562376
0.907542;-0.419961
-0.845217;-0.534424
-0.752033;-0.659126
0.752033;-0.659125
0.845217;-0.534424
