30;30;1.000000;1.000000
15.188007;15.658104;r;14.884174;2.096019
0.969618;0.244624
0.981270;0.192638
0.989174;0.146745
0.994346;0.106192
0.997616;0.069010
0.999437;0.033549
1.000000;-0.000808
0.999422;-0.033991
0.997826;-0.065902
0.995266;-0.097186
0.991473;-0.130311
0.985238;-0.171191
0.972342;-0.233562
0.934279;-0.356544
0.727525;-0.686081
-0.447584;-0.894242
-0.896208;-0.443634
-0.961297;-0.275515
-0.980393;-0.197054
-0.988940;-0.148316
-0.993884;-0.110432
-0.997118;-0.075864
-0.999137;-0.041544
-0.999978;-0.006552
-0.999574;0.029191
-0.997835;0.065768
-0.994582;0.103954
-0.989344;0.145598
-0.981216;0.192910
-0.969053;0.246851
0.976773;0.214277
0.987421;0.158115
0.993850;0.110735
0.997548;0.069985
0.999504;0.031483
0.999972;-0.007522
0.998889;-0.047120
0.996261;-0.086395
0.992216;-0.124532
0.986843;-0.161679
0.979603;-0.200942
0.968152;-0.250362
0.944952;-0.327208
0.879954;-0.475059
0.598701;-0.800973
-0.357341;-0.933974
-0.827450;-0.561539
-0.927849;-0.372955
-0.960319;-0.278904
-0.975369;-0.220578
-0.984424;-0.175811
-0.990864;-0.134865
-0.995571;-0.094011
-0.998604;-0.052820
-0.999930;-0.011872
-0.999605;0.028092
-0.997732;0.067318
-0.994067;0.108768
-0.987576;0.157144
-0.976625;0.214948
0.981916;0.189316
0.991763;0.128085
0.996729;0.080811
0.999095;0.042545
0.999994;0.003369
0.999158;-0.041029
0.996119;-0.088020
0.990827;-0.135133
0.983523;-0.180783
0.974834;-0.222933
0.964220;-0.265105
0.947996;-0.318282
0.915692;-0.401880
0.829458;-0.558570
0.513280;-0.858221
-0.310334;-0.950628
-0.770756;-0.637130
-0.894562;-0.446944
-0.937965;-0.346731
-0.958708;-0.284393
-0.971654;-0.236406
-0.981755;-0.190149
-0.989922;-0.141611
-0.995697;-0.092669
-0.999010;-0.044479
-1.000000;0.000680
-0.999188;0.040282
-0.996889;0.078812
-0.991961;0.126544
-0.981976;0.189004
0.984962;0.172770
0.994682;0.102992
0.998335;0.057681
0.999630;0.027205
0.999933;-0.011595
0.997716;-0.067542
0.992134;-0.125177
0.983303;-0.181974
0.970862;-0.239639
0.958271;-0.285863
0.945589;-0.325365
0.925973;-0.377589
0.886974;-0.461819
0.786909;-0.617069
0.457773;-0.889069
-0.283249;-0.959046
-0.726949;-0.686691
-0.863773;-0.503881
-0.914759;-0.403999
-0.939444;-0.342703
-0.954738;-0.297447
-0.969041;-0.246902
-0.982530;-0.186102
-0.991762;-0.128091
-0.997584;-0.069464
-0.999915;-0.013047
-0.999663;0.025942
-0.998412;0.056325
-0.994840;0.101453
-0.985100;0.171982
0.984874;0.173269
0.996056;0.088729
0.999226;0.039347
0.999618;0.027629
0.999995;-0.003088
0.995222;-0.097639
0.987608;-0.156941
0.974737;-0.223357
0.949033;-0.315177
0.933251;-0.359225
0.924385;-0.381460
0.902369;-0.430963
0.859194;-0.511651
0.752909;-0.658125
0.422815;-0.906216
-0.267294;-0.963615
-0.694145;-0.719835
-0.835618;-0.549312
-0.891220;-0.453571
-0.918624;-0.395134
-0.929966;-0.367646
-0.947125;-0.320866
-0.974759;-0.223259
-0.987344;-0.158591
-0.994967;-0.100203
-0.999994;-0.003331
-0.999609;0.027969
-0.999233;0.039155
-0.996166;0.087485
-0.985020;0.172440
0.978765;0.204985
0.993039;0.117785
0.998074;0.062035
0.999405;0.034489
0.999980;-0.006286
0.996958;-0.077945
0.987976;-0.154609
0.971287;-0.237911
0.901419;-0.432948
0.895881;-0.444293
0.907661;-0.419703
0.873807;-0.486274
0.830355;-0.557235
0.726840;-0.686807
0.403549;-0.914958
-0.258785;-0.965935
-0.670530;-0.741883
-0.808200;-0.588908
-0.864317;-0.502947
-0.904325;-0.426845
-0.897471;-0.441073
-0.902429;-0.430839
-0.971458;-0.237212
-0.987642;-0.156729
-0.996830;-0.079567
-0.999971;-0.007595
-0.999440;0.033470
-0.998141;0.060945
-0.993202;0.116400
-0.978832;0.204665
0.962727;0.270474
0.981488;0.191524
0.991553;0.129706
0.996466;0.083993
0.999351;0.036019
0.999656;-0.026210
0.994612;-0.103665
0.979686;-0.200537
0.947919;-0.318513
0.919987;-0.391949
0.898371;-0.439237
0.811969;-0.583701
0.799283;-0.600955
0.708685;-0.705525
0.398379;-0.917221
-0.256170;-0.966632
-0.656450;-0.754369
-0.781770;-0.623566
-0.806952;-0.590617
-0.903951;-0.427637
-0.916818;-0.399304
-0.945153;-0.326626
-0.978365;-0.206887
-0.994067;-0.108771
-0.999546;-0.030137
-0.999452;0.033114
-0.996652;0.081763
-0.991776;0.127989
-0.981639;0.190747
-0.962364;0.271764
0.933572;0.358389
0.956499;0.291734
0.972623;0.232390
0.983479;0.181024
0.991492;0.130170
0.997468;0.071116
0.999997;-0.002260
0.995531;-0.094438
0.979053;-0.203604
0.948324;-0.317303
0.895152;-0.445761
0.814704;-0.579877
0.783587;-0.621282
0.693956;-0.720018
0.406218;-0.913776
-0.255283;-0.966866
-0.651041;-0.759043
-0.777472;-0.628918
-0.804965;-0.593322
-0.885036;-0.465523
-0.941996;-0.335624
-0.975862;-0.218387
-0.994495;-0.104781
-0.999959;-0.009019
-0.997764;0.066828
-0.991827;0.127590
-0.983715;0.179737
-0.972616;0.232416
-0.955941;0.293558
-0.931907;0.362697
0.890868;0.454261
0.915185;0.403035
0.935178;0.354178
0.951330;0.308174
0.965132;0.261765
0.977797;0.209556
0.989303;0.145875
0.997863;0.065341
0.999328;-0.036656
0.986323;-0.164823
0.945571;-0.325417
0.864203;-0.503144
0.758100;-0.652139
0.601179;-0.799115
0.426058;-0.904696
-0.234866;-0.972028
-0.588369;-0.808593
-0.719921;-0.694056
-0.832964;-0.553327
-0.930435;-0.366456
-0.981508;-0.191419
-0.998649;-0.051958
-0.998347;0.057478
-0.989785;0.142569
-0.977915;0.209001
-0.964794;0.263007
-0.950459;0.310850
-0.933591;0.358341
-0.912540;0.408988
-0.886708;0.462329
0.838420;0.545024
0.860941;0.508705
0.881251;0.472648
0.899654;0.436604
0.917144;0.398556
0.934793;0.355194
0.953025;0.302890
0.971229;0.238147
0.987634;0.156780
0.998702;0.050929
0.995315;-0.096685
0.950287;-0.311376
0.809860;-0.586623
0.593552;-0.804795
0.460158;-0.887837
-0.102889;-0.994693
-0.375350;-0.926883
-0.683857;-0.729616
-0.913106;-0.407721
-0.989919;-0.141632
-0.999454;0.033048
-0.988467;0.151437
-0.971059;0.238839
-0.951811;0.306686
-0.932672;0.360725
-0.914219;0.405221
-0.895913;0.444229
-0.876551;0.481308
-0.855022;0.518591
-0.830970;0.556317
0.782574;0.622558
0.801899;0.597460
0.820753;0.571284
0.839758;0.542961
0.860005;0.510286
0.882509;0.470295
0.907238;0.420619
0.932674;0.360722
0.956564;0.291522
0.976568;0.215208
0.991555;0.129689
0.999999;0.001729
0.966608;-0.256260
0.719679;-0.694307
0.419159;-0.907913
0.055730;-0.998446
-0.239613;-0.970869
-0.865658;-0.500637
-0.997672;-0.068191
-0.993781;0.111355
-0.977102;0.212772
-0.955423;0.295240
-0.930089;0.367333
-0.903385;0.428830
-0.877528;0.479525
-0.854003;0.520268
-0.832777;0.553608
-0.812734;0.582635
-0.792693;0.609621
-0.771985;0.635641
0.728814;0.684712
0.745442;0.666570
0.763380;0.645950
0.783821;0.620986
0.808548;0.588431
0.839582;0.543233
0.876375;0.481629
0.914223;0.405211
0.947731;0.319071
0.974070;0.226248
0.983711;0.179757
0.988531;0.151019
0.995798;0.091576
0.996690;-0.081294
0.466338;-0.884607
0.170104;-0.985426
-0.816474;-0.577382
-0.999570;0.029323
-0.990460;0.137803
-0.984029;0.178008
-0.973588;0.228312
-0.946212;0.323547
-0.911432;0.411450
-0.872074;0.489374
-0.833665;0.552271
-0.801101;0.598529
-0.775001;0.631959
-0.753265;0.657717
-0.734025;0.679122
-0.716023;0.698077
0.679844;0.733357
0.694901;0.719105
0.713183;0.700977
0.736310;0.676644
0.766472;0.642278
0.809282;0.587421
0.868802;0.495160
0.924366;0.381508
0.959348;0.282227
0.990290;0.139014
0.990453;0.137848
0.983672;0.179969
0.976960;0.213420
0.960197;0.279323
0.000000;0.000000
0.000000;0.000000
-0.971972;0.235097
-0.977043;0.213044
-0.982970;0.183767
-0.990105;0.140331
-0.990089;0.140442
-0.959042;0.283264
-0.923486;0.383632
-0.866373;0.499398
-0.804608;0.593807
-0.759579;0.650415
-0.727478;0.686131
-0.702596;0.711589
-0.682674;0.730723
-0.666036;0.745920
0.635809;0.771847
0.649920;0.760003
0.669344;0.742953
0.696036;0.718007
0.729488;0.683993
0.766807;0.641878
0.861442;0.507857
0.883374;0.468669
0.893983;0.448101
0.887504;0.460799
0.843448;0.537211
0.707713;0.706500
0.422144;0.906529
0.252896;0.967493
0.258152;0.966105
-0.243354;0.969937
-0.524613;0.851341
-0.496607;0.867976
-0.689201;0.724570
-0.826543;0.562873
-0.878404;0.477919
-0.889062;0.457787
-0.880875;0.473348
-0.860725;0.509070
-0.764456;0.644676
-0.724477;0.689299
-0.688558;0.725181
-0.659569;0.751644
-0.638046;0.769998
-0.622004;0.783014
0.595479;0.803371
0.608047;0.793901
0.628121;0.778115
0.661146;0.750257
0.703327;0.710866
0.733673;0.679502
0.760420;0.649432
0.773313;0.634025
0.746666;0.665199
0.662916;0.748694
0.470415;0.882446
0.110697;0.993854
-0.288508;0.957478
0.080232;0.996776
-0.036946;0.999317
0.423242;0.906017
-0.246790;0.969069
-0.165840;0.986153
-0.193299;0.981140
-0.444883;0.895589
-0.633936;0.773385
-0.728913;0.684606
-0.763246;0.646109
-0.755103;0.655606
-0.732338;0.680942
-0.701075;0.713087
-0.655869;0.754875
-0.619946;0.784645
-0.597282;0.802031
-0.582390;0.812910
0.557628;0.830091
0.566381;0.824144
0.582649;0.812724
0.615710;0.787973
0.681834;0.731507
0.675980;0.736920
0.671859;0.740679
0.643412;0.765520
0.567985;0.823039
0.422712;0.906264
0.191803;0.981433
-0.111964;0.993712
-0.482932;0.875658
-0.971199;0.238268
-0.948377;0.317146
0.958412;0.285387
0.987136;0.159883
-0.002060;0.999998
0.024988;0.999688
-0.169741;0.985489
-0.381299;0.924452
-0.536228;0.844073
-0.623437;0.781873
-0.660270;0.751029
-0.670227;0.742156
-0.680467;0.732779
-0.612988;0.790093
-0.576424;0.817151
-0.557124;0.830429
-0.545680;0.837993
0.522533;0.852619
0.524417;0.851462
0.528354;0.849024
0.558020;0.829827
0.588635;0.808399
0.598191;0.801353
0.576045;0.817418
0.519040;0.854750
0.417873;0.908505
0.271690;0.962385
0.099683;0.995019
-0.053921;0.998545
-0.048639;0.998816
-0.310892;0.950445
-0.184690;0.982797
0.532644;0.846339
0.605486;0.795856
-0.095244;0.995454
0.075169;0.997171
-0.053178;0.998585
-0.221478;0.975165
-0.376634;0.926362
-0.490232;0.871592
-0.557727;0.830024
-0.587520;0.809210
-0.583559;0.812071
-0.557151;0.830411
-0.524203;0.851593
-0.516848;0.856077
-0.511968;0.859004
0.492798;0.870144
0.490178;0.871622
0.463057;0.886328
0.489388;0.872066
0.526426;0.850221
0.523495;0.852029
0.486997;0.873403
0.416431;0.909167
0.314718;0.949185
0.195305;0.980743
0.084106;0.996457
0.020721;0.999785
0.094097;0.995563
-0.014099;0.999901
-0.003167;0.999995
0.207278;0.978282
0.208771;0.977965
0.126892;0.991916
0.073028;0.997330
-0.018006;0.999838
-0.139406;0.990235
-0.268608;0.963250
-0.381647;0.924308
-0.462957;0.886381
-0.508177;0.861252
-0.517846;0.855474
-0.486264;0.873812
-0.460928;0.887438
-0.484439;0.874825
-0.483781;0.875189
0.468397;0.883518
0.481939;0.876205
0.487260;0.873257
0.474486;0.880263
0.479457;0.877565
0.460191;0.887820
0.412580;0.910922
0.338836;0.940845
0.247800;0.968811
0.155156;0.987890
0.079873;0.996805
0.039617;0.999215
0.033586;0.999436
0.024164;0.999708
0.034901;0.999391
0.084070;0.996460
0.066354;0.997796
0.004957;0.999988
0.031590;0.999501
-0.017255;0.999851
-0.100422;0.994945
-0.200888;0.979614
-0.301044;0.953610
-0.384443;0.923149
-0.440908;0.897552
-0.467629;0.883925
-0.468847;0.883279
-0.486432;0.873719
-0.478349;0.878170
-0.461037;0.887381
0.435248;0.900311
0.453297;0.891359
0.473344;0.880878
0.456419;0.889765
0.439849;0.898072
0.406776;0.913528
0.352684;0.935743
0.281530;0.959552
0.203123;0.979153
0.130072;0.991505
0.073470;0.997297
0.038806;0.999247
0.021063;0.999778
0.024807;0.999692
0.032393;0.999475
0.039945;0.999202
0.019643;0.999807
-0.009227;0.999958
0.004001;0.999992
-0.023745;0.999718
-0.081278;0.996691
-0.158353;0.987383
-0.243033;0.970018
-0.321964;0.946752
-0.384184;0.923257
-0.424812;0.905281
-0.447969;0.894049
-0.470293;0.882510
-0.451855;0.892092
-0.429374;0.903127
0.393333;0.919396
0.353425;0.935463
0.416485;0.909142
0.421774;0.906701
0.400074;0.916483
0.360058;0.932930
0.304362;0.952556
0.238654;0.971105
0.171567;0.985173
0.112015;0.993707
0.066173;0.997808
0.035422;0.999372
0.014997;0.999888
0.021795;0.999762
0.025568;0.999673
0.021492;0.999769
0.005411;0.999985
-0.008593;0.999963
-0.006938;0.999976
-0.027634;0.999618
-0.070115;0.997539
-0.130288;0.991476
-0.200866;0.979619
-0.272193;0.962243
-0.334690;0.942329
-0.381730;0.924274
-0.410042;0.912067
-0.410698;0.911771
-0.352852;0.935679
-0.388326;0.921522
0.382854;0.923809
0.371307;0.928510
0.391576;0.920146
0.387451;0.921890
0.361100;0.932527
0.318693;0.947858
0.265001;0.964248
0.205907;0.978572
0.148276;0.988946
0.098231;0.995164
0.059452;0.998231
0.032381;0.999476
0.014411;0.999896
0.019786;0.999804
0.020426;0.999791
0.012668;0.999920
-0.000985;1.000000
-0.010211;0.999948
-0.011647;0.999932
-0.028757;0.999586
-0.062242;0.998061
-0.110597;0.993865
-0.169454;0.985538
-0.232116;0.972688
-0.290987;0.956727
-0.339350;0.940660
-0.371745;0.928335
-0.381653;0.924305
-0.366616;0.930372
-0.375596;0.926784
0.381275;0.924462
0.376468;0.926430
0.371139;0.928577
0.354784;0.934948
0.324475;0.945894
0.282533;0.959258
0.232942;0.972491
0.180650;0.983548
0.130822;0.991406
0.087731;0.996144
0.053884;0.998547
0.029739;0.999558
0.013943;0.999903
0.018267;0.999833
0.017086;0.999854
0.008004;0.999968
-0.004167;0.999991
-0.010952;0.999940
-0.013643;0.999907
-0.028434;0.999596
-0.056185;0.998420
-0.096186;0.995363
-0.145599;0.989344
-0.199739;0.979849
-0.252883;0.967497
-0.299388;0.954132
-0.334547;0.942379
-0.355324;0.934743
-0.363454;0.931612
-0.367718;0.929937
0.365144;0.930951
0.357235;0.934014
0.344152;0.938914
0.322481;0.946576
0.291153;0.956676
0.251682;0.967810
0.207132;0.978313
0.161308;0.986904
0.117988;0.993015
0.080207;0.996778
0.049848;0.998757
0.027668;0.999617
0.013321;0.999911
0.017177;0.999852
0.015069;0.999886
0.005467;0.999985
-0.005833;0.999983
-0.011281;0.999936
-0.014398;0.999896
-0.027661;0.999617
-0.051611;0.998667
-0.085547;0.996334
-0.127382;0.991854
-0.173756;0.984789
-0.220449;0.975398
-0.263081;0.964774
-0.297918;0.954592
-0.322709;0.946498
-0.337704;0.941252
-0.345763;0.938322
0.342750;0.939427
0.331782;0.943356
0.315448;0.948943
0.292264;0.956338
0.262045;0.965056
0.226086;0.974107
0.186736;0.982410
0.146824;0.989163
0.109084;0.994033
0.075673;0.997133
0.047955;0.998849
0.026704;0.999643
0.012791;0.999918
0.016646;0.999861
0.014108;0.999901
0.004333;0.999991
-0.006610;0.999978
-0.011426;0.999935
-0.014726;0.999892
-0.027197;0.999630
-0.048548;0.998821
-0.077873;0.996963
-0.113555;0.993532
-0.153149;0.988203
-0.193564;0.981088
-0.231510;0.972833
-0.264095;0.964497
-0.289444;0.957195
-0.307208;0.951643
-0.318582;0.947895
0.319191;0.947690
0.306231;0.951957
0.288601;0.957449
0.265637;0.964073
0.237519;0.971383
0.205344;0.978690
0.170902;0.985288
0.136286;0.990669
0.103494;0.994630
0.074102;0.997251
0.049093;0.998794
0.028816;0.999585
0.012829;0.999918
0.017505;0.999847
0.014139;0.999900
0.004567;0.999990
-0.006066;0.999982
-0.011466;0.999934
-0.015414;0.999881
-0.027674;0.999617
-0.046991;0.998895
-0.072553;0.997365
-0.103137;0.994667
-0.136948;0.990578
-0.171718;0.985146
-0.205011;0.978760
-0.234633;0.972084
-0.259059;0.965861
-0.277750;0.960653
-0.291161;0.956674
0.296718;0.954965
0.282734;0.959198
0.264906;0.964274
0.242987;0.970030
0.217298;0.976105
0.188754;0.982024
0.158720;0.987324
0.128763;0.991675
0.100391;0.994948
0.074856;0.997194
0.053089;0.998590
0.035918;0.999355
0.025200;0.999682
0.021039;0.999779
0.015109;0.999886
0.005997;0.999982
-0.003401;0.999994
-0.010065;0.999949
-0.017056;0.999855
-0.029093;0.999577
-0.046549;0.998916
-0.068904;0.997623
-0.095234;0.995455
-0.124194;0.992258
-0.154112;0.988053
-0.183184;0.983079
-0.209760;0.977753
-0.232626;0.972566
-0.251207;0.967933
-0.265584;0.964088
0.276211;0.961097
0.261910;0.965092
0.244519;0.969644
0.224013;0.974586
0.200753;0.979642
0.175493;0.984481
0.149287;0.988794
0.123323;0.992367
0.098769;0.995110
0.076646;0.997058
0.057796;0.998328
0.042922;0.999078
0.032340;0.999477
0.024571;0.999698
0.016685;0.999861
0.007734;0.999970
-0.001246;0.999999
-0.009487;0.999955
-0.018491;0.999829
-0.030532;0.999534
-0.046478;0.998919
-0.066191;0.997807
-0.089029;0.996029
-0.113998;0.993481
-0.139859;0.990171
-0.165274;0.986248
-0.189001;0.981977
-0.210081;0.977684
-0.227972;0.973668
-0.242569;0.970134
0.257896;0.966173
0.243744;0.969840
0.227136;0.973863
0.208158;0.978095
0.187166;0.982328
0.164778;0.986331
0.141809;0.989894
0.119171;0.992874
0.097759;0.995210
0.078363;0.996925
0.061594;0.998101
0.047782;0.998858
0.036713;0.999326
0.027361;0.999626
0.018410;0.999831
0.009269;0.999957
0.000090;1.000000
-0.009129;0.999958
-0.019210;0.999816
-0.031326;0.999509
-0.046175;0.998933
-0.063821;0.997961
-0.083871;0.996477
-0.105616;0.994407
-0.128147;0.991755
-0.150473;0.988614
-0.171657;0.985157
-0.190947;0.981600
-0.207856;0.978159
-0.222202;0.975001
0.241694;0.970352
0.227975;0.973667
0.212309;0.977203
0.194837;0.980836
0.175882;0.984411
0.155949;0.987765
0.135669;0.990754
0.115738;0.993280
0.096828;0.995301
0.079515;0.996834
0.064196;0.997937
0.050998;0.998699
0.039662;0.999213
0.029568;0.999563
0.020012;0.999800
0.010564;0.999944
0.001058;0.999999
-0.008733;0.999962
-0.019334;0.999813
-0.031406;0.999507
-0.045415;0.998968
-0.061463;0.998109
-0.079318;0.996849
-0.098488;0.995138
-0.118316;0.992976
-0.138072;0.990422
-0.157048;0.987591
-0.174653;0.984630
-0.190472;0.981693
-0.204293;0.978910
