40;40;0.750000;0.750000
15.013832;15.449261
0.109202;-0.130287
0.111225;-0.128565
0.112076;-0.127824
0.110161;-0.129478
0.106605;-0.132421
0.102048;-0.135964
0.096621;-0.139873
0.090357;-0.143999
0.083285;-0.148201
0.075464;-0.152333
0.066986;-0.156246
0.057989;-0.159804
0.048646;-0.162891
0.039165;-0.165427
0.029784;-0.167371
0.020773;-0.168726
0.012436;-0.169545
0.005146;-0.169922
-0.000610;-0.169999
-0.004102;-0.169951
-0.004454;-0.169942
-0.008862;-0.169769
-0.016091;-0.169237
-0.024563;-0.168216
-0.033743;-0.166617
-0.043237;-0.164410
-0.052735;-0.161614
-0.061991;-0.158294
-0.070809;-0.154551
-0.079042;-0.150507
-0.086582;-0.146299
-0.093364;-0.142067
-0.099356;-0.137943
-0.104557;-0.134044
-0.108988;-0.130467
-0.112681;-0.127291
-0.115669;-0.124582
-0.117928;-0.122445
-0.119173;-0.121235
-0.119000;-0.121405
0.112218;-0.127699
0.115807;-0.124453
0.118838;-0.121563
0.115658;-0.124592
0.111821;-0.128047
0.107237;-0.131910
0.101827;-0.136130
0.095542;-0.140612
0.088369;-0.145227
0.080342;-0.149817
0.071544;-0.154213
0.062111;-0.158247
0.052229;-0.161778
0.042128;-0.164697
0.032076;-0.166947
0.022378;-0.168521
0.013394;-0.169472
0.005575;-0.169909
-0.000454;-0.169999
-0.003765;-0.169958
-0.003360;-0.169967
-0.007542;-0.169833
-0.015102;-0.169328
-0.024285;-0.168256
-0.034266;-0.166511
-0.044536;-0.164063
-0.054733;-0.160948
-0.064582;-0.157255
-0.073873;-0.153110
-0.082452;-0.148666
-0.090216;-0.144087
-0.097105;-0.139537
-0.103101;-0.135168
-0.108219;-0.131106
-0.112500;-0.127451
-0.116003;-0.124271
-0.118801;-0.121599
-0.120978;-0.119434
-0.122664;-0.117702
-0.121187;-0.119221
0.113713;-0.126370
0.116561;-0.123748
0.119669;-0.120745
0.119291;-0.121118
0.115961;-0.124310
0.111760;-0.128100
0.106644;-0.132390
0.100552;-0.137074
0.093452;-0.142010
0.085362;-0.147015
0.076355;-0.151888
0.066571;-0.156423
0.056209;-0.160439
0.045520;-0.163792
0.034806;-0.166399
0.024413;-0.168238
0.014754;-0.169359
0.006350;-0.169881
-0.000085;-0.170000
-0.003616;-0.169962
-0.003556;-0.169963
-0.007637;-0.169828
-0.015257;-0.169314
-0.024899;-0.168167
-0.035534;-0.166245
-0.046488;-0.163520
-0.057308;-0.160049
-0.067675;-0.155949
-0.077358;-0.151380
-0.086194;-0.146529
-0.094078;-0.141595
-0.100961;-0.136773
-0.106834;-0.132237
-0.111727;-0.128129
-0.115697;-0.124556
-0.118815;-0.121585
-0.121162;-0.119247
-0.122802;-0.117557
-0.122617;-0.117750
-0.121772;-0.118624
0.114386;-0.125761
0.115840;-0.124423
0.117626;-0.122736
0.119555;-0.120858
0.119261;-0.121148
0.115631;-0.124617
0.111035;-0.128729
0.105340;-0.133430
0.098496;-0.138559
0.090502;-0.143907
0.081423;-0.149232
0.071395;-0.154281
0.060630;-0.158821
0.049406;-0.162662
0.038058;-0.165685
0.026972;-0.167847
0.016605;-0.169187
0.007531;-0.169833
0.000512;-0.169999
-0.003483;-0.169964
-0.003478;-0.169964
-0.008147;-0.169805
-0.016200;-0.169226
-0.026364;-0.167943
-0.037606;-0.165788
-0.049166;-0.162735
-0.060523;-0.158861
-0.071315;-0.154318
-0.081287;-0.149306
-0.090268;-0.144054
-0.098152;-0.138803
-0.104896;-0.133779
-0.110505;-0.129185
-0.115024;-0.125178
-0.118525;-0.121868
-0.121097;-0.119313
-0.122843;-0.117515
-0.122597;-0.117770
-0.122222;-0.118160
-0.122235;-0.118146
0.115179;-0.125035
0.115654;-0.124596
0.116479;-0.123825
0.117655;-0.122708
0.119419;-0.120992
0.119026;-0.121379
0.115064;-0.125141
0.109914;-0.129688
0.103490;-0.134870
0.095756;-0.140467
0.086751;-0.146200
0.076603;-0.151763
0.065532;-0.156862
0.053838;-0.161250
0.041892;-0.164758
0.030117;-0.167311
0.019000;-0.168935
0.009144;-0.169754
0.001347;-0.169995
-0.003314;-0.169968
-0.003245;-0.169969
-0.008896;-0.169767
-0.017702;-0.169076
-0.028573;-0.167582
-0.040463;-0.165114
-0.052590;-0.161661
-0.064403;-0.157329
-0.075517;-0.152306
-0.085665;-0.146839
-0.094663;-0.141205
-0.102410;-0.135691
-0.108871;-0.130565
-0.114066;-0.126052
-0.118061;-0.122317
-0.120955;-0.119457
-0.122891;-0.117464
-0.122565;-0.117805
-0.122379;-0.117997
-0.122664;-0.117701
-0.123302;-0.117032
0.116508;-0.123798
0.116258;-0.124032
0.116282;-0.124010
0.116646;-0.123667
0.117513;-0.122844
0.119294;-0.121116
0.118855;-0.121547
0.114310;-0.125830
0.108441;-0.130922
0.101120;-0.136655
0.092343;-0.142733
0.082212;-0.148799
0.070943;-0.154490
0.058855;-0.159487
0.046354;-0.163558
0.033896;-0.166587
0.021989;-0.168572
0.011238;-0.169628
0.002468;-0.169982
-0.003075;-0.169972
-0.003492;-0.169964
-0.009880;-0.169713
-0.019709;-0.168854
-0.031477;-0.167060
-0.044084;-0.164185
-0.056752;-0.160247
-0.068942;-0.155393
-0.080275;-0.149853
-0.090474;-0.143925
-0.099354;-0.137945
-0.106813;-0.132253
-0.112831;-0.127158
-0.117450;-0.122905
-0.120766;-0.119648
-0.122851;-0.117506
-0.122523;-0.117848
-0.122542;-0.117829
-0.123081;-0.117265
-0.123953;-0.116343
-0.125056;-0.115156
0.118538;-0.121856
0.117745;-0.122622
0.117114;-0.123225
0.116726;-0.123592
0.116713;-0.123605
0.117318;-0.123030
0.118994;-0.121411
0.118641;-0.121755
0.113356;-0.126690
0.106595;-0.132430
0.098203;-0.138766
0.088237;-0.145308
0.076889;-0.151618
0.064489;-0.157293
0.051476;-0.162019
0.038350;-0.165618
0.025632;-0.168057
0.013898;-0.169431
0.003970;-0.169954
-0.002712;-0.169978
-0.003856;-0.169956
-0.011143;-0.169634
-0.022261;-0.168536
-0.035096;-0.166338
-0.048469;-0.162944
-0.061639;-0.158432
-0.074123;-0.152990
-0.085564;-0.146897
-0.095686;-0.140514
-0.104295;-0.134248
-0.111295;-0.128505
-0.116683;-0.123633
-0.120529;-0.119886
-0.123018;-0.117331
-0.122515;-0.117856
-0.122779;-0.117581
-0.123615;-0.116702
-0.124760;-0.115477
-0.126083;-0.114031
-0.127504;-0.112440
0.121332;-0.119074
0.120157;-0.120259
0.119025;-0.121380
0.118007;-0.122370
0.117208;-0.123135
0.116803;-0.123520
0.117109;-0.123230
0.118799;-0.121601
0.118189;-0.122194
0.112168;-0.127743
0.104326;-0.134224
0.094687;-0.141189
0.083396;-0.148139
0.070771;-0.154569
0.057287;-0.160057
0.043511;-0.164338
0.029993;-0.167333
0.017249;-0.169123
0.006006;-0.169894
-0.002139;-0.169987
-0.003791;-0.169958
-0.012766;-0.169520
-0.025468;-0.168082
-0.039509;-0.165345
-0.053640;-0.161316
-0.067232;-0.156141
-0.079911;-0.150047
-0.091351;-0.143370
-0.101255;-0.136555
-0.109414;-0.130110
-0.115739;-0.124517
-0.120249;-0.120167
-0.122798;-0.117561
-0.122547;-0.117823
-0.123144;-0.117199
-0.124342;-0.115927
-0.125816;-0.114326
-0.127405;-0.112552
-0.129023;-0.110694
-0.130614;-0.108812
0.124895;-0.115331
0.123493;-0.116831
0.122021;-0.118367
0.120533;-0.119883
0.119104;-0.121303
0.117855;-0.122516
0.116997;-0.123336
0.116920;-0.123409
0.118482;-0.121909
0.117953;-0.122422
0.110698;-0.129019
0.101570;-0.136322
0.090497;-0.143911
0.077747;-0.151180
0.063818;-0.157567
0.049387;-0.162668
0.035116;-0.166334
0.021446;-0.168642
0.008821;-0.169771
-0.001193;-0.169996
-0.003714;-0.169959
-0.014878;-0.169348
-0.029522;-0.167417
-0.044856;-0.163975
-0.059628;-0.159199
-0.073496;-0.153292
-0.086265;-0.146487
-0.097595;-0.139195
-0.107114;-0.132010
-0.114582;-0.125583
-0.119912;-0.120504
-0.123154;-0.117188
-0.122665;-0.117700
-0.123699;-0.116613
-0.125339;-0.114848
-0.127199;-0.112785
-0.129099;-0.110605
-0.130948;-0.108409
-0.132698;-0.106261
-0.134318;-0.104205
0.129183;-0.110507
0.127702;-0.112215
0.126055;-0.114062
0.124272;-0.116002
0.122403;-0.117972
0.120528;-0.119887
0.118777;-0.121622
0.117382;-0.122969
0.116803;-0.123520
0.118072;-0.122307
0.117357;-0.122993
0.108889;-0.130550
0.098236;-0.138743
0.085496;-0.146937
0.071126;-0.154406
0.055959;-0.160526
0.040966;-0.164990
0.026641;-0.167900
0.012809;-0.169517
0.000443;-0.169999
-0.004242;-0.169947
-0.017688;-0.169077
-0.034761;-0.166408
-0.051349;-0.162060
-0.066427;-0.156485
-0.080348;-0.149814
-0.093136;-0.142217
-0.104252;-0.134282
-0.113144;-0.126879
-0.119521;-0.120892
-0.122684;-0.117681
-0.122927;-0.117426
-0.124535;-0.115720
-0.126698;-0.113348
-0.128992;-0.110730
-0.131235;-0.108061
-0.133341;-0.105452
-0.135267;-0.102970
-0.136993;-0.100663
-0.138513;-0.098561
0.134099;-0.104487
0.132681;-0.106282
0.131016;-0.108328
0.129115;-0.110586
0.127007;-0.113001
0.124741;-0.115497
0.122394;-0.117982
0.120096;-0.120320
0.118083;-0.122296
0.116853;-0.123472
0.117779;-0.122589
0.116639;-0.123674
0.106667;-0.132372
0.094157;-0.141543
0.079369;-0.150335
0.063219;-0.157808
0.047321;-0.163281
0.032852;-0.166795
0.018618;-0.168977
0.003383;-0.169966
-0.004740;-0.169934
-0.021543;-0.168630
-0.041788;-0.164784
-0.059293;-0.159325
-0.073880;-0.153107
-0.087631;-0.145674
-0.100509;-0.137106
-0.111267;-0.128529
-0.119040;-0.121365
-0.123147;-0.117196
-0.123452;-0.116874
-0.125787;-0.114358
-0.128535;-0.111260
-0.131283;-0.108004
-0.133874;-0.104775
-0.136240;-0.101679
-0.138348;-0.098792
-0.140185;-0.096168
-0.141751;-0.093844
-0.143060;-0.091836
0.139491;-0.097171
0.138263;-0.098910
0.136726;-0.101025
0.134872;-0.103487
0.132713;-0.106242
0.130278;-0.109213
0.127619;-0.112310
0.124808;-0.115425
0.121963;-0.118427
0.119289;-0.121121
0.117258;-0.123088
0.117356;-0.122994
0.116156;-0.124128
0.103917;-0.134541
0.088923;-0.144888
0.071416;-0.154272
0.053753;-0.161278
0.039490;-0.165350
0.027274;-0.167798
0.008580;-0.169783
-0.004789;-0.169933
-0.026860;-0.167865
-0.051527;-0.162003
-0.069106;-0.155320
-0.081380;-0.149256
-0.095204;-0.140841
-0.108499;-0.130874
-0.118412;-0.121978
-0.122677;-0.117688
-0.124463;-0.115798
-0.127681;-0.112238
-0.131017;-0.108326
-0.134169;-0.104397
-0.137056;-0.100576
-0.139645;-0.096949
-0.141916;-0.093594
-0.143859;-0.090579
-0.145475;-0.087960
-0.146776;-0.085771
-0.147789;-0.084014
0.145155;-0.088487
0.144222;-0.090000
0.142934;-0.092032
0.141267;-0.094570
0.139220;-0.097559
0.136810;-0.100911
0.134074;-0.104519
0.131068;-0.108264
0.127868;-0.112026
0.124567;-0.115685
0.121301;-0.119106
0.118383;-0.122006
0.117258;-0.123087
0.114831;-0.125355
0.100368;-0.137209
0.081619;-0.149125
0.060658;-0.158810
0.044266;-0.164136
0.038599;-0.165560
0.015759;-0.169268
-0.004905;-0.169929
-0.033306;-0.166705
-0.063617;-0.157648
-0.081448;-0.149219
-0.087642;-0.145667
-0.103632;-0.134761
-0.117295;-0.123053
-0.123111;-0.117233
-0.126407;-0.113672
-0.130624;-0.108800
-0.134401;-0.104097
-0.137774;-0.099591
-0.140808;-0.095253
-0.143516;-0.091122
-0.145887;-0.087276
-0.147906;-0.083808
-0.149567;-0.080806
-0.150873;-0.078341
-0.151841;-0.076448
-0.152505;-0.075115
0.150831;-0.078421
0.150264;-0.079503
0.149313;-0.081275
0.147943;-0.083744
0.146140;-0.086852
0.143911;-0.090496
0.141284;-0.094545
0.138306;-0.098850
0.135053;-0.103251
0.131622;-0.107590
0.128116;-0.111742
0.124571;-0.115681
0.120900;-0.119512
0.117885;-0.122487
0.114017;-0.126096
0.095604;-0.140570
0.071795;-0.154096
0.049424;-0.162657
0.042000;-0.164730
0.021187;-0.168675
-0.005380;-0.169915
-0.038152;-0.165664
-0.073187;-0.153440
-0.082708;-0.148524
-0.095614;-0.140563
-0.114845;-0.125342
-0.123692;-0.116620
-0.130126;-0.109395
-0.135392;-0.102805
-0.139134;-0.097682
-0.142268;-0.093059
-0.145136;-0.088518
-0.147768;-0.084052
-0.150116;-0.079782
-0.152141;-0.075850
-0.153816;-0.072393
-0.155130;-0.069531
-0.156085;-0.067360
-0.156696;-0.065928
-0.156997;-0.065207
0.156221;-0.067046
0.156041;-0.067463
0.155467;-0.068775
0.154459;-0.071010
0.153000;-0.074101
0.151086;-0.077929
0.148724;-0.082348
0.145938;-0.087191
0.142787;-0.092260
0.139388;-0.097319
0.135939;-0.102081
0.132678;-0.106285
0.129579;-0.110042
0.125573;-0.114592
0.119770;-0.120644
0.113299;-0.126741
0.091352;-0.143370
0.064055;-0.157470
0.043216;-0.164415
0.025076;-0.168140
-0.005672;-0.169905
-0.035422;-0.166269
-0.082390;-0.148701
-0.088363;-0.145231
-0.110915;-0.128833
-0.124610;-0.115639
-0.136227;-0.101696
-0.143180;-0.091649
-0.146014;-0.087063
-0.147874;-0.083865
-0.150003;-0.079994
-0.152267;-0.075595
-0.154425;-0.071084
-0.156341;-0.066765
-0.157953;-0.062855
-0.159240;-0.059520
-0.160192;-0.056907
-0.160806;-0.055148
-0.161085;-0.054328
-0.161054;-0.054419
0.161007;-0.054558
0.161175;-0.054063
0.160951;-0.054724
0.160315;-0.056560
0.159261;-0.059465
0.157777;-0.063297
0.155841;-0.067924
0.153427;-0.073213
0.150525;-0.079007
0.147178;-0.085080
0.143553;-0.091063
0.140062;-0.096346
0.137467;-0.100014
0.135565;-0.102577
0.131105;-0.108220
0.123348;-0.116984
0.115574;-0.124670
0.098124;-0.138822
0.068092;-0.155768
0.029462;-0.167428
-0.004224;-0.169948
-0.039376;-0.165377
-0.081933;-0.148953
-0.106303;-0.132663
-0.126454;-0.113620
-0.142735;-0.092340
-0.151897;-0.076337
-0.155561;-0.068561
-0.154732;-0.070413
-0.155151;-0.069485
-0.156770;-0.065750
-0.158607;-0.061187
-0.160303;-0.056596
-0.161744;-0.052336
-0.162906;-0.048598
-0.163792;-0.045520
-0.164407;-0.043247
-0.164740;-0.041962
-0.164768;-0.041852
-0.164484;-0.042954
0.164905;-0.041307
0.165303;-0.039684
0.165326;-0.039588
0.165002;-0.040919
0.164356;-0.043440
0.163381;-0.046976
0.162031;-0.051438
0.160231;-0.056798
0.157874;-0.063055
0.154835;-0.070186
0.151007;-0.078083
0.146398;-0.086415
0.141417;-0.094346
0.138815;-0.098135
0.138773;-0.098194
0.136943;-0.100730
0.133869;-0.104781
0.134779;-0.103608
0.127365;-0.112598
0.052718;-0.161619
-0.020750;-0.168729
-0.073427;-0.153325
-0.102970;-0.135267
-0.125537;-0.114632
-0.149021;-0.081809
-0.157381;-0.064274
-0.160037;-0.057341
-0.159589;-0.058578
-0.159472;-0.058897
-0.160814;-0.055124
-0.162439;-0.050136
-0.163875;-0.045222
-0.165041;-0.040761
-0.165953;-0.036873
-0.166646;-0.033601
-0.167152;-0.030989
-0.167484;-0.029137
-0.167632;-0.028274
-0.167541;-0.028812
-0.167132;-0.031093
0.167711;-0.027804
0.168159;-0.024951
0.168263;-0.024238
0.168137;-0.025099
0.167835;-0.027042
0.167357;-0.029860
0.166660;-0.033532
0.165664;-0.038152
0.164232;-0.043906
0.162147;-0.051072
0.159062;-0.059993
0.154513;-0.070892
0.148432;-0.082874
0.143023;-0.091893
0.139506;-0.097149
0.145460;-0.087986
0.145785;-0.087445
0.148365;-0.082993
0.000000;0.000000
0.000000;0.000000
0.000000;0.000000
-0.102867;-0.135346
-0.121903;-0.118489
-0.151790;-0.076549
-0.159386;-0.059127
-0.160364;-0.056420
-0.161505;-0.053066
-0.162806;-0.048932
-0.164420;-0.043199
-0.165906;-0.037082
-0.166998;-0.031808
-0.167764;-0.027479
-0.168305;-0.023944
-0.168690;-0.021060
-0.168965;-0.018728
-0.169159;-0.016894
-0.169285;-0.015577
-0.169340;-0.014960
-0.169273;-0.015700
-0.168912;-0.019202
0.169364;-0.014694
0.169656;-0.010814
0.169700;-0.010095
0.169667;-0.010642
0.169589;-0.011808
0.169466;-0.013462
0.169279;-0.015636
0.168995;-0.018458
0.168550;-0.022155
0.167829;-0.027082
0.166616;-0.033749
0.164564;-0.042645
0.161401;-0.053382
0.157759;-0.063341
0.155529;-0.068634
0.154453;-0.071022
0.149604;-0.080738
0.141760;-0.093831
0.000000;0.000000
-0.140655;0.095479
0.082256;0.148775
0.000000;0.000000
-0.161033;-0.054484
-0.163331;-0.047149
-0.166734;-0.033161
-0.167984;-0.026105
-0.168442;-0.022964
-0.168868;-0.019589
-0.169242;-0.016036
-0.169517;-0.012810
-0.169685;-0.010348
-0.169789;-0.008467
-0.169853;-0.007068
-0.169895;-0.005964
-0.169923;-0.005114
-0.169942;-0.004430
-0.169955;-0.003915
-0.169963;-0.003565
-0.169961;-0.003649
-0.169816;-0.007901
0.169972;-0.003070
0.169998;0.000849
0.169997;0.000978
0.169998;0.000859
0.169999;0.000675
0.169999;0.000658
0.170000;0.000098
0.170000;0.000327
0.169999;-0.000635
0.169999;-0.000692
0.169997;-0.001066
0.169963;-0.003554
0.170000;-0.000269
0.169857;-0.006981
0.170000;0.000058
0.169942;-0.004430
0.169933;-0.004784
0.166278;-0.035379
0.000000;0.000000
-0.161524;-0.053011
0.158435;-0.061632
0.000000;0.000000
-0.166678;0.033445
-0.168492;0.022590
-0.169933;0.004774
-0.169997;-0.000962
-0.169939;-0.004553
-0.169866;-0.006745
-0.169840;-0.007368
-0.169856;-0.006998
-0.169885;-0.006242
-0.169914;-0.005405
-0.169937;-0.004633
-0.169954;-0.003947
-0.169967;-0.003371
-0.169976;-0.002882
-0.169982;-0.002496
-0.169986;-0.002216
-0.169985;-0.002227
-0.169906;-0.005652
0.169957;-0.003810
0.169998;-0.000896
0.169998;-0.000834
0.169996;-0.001168
0.169992;-0.001647
0.169985;-0.002226
0.169976;-0.002882
0.169962;-0.003586
0.169947;-0.004264
0.169934;-0.004738
0.169938;-0.004597
0.169974;-0.002953
0.169990;0.001838
0.169588;0.011823
0.167820;0.027137
0.164083;0.044462
0.160690;0.055485
0.161663;0.052585
0.000000;0.000000
-0.095602;-0.140571
0.104818;-0.133840
0.000000;0.000000
-0.150214;0.079598
-0.160438;0.056210
-0.162998;0.048288
-0.165843;0.037365
-0.168319;0.023849
-0.169577;0.011979
-0.169953;0.003985
-0.169999;-0.000697
-0.169969;-0.003240
-0.169940;-0.004532
-0.169923;-0.005122
-0.169916;-0.005332
-0.169916;-0.005354
-0.169917;-0.005310
-0.169917;-0.005304
-0.169912;-0.005483
-0.169886;-0.006224
-0.169793;-0.008379
0.169888;-0.006182
0.169950;-0.004129
0.169968;-0.003322
0.169973;-0.003019
0.169976;-0.002842
0.169980;-0.002606
0.169986;-0.002154
0.169995;-0.001284
0.170000;0.000319
0.169970;0.003176
0.169804;0.008161
0.169180;0.016674
0.167232;0.030555
0.162373;0.050350
0.154990;0.069844
0.149170;0.081538
0.146871;0.085610
0.112477;0.127471
-0.090201;-0.144097
0.000000;0.000000
0.000000;0.000000
0.103129;-0.135146
-0.140306;0.095991
-0.143593;0.091001
-0.144258;0.089942
-0.152235;0.075661
-0.160637;0.055638
-0.166040;0.036477
-0.168450;0.022904
-0.169428;0.013928
-0.169809;0.008052
-0.169949;0.004174
-0.169993;0.001572
-0.170000;-0.000220
-0.169993;-0.001504
-0.169982;-0.002485
-0.169967;-0.003328
-0.169948;-0.004197
-0.169917;-0.005313
-0.169858;-0.006936
0.169944;-0.004366
0.169979;-0.002680
0.169994;-0.001407
0.170000;-0.000270
0.169997;0.000985
0.169981;0.002574
0.169934;0.004730
0.169823;0.007750
0.169573;0.012047
0.169023;0.018203
0.167844;0.026988
0.165410;0.039236
0.160763;0.055275
0.153329;0.073417
0.147297;0.084874
0.143200;0.091617
0.113689;0.126391
0.103692;0.134715
0.084678;0.147410
0.001131;0.169996
-0.029789;0.167370
-0.070317;0.154776
-0.126027;0.114092
-0.140929;0.095074
-0.143762;0.090733
-0.140379;0.095884
-0.152905;0.074297
-0.160832;0.055074
-0.165030;0.040805
-0.167288;0.030246
-0.168509;0.022464
-0.169178;0.016699
-0.169549;0.012372
-0.169758;0.009060
-0.169877;0.006461
-0.169944;0.004351
-0.169981;0.002561
-0.169997;0.000942
-0.169999;-0.000656
-0.169983;-0.002389
0.169999;0.000637
0.169982;0.002489
0.169945;0.004338
0.169880;0.006379
0.169771;0.008814
0.169586;0.011851
0.169271;0.015728
0.168731;0.020735
0.167807;0.027220
0.166239;0.035562
0.163640;0.046066
0.159554;0.058674
0.153786;0.072455
0.147241;0.084972
0.141562;0.094128
0.130793;0.108597
0.113757;0.126330
0.098655;0.138446
0.091769;0.143103
0.014880;0.169348
-0.046884;0.163407
-0.072843;0.153603
-0.100732;0.136942
-0.137183;0.100403
-0.143821;0.090639
-0.145956;0.087160
-0.150724;0.078628
-0.156274;0.066922
-0.160632;0.055653
-0.163700;0.045850
-0.165772;0.037677
-0.167153;0.030983
-0.168073;0.025521
-0.168693;0.021037
-0.169116;0.017310
-0.169410;0.014157
-0.169616;0.011427
-0.169762;0.008987
-0.169868;0.006710
-0.169941;0.004464
0.169807;0.008102
0.169678;0.010463
0.169498;0.013053
0.169241;0.016051
0.168862;0.019636
0.168298;0.023992
0.167453;0.029316
0.166186;0.035810
0.164297;0.043664
0.161532;0.052984
0.157622;0.063681
0.152406;0.075315
0.146031;0.087035
0.138920;0.097986
0.130755;0.108642
0.121776;0.118620
0.107946;0.131330
0.092588;0.142575
0.081427;0.149230
0.015879;0.169257
-0.034018;0.166562
-0.071818;0.154085
-0.085225;0.147094
-0.117657;0.122706
-0.137476;0.100002
-0.146082;0.086949
-0.148177;0.083329
-0.151721;0.076687
-0.155597;0.068480
-0.158974;0.060226
-0.161672;0.052557
-0.163740;0.045709
-0.165297;0.039712
-0.166464;0.034494
-0.167342;0.029942
-0.168010;0.025935
-0.168524;0.022352
-0.168926;0.019079
-0.169245;0.016005
-0.169501;0.013020
0.169104;0.017435
0.168761;0.020489
0.168311;0.023901
0.167706;0.027832
0.166878;0.032432
0.165734;0.037843
0.164157;0.044188
0.161993;0.051559
0.159066;0.059983
0.155201;0.069374
0.150276;0.079480
0.144303;0.089870
0.137461;0.100023
0.130073;0.109458
0.123704;0.116608
0.115248;0.124971
0.097799;0.139052
0.091501;0.143275
0.068904;0.155410
0.012320;0.169553
-0.018973;0.168938
-0.055157;0.160803
-0.078744;0.150663
-0.105513;0.133293
-0.127031;0.112974
-0.139693;0.096881
-0.146269;0.086634
-0.147962;0.083708
-0.150394;0.079256
-0.153578;0.072895
-0.156572;0.066222
-0.159146;0.059772
-0.161274;0.053765
-0.163004;0.048267
-0.164404;0.043259
-0.165542;0.038676
-0.166477;0.034428
-0.167256;0.030418
-0.167914;0.026549
-0.168473;0.022737
0.167666;0.028075
0.166986;0.031870
0.166129;0.036072
0.165029;0.040809
0.163604;0.046191
0.161755;0.052301
0.159365;0.059186
0.156310;0.066838
0.152475;0.075175
0.147788;0.084016
0.142259;0.093071
0.136047;0.101937
0.129587;0.110032
0.124413;0.115851
0.119802;0.120613
0.107173;0.131962
0.092661;0.142527
0.079984;0.150009
0.053130;0.161484
0.007772;0.169822
-0.011535;0.169608
-0.040036;0.165218
-0.068627;0.155532
-0.095055;0.140942
-0.117049;0.123287
-0.132271;0.106791
-0.141693;0.093931
-0.146904;0.085552
-0.148793;0.082223
-0.148863;0.082097
-0.151264;0.077584
-0.153978;0.072047
-0.156445;0.066520
-0.158602;0.061199
-0.160460;0.056148
-0.162059;0.051350
-0.163449;0.046737
-0.164675;0.042214
-0.165771;0.037684
-0.166750;0.033084
0.165357;0.039458
0.164227;0.043926
0.162852;0.048778
0.161162;0.054099
0.159079;0.059950
0.156514;0.066358
0.153382;0.073307
0.149613;0.080722
0.145171;0.088461
0.140095;0.096299
0.134548;0.103908
0.128961;0.110765
0.124815;0.115417
0.122130;0.118255
0.113370;0.126677
0.100067;0.137429
0.084488;0.147519
0.065905;0.156705
0.038264;0.165638
0.003331;0.169967
-0.009724;0.169722
-0.030377;0.167264
-0.057781;0.159879
-0.084340;0.147604
-0.107051;0.132061
-0.124178;0.116103
-0.135893;0.102143
-0.143336;0.091405
-0.147579;0.084382
-0.149357;0.081195
-0.149105;0.081657
-0.149001;0.081845
-0.151563;0.076997
-0.153870;0.072277
-0.155983;0.067597
-0.157901;0.062986
-0.159658;0.058390
-0.161297;0.053695
-0.162854;0.048770
-0.164332;0.043531
0.162164;0.051018
0.160511;0.056001
0.158571;0.061281
0.156284;0.066898
0.153590;0.072871
0.150432;0.079184
0.146772;0.085778
0.142604;0.092542
0.137984;0.099299
0.133079;0.105783
0.128270;0.111566
0.124363;0.115904
0.123436;0.116891
0.117375;0.122976
0.106717;0.132331
0.092316;0.142750
0.074842;0.152639
0.053517;0.161357
0.027097;0.167827
-0.000114;0.170000
-0.009800;0.169717
-0.024500;0.168225
-0.048398;0.162965
-0.073872;0.153111
-0.096975;0.139627
-0.115585;0.124660
-0.129255;0.110422
-0.138633;0.098392
-0.144665;0.089287
-0.148179;0.083324
-0.149785;0.080403
-0.149888;0.080210
-0.148638;0.082502
-0.149538;0.080860
-0.151614;0.076898
-0.153613;0.072822
-0.155532;0.068629
-0.157423;0.064172
-0.159352;0.059220
-0.161333;0.053587
0.158199;0.062233
0.156018;0.067516
0.153549;0.072956
0.150757;0.078564
0.147610;0.084328
0.144092;0.090208
0.140216;0.096123
0.136046;0.101939
0.131737;0.107450
0.127610;0.112319
0.124739;0.115500
0.124227;0.116051
0.120056;0.120361
0.111842;0.128029
0.099735;0.137670
0.084080;0.147751
0.065180;0.157008
0.043118;0.164441
0.019006;0.168934
-0.002577;0.169980
-0.010231;0.169692
-0.020823;0.168720
-0.040881;0.165011
-0.064317;0.157364
-0.087123;0.145978
-0.106715;0.132332
-0.122015;0.118373
-0.133143;0.105702
-0.140794;0.095274
-0.145759;0.087489
-0.148706;0.082380
-0.150134;0.079749
-0.150390;0.079264
-0.149715;0.080531
-0.148546;0.082668
-0.149738;0.080489
-0.151592;0.076941
-0.153480;0.073102
-0.155558;0.068568
-0.157956;0.062848
0.153684;0.072672
0.151041;0.078017
0.148162;0.083356
0.145038;0.088679
0.141672;0.093964
0.138084;0.099161
0.134338;0.104180
0.130566;0.108870
0.127018;0.112988
0.124430;0.115833
0.124725;0.115515
0.121887;0.118505
0.115684;0.124568
0.105912;0.132976
0.092546;0.142602
0.075816;0.152157
0.056192;0.160445
0.034582;0.166446
0.013084;0.169496
-0.004339;0.169945
-0.010613;0.169668
-0.018396;0.169002
-0.035002;0.166358
-0.055991;0.160515
-0.077858;0.151123
-0.097861;0.139008
-0.114405;0.125743
-0.127077;0.112922
-0.136239;0.101681
-0.142554;0.092619
-0.146688;0.085922
-0.149184;0.081512
-0.150446;0.079158
-0.150763;0.078553
-0.150339;0.079362
-0.149314;0.081273
-0.148120;0.083429
-0.149928;0.080135
-0.151825;0.076480
-0.154446;0.071037
0.148898;0.082033
0.145920;0.087220
0.142806;0.092230
0.139573;0.097054
0.136246;0.101672
0.132878;0.106035
0.129573;0.110050
0.126525;0.113541
0.124577;0.115674
0.125046;0.115168
0.123158;0.117185
0.118539;0.121854
0.110841;0.128897
0.099800;0.137623
0.085384;0.147002
0.067917;0.155844
0.048192;0.163026
0.027668;0.167733
0.008685;0.169778
-0.005616;0.169907
-0.010848;0.169654
-0.016706;0.169177
-0.030425;0.167255
-0.048945;0.162802
-0.069448;0.155168
-0.089328;0.144639
-0.106686;0.132356
-0.120639;0.119776
-0.131179;0.108130
-0.138773;0.098194
-0.144030;0.090308
-0.147504;0.084513
-0.149639;0.080672
-0.150761;0.078556
-0.151104;0.077895
-0.150833;0.078418
-0.150072;0.079865
-0.148930;0.081974
-0.148669;0.082446
-0.151042;0.078015
0.144128;0.090150
0.140977;0.095002
0.137828;0.099516
0.134709;0.103698
0.131659;0.107545
0.128746;0.111015
0.126093;0.114020
0.124656;0.115589
0.125257;0.114937
0.124048;0.116242
0.120654;0.119760
0.114692;0.125482
0.105789;0.133074
0.093706;0.141842
0.078493;0.150794
0.060657;0.158810
0.041291;0.164909
0.022122;0.168555
0.005376;0.169915
-0.006561;0.169873
-0.011043;0.169641
-0.015480;0.169294
-0.026855;0.167865
-0.043095;0.164447
-0.062042;0.158274
-0.081387;0.149252
-0.099130;0.138106
-0.114051;0.126065
-0.125784;0.114360
-0.134564;0.103888
-0.140890;0.095132
-0.145299;0.088251
-0.148251;0.083196
-0.150106;0.079800
-0.151129;0.077846
-0.151511;0.077100
-0.151393;0.077331
-0.150884;0.078320
-0.150103;0.079807
-0.150829;0.078425
0.139620;0.096986
0.136467;0.101374
0.133474;0.105283
0.130664;0.108752
0.128067;0.111798
0.125761;0.114386
0.124600;0.115650
0.125396;0.114786
0.124677;0.115567
0.122219;0.118163
0.117661;0.122703
0.110610;0.129095
0.100722;0.136949
0.087823;0.145558
0.072088;0.153959
0.054214;0.161124
0.035493;0.166253
0.017718;0.169074
0.002869;0.169976
-0.007271;0.169844
-0.011089;0.169638
-0.014565;0.169375
-0.024069;0.168288
-0.038318;0.165625
-0.055702;0.160615
-0.074245;0.152930
-0.092002;0.142954
-0.107553;0.131652
-0.120245;0.120171
-0.130070;0.109461
-0.137391;0.100118
-0.142689;0.092412
-0.146422;0.086374
-0.148971;0.081900
-0.150630;0.078807
-0.151625;0.076876
-0.152137;0.075858
-0.152353;0.075423
-0.152604;0.074913
-0.153705;0.072627
0.135551;0.102596
0.132554;0.106440
0.129880;0.109687
0.127516;0.112426
0.125455;0.114722
0.124787;0.115448
0.125488;0.114686
0.125123;0.115084
0.123376;0.116954
0.119928;0.120488
0.114415;0.125735
0.106471;0.132529
0.095800;0.140436
0.082319;0.148740
0.066335;0.156524
0.048686;0.162879
0.030757;0.167194
0.014279;0.169399
0.000973;0.169997
-0.007808;0.169821
-0.011181;0.169632
-0.013873;0.169433
-0.021904;0.168583
-0.034494;0.166464
-0.050437;0.162346
-0.068053;0.155784
-0.085529;0.146917
-0.101384;0.136460
-0.114763;0.125417
-0.125451;0.114726
-0.133654;0.105055
-0.139775;0.096762
-0.144248;0.089958
-0.147456;0.084597
-0.149715;0.080532
-0.151278;0.077557
-0.152358;0.075412
-0.153177;0.073735
-0.154018;0.071961
-0.155234;0.069300
0.132025;0.107095
0.129318;0.110349
0.127081;0.112917
0.125237;0.114960
0.124716;0.115525
0.125550;0.114618
0.125443;0.114734
0.124234;0.116043
0.121649;0.118750
0.117375;0.122976
0.111072;0.128697
0.102410;0.135691
0.091161;0.143491
0.077337;0.151390
0.061353;0.158543
0.044129;0.164173
0.027039;0.167836
0.011689;0.169598
-0.000421;0.169999
-0.008209;0.169802
-0.011170;0.169633
-0.013345;0.169475
-0.020254;0.168789
-0.031539;0.167049
-0.046245;0.163589
-0.062912;0.157930
-0.079899;0.150054
-0.095758;0.140465
-0.109543;0.130002
-0.120872;0.119540
-0.129810;0.109769
-0.136663;0.101110
-0.141816;0.093745
-0.145642;0.087683
-0.148462;0.082819
-0.150544;0.078971
-0.152118;0.075896
-0.153398;0.073275
-0.154603;0.070696
-0.155933;0.067712
0.129080;0.110627
0.126770;0.113267
0.125028;0.115187
0.124844;0.115386
0.125597;0.114566
0.125681;0.114474
0.124875;0.115352
0.122954;0.117398
0.119657;0.120757
0.114689;0.125484
0.107741;0.131498
0.098533;0.138532
0.086910;0.146105
0.072974;0.153541
0.057214;0.160083
0.040563;0.165090
0.024315;0.168252
0.009906;0.169711
-0.001347;0.169995
-0.008485;0.169788
-0.011169;0.169633
-0.012951;0.169506
-0.019077;0.168926
-0.029431;0.167433
-0.043138;0.164436
-0.058893;0.159473
-0.075241;0.152443
-0.090851;0.143688
-0.104763;0.133883
-0.116498;0.123807
-0.125996;0.114127
-0.133461;0.105300
-0.139218;0.097562
-0.143609;0.090975
-0.146948;0.085478
-0.149504;0.080923
-0.151509;0.077104
-0.153166;0.073757
-0.154657;0.070578
-0.156126;0.067266
0.126694;0.113352
0.124873;0.115355
0.124825;0.115406
0.125649;0.114509
0.125877;0.114258
0.125372;0.114812
0.123953;0.116343
0.121410;0.118994
0.117500;0.122857
0.111955;0.127930
0.104501;0.134088
0.094915;0.141036
0.083118;0.148295
0.069283;0.155241
0.053938;0.161216
0.037981;0.165703
0.022576;0.168494
0.008961;0.169764
-0.001733;0.169991
-0.008591;0.169783
-0.011171;0.169633
-0.012692;0.169526
-0.018441;0.168997
-0.028242;0.167638
-0.041155;0.164943
-0.056029;0.160502
-0.071625;0.154175
-0.086771;0.146188
-0.100561;0.137068
-0.112469;0.127479
-0.122339;0.118039
-0.130280;0.109211
-0.136547;0.101267
-0.141438;0.094314
-0.145248;0.088335
-0.148236;0.083222
-0.150629;0.078810
-0.152617;0.074887
-0.154362;0.071220
-0.155988;0.067586
0.124828;0.115403
0.124929;0.115295
0.125756;0.114391
0.126088;0.114026
0.125795;0.114348
0.124743;0.115495
0.122768;0.117592
0.119677;0.120737
0.115245;0.124975
0.109231;0.130264
0.101405;0.136444
0.091603;0.143209
0.079813;0.150100
0.066261;0.156555
0.051487;0.162016
0.036322;0.166074
0.021783;0.168599
0.008908;0.169766
-0.001378;0.169994
-0.008303;0.169797
-0.011157;0.169633
-0.012733;0.169522
-0.018637;0.168975
-0.028115;0.167659
-0.040309;0.165152
-0.054289;0.161098
-0.069037;0.155351
-0.083553;0.148050
-0.097013;0.139601
-0.108885;0.130553
-0.118945;0.121458
-0.127221;0.112760
-0.133893;0.104750
-0.139212;0.097571
-0.143438;0.091244
-0.146816;0.085703
-0.149559;0.080821
-0.151849;0.076433
-0.153833;0.072357
-0.155625;0.068418
0.125987;0.114137
0.126195;0.113907
0.126459;0.113613
0.126248;0.113848
0.125426;0.114754
0.123854;0.116448
0.121375;0.119030
0.117804;0.122565
0.112936;0.127065
0.106559;0.132458
0.098488;0.138565
0.088615;0.145077
0.076982;0.151571
0.063856;0.157551
0.049760;0.162554
0.035448;0.166263
0.021798;0.168597
0.009675;0.169724
-0.000177;0.170000
-0.007169;0.169849
-0.010978;0.169645
-0.013939;0.169428
-0.019985;0.168821
-0.029051;0.167499
-0.040485;0.165109
-0.053539;0.161349
-0.067378;0.156077
-0.081154;0.149379
-0.094133;0.141559
-0.105799;0.133066
-0.115890;0.124377
-0.124364;0.115904
-0.131336;0.107940
-0.137002;0.100651
-0.141587;0.094092
-0.145310;0.088233
-0.148369;0.082985
-0.150935;0.078222
-0.153145;0.073802
-0.155106;0.069585
