10;10;0.200000;0.200000
1.043945;1.083008;r;1.029297;0.267578
0.000000;0.000000
0.000000;0.000000
0.000000;0.000000
0.000000;0.000000
0.000000;0.000000
0.000000;0.000000
0.000000;0.000000
0.000000;0.000000
0.000000;0.000000
0.000000;0.000000
0.000000;0.000000
0.000000;0.000000
0.000000;0.000000
-0.154944;-0.069945
-0.151126;-0.077851
0.145644;-0.087681
0.166073;-0.036330
0.000000;0.000000
0.000000;0.000000
0.000000;0.000000
0.000000;0.000000
0.000000;0.000000
-0.125604;-0.114558
-0.162079;-0.051287
-0.162798;-0.048958
0.169839;-0.007387
0.169898;-0.005881
0.159959;-0.057560
0.000000;0.000000
0.000000;0.000000
0.000000;0.000000
0.000000;0.000000
-0.158606;-0.061189
-0.165817;-0.037480
-0.165251;-0.039903
0.165802;-0.037548
0.169202;-0.016450
0.151150;-0.077806
0.000000;0.000000
0.000000;0.000000
0.000000;0.000000
0.000000;0.000000
-0.074440;-0.152836
-0.089500;-0.144533
-0.049643;-0.162590
0.128319;-0.111509
0.158140;-0.062384
0.155874;-0.067848
0.045499;-0.163798
0.000000;0.000000
0.000000;0.000000
0.000000;0.000000
-0.084824;-0.147326
-0.106515;-0.132494
-0.041245;-0.164921
0.085443;-0.146968
0.152842;-0.074426
0.165296;-0.039716
0.011383;-0.169618
0.000000;0.000000
0.000000;0.000000
0.000000;0.000000
0.000000;0.000000
0.000000;0.000000
0.000000;0.000000
0.000000;0.000000
0.000000;0.000000
0.000000;0.000000
0.000000;0.000000
0.000000;0.000000
0.000000;0.000000
0.000000;0.000000
0.000000;0.000000
0.000000;0.000000
0.000000;0.000000
0.000000;0.000000
0.008545;-0.169785
0.000000;0.000000
0.000000;0.000000
0.000000;0.000000
0.000000;0.000000
0.000000;0.000000
0.000000;0.000000
0.000000;0.000000
0.008241;-0.169800
0.000000;0.000000
0.000000;0.000000
0.000000;0.000000
0.000000;0.000000
0.000000;0.000000
0.000000;0.000000
0.000000;0.000000
0.000000;0.000000
0.000000;0.000000
0.000000;0.000000
0.000000;0.000000
0.000000;0.000000
0.000000;0.000000
0.000000;0.000000
0.000000;0.000000
