30;30;1.000000;1.000000
14.985447;19.296947;r;15.145518;1.810244
0.984431;0.175774
0.993771;0.111437
0.997569;0.069680
0.999378;0.035275
0.999965;-0.008409
0.997474;-0.071035
0.989499;-0.144539
0.976091;-0.217364
0.952357;-0.304986
0.897482;-0.441051
0.765012;-0.644016
0.519538;-0.854447
0.251954;-0.967739
0.080833;-0.996728
0.013019;-0.999915
0.000231;-1.000000
-0.072747;-0.997350
-0.252672;-0.967552
-0.523130;-0.852253
-0.755510;-0.655137
-0.878743;-0.477296
-0.935048;-0.354522
-0.964178;-0.265258
-0.982168;-0.188006
-0.992597;-0.121451
-0.995962;-0.089775
-0.995797;-0.091591
-0.996647;-0.081820
-0.999227;-0.039314
-0.998729;0.050413
0.990090;0.140436
0.998106;0.061525
0.999441;0.033444
0.999879;0.015576
0.999863;-0.016554
0.995272;-0.097129
0.979164;-0.203071
0.964267;-0.264934
0.949346;-0.314232
0.912572;-0.408916
0.811869;-0.583840
0.585629;-0.810580
0.289516;-0.957173
0.090014;-0.995941
0.014537;-0.999894
0.000774;-1.000000
-0.074916;-0.997190
-0.274662;-0.961541
-0.564075;-0.825724
-0.777503;-0.628879
-0.875868;-0.482551
-0.921518;-0.388336
-0.949707;-0.313139
-0.974155;-0.225879
-0.993731;-0.111794
-0.996137;-0.087808
-0.987024;-0.160576
-0.989037;-0.147666
-0.995331;-0.096522
-0.999511;0.031264
0.990884;0.134714
0.999906;0.013685
0.999991;0.004360
0.999991;0.004274
0.999996;-0.002736
0.996990;-0.077524
0.933027;-0.359807
0.933311;-0.359069
0.941186;-0.337889
0.925064;-0.379812
0.863258;-0.504763
0.690506;-0.723327
0.379561;-0.925167
0.122689;-0.992445
0.018584;-0.999827
-0.000278;-1.000000
-0.094268;-0.995547
-0.334017;-0.942567
-0.629866;-0.776704
-0.794824;-0.606839
-0.856292;-0.516492
-0.891098;-0.453811
-0.917331;-0.398126
-0.964985;-0.262304
-0.993574;-0.113187
-0.997064;-0.076571
-0.993813;-0.111069
-0.995622;-0.093467
-0.999538;-0.030397
-0.996552;0.082976
0.979827;0.199846
0.993715;0.111940
0.997362;0.072590
0.998831;0.048331
0.999969;0.007835
0.996306;-0.085870
0.972162;-0.234309
0.940623;-0.339454
0.929193;-0.369594
0.930003;-0.367553
0.897580;-0.440851
0.805983;-0.591938
0.539162;-0.842202
0.191841;-0.981426
0.026310;-0.999654
-0.002433;-0.999997
-0.134696;-0.990887
-0.439408;-0.898288
-0.704712;-0.709494
-0.785358;-0.619041
-0.799024;-0.601299
-0.868250;-0.496127
-0.939744;-0.341878
-0.979081;-0.203470
-0.995868;-0.090815
-0.999528;-0.030731
-0.999990;-0.004573
-0.999520;0.030987
-0.995396;0.095852
-0.981576;0.191073
0.953002;0.302964
0.972311;0.233691
0.982692;0.185249
0.989026;0.147739
0.994816;0.101690
0.999560;0.029650
0.997555;-0.069879
0.985042;-0.172312
0.965765;-0.259417
0.940141;-0.340787
0.890288;-0.455398
0.906446;-0.422321
0.751655;-0.659557
0.340360;-0.940295
0.042160;-0.999111
-0.007132;-0.999975
-0.216017;-0.976390
-0.599045;-0.800716
-0.782100;-0.623153
-0.679674;-0.733515
-0.830955;-0.556340
-0.927819;-0.373030
-0.979997;-0.199013
-0.998159;-0.060647
-0.999317;0.036957
-0.995067;0.099210
-0.989751;0.142805
-0.982153;0.188085
-0.968931;0.247331
-0.947190;0.320672
0.912413;0.409270
0.932903;0.360127
0.947194;0.320662
0.957631;0.287997
0.967254;0.253811
0.977869;0.209217
0.988846;0.148940
0.997376;0.072400
0.999745;-0.022591
0.989231;-0.146360
0.954382;-0.298587
0.900513;-0.434829
0.818913;-0.573918
0.621625;-0.783315
0.078649;-0.996902
-0.019536;-0.999809
-0.378630;-0.925548
-0.750561;-0.660801
-0.839852;-0.542816
-0.867814;-0.496890
-0.951651;-0.307182
-0.995890;-0.090573
-0.997586;0.069437
-0.984762;0.173909
-0.970660;0.240456
-0.958646;0.284601
-0.947645;0.319327
-0.934885;0.354952
-0.917773;0.397106
-0.895164;0.445736
0.866908;0.498468
0.884287;0.466943
0.897030;0.441970
0.906226;0.422794
0.913613;0.406584
0.920851;0.389914
0.929102;0.369823
0.939232;0.343284
0.952617;0.304173
0.971447;0.237259
0.994130;0.108190
0.988269;-0.152724
0.822472;-0.568805
0.526757;-0.850016
0.176375;-0.984323
-0.065066;-0.997881
-0.589050;-0.808097
-0.752880;-0.658158
-0.943796;-0.330529
-0.999685;-0.025089
-0.981768;0.190085
-0.948648;0.316333
-0.922626;0.385695
-0.905303;0.424766
-0.893869;0.448328
-0.885368;0.464891
-0.877147;0.480222
-0.866979;0.498344
-0.853394;0.521267
-0.835948;0.548808
0.827651;0.561242
0.841726;0.539905
0.851396;0.524524
0.857134;0.515093
0.859691;0.510814
0.859765;0.510690
0.857804;0.513976
0.854076;0.520148
0.849096;0.528239
0.844643;0.535331
0.846086;0.533047
0.868716;0.495311
0.964397;0.264460
0.703655;-0.710542
0.225397;-0.974267
-0.392225;-0.919869
-0.677016;-0.735968
-0.999955;-0.009446
-0.886734;0.462279
-0.828258;0.560346
-0.808041;0.589127
-0.801403;0.598125
-0.800613;0.599182
-0.802188;0.597071
-0.804161;0.594412
-0.805175;0.593038
-0.804129;0.594455
-0.800144;0.599808
-0.792688;0.609628
-0.781684;0.623675
0.802179;0.597084
0.816286;0.577649
0.825713;0.564091
0.830657;0.556785
0.831682;0.555252
0.829398;0.558659
0.824274;0.566191
0.816672;0.577102
0.807164;0.590328
0.797604;0.603182
0.794379;0.607422
0.812697;0.582687
0.703972;0.710227
0.778129;0.628104
0.507886;-0.861424
-0.643026;-0.765844
-0.897765;0.440475
-0.637699;0.770286
-0.754551;0.656241
-0.706573;0.707640
-0.703143;0.711048
-0.711778;0.702404
-0.722755;0.691104
-0.733026;0.680200
-0.741467;0.670989
-0.747488;0.664275
-0.750648;0.660703
-0.750596;0.660761
-0.747126;0.664682
-0.740243;0.672339
0.792843;0.609426
0.811595;0.584220
0.824754;0.565491
0.832539;0.553966
0.836369;0.548166
0.837997;0.545675
0.839302;0.543666
0.842790;0.538243
0.852824;0.522199
0.878993;0.476834
0.908887;0.417042
0.676951;0.736028
0.574649;0.818400
0.865803;0.500385
0.684958;0.728583
-0.620463;0.784236
-0.845766;0.533554
-0.495507;0.868604
-0.517529;0.855666
-0.803380;0.595467
-0.743381;0.668868
-0.715286;0.698832
-0.710616;0.703580
-0.713242;0.700918
-0.717734;0.696318
-0.721741;0.692163
-0.724019;0.689780
-0.723821;0.689988
-0.720708;0.693239
-0.714513;0.699623
0.798064;0.602573
0.826336;0.563178
0.846040;0.533119
0.858278;0.513185
0.867264;0.497848
0.876991;0.480508
0.891537;0.452949
0.915973;0.401240
0.889240;0.457441
0.768198;0.640212
0.478732;0.877961
0.152735;0.988267
0.093129;0.995654
-0.999872;0.015989
-0.987379;0.158377
0.960119;0.279591
0.995943;0.089990
-0.172738;0.984968
-0.383226;0.923655
-0.492034;0.870576
-0.727970;0.685609
-0.820272;0.571974
-0.760625;0.649191
-0.739193;0.673494
-0.730298;0.683128
-0.726145;0.687541
-0.723102;0.690742
-0.719154;0.694850
-0.713108;0.701054
-0.704370;0.709833
0.812775;0.582578
0.856802;0.515645
0.883071;0.469240
0.898059;0.439876
0.912748;0.408522
0.921180;0.389136
0.885524;0.464594
0.813413;0.581686
0.676963;0.736017
0.456804;0.889568
0.208256;0.978074
0.113128;0.993580
-0.384459;0.923142
-0.962934;-0.269737
-0.588991;-0.808140
0.509425;-0.860515
1.000000;-0.000409
0.410004;0.912084
-0.379373;0.925244
-0.393366;0.919382
-0.509953;0.860202
-0.685373;0.728192
-0.820386;0.571810
-0.807965;0.589231
-0.774520;0.632549
-0.756325;0.654196
-0.744316;0.667828
-0.733952;0.679201
-0.722515;0.691356
-0.708511;0.705700
0.823207;0.567742
0.897385;0.441248
0.924338;0.381574
0.915101;0.403224
0.886403;0.462914
0.837646;0.546213
0.752698;0.658366
0.613254;0.789886
0.430131;0.902766
0.266151;0.963931
0.149560;0.988753
0.167762;0.985828
-0.260912;0.965362
-0.885382;0.464865
-0.979345;-0.202196
0.903708;-0.428149
0.875789;0.482695
0.402627;0.915364
-0.283689;0.958916
-0.411595;0.911367
-0.412888;0.910782
-0.517606;0.855619
-0.664074;0.747667
-0.780074;0.625688
-0.844463;0.535615
-0.807745;0.589532
-0.783427;0.621484
-0.764988;0.644045
-0.746825;0.665021
-0.725386;0.688343
0.795878;0.605456
0.867917;0.496708
0.875954;0.482394
0.844857;0.534992
0.791498;0.611172
0.706401;0.707811
0.578318;0.815811
0.409224;0.912434
0.229807;0.973236
0.164225;0.986423
0.150209;0.988654
0.198332;0.980135
-0.060233;0.998184
-0.407690;0.913120
0.198634;0.980074
0.045884;0.998947
0.466753;0.884388
0.169691;0.985497
-0.232723;0.972543
-0.419804;0.907615
-0.351261;0.936278
-0.376748;0.926316
-0.515147;0.857102
-0.653307;0.757093
-0.756325;0.654196
-0.823333;0.567559
-0.835372;0.549685
-0.807986;0.589202
-0.783600;0.621266
-0.753460;0.657494
0.722166;0.691720
0.761904;0.647690
0.765459;0.643485
0.728618;0.684920
0.657927;0.753082
0.553620;0.832770
0.419063;0.907957
0.269389;0.963031
0.128505;0.991709
0.111738;0.993738
0.153292;0.988181
0.180773;0.983525
0.036147;0.999346
-0.029457;0.999566
0.154496;0.987993
0.004168;0.999991
0.109416;0.993996
0.015991;0.999872
-0.174877;0.984590
-0.278955;0.960304
-0.119738;0.992806
-0.219612;0.975587
-0.384152;0.923270
-0.527945;0.849278
-0.649278;0.760552
-0.739888;0.672731
-0.802270;0.596961
-0.842288;0.539028
-0.828804;0.559539
-0.791050;0.611751
0.629273;0.777184
0.644304;0.764770
0.633706;0.773574
0.590842;0.806787
0.517129;0.855908
0.418151;0.908378
0.304051;0.952656
0.188030;0.982163
0.074066;0.997253
0.067168;0.997742
0.122677;0.992447
0.126695;0.991942
0.053648;0.998560
0.009105;0.999959
0.023148;0.999732
0.026104;0.999659
0.020399;0.999792
-0.042259;0.999107
-0.128558;0.991702
-0.158079;0.987427
-0.060352;0.998177
-0.141810;0.989894
-0.285411;0.958405
-0.418373;0.908275
-0.540508;0.841339
-0.643286;0.765626
-0.722786;0.691072
-0.781103;0.624402
-0.823267;0.567655
-0.819229;0.573466
0.536166;0.844112
0.533357;0.845890
0.511110;0.859515
0.465592;0.885000
0.398376;0.917222
0.315829;0.948816
0.227306;0.973823
0.141219;0.989978
0.055419;0.998463
0.048952;0.998801
0.085726;0.996319
0.079555;0.996830
0.047381;0.998877
0.017346;0.999850
0.005180;0.999987
-0.002401;0.999997
-0.022680;0.999743
-0.062958;0.998016
-0.103074;0.994674
-0.106361;0.994327
-0.037975;0.999279
-0.100493;0.994938
-0.216313;0.976324
-0.329931;0.944005
-0.440525;0.897740
-0.541217;0.840883
-0.625594;0.780149
-0.690167;0.723650
-0.730774;0.682619
-0.727564;0.686039
0.452300;0.891866
0.438466;0.898748
0.410190;0.912000
0.366143;0.930559
0.308481;0.951231
0.242568;0.970134
0.175554;0.984470
0.114548;0.993418
0.061936;0.998080
0.054135;0.998534
0.069846;0.997558
0.061597;0.998101
0.040691;0.999172
0.017490;0.999847
-0.001422;0.999999
-0.018807;0.999823
-0.040871;0.999164
-0.067433;0.997724
-0.086657;0.996238
-0.079721;0.996817
-0.026610;0.999646
-0.074678;0.997208
-0.167069;0.985945
-0.260975;0.965346
-0.355345;0.934735
-0.444983;0.895539
-0.523370;0.852105
-0.584250;0.811574
-0.620937;0.783860
-0.626905;0.779095
0.380963;0.924590
0.361350;0.932430
0.331317;0.943520
0.290909;0.956751
0.242311;0.970199
0.189564;0.981868
0.137765;0.990465
0.093126;0.995654
0.074604;0.997213
0.066915;0.997759
0.059958;0.998201
0.051033;0.998697
0.034549;0.999403
0.014550;0.999894
-0.005592;0.999984
-0.025562;0.999673
-0.046048;0.998939
-0.064623;0.997910
-0.073791;0.997274
-0.062950;0.998017
-0.020230;0.999795
-0.057305;0.998357
-0.131149;0.991363
-0.207922;0.978145
-0.286401;0.958110
-0.362574;0.931955
-0.430935;0.902383
-0.485656;0.874150
-0.521676;0.853144
-0.536725;0.843757
0.322020;0.946733
0.299986;0.953943
0.270547;0.962707
0.234316;0.972161
0.193173;0.981165
0.149949;0.988694
0.107715;0.994182
0.068421;0.997657
0.025664;0.999671
0.032101;0.999485
0.045629;0.998958
0.041297;0.999147
0.028313;0.999599
0.010822;0.999941
-0.008356;0.999965
-0.027610;0.999619
-0.045476;0.998965
-0.058974;0.998259
-0.062945;0.998017
-0.050985;0.998699
-0.016097;0.999870
-0.044981;0.998988
-0.104452;0.994530
-0.167279;0.985910
-0.232226;0.972662
-0.296138;0.955145
-0.354744;0.934963
-0.403567;0.914950
-0.439070;0.898453
-0.459968;0.887935
0.273923;0.961752
0.251386;0.967887
0.223585;0.974684
0.191294;0.981533
0.156019;0.987754
0.119711;0.992809
0.084172;0.996451
0.050051;0.998747
0.015374;0.999882
0.019650;0.999807
0.033268;0.999446
0.032215;0.999481
0.022217;0.999753
0.007157;0.999974
-0.010147;0.999948
-0.027478;0.999622
-0.042598;0.999092
-0.052581;0.998617
-0.053678;0.998558
-0.041848;0.999124
-0.012832;0.999918
-0.035883;0.999356
-0.084263;0.996444
-0.136085;0.990697
-0.190198;0.981746
-0.244089;0.969753
-0.294506;0.955650
-0.338139;0.941096
-0.372438;0.928057
-0.396345;0.918102
0.234810;0.972041
0.212777;0.977101
0.186964;0.982367
0.158129;0.987418
0.127478;0.991841
0.096444;0.995338
0.066329;0.997798
0.037886;0.999282
0.011027;0.999939
0.013923;0.999903
0.024636;0.999696
0.024585;0.999698
0.016699;0.999861
0.003867;0.999993
-0.011295;0.999936
-0.026381;0.999652
-0.038953;0.999241
-0.046341;0.998926
-0.045742;0.998953
-0.034580;0.999402
-0.010117;0.999949
-0.028938;0.999581
-0.068718;0.997636
-0.111974;0.993711
-0.157651;0.987495
-0.203680;0.979038
-0.247526;0.968881
-0.286694;0.958022
-0.319257;0.947668
-0.344266;0.938872
0.202970;0.979185
0.181928;0.983312
0.158119;0.987420
0.132231;0.991219
0.105257;0.994445
0.078362;0.996925
0.052694;0.998611
0.029164;0.999575
0.008145;0.999967
0.010206;0.999948
0.018307;0.999832
0.018348;0.999832
0.011903;0.999929
0.001013;0.999999
-0.012043;0.999927
-0.024910;0.999690
-0.035201;0.999380
-0.040555;0.999177
-0.038872;0.999244
-0.028581;0.999591
-0.008045;0.999968
-0.023444;0.999725
-0.056475;0.998404
-0.093118;0.995655
-0.132335;0.991205
-0.172303;0.985044
-0.210947;0.977498
-0.246314;0.969190
-0.276897;0.960900
-0.301856;0.953354
0.176979;0.984215
0.157133;0.987577
0.135204;0.990818
0.111793;0.993732
0.087734;0.996144
0.064055;0.997946
0.041888;0.999122
0.022319;0.999751
0.005949;0.999982
0.007328;0.999973
0.013169;0.999913
0.013033;0.999915
0.007685;0.999970
-0.001492;0.999999
-0.012571;0.999921
-0.023354;0.999727
-0.031593;0.999501
-0.035227;0.999379
-0.032717;0.999465
-0.023324;0.999728
-0.006475;0.999979
-0.018846;0.999822
-0.046483;0.998919
-0.078113;0.996945
-0.112509;0.993651
-0.147882;0.989005
-0.182428;0.983219
-0.214574;0.976708
-0.243129;0.969994
-0.267381;0.963591
0.155700;0.987804
0.137113;0.990555
0.116896;0.993144
0.095547;0.995425
0.073756;0.997276
0.052436;0.998624
0.032778;0.999463
0.016236;0.999868
0.003949;0.999992
0.004605;0.999989
0.008281;0.999966
0.008039;0.999968
0.003761;0.999993
-0.003799;0.999993
-0.013023;0.999915
-0.021866;0.999761
-0.028209;0.999602
-0.030200;0.999544
-0.026758;0.999642
-0.018078;0.999837
-0.004911;0.999988
-0.014484;0.999895
-0.037733;0.999288
-0.065861;0.997829
-0.096914;0.995293
-0.128902;0.991657
-0.160220;0.987081
-0.189622;0.981857
-0.216197;0.976350
-0.239376;0.970927
0.138237;0.990399
0.120908;0.992664
0.102246;0.994759
0.082623;0.996581
0.062551;0.998042
0.042745;0.999086
0.024344;0.999704
0.009448;0.999955
0.001240;0.999999
0.000828;1.000000
0.002248;0.999997
0.002650;0.999996
-0.000156;1.000000
-0.006043;0.999982
-0.013510;0.999909
-0.020560;0.999789
-0.025112;0.999685
-0.025317;0.999679
-0.020207;0.999796
-0.011157;0.999938
-0.002450;0.999997
-0.008825;0.999961
-0.028913;0.999582
-0.055574;0.998455
-0.084769;0.996401
-0.114352;0.993440
-0.143080;0.989711
-0.170089;0.985429
-0.194750;0.980853
-0.216652;0.976249
0.123881;0.992297
0.107793;0.994173
0.090571;0.995890
0.072452;0.997372
0.053720;0.998556
0.034704;0.999398
0.015920;0.999873
-0.000949;1.000000
-0.006539;0.999979
-0.009783;0.999952
-0.007582;0.999971
-0.003656;0.999993
-0.004130;0.999991
-0.008248;0.999966
-0.014098;0.999901
-0.019571;0.999808
-0.022520;0.999746
-0.020797;0.999784
-0.012499;0.999922
0.002184;0.999998
0.006842;0.999977
0.004960;0.999988
-0.018543;0.999828
-0.047216;0.998885
-0.075869;0.997118
-0.103651;0.994614
-0.130141;0.991495
-0.154955;0.987922
-0.177744;0.984077
-0.198246;0.980152
0.112062;0.993701
0.097199;0.995265
0.081359;0.996685
0.064666;0.997907
0.047184;0.998886
0.028781;0.999586
0.008745;0.999962
-0.015548;0.999879
-0.056360;0.998411
-0.054049;0.998538
-0.021373;0.999772
-0.009854;0.999951
-0.007696;0.999970
-0.010269;0.999947
-0.014805;0.999890
-0.019062;0.999818
-0.020872;0.999782
-0.017769;0.999842
-0.006178;0.999981
0.021911;0.999760
0.096580;0.995325
0.036929;0.999318
-0.009910;0.999951
-0.042459;0.999098
-0.070564;0.997507
-0.096479;0.995335
-0.120757;0.992682
-0.143424;0.989661
-0.164346;0.986403
-0.183370;0.983044
0.102303;0.994753
0.088651;0.996063
0.074179;0.997245
0.058951;0.998261
0.042927;0.999078
0.025784;0.999668
0.006401;0.999980
-0.018811;0.999823
-0.059868;0.998206
-0.060894;0.998144
-0.025794;0.999667
-0.012921;0.999917
-0.010043;0.999950
-0.011873;0.999929
-0.015603;0.999878
-0.019154;0.999817
-0.020579;0.999788
-0.017655;0.999844
-0.007129;0.999975
0.017088;0.999854
0.054428;0.998518
0.025738;0.999669
-0.013686;0.999906
-0.043552;0.999051
-0.069104;0.997609
-0.092474;0.995715
-0.114333;0.993443
-0.134814;0.990871
-0.153859;0.988093
-0.171362;0.985208
0.094197;0.995554
0.081730;0.996655
0.068615;0.997643
0.054913;0.998491
0.040616;0.999175
0.025568;0.999673
0.009353;0.999956
-0.008466;0.999964
-0.025065;0.999686
-0.027520;0.999621
-0.018269;0.999833
-0.012094;0.999927
-0.010917;0.999940
-0.012968;0.999916
-0.016459;0.999865
-0.019828;0.999803
-0.021604;0.999767
-0.020307;0.999794
-0.014525;0.999895
-0.004226;0.999991
0.003165;0.999995
-0.006432;0.999979
-0.027329;0.999627
-0.049509;0.998774
-0.070739;0.997495
-0.090952;0.995855
-0.110214;0.993908
-0.128490;0.991711
-0.145676;0.989332
-0.161658;0.986847
