20;20;1.000000;1.000000
10.156250;10.937500
0.750964;-0.660343
0.745111;-0.666941
0.741210;-0.671273
0.735291;-0.677752
0.723545;-0.690277
0.700680;-0.713475
0.657305;-0.753624
0.576063;-0.817406
0.428539;-0.903523
0.190635;-0.981661
-0.100359;-0.994951
-0.345986;-0.938240
-0.502175;-0.864766
-0.589628;-0.807675
-0.636726;-0.771090
-0.661533;-0.749916
-0.673961;-0.738767
-0.679401;-0.733767
-0.680903;-0.732373
-0.681836;-0.731505
0.746806;-0.665042
0.741075;-0.671422
0.741375;-0.671091
0.739926;-0.672688
0.733638;-0.679540
0.717969;-0.696075
0.684093;-0.729394
0.614046;-0.789270
0.473461;-0.880815
0.221583;-0.975142
-0.106624;-0.994299
-0.375977;-0.926629
-0.533013;-0.846107
-0.613136;-0.789977
-0.652511;-0.757779
-0.671053;-0.741410
-0.678730;-0.734388
-0.680634;-0.732623
-0.679504;-0.733671
-0.681615;-0.731711
0.745439;-0.666574
0.735556;-0.677464
0.738951;-0.673759
0.741122;-0.671370
0.739745;-0.672887
0.731022;-0.682354
0.706993;-0.707221
0.649979;-0.759952
0.520809;-0.853673
0.257441;-0.966294
-0.115523;-0.993305
-0.410545;-0.911840
-0.564672;-0.825316
-0.634915;-0.772582
-0.665578;-0.746328
-0.677704;-0.735335
-0.680919;-0.732359
-0.679852;-0.733349
-0.681251;-0.732050
-0.687378;-0.726300
0.754746;-0.656018
0.742880;-0.669425
0.736334;-0.676618
0.739467;-0.673193
0.742200;-0.670178
0.739941;-0.672672
0.725850;-0.687853
0.683449;-0.729999
0.570657;-0.821189
0.299790;-0.954005
-0.129162;-0.991624
-0.451467;-0.892288
-0.597279;-0.802034
-0.654753;-0.755843
-0.675773;-0.737109
-0.681431;-0.731882
-0.680427;-0.732816
-0.681588;-0.731736
-0.688096;-0.725620
-0.697690;-0.716399
0.772396;-0.635141
0.756831;-0.653611
0.745711;-0.666270
0.737256;-0.675613
0.740518;-0.672037
0.744255;-0.667895
0.740069;-0.672531
0.713739;-0.700412
0.622927;-0.782280
0.351263;-0.936277
-0.151032;-0.988529
-0.500579;-0.865691
-0.630310;-0.776344
-0.671760;-0.740769
-0.682265;-0.731105
-0.681390;-0.731921
-0.682140;-0.731221
-0.690471;-0.723360
-0.701305;-0.712861
-0.714994;-0.699130
0.801112;-0.598514
0.781648;-0.623720
0.765339;-0.643627
0.751327;-0.659931
0.739112;-0.673582
0.742196;-0.670183
0.747836;-0.663884
0.739067;-0.673632
0.676718;-0.736243
0.415880;-0.909420
-0.187124;-0.982336
-0.558845;-0.829272
-0.661816;-0.749667
-0.683782;-0.729686
-0.683118;-0.730308
-0.682948;-0.730467
-0.694620;-0.719377
-0.708724;-0.705486
-0.724785;-0.688975
-0.742854;-0.669453
0.845017;-0.534740
0.823258;-0.567668
0.802583;-0.596540
0.782387;-0.622793
0.762205;-0.647336
0.742825;-0.669486
0.744980;-0.667087
0.755384;-0.655282
0.730269;-0.683159
0.500364;-0.865815
-0.249184;-0.968456
-0.625527;-0.780203
-0.687536;-0.726151
-0.686660;-0.726979
-0.684123;-0.729366
-0.701928;-0.712248
-0.722163;-0.691723
-0.743137;-0.669140
-0.764361;-0.644788
-0.785902;-0.618351
0.905683;-0.423956
0.886847;-0.462062
0.866876;-0.498524
0.844694;-0.535249
0.818546;-0.574442
0.786936;-0.617034
0.751579;-0.659644
0.752947;-0.658081
0.790128;-0.612942
0.630139;-0.776483
-0.377671;-0.925940
-0.706149;-0.708063
-0.700073;-0.714071
-0.686000;-0.727601
-0.716897;-0.697179
-0.748688;-0.662922
-0.777763;-0.628558
-0.803603;-0.595166
-0.826783;-0.562521
-0.848029;-0.529950
0.970971;-0.239196
0.963149;-0.268968
0.954563;-0.298008
0.944466;-0.328608
0.930953;-0.365138
0.910003;-0.414601
0.875717;-0.482825
0.859932;-0.510409
0.934380;-0.356279
0.935205;-0.354107
-0.845983;-0.533210
-0.877562;-0.479463
-0.777556;-0.628813
-0.772887;-0.634544
-0.815596;-0.578621
-0.850087;-0.526642
-0.875969;-0.482367
-0.895784;-0.444491
-0.911632;-0.411007
-0.924909;-0.380189
0.999636;0.026972
0.999507;0.031400
0.998994;0.044836
0.997486;0.070870
0.993229;0.116177
0.980838;0.194826
0.943677;0.330868
0.878901;0.477005
0.856117;0.516782
0.539367;0.842071
-0.650020;0.759917
-0.926355;0.376651
-0.998140;0.060964
-0.991575;-0.129536
-0.984304;-0.176482
-0.983621;-0.180251
-0.984637;-0.174613
-0.985940;-0.167098
-0.987257;-0.159132
-0.988576;-0.150723
0.949659;0.313285
0.934982;0.354696
0.912447;0.409194
0.877513;0.479554
0.823323;0.567573
0.742462;0.669889
0.638117;0.769940
0.550934;0.834549
0.573399;0.819276
0.171274;0.985223
-0.509332;0.860570
-0.668325;0.743870
-0.748040;0.663653
-0.846294;0.532716
-0.914244;0.405164
-0.950835;0.309697
-0.970201;0.242302
-0.981117;0.193416
-0.987682;0.156472
-0.991807;0.127747
0.846419;0.532518
0.813432;0.581660
0.772407;0.635128
0.722738;0.691122
0.665574;0.746332
0.606496;0.795086
0.558907;0.829230
0.555855;0.831279
0.476254;0.879308
0.045176;0.998979
-0.502012;0.864861
-0.639533;0.768764
-0.652904;0.757440
-0.695700;0.718332
-0.751528;0.659702
-0.803999;0.594631
-0.847137;0.531374
-0.881005;0.473107
-0.907370;0.420332
-0.927910;0.372805
0.745609;0.666384
0.708268;0.705944
0.668641;0.743585
0.628486;0.777821
0.590813;0.806809
0.560853;0.827916
0.551064;0.834463
0.530072;0.847953
0.398982;0.916959
-0.003417;0.999994
-0.451736;0.892152
-0.612118;0.790766
-0.642562;0.766234
-0.651027;0.759055
-0.676061;0.736846
-0.709540;0.704665
-0.745313;0.666714
-0.780197;0.625534
-0.812835;0.582494
-0.842607;0.538530
0.670651;0.741773
0.637991;0.770044
0.607494;0.794324
0.580810;0.814039
0.560113;0.828416
0.548954;0.835852
0.542428;0.840102
0.494203;0.869346
0.336726;0.941603
-0.017820;0.999841
-0.394610;0.918849
-0.572945;0.819594
-0.630573;0.776130
-0.643096;0.765785
-0.649319;0.760516
-0.665585;0.746323
-0.687865;0.725839
-0.713712;0.700439
-0.741702;0.670729
-0.770755;0.637132
0.620673;0.784069
0.595239;0.803549
0.574281;0.818658
0.558725;0.829353
0.549841;0.835269
0.546474;0.837476
0.525021;0.851089
0.457269;0.889329
0.289594;0.957150
-0.020944;0.999781
-0.345780;0.938316
-0.531431;0.847101
-0.609351;0.792901
-0.637223;0.770680
-0.643086;0.765794
-0.647962;0.761672
-0.659394;0.751798
-0.675711;0.737166
-0.696154;0.717892
-0.720102;0.693868
0.588962;0.808160
0.570487;0.821307
0.557482;0.830189
0.550133;0.835077
0.548063;0.836437
0.537532;0.843243
0.503834;0.863800
0.422521;0.906353
0.253459;0.967346
-0.021132;0.999777
-0.306416;0.951898
-0.491820;0.870697
-0.584047;0.811720
-0.624770;0.780809
-0.640203;0.768206
-0.643105;0.765778
-0.646971;0.762515
-0.655705;0.755017
-0.669083;0.743187
-0.687133;0.726531
0.569520;0.821978
0.556944;0.830550
0.550155;0.835063
0.548644;0.836056
0.543341;0.839512
0.524776;0.851240
0.480838;0.876809
0.390197;0.920731
0.224156;0.974553
-0.021187;0.999776
-0.274841;0.961490
-0.455410;0.890282
-0.557121;0.830431
-0.608536;0.793526
-0.632419;0.774627
-0.641678;0.766974
-0.643126;0.765760
-0.646337;0.763052
-0.653961;0.756528
-0.666702;0.745325
0.557987;0.829850
0.550257;0.834995
0.548271;0.836301
0.546280;0.837603
0.535144;0.844761
0.508896;0.860828
0.456167;0.889894
0.359233;0.933248
0.198600;0.980081
-0.022088;0.999756
-0.249141;0.968467
-0.422053;0.906571
-0.529410;0.848366
-0.589567;0.807719
-0.621239;0.783621
-0.636513;0.771266
-0.642454;0.766324
-0.643132;0.765756
-0.646288;0.763094
-0.654646;0.755935
0.550904;0.834569
0.547311;0.836929
0.547849;0.836577
0.540233;0.841516
0.522814;0.852447
0.489134;0.872208
0.429008;0.903300
0.328344;0.944558
0.174821;0.984600
-0.024112;0.999709
-0.227761;0.973717
-0.391108;0.920345
-0.500906;0.865502
-0.567891;0.823104
-0.606642;0.794975
-0.627953;0.778251
-0.638652;0.769496
-0.642896;0.765954
-0.643093;0.765788
-0.647827;0.761787
0.544140;0.838994
0.541542;0.840674
0.538942;0.842343
0.527430;0.849599
0.504343;0.863503
0.464274;0.885692
0.398600;0.917125
0.296755;0.954954
0.151844;0.988404
-0.027181;0.999631
-0.209589;0.977790
-0.362005;0.932176
-0.471436;0.881900
-0.543181;0.839615
-0.587931;0.808911
-0.614844;0.788649
-0.630255;0.776388
-0.638055;0.769991
-0.639966;0.768403
-0.642843;0.765998
