6;6
-6.796731;2.636866
-9.193315;5.771552
-15.245008;18.363304
11.087278;32.568878
14.539357;9.865161
9.407361;4.962386
-9.744216;-1.882930
-16.110277;0.337074
-64.791283;21.308363
s
63.925087;24.426661
18.371937;3.126213
-6.701426;-13.592637
-9.897141;-17.602692
-27.371717;-37.766041
34.994221;-87.658798
18.234001;-17.211164
11.502585;-13.147497
-5.100702;-11.574690
-6.701426;-13.592637
-9.897141;-17.602692
7.422818;-27.063290
11.502585;-13.147497
8.491955;-11.121166
-4.107224;-10.328471
-5.100702;-11.574690
-6.701426;-13.592637
4.324183;-18.292665
8.491955;-11.121166
6.775888;-9.894573
-3.423239;-9.475578
-4.107224;-10.328471
-5.100702;-11.574690
3.140772;-14.552740
6.775888;-9.894573
5.664886;-9.069366
