10;10;4.000000;4.000000
20.000000;20.000000
1.242354;-1.302519
1.193885;-1.347085
1.069700;-1.447668
0.814797;-1.605025
0.341073;-1.767390
-0.281769;-1.777809
-0.773682;-1.625243
-1.046731;-1.464361
-1.184026;-1.355759
-1.220447;-1.323068
1.204721;-1.337403
1.243783;-1.301154
1.175849;-1.362857
0.958370;-1.523656
0.424784;-1.749159
-0.382872;-1.758809
-0.933771;-1.538854
-1.166233;-1.371094
-1.227075;-1.316923
-1.181357;-1.358086
1.250390;-1.294807
1.252327;-1.292934
1.246030;-1.299003
1.118693;-1.410151
0.561238;-1.710267
-0.528900;-1.720542
-1.102984;-1.422472
-1.230350;-1.313864
-1.258882;-1.286552
-1.279410;-1.266140
1.549644;-0.915753
1.563014;-0.892742
1.392548;-1.140530
1.248460;-1.296668
0.813884;-1.605489
-0.790398;-1.617180
-1.228801;-1.315313
-1.395502;-1.136915
-1.603167;-0.818447
-1.678116;-0.651096
1.619130;-0.786396
1.713682;-0.550720
1.739550;-0.462565
1.767753;-0.339191
1.238778;-1.305920
-1.179382;-1.359800
-1.709987;-0.562090
-1.591235;-0.841410
-1.502315;-0.991489
-1.372525;-1.164549
-0.056995;-1.799097
-1.775013;-0.298881
-1.781346;-0.258470
-1.782022;-0.253767
-0.343236;-1.766972
1.714275;-0.548873
1.749135;-0.424884
1.756986;-0.391152
1.535828;-0.938740
0.200856;-1.788759
-0.994434;-1.500367
-1.631040;-0.761386
-1.714165;-0.549215
-1.717610;-0.538347
-1.700441;-0.590339
1.747944;-0.429758
1.754356;-0.402785
1.753577;-0.406163
1.719409;-0.532571
1.392585;-1.140486
-0.970301;-1.516086
-1.506626;-0.984925
-1.716448;-0.542038
-1.679406;-0.647762
-1.309899;-1.234571
1.514669;-0.972512
1.712744;-0.553632
1.743723;-0.446576
1.747128;-0.433062
1.541321;-0.929692
-0.792749;-1.616029
-1.189994;-1.350524
-1.374084;-1.162709
-1.251288;-1.293938
-0.417212;-1.750981
1.064324;-1.451625
1.498179;-0.997727
1.589942;-0.843851
1.569853;-0.880660
1.399287;-1.132253
-0.542246;-1.716383
-0.765868;-1.628940
-0.836005;-1.594081
-0.619632;-1.689987
0.013173;-1.799952
0.777109;-1.623607
1.188741;-1.351626
1.328396;-1.214646
1.319527;-1.224275
1.190635;-1.349958
