10;10;4.000000;4.000000
20.000000;20.000000
1.355187;-1.184680
1.202109;-1.339751
0.958058;-1.523852
0.569359;-1.707580
0.144310;-1.794206
-0.223819;-1.786031
-0.688510;-1.663116
-1.055586;-1.457991
-1.244762;-1.300218
-1.362560;-1.176193
1.484504;-1.017962
1.362517;-1.176243
1.172433;-1.365797
0.734553;-1.643299
0.137035;-1.794776
-0.127895;-1.795451
-0.804693;-1.610114
-1.213509;-1.329434
-1.337870;-1.204203
-1.440887;-1.078816
1.603588;-0.817622
1.490109;-1.009740
1.360454;-1.178629
1.072945;-1.445264
0.185099;-1.790457
-0.127056;-1.795510
-1.055779;-1.457852
-1.321248;-1.222417
-1.380813;-1.154709
-1.531264;-0.946166
1.719383;-0.532656
1.646100;-0.728256
1.445606;-1.072484
0.000000;0.000000
0.000000;0.000000
0.000000;0.000000
0.000000;0.000000
0.000000;0.000000
-1.580748;-0.860950
-1.679113;-0.648521
1.791756;-0.172081
1.792624;-0.162780
0.000000;0.000000
0.000000;0.000000
1.415592;-1.111801
-1.201535;-1.340266
-1.655939;-0.705596
0.000000;0.000000
-1.791383;-0.175921
-1.788242;-0.205407
1.792233;0.167030
1.792555;0.163539
0.000000;0.000000
0.000000;0.000000
1.410515;1.118235
-1.216123;1.327044
0.000000;0.000000
0.000000;0.000000
-1.795430;0.128178
-1.791239;0.177378
1.719768;0.531412
1.644074;0.732817
1.443001;1.075987
0.000000;0.000000
0.000000;0.000000
0.000000;0.000000
0.000000;0.000000
-1.421755;1.103907
-1.596469;0.831437
-1.689497;0.620968
1.603433;0.817925
1.488132;1.012652
1.358567;1.180802
1.068277;1.448718
0.180652;1.790912
-0.133260;1.795060
-1.068676;1.448424
-1.324868;1.218493
-1.387861;1.146229
-1.543259;0.926473
1.483981;1.018724
1.360154;1.178975
1.168296;1.369337
0.727460;1.646451
0.131667;1.795178
-0.134883;1.794939
-0.819241;1.602761
-1.224369;1.319439
-1.348449;1.192344
-1.453601;1.061624
1.354136;1.185881
1.198737;1.342769
0.951885;1.527715
0.560137;1.710627
0.133758;1.795023
-0.236820;1.784353
-0.705128;1.656138
-1.071484;1.446348
-1.259630;1.285819
-1.377393;1.158787
