10;10;4.000000;4.000000
20.000000;20.000000
1.354254;-1.185747
1.285385;-1.260074
1.086875;-1.434818
0.621515;-1.689296
0.103570;-1.797018
-0.049459;-1.799320
-0.574947;-1.705707
-1.053675;-1.459373
-1.261807;-1.283684
-1.331150;-1.211627
1.336724;-1.205475
1.347405;-1.193524
1.259421;-1.286024
0.847707;-1.587890
0.153287;-1.793461
-0.092707;-1.797611
-0.800975;-1.611967
-1.231639;-1.312656
-1.325711;-1.217575
-1.312304;-1.232013
1.444048;-1.074581
1.394298;-1.138391
1.344872;-1.196377
1.193130;-1.347754
0.301923;-1.774498
-0.221226;-1.786353
-1.149230;-1.385377
-1.322959;-1.220565
-1.369353;-1.168278
-1.421774;-1.103884
1.707109;-0.570769
1.688258;-0.624328
1.601986;-0.820756
1.407416;-1.122131
0.855331;-1.583796
-0.696938;-1.659602
-1.368524;-1.169249
-1.574971;-0.871473
-1.673947;-0.661741
-1.697800;-0.597893
1.795412;0.128434
1.791842;0.171184
1.796583;0.110851
1.798453;-0.074602
0.000000;0.000000
0.000000;0.000000
-1.799475;-0.043464
-1.795470;0.127615
-1.793718;0.150248
-1.796557;0.111277
0.000000;0.000000
0.000000;0.000000
0.000000;0.000000
0.000000;0.000000
0.000000;0.000000
0.000000;0.000000
0.000000;0.000000
0.000000;0.000000
0.000000;0.000000
0.000000;0.000000
0.000000;0.000000
0.000000;0.000000
0.000000;0.000000
0.000000;0.000000
0.000000;0.000000
0.000000;0.000000
0.000000;0.000000
0.000000;0.000000
0.000000;0.000000
0.000000;0.000000
0.000000;0.000000
0.000000;0.000000
0.000000;0.000000
0.000000;0.000000
0.000000;0.000000
0.000000;0.000000
0.000000;0.000000
0.000000;0.000000
0.000000;0.000000
0.000000;0.000000
0.000000;0.000000
0.000000;0.000000
0.000000;0.000000
0.000000;0.000000
0.000000;0.000000
0.000000;0.000000
0.000000;0.000000
0.000000;0.000000
0.000000;0.000000
0.000000;0.000000
0.000000;0.000000
0.000000;0.000000
0.000000;0.000000
0.000000;0.000000
0.000000;0.000000
0.000000;0.000000
0.000000;0.000000
0.000000;0.000000
0.000000;0.000000
0.000000;0.000000
