10;10;4.000000;4.000000
20.000000;20.000000
0.936546;-1.537167
0.685726;-1.664266
0.381345;-1.759141
0.129492;-1.795336
0.008827;-1.799978
-0.018103;-1.799909
-0.156469;-1.793186
-0.422549;-1.749701
-0.730442;-1.645130
-0.976424;-1.512150
1.242473;-1.302406
0.991919;-1.502031
0.588345;-1.701132
0.201228;-1.788717
0.015438;-1.799934
-0.027469;-1.799790
-0.238059;-1.784188
-0.640234;-1.682290
-1.035861;-1.472070
-1.272991;-1.272593
1.560967;-0.896315
1.417428;-1.109459
1.026217;-1.478810
0.413703;-1.751813
0.036251;-1.799635
-0.058230;-1.799058
-0.474441;-1.736348
-1.080865;-1.439351
-1.443397;-1.075455
-1.573921;-0.873368
1.748513;-0.427436
1.720602;-0.528704
1.587807;-0.847861
1.028556;-1.477184
0.116409;-1.796232
-0.176744;-1.791302
-1.110530;-1.416588
-1.607515;-0.809874
-1.725338;-0.513037
-1.750145;-0.420703
1.797855;-0.087853
1.796625;-0.110175
1.791120;-0.178571
1.759360;-0.380334
0.969002;-1.516916
-1.201211;-1.340557
-1.763180;-0.362211
-1.791505;-0.174666
-1.796749;-0.108133
-1.797834;-0.088284
0.000000;0.000000
0.000000;0.000000
0.000000;0.000000
0.000000;0.000000
0.000000;0.000000
0.000000;0.000000
0.000000;0.000000
0.000000;0.000000
0.000000;0.000000
0.000000;0.000000
0.000000;0.000000
0.000000;0.000000
0.000000;0.000000
0.000000;0.000000
0.000000;0.000000
0.000000;0.000000
0.000000;0.000000
0.000000;0.000000
0.000000;0.000000
0.000000;0.000000
0.000000;0.000000
0.000000;0.000000
0.000000;0.000000
0.000000;0.000000
0.000000;0.000000
0.000000;0.000000
0.000000;0.000000
0.000000;0.000000
0.000000;0.000000
0.000000;0.000000
0.000000;0.000000
0.000000;0.000000
0.000000;0.000000
0.000000;0.000000
0.000000;0.000000
0.000000;0.000000
0.000000;0.000000
0.000000;0.000000
0.000000;0.000000
0.000000;0.000000
0.000000;0.000000
0.000000;0.000000
0.000000;0.000000
0.000000;0.000000
0.000000;0.000000
0.000000;0.000000
0.000000;0.000000
0.000000;0.000000
0.000000;0.000000
0.000000;0.000000
