10;10;4.000000;4.000000
20.000000;20.000000
1.309124;-1.235392
1.213343;-1.329586
1.045747;-1.465064
0.745347;-1.638431
0.256718;-1.781599
-0.326539;-1.770133
-0.785422;-1.619603
-1.060300;-1.454567
-1.214325;-1.328689
-1.305574;-1.239144
1.298920;-1.246117
1.319217;-1.224609
1.188078;-1.352209
0.908662;-1.553813
0.341119;-1.767382
-0.415594;-1.751366
-0.937243;-1.536742
-1.188997;-1.351401
-1.309016;-1.235507
-1.248510;-1.296619
1.190465;-1.350108
1.269972;-1.275606
1.320174;-1.223577
1.096879;-1.427185
0.472359;-1.736916
-0.554088;-1.712596
-1.111027;-1.416199
-1.313639;-1.230590
-1.219552;-1.323893
-1.137501;-1.395023
1.044072;-1.466258
1.114246;-1.413668
1.201443;-1.340348
1.328141;-1.214925
0.740762;-1.640510
-0.829452;-1.597501
-1.303244;-1.241594
-1.148221;-1.386214
-1.060992;-1.454062
-0.990370;-1.503053
0.863326;-1.579452
0.895908;-1.561201
0.928279;-1.542173
0.996693;-1.498867
1.304978;-1.239771
-1.230277;-1.313932
-0.946904;-1.530808
-0.877157;-1.571813
-0.843716;-1.590014
-0.811333;-1.606779
0.670714;-1.670372
0.649132;-1.678877
0.590469;-1.700396
0.458993;-1.740496
0.141123;-1.794459
-0.136895;-1.794787
-0.429594;-1.747984
-0.546984;-1.714879
-0.601358;-1.696575
-0.622282;-1.689013
0.499112;-1.729418
0.439313;-1.745567
0.337076;-1.768157
0.187763;-1.790180
0.046762;-1.799392
-0.002091;-1.799999
-0.150086;-1.793732
-0.295785;-1.775531
-0.395130;-1.756096
-0.454186;-1.741756
0.368618;-1.761851
0.298174;-1.775132
0.202893;-1.788529
0.100714;-1.797180
0.034698;-1.799666
0.016273;-1.799926
-0.055774;-1.799136
-0.159807;-1.792892
-0.255291;-1.781804
-0.326034;-1.770227
0.279117;-1.778228
0.214145;-1.787216
0.138468;-1.794666
0.069300;-1.798666
0.031129;-1.799731
0.021830;-1.799868
-0.021182;-1.799875
-0.093928;-1.797548
-0.171690;-1.791793
-0.237994;-1.784197
0.220586;-1.786433
0.166069;-1.792323
0.107954;-1.796760
0.057889;-1.799069
0.030066;-1.799749
0.023293;-1.799849
-0.009587;-1.799975
-0.063601;-1.798876
-0.124370;-1.795698
-0.180682;-1.790909
