10;10;4.000000;4.000000
20.000000;20.000000
-0.020159;-1.799887
-0.020159;-1.799887
-0.020159;-1.799887
-0.020159;-1.799887
-0.020159;-1.799887
-0.020159;-1.799887
-0.020159;-1.799887
-0.020159;-1.799887
-0.020159;-1.799887
-0.020159;-1.799887
-0.020159;-1.799887
-0.020159;-1.799887
-0.020159;-1.799887
-0.020159;-1.799887
-0.020159;-1.799887
-0.020159;-1.799887
-0.020159;-1.799887
-0.020159;-1.799887
-0.020159;-1.799887
-0.020159;-1.799887
-0.020159;-1.799887
-0.020159;-1.799887
-0.020159;-1.799887
-0.020159;-1.799887
-0.020159;-1.799887
-0.020159;-1.799887
-0.020159;-1.799887
-0.020159;-1.799887
-0.020159;-1.799887
-0.020159;-1.799887
-0.020159;-1.799887
-0.020159;-1.799887
-0.020159;-1.799887
-0.020159;-1.799887
-0.020159;-1.799887
-0.020159;-1.799887
-0.020159;-1.799887
-0.020159;-1.799887
-0.020159;-1.799887
-0.020159;-1.799887
-0.020159;-1.799887
-0.020159;-1.799887
-0.020159;-1.799887
-0.020159;-1.799887
-0.020159;-1.799887
-0.020159;-1.799887
-0.020159;-1.799887
-0.020159;-1.799887
-0.020159;-1.799887
-0.020159;-1.799887
-0.020159;-1.799887
-0.020159;-1.799887
-0.020159;-1.799887
-0.020159;-1.799887
-0.020159;-1.799887
-0.020159;-1.799887
-0.020159;-1.799887
-0.020159;-1.799887
-0.020159;-1.799887
-0.020159;-1.799887
-0.020159;-1.799887
-0.020159;-1.799887
-0.020159;-1.799887
-0.020159;-1.799887
-0.020159;-1.799887
-0.020159;-1.799887
-0.020159;-1.799887
-0.020159;-1.799887
-0.020159;-1.799887
-0.020159;-1.799887
-0.020159;-1.799887
-0.020159;-1.799887
-0.020159;-1.799887
-0.020159;-1.799887
-0.020159;-1.799887
-0.020159;-1.799887
-0.020159;-1.799887
-0.020159;-1.799887
-0.020159;-1.799887
-0.020159;-1.799887
-0.020159;-1.799887
-0.020159;-1.799887
-0.020159;-1.799887
-0.020159;-1.799887
-0.020159;-1.799887
-0.020159;-1.799887
-0.020159;-1.799887
-0.020159;-1.799887
-0.020159;-1.799887
-0.020159;-1.799887
-0.020159;-1.799887
-0.020159;-1.799887
-0.020159;-1.799887
-0.020159;-1.799887
-0.020159;-1.799887
-0.020159;-1.799887
-0.020159;-1.799887
-0.020159;-1.799887
-0.020159;-1.799887
-0.020159;-1.799887
