10;10;4.000000;4.000000
20.000000;20.000000
1.669379;-0.673181
1.451880;-1.063975
1.216173;-1.326998
0.862303;-1.580010
0.350041;-1.765636
0.163003;-1.792604
-0.232340;-1.784942
-0.811870;-1.606508
-1.283622;-1.261869
-1.492255;-1.006567
1.490878;-1.008605
1.373163;-1.163797
1.273167;-1.272418
0.980861;-1.509275
0.306666;-1.773684
0.054246;-1.799182
-0.451572;-1.742436
-1.098817;-1.425693
-1.430699;-1.092291
-1.518180;-0.967021
1.688382;-0.623992
1.627378;-0.769182
1.374185;-1.162591
1.134363;-1.397576
0.427318;-1.748542
-0.006115;-1.799990
-0.825827;-1.599378
-1.244837;-1.300147
-1.135692;-1.396497
-1.089231;-1.433030
1.750048;-0.421108
1.720072;-0.530426
1.596993;-0.830430
0.000000;0.000000
0.000000;0.000000
0.000000;0.000000
0.000000;0.000000
-0.877833;-1.571435
-0.813272;-1.605798
-0.765307;-1.629204
0.000000;0.000000
0.000000;0.000000
0.000000;0.000000
0.000000;0.000000
0.000000;0.000000
0.000000;0.000000
0.000000;0.000000
0.000000;0.000000
0.000000;0.000000
0.000000;0.000000
0.000000;0.000000
0.000000;0.000000
0.000000;0.000000
0.000000;0.000000
0.000000;0.000000
0.000000;0.000000
0.000000;0.000000
0.000000;0.000000
0.000000;0.000000
0.000000;0.000000
0.000000;0.000000
0.000000;0.000000
0.000000;0.000000
0.000000;0.000000
0.000000;0.000000
0.000000;0.000000
0.000000;0.000000
0.000000;0.000000
0.000000;0.000000
0.000000;0.000000
0.000000;0.000000
0.000000;0.000000
0.000000;0.000000
0.000000;0.000000
0.000000;0.000000
0.000000;0.000000
0.000000;0.000000
0.000000;0.000000
0.000000;0.000000
0.000000;0.000000
0.000000;0.000000
0.000000;0.000000
0.000000;0.000000
0.000000;0.000000
0.000000;0.000000
0.000000;0.000000
0.000000;0.000000
0.000000;0.000000
0.000000;0.000000
0.000000;0.000000
0.000000;0.000000
0.000000;0.000000
0.000000;0.000000
0.000000;0.000000
0.000000;0.000000
0.000000;0.000000
0.000000;0.000000
0.000000;0.000000
0.000000;0.000000
0.000000;0.000000
