10;10;4.000000;4.000000
20.000000;20.000000
0.697923;-1.659188
0.673616;-1.669204
0.634998;-1.684274
0.521197;-1.722891
0.214970;-1.787117
-0.196792;-1.789210
-0.506286;-1.727332
-0.619304;-1.690107
-0.654053;-1.676966
-0.676927;-1.667864
0.865654;-1.578177
0.828431;-1.598030
0.793432;-1.615693
0.750829;-1.635927
0.332661;-1.768993
-0.314475;-1.772316
-0.743849;-1.639112
-0.782487;-1.621023
-0.804005;-1.610458
-0.837958;-1.593055
1.124512;-1.405515
1.079067;-1.440699
0.900093;-1.558792
0.853551;-1.584755
0.457864;-1.740793
-0.439779;-1.745450
-0.853528;-1.584768
-0.877006;-1.571897
-1.040420;-1.468852
-1.086415;-1.435166
1.504981;-0.987437
1.555094;-0.906466
1.340788;-1.200953
0.892468;-1.563170
0.622951;-1.688766
-0.608364;-1.694076
-0.862068;-1.580139
-1.290768;-1.254559
-1.510500;-0.978974
-1.466563;-1.043643
1.747724;-0.430652
1.798296;-0.078296
1.798238;-0.079624
1.559122;-0.899521
0.807571;-1.608673
-0.804631;-1.610146
-1.347389;-1.193542
-1.797990;-0.085045
-1.798570;-0.071732
-1.778727;-0.275915
1.323293;-1.220203
1.273687;-1.271896
0.417984;-1.750797
0.713477;-1.652559
0.312901;-1.772595
-0.305451;-1.773894
-0.920658;-1.546735
-1.173488;-1.364890
-0.471962;-1.737024
-1.150378;-1.384424
0.686982;-1.663748
0.404063;-1.754062
-0.031863;-1.799718
0.194094;-1.789505
0.134438;-1.794973
-0.174983;-1.791474
-0.439949;-1.745407
-0.351628;-1.765321
-0.053041;-1.799218
-0.420810;-1.750120
0.358238;-1.763991
0.145483;-1.794111
-0.059482;-1.799017
0.058345;-1.799054
0.048412;-1.799349
-0.108091;-1.796752
-0.226776;-1.785657
-0.154307;-1.793374
-0.023052;-1.799852
-0.210469;-1.787653
0.224909;-1.785894
0.071228;-1.798590
-0.068218;-1.798707
0.017505;-1.799915
0.013357;-1.799950
-0.076637;-1.798368
-0.143761;-1.794250
-0.098766;-1.797288
-0.012706;-1.799955
-0.147575;-1.793940
0.178244;-1.791153
0.081168;-1.798169
0.011693;-1.799962
0.023295;-1.799849
0.001511;-1.799999
-0.061558;-1.798947
-0.112919;-1.796455
-0.109330;-1.796677
-0.089135;-1.797792
-0.155286;-1.793289
