36;8
-4.143328;14.872250
-5.103608;16.944801
-6.762050;20.186123
-3.731923;18.411579
1.342561;20.205620
4.664824;18.567999
6.673091;20.067345
5.315838;17.025686
-5.103608;16.944801
-6.762050;20.186123
-10.536450;26.618095
-5.041772;22.224302
1.005951;26.103214
5.599752;22.277372
9.764426;25.874617
6.673091;20.067345
-6.762050;20.186123
-10.536450;26.618095
-33.610344;58.818100
-7.676034;29.642422
-1.050323;55.667130
7.402045;29.314419
28.358727;52.516159
9.764426;25.874617
-5.469862;15.069051
-7.200400;17.841177
-10.919076;23.532972
-7.143189;18.581921
1.628475;22.627419
8.390610;18.768187
10.639666;23.078720
7.507572;17.888725
-5.244404;11.468323
-6.720333;12.716325
-9.379584;14.544458
-11.820628;11.321713
2.660718;13.732094
14.182524;11.579091
10.272476;14.749558
7.703162;13.017226
-5.856574;8.696699
-8.097331;9.028706
-13.667383;8.879705
-60.918747;0.000000
3.251615;7.734272
63.019390;0.000000
15.518915;9.177308
9.654700;9.398995
-4.766931;7.278493
-6.023893;7.530382
-8.258486;7.691144
-11.573542;6.078300
5.651449;6.990670
15.046291;6.571455
9.991016;8.320221
7.698422;8.078926
-4.390057;5.923038
-5.465565;5.983266
-7.334271;5.901367
-9.272581;4.667529
10.801147;4.921178
11.117455;5.664478
8.741212;6.795321
7.182808;6.673732
-4.615690;4.652511
-6.169627;4.476189
-10.155489;3.929550
-56.717453;0.000000
63.019390;-1.050323
13.825682;3.901626
9.481143;5.168222
7.560389;5.309043
-4.429932;4.000352
-5.667785;3.879416
-8.001694;3.590977
-6.338208;3.057565
13.967410;3.077753
10.685241;3.876108
8.628725;4.625613
7.249787;4.662443
-4.978274;3.254896
-6.880942;3.048854
-11.763942;2.544766
-1.578244;2.667590
16.626772;2.599977
11.752594;3.247217
9.242781;3.868066
7.667669;3.931758
-6.696190;2.444924
-11.820675;1.979209
-57.767776;-1.050323
1.092053;1.699910
69.321335;0.000000
17.549358;2.320223
11.502459;3.017351
8.886782;3.175038
-5.198455;2.153297
-7.211397;1.925681
-12.250760;1.462786
1.450755;1.685030
21.614990;1.523684
13.784451;2.124877
10.314660;2.625617
8.327214;2.737866
-5.075419;1.700249
-6.929586;1.459079
-11.650777;0.967305
5.303981;1.116999
68.271011;-1.050323
17.872198;1.485759
11.607494;2.067487
8.895170;2.225489
-9.534458;1.238169
-15.823575;0.810158
-65.120041;-2.100646
-9.746577;0.787282
12.811610;1.108490
8.817296;1.470677
6.957692;1.817252
5.843107;1.905461
-7.304157;1.143963
-9.895427;0.981145
-15.956242;0.636157
-10.576542;0.911766
12.158679;1.447572
8.353509;1.425387
6.600177;1.620758
5.562906;1.651660
-6.769549;0.942769
-8.968063;0.862873
-14.214396;0.735598
-69.321335;0.000000
68.271011;4.201293
11.794386;1.475630
7.461174;1.429233
5.846134;1.394060
-5.806511;0.615545
-7.103220;0.544496
-9.336315;0.450163
-11.136535;0.433253
11.527128;0.998774
7.964680;0.858268
6.264912;0.974471
5.279594;0.987147
-5.524948;0.236795
-6.652925;0.142707
-8.576404;-0.000839
s
11.256248;0.194279
7.926890;0.327952
6.226749;0.514468
5.240390;0.566509
-5.851098;-0.176202
-7.481404;-0.325798
-11.722757;-0.638596
-65.120041;-3.150970
66.170364;-1.050323
11.605525;-0.222874
7.340758;0.044987
5.730319;0.141321
-5.449698;-0.371096
-6.495591;-0.446651
-8.290049;-0.555547
-11.442491;-0.715391
10.979422;-0.267481
8.242731;-0.230590
6.409815;-0.104714
5.344740;-0.070346
-5.601898;-0.606694
-6.684280;-0.641241
-8.543797;-0.672610
-12.025575;-0.632647
11.277821;0.049317
8.838341;-0.276492
6.739913;-0.276491
5.543880;-0.297066
-6.318887;-0.838744
-8.071246;-0.830669
-12.553650;-0.816500
-68.271011;-2.100646
75.623268;4.201293
13.699216;-0.054280
8.459957;-0.362090
6.389934;-0.484550
-6.628015;-1.181343
-8.141750;-1.138869
-10.876996;-1.005598
-16.905079;-0.472891
8.289629;-0.231863
12.485229;-0.654149
8.073823;-0.803437
6.172210;-0.887963
-7.821327;-1.483143
-10.199382;-1.334072
-15.843346;-0.830941
-65.120041;4.201293
1.026816;-0.476394
48.314869;0.000000
11.446931;-1.024358
7.214310;-1.205487
-7.073158;-2.242195
-8.614521;-2.252826
-11.226430;-2.162326
-15.792185;-1.415486
1.458090;-1.746983
12.973392;-1.636174
8.395323;-1.815457
6.385298;-1.878685
-7.128629;-3.021801
-8.676172;-3.146392
-11.273888;-3.257005
-15.189276;-2.972390
1.415204;-2.776180
14.583278;-2.317470
9.177741;-2.503851
6.873367;-2.535746
-8.007009;-3.822135
-10.406964;-4.034922
-15.960205;-4.285085
-60.918747;-5.251616
1.174056;-3.504258
59.868423;0.000000
14.410276;-2.870719
8.862901;-3.101215
-7.570318;-4.706785
-9.410687;-5.002203
-12.646915;-5.305431
-13.602786;-4.866908
2.067450;-4.720962
15.912479;-3.729784
10.084835;-4.022985
7.520577;-4.013845
-8.171294;-5.733815
-10.668332;-6.133334
-16.279652;-6.479723
-9.029644;-6.038561
3.526504;-5.983679
16.522667;-4.419107
10.521959;-4.955057
7.826260;-4.934688
-10.293408;-6.842491
-16.170105;-7.188902
-55.667130;-5.251616
-10.487284;-7.138546
7.749110;-6.655158
57.767776;4.201293
15.880242;-5.109751
9.884851;-5.715159
-8.392962;-8.871339
-11.094290;-9.900282
-17.061670;-11.034961
-6.718901;-10.646306
3.985767;-11.605525
16.226068;-9.309871
10.349487;-8.945440
7.705909;-8.227313
-8.135026;-11.626373
-10.682152;-13.823862
-16.174238;-18.043394
-6.024830;-15.713310
3.218747;-18.836113
14.195497;-17.269760
9.409614;-13.368420
7.133901;-11.287453
-9.517977;-15.596195
-14.804424;-20.563747
-49.365189;-45.163898
-7.885125;-24.071484
0.000000;-44.113575
45.163898;-40.962605
12.508687;-20.171675
8.048259;-15.460196
-7.243471;-13.000305
-9.517977;-15.596195
-14.804424;-20.563747
-5.193697;-17.968220
2.693090;-21.302345
12.499241;-20.215006
8.048259;-15.460196
6.107412;-12.890652
-5.940145;-11.293615
-7.243471;-13.000305
-9.517977;-15.596195
-4.074189;-14.680935
2.057570;-16.272352
8.033068;-15.511037
6.107412;-12.890652
4.987178;-11.182783
