10;10;0.100000;0.100000
0.518593;0.484197
-0.664477;0.800738
-0.701122;0.907903
-0.561813;0.940739
-0.315865;1.028384
-0.080518;1.296510
0.027830;1.490025
0.278770;1.132143
0.574285;1.040913
0.775797;1.054202
0.704836;0.914345
-0.834839;0.876368
-1.163173;1.203402
-0.846597;1.047004
-0.459862;1.057962
-0.103037;1.368256
0.020432;1.597597
0.383249;1.175171
0.831792;1.151442
1.164183;1.345479
0.831622;0.965938
-0.854004;0.785035
-1.060803;1.067559
-1.167400;1.207595
-0.700039;1.048939
-0.175031;1.281459
0.042806;1.543723
0.588324;1.150246
1.136700;1.322898
0.949471;1.060522
0.814374;0.792233
-0.846914;0.548195
-0.936227;0.713602
-1.032656;0.968614
-1.100401;1.154932
-0.342080;1.116854
0.081327;1.444501
0.999249;1.230412
0.942997;0.950652
0.926112;0.655951
0.873979;0.505234
-0.951786;0.265610
-1.087576;0.274084
-1.066904;0.376089
-0.987040;0.671971
-0.652430;0.803316
0.130650;0.934216
0.888300;0.567516
1.213628;0.276779
1.336316;0.179766
1.151510;0.196818
-1.120458;0.044245
-1.744271;-0.044898
-1.754497;-0.049407
-1.773055;-0.053332
-0.662576;-0.379508
0.187377;-0.363743
0.975209;-0.179943
1.329847;-0.032286
1.418016;0.012990
1.189537;0.035154
-0.957646;-0.098493
-1.123130;-0.190962
-1.077031;-0.401471
-0.986797;-0.879260
-0.694190;-1.088550
0.215627;-1.351728
0.996765;-1.132450
0.887156;-0.624283
0.920207;-0.331816
0.865407;-0.178341
-0.761222;-0.250809
-0.831085;-0.461162
-0.949262;-0.935569
-1.005590;-1.197274
-0.294331;-1.146155
0.127802;-1.552655
0.778908;-1.136262
1.048196;-1.163659
0.824110;-0.719183
0.716908;-0.405195
-0.621468;-0.344434
-0.672583;-0.557518
-0.790038;-0.906303
-0.596641;-0.964239
-0.136005;-1.174795
0.104790;-1.658316
0.461357;-1.092311
0.928205;-1.118185
0.789926;-0.858222
0.626085;-0.520579
-0.503629;-0.371014
-0.510431;-0.520851
-0.480741;-0.682227
-0.335962;-0.813471
-0.091625;-1.009506
0.098771;-1.203020
0.302804;-0.966243
0.510881;-0.840600
0.555920;-0.702152
0.514562;-0.518276
