20;20;1.000000;1.000000
9.921875;10.976562;r;10.122138;3.773685
0.999188;0.040279
0.995189;0.097968
0.985858;0.167585
0.995999;0.089364
0.995917;-0.090268
0.976112;-0.217268
0.947714;-0.319121
0.897048;-0.441933
0.758453;-0.651728
0.353003;-0.935622
-0.334621;-0.942353
-0.752647;-0.658424
-0.895403;-0.445256
-0.947107;-0.320917
-0.975798;-0.218672
-0.995761;-0.091984
-0.996479;0.083848
-0.986998;0.160732
-0.995768;0.091904
-0.999376;0.035320
0.998595;0.052989
0.987847;0.155426
0.872257;0.489048
0.960534;0.278162
0.995872;-0.090773
0.973813;-0.227349
0.959145;-0.282913
0.952858;-0.303415
0.878939;-0.476935
0.477223;-0.878782
-0.463851;-0.885913
-0.876939;-0.480602
-0.952619;-0.304165
-0.959692;-0.281054
-0.973207;-0.229931
-0.995770;-0.091885
-0.961858;0.273551
-0.875171;0.483813
-0.988914;0.148486
-0.998850;0.047951
0.999595;0.028467
0.997341;0.072878
0.965967;0.258664
0.996397;0.084808
0.990304;-0.138913
0.963017;-0.269439
0.931161;-0.364607
0.902098;-0.431532
0.820515;-0.571625
0.609646;-0.792674
-0.588790;-0.808286
-0.820943;-0.571010
-0.902514;-0.430661
-0.931718;-0.363184
-0.963237;-0.268653
-0.990068;-0.140592
-0.996932;0.078275
-0.968098;0.250573
-0.997714;0.067581
-0.999700;0.024501
0.999998;0.001887
0.999989;-0.004759
0.999437;-0.033537
0.993727;-0.111830
0.976914;-0.213631
0.948586;-0.316520
0.895787;-0.444484
0.779225;-0.626745
0.474784;-0.880102
0.072270;-0.997385
-0.084598;-0.996415
-0.488162;-0.872753
-0.789315;-0.613988
-0.900269;-0.435335
-0.949887;-0.312595
-0.977123;-0.212674
-0.993704;-0.112036
-0.999409;-0.034363
-0.999983;-0.005789
-1.000000;-0.000436
0.999994;-0.003484
0.999871;-0.016085
0.998591;-0.053065
0.990285;-0.139052
0.971015;-0.239020
0.958652;-0.284582
0.884984;-0.465621
0.785097;-0.619373
0.446956;-0.894556
0.042954;-0.999077
-0.069496;-0.997582
-0.485620;-0.874170
-0.808723;-0.588190
-0.891105;-0.453797
-0.954887;-0.296971
-0.971487;-0.237092
-0.990393;-0.138282
-0.998585;-0.053186
-0.999859;-0.016786
-0.999985;-0.005558
0.999878;0.015636
0.999788;-0.020600
0.997742;-0.067160
0.990135;-0.140115
0.971495;-0.237061
0.933464;-0.358672
0.873781;-0.486320
0.844869;-0.534974
0.602364;-0.798222
0.069151;-0.997606
-0.103589;-0.994620
-0.657138;-0.753770
-0.874538;-0.484956
-0.888842;-0.458215
-0.937330;-0.348442
-0.972460;-0.233068
-0.990253;-0.139277
-0.997682;-0.068053
-0.999743;-0.022674
-0.999925;0.012267
0.996597;0.082426
0.999137;0.041538
0.999997;-0.002447
0.998312;-0.058073
0.991039;-0.133570
0.970750;-0.240091
0.921923;-0.387373
0.815129;-0.579279
0.642683;-0.766133
0.190071;-0.981770
-0.206920;-0.978358
-0.711895;-0.702286
-0.849504;-0.527581
-0.935424;-0.353527
-0.974029;-0.226425
-0.991436;-0.130592
-0.998214;-0.059733
-0.999981;-0.006192
-0.999331;0.036577
-0.997074;0.076437
0.976694;0.214637
0.981073;0.193641
0.983183;0.182621
0.982769;0.184840
0.978700;0.205298
0.968673;0.248338
0.955893;0.293715
0.971594;0.236656
0.997010;0.077275
0.000000;0.000000
0.000000;0.000000
-0.963135;0.269019
-0.948970;0.315365
-0.949842;0.312729
-0.969364;0.245627
-0.980539;0.196324
-0.984633;0.174635
-0.985012;0.172487
-0.982977;0.183731
-0.978795;0.204842
0.912674;0.408687
0.902150;0.431422
0.875832;0.482617
0.820074;0.572257
0.714796;0.699333
0.558583;0.829449
0.450662;0.892695
0.857907;0.513805
0.623253;0.782020
0.024266;0.999706
0.365335;0.930876
-0.613676;0.789558
-0.862105;0.506729
-0.475474;0.879730
-0.580896;0.813978
-0.731738;0.681586
-0.831998;0.554779
-0.884411;0.466708
-0.908836;0.417153
-0.918357;0.395753
0.786320;0.617819
0.737532;0.675313
0.656130;0.754648
0.536015;0.844208
0.395453;0.918486
0.288535;0.957469
0.297273;0.954792
-0.200108;0.979774
-0.943739;0.330691
-0.869917;0.493197
0.941811;0.336143
0.964784;0.263042
0.092188;0.995742
-0.322470;0.946580
-0.312387;0.949955
-0.415314;0.909678
-0.553050;0.833148
-0.670303;0.742088
-0.749069;0.662492
-0.795832;0.605517
0.626049;0.779784
0.546658;0.837356
0.442738;0.896651
0.326995;0.945026
0.232168;0.972676
0.224957;0.974369
0.410170;0.912009
-0.387775;0.921754
-0.857361;0.514716
-0.805420;0.592704
0.858831;0.512260
0.867407;0.497599
0.320164;0.947362
-0.414784;0.909920
-0.239644;0.970861
-0.245984;0.969274
-0.339923;0.940453
-0.455064;0.890459
-0.558107;0.829769
-0.636342;0.771407
0.480336;0.877084
0.394781;0.918775
0.299272;0.954168
0.206974;0.978347
0.137152;0.990550
0.115664;0.993288
0.114297;0.993447
-0.201550;0.979478
-0.510140;0.860092
-0.324018;0.946051
0.392961;0.919555
0.514479;0.857503
0.174301;0.984692
-0.121302;0.992616
-0.121759;0.992560
-0.144909;0.989445
-0.214856;0.976646
-0.307359;0.951594
-0.403053;0.915176
-0.488536;0.872544
0.370762;0.928728
0.292863;0.956154
0.213282;0.976991
0.139683;0.990196
0.077498;0.996992
0.022163;0.999754
-0.007189;0.999974
-0.080560;0.996750
-0.184749;0.982786
-0.097567;0.995229
0.127890;0.991788
0.191886;0.981417
0.074730;0.997204
0.005345;0.999986
-0.024398;0.999702
-0.081095;0.996706
-0.143782;0.989609
-0.217798;0.975994
-0.297839;0.954616
-0.376120;0.926571
0.295338;0.955393
0.228986;0.973430
0.164792;0.986328
0.106974;0.994262
0.056680;0.998392
0.010677;0.999943
-0.009178;0.999958
-0.021841;0.999761
-0.052727;0.998609
-0.025752;0.999668
0.041728;0.999129
0.059919;0.998203
0.022301;0.999751
0.008919;0.999960
-0.011250;0.999937
-0.057900;0.998322
-0.108610;0.994084
-0.166806;0.985990
-0.231435;0.972850
-0.298235;0.954492
0.245458;0.969407
0.190602;0.981667
0.140111;0.990136
0.097477;0.995238
0.064467;0.997920
0.035197;0.999380
0.009668;0.999953
0.017916;0.999839
-0.000141;1.000000
-0.000813;1.000000
0.011160;0.999938
0.006195;0.999981
-0.016085;0.999871
-0.009482;0.999955
-0.035087;0.999384
-0.064467;0.997920
-0.097627;0.995223
-0.140474;0.990084
-0.191265;0.981538
-0.246487;0.969146
0.213089;0.977033
0.168370;0.985724
0.129461;0.991584
0.100459;0.994941
0.086991;0.996209
0.100489;0.994938
0.104488;0.994526
0.055701;0.998448
0.027159;0.999631
0.009973;0.999950
-0.002208;0.999998
-0.022001;0.999758
-0.053616;0.998562
-0.104185;0.994558
-0.100211;0.994966
-0.086403;0.996260
-0.099725;0.995015
-0.128732;0.991679
-0.167780;0.985824
-0.212737;0.977109
0.192125;0.981370
0.155685;0.987807
0.125568;0.992085
0.105869;0.994380
0.102951;0.994686
0.124127;0.992266
0.118373;0.992969
0.075199;0.997169
0.041091;0.999155
0.015024;0.999887
-0.008503;0.999964
-0.036349;0.999339
-0.072872;0.997341
-0.117857;0.993031
-0.123805;0.992307
-0.101993;0.994785
-0.104518;0.994523
-0.124048;0.992276
-0.154166;0.988045
-0.190727;0.981643
0.178244;0.983986
0.148126;0.988968
0.123872;0.992298
0.108454;0.994101
0.105649;0.994404
0.118075;0.993005
0.108707;0.994074
0.075727;0.997129
0.044601;0.999005
0.016571;0.999863
-0.010585;0.999944
-0.039847;0.999206
-0.072817;0.997345
-0.107486;0.994207
-0.117260;0.993101
-0.104137;0.994563
-0.106488;0.994314
-0.121668;0.992571
-0.145846;0.989307
-0.176004;0.984389
0.168548;0.985693
0.143020;0.989720
0.122321;0.992491
0.108016;0.994149
0.100895;0.994897
0.097892;0.995197
0.087915;0.996128
0.067046;0.997750
0.041942;0.999120
0.016034;0.999871
-0.010178;0.999948
-0.036897;0.999319
-0.063247;0.997998
-0.085231;0.996361
-0.095638;0.995416
-0.098470;0.995140
-0.105321;0.994438
-0.119437;0.992842
-0.140050;0.990144
-0.165583;0.986196
0.161211;0.986920
0.138931;0.990302
0.120337;0.992733
0.106035;0.994362
0.095641;0.995416
0.086722;0.996233
0.075006;0.997183
0.058175;0.998306
0.037439;0.999299
0.014712;0.999892
-0.008761;0.999962
-0.031998;0.999488
-0.053528;0.998566
-0.071097;0.997469
-0.083225;0.996531
-0.092226;0.995738
-0.102548;0.994728
-0.116760;0.993160
-0.135303;0.990804
-0.157588;0.987505
