20;20;0.150000;0.100000
0.971774;2.464261
-0.383085;-0.012147
-0.430713;0.062214
-0.445786;0.097356
-0.419518;0.092613
-0.372855;0.088780
-0.315336;0.117019
-0.267397;0.226653
-0.325345;0.535878
-0.180784;0.457832
0.052925;0.706506
0.044085;0.384234
0.154942;0.368588
0.228884;0.432266
0.239226;0.250058
0.290165;0.183507
0.343059;0.182915
0.372219;0.186408
0.346316;0.119786
0.301896;0.024634
0.267419;-0.050698
-0.433156;0.010254
-0.547110;0.189246
-0.623337;0.307397
-0.566410;0.230814
-0.502781;0.169012
-0.420826;0.132813
-0.323269;0.167906
-0.266539;0.336398
-0.345507;0.593632
0.025027;0.634285
0.072806;0.368544
0.242113;0.529306
0.258333;0.451820
0.310887;0.266115
0.402331;0.262336
0.487048;0.349543
0.529089;0.413677
0.421750;0.197070
0.345705;0.034540
0.300412;-0.059381
-0.427391;-0.078167
-0.472213;-0.009401
-0.509963;0.061443
-0.540388;0.129550
-0.576714;0.213935
-0.615797;0.294023
-0.417561;0.069530
-0.274974;0.056136
-0.164569;0.103213
-0.053672;0.122379
0.067226;0.142639
0.186902;0.209071
0.293840;0.198186
0.441945;0.281496
0.542499;0.436472
0.477520;0.260525
0.439437;0.137042
0.401875;0.031967
0.362356;-0.051873
0.323507;-0.113995
-0.455724;-0.170799
-0.504067;-0.151715
-0.533154;-0.137229
-0.551584;-0.127216
-0.567586;-0.124943
-0.586373;-0.138094
-0.580413;-0.155121
-0.320781;-0.138179
-0.175568;-0.135003
-0.060285;-0.123588
0.049911;-0.102295
0.168983;-0.068322
0.319057;-0.016539
0.497259;-0.001754
0.527312;-0.049140
0.513061;-0.078302
0.493752;-0.105704
0.463794;-0.131302
0.414483;-0.156270
0.356051;-0.184305
-0.532820;-0.211154
-0.685351;-0.178286
-0.638196;-0.186525
-0.591749;-0.194460
-0.541826;-0.205717
-0.481585;-0.225077
-0.395778;-0.256942
-0.287793;-0.290527
-0.173444;-0.306246
-0.062431;-0.308155
0.038383;-0.294111
0.138413;-0.263461
0.254599;-0.222866
0.396324;-0.192600
0.504341;-0.186301
0.574232;-0.190174
0.633778;-0.193495
0.674802;-0.193117
0.535025;-0.210404
0.382332;-0.242003
-0.410852;-0.287214
-0.442578;-0.278902
-0.439675;-0.286829
-0.420306;-0.306043
-0.397372;-0.333835
-0.380232;-0.369899
-0.387565;-0.412975
-0.480658;-0.460715
-0.190035;-0.452669
-0.038041;-0.499045
0.062348;-0.472443
0.143497;-0.439322
0.194262;-0.393325
0.251148;-0.348890
0.309583;-0.315803
0.359544;-0.295159
0.396716;-0.283355
0.412035;-0.279798
0.382502;-0.290948
0.327295;-0.310817
-0.334030;-0.368289
-0.351730;-0.375555
-0.364547;-0.390025
-0.377627;-0.410496
-0.401984;-0.434650
-0.461892;-0.459586
-0.443909;-0.466046
-0.275313;-0.483620
-0.103359;-0.548931
-0.009609;-0.694541
0.134193;-0.578939
0.318184;-0.580786
0.228784;-0.519289
0.222004;-0.474686
0.240029;-0.444425
0.263432;-0.427231
0.280635;-0.415196
0.286799;-0.403659
0.281178;-0.396019
0.266728;-0.392999
-0.310257;-0.426214
-0.344271;-0.438096
-0.389048;-0.452110
-0.447082;-0.464688
-0.501797;-0.470905
-0.376299;-0.479755
-0.262445;-0.503892
-0.156036;-0.540267
-0.059007;-0.594726
-0.009336;-0.701853
0.076019;-0.603171
0.235730;-0.579363
0.324871;-0.584861
0.253372;-0.548012
0.244578;-0.528161
0.277273;-0.544651
0.283820;-0.539822
0.267094;-0.506543
0.254670;-0.481837
0.242646;-0.463780
-0.300225;-0.463580
-0.368257;-0.471249
-0.513505;-0.472010
-0.425827;-0.480544
-0.327903;-0.500334
-0.245773;-0.530451
-0.184364;-0.571798
-0.165903;-0.624024
-0.059608;-0.625624
-0.010018;-0.707361
0.049270;-0.622241
0.148823;-0.590831
0.272169;-0.585989
0.327397;-0.588732
0.270019;-0.568648
0.284371;-0.575845
0.343306;-0.617219
0.292616;-0.572059
0.263541;-0.540239
0.242354;-0.514885
-0.273354;-0.492139
-0.298050;-0.498545
-0.308789;-0.506047
-0.278676;-0.521720
-0.231148;-0.546993
-0.190674;-0.581716
-0.182461;-0.627824
-0.177548;-0.648047
-0.058468;-0.642512
-0.009875;-0.707740
0.060714;-0.640986
0.131646;-0.621016
0.191241;-0.598402
0.290792;-0.591964
0.324940;-0.591378
0.268907;-0.578676
0.296496;-0.591321
0.332432;-0.610781
0.284850;-0.576429
0.250084;-0.546902
-0.274312;-0.515572
-0.298881;-0.522239
-0.317629;-0.529111
-0.284249;-0.545461
-0.212664;-0.578361
-0.183563;-0.615363
-0.214140;-0.662184
-0.130679;-0.640329
-0.041124;-0.651058
-0.008296;-0.704776
0.085555;-0.653511
0.199540;-0.665079
0.166102;-0.624392
0.197946;-0.600919
0.232386;-0.588469
0.238179;-0.580134
0.256813;-0.580103
0.298972;-0.595485
0.301469;-0.594157
0.247594;-0.558868
-0.323106;-0.526024
-0.400388;-0.521041
-0.479406;-0.509583
-0.321457;-0.551388
-0.213468;-0.599598
-0.195335;-0.640625
-0.190413;-0.653483
-0.100550;-0.640195
-0.028999;-0.657167
-0.006821;-0.702483
0.069288;-0.655741
0.176402;-0.658728
0.180371;-0.644870
0.189730;-0.613892
0.224153;-0.591533
0.241335;-0.579672
0.244689;-0.573898
0.246089;-0.570478
0.241504;-0.565001
0.228402;-0.555056
-0.355006;-0.530057
-0.412830;-0.523809
-0.309255;-0.554783
-0.233176;-0.590151
-0.198317;-0.626220
-0.221009;-0.665936
-0.156050;-0.644123
-0.080488;-0.641148
-0.021335;-0.660894
-0.006010;-0.701431
0.060466;-0.656480
0.146774;-0.649588
0.210295;-0.665397
0.220150;-0.620537
0.404327;-0.555401
0.354258;-0.562823
0.299761;-0.567610
0.269617;-0.566078
0.247582;-0.561941
0.228904;-0.555856
-0.226545;-0.563562
-0.227624;-0.575308
-0.208862;-0.595253
-0.193260;-0.620632
-0.200951;-0.649611
-0.199071;-0.656939
-0.130356;-0.640548
-0.066566;-0.640057
-0.016108;-0.654785
-0.001723;-0.694151
0.063921;-0.650241
0.133855;-0.643813
0.200976;-0.659015
0.213433;-0.641874
0.273726;-0.598261
0.387635;-0.558752
0.400923;-0.552664
0.332432;-0.560711
0.282699;-0.561790
0.244885;-0.558829
-0.174232;-0.586214
-0.176138;-0.601531
-0.178105;-0.620118
-0.188428;-0.641809
-0.224511;-0.668943
-0.168776;-0.649414
-0.106318;-0.640596
-0.049642;-0.642323
-0.004856;-0.649423
0.029169;-0.649523
0.070755;-0.643039
0.123963;-0.640761
0.180261;-0.649297
0.216089;-0.666049
0.224237;-0.627319
0.280602;-0.592340
0.371440;-0.561240
0.433745;-0.545901
0.323569;-0.560011
0.255094;-0.562045
-0.153885;-0.600989
-0.162202;-0.617773
-0.176079;-0.636587
-0.201999;-0.657375
-0.201905;-0.660806
-0.140887;-0.646726
-0.080463;-0.644635
-0.024990;-0.655664
0.019666;-0.687554
0.030941;-0.679468
0.061773;-0.652504
0.108245;-0.642926
0.159726;-0.645622
0.207568;-0.662800
0.208264;-0.650576
0.220110;-0.620229
0.254644;-0.593835
0.286063;-0.576040
0.265558;-0.571366
0.228837;-0.568268
-0.143741;-0.609698
-0.159458;-0.628051
-0.185460;-0.648740
-0.226871;-0.670462
-0.173757;-0.653834
-0.113896;-0.645564
-0.057647;-0.648727
-0.010107;-0.663602
0.022318;-0.690521
0.030446;-0.688384
0.051861;-0.661704
0.090021;-0.646948
0.136700;-0.644001
0.185287;-0.654073
0.215321;-0.668546
0.196239;-0.638824
0.196209;-0.613467
0.200702;-0.595677
0.198276;-0.583820
0.188690;-0.575043
-0.131407;-0.611063
-0.150532;-0.629389
-0.192019;-0.654710
-0.199427;-0.660615
-0.138482;-0.646082
-0.085026;-0.643257
-0.038428;-0.650439
-0.000971;-0.666670
0.023597;-0.691179
0.029880;-0.693048
0.044062;-0.667278
0.072252;-0.649761
0.108959;-0.641328
0.149874;-0.642942
0.190106;-0.654978
0.176366;-0.637256
0.166095;-0.615726
0.163843;-0.600086
0.162038;-0.588092
0.158368;-0.578349
-0.110514;-0.604944
-0.118481;-0.617309
-0.125675;-0.628389
-0.117620;-0.633323
-0.089949;-0.634362
-0.055873;-0.638707
-0.022688;-0.649245
0.005481;-0.666869
0.024546;-0.691195
0.029516;-0.696551
0.038279;-0.670241
0.057670;-0.650232
0.082398;-0.637372
0.107013;-0.630229
0.125352;-0.625208
0.133515;-0.617649
0.135787;-0.607360
0.136556;-0.596788
0.136487;-0.587037
0.135335;-0.578241
-0.088080;-0.596575
-0.087391;-0.605013
-0.083383;-0.612386
-0.073355;-0.618407
-0.056630;-0.624158
-0.035455;-0.631735
-0.012968;-0.643194
0.007952;-0.660603
0.024293;-0.687050
0.029279;-0.697729
0.034940;-0.666219
0.048542;-0.645329
0.065173;-0.631428
0.081441;-0.621771
0.094872;-0.614159
0.104352;-0.606892
0.110348;-0.599244
0.113944;-0.591337
0.115903;-0.583514
0.116609;-0.575990
