20;20;0.050000;0.075000
0.732977;0.746243
-0.321517;0.695628
-0.303538;0.691988
-0.296313;0.656336
-0.296461;0.589885
-0.292674;0.506865
-0.275049;0.424326
-0.239892;0.354604
-0.188364;0.305130
-0.124243;0.280533
-0.052722;0.284155
0.020080;0.318765
0.087378;0.386884
0.141925;0.491019
0.176121;0.633900
0.182060;0.818429
0.151848;1.046778
0.079816;1.315936
-0.001770;1.543439
0.069480;1.396226
0.150465;1.219448
-0.311181;0.766398
-0.285888;0.774409
-0.282238;0.735272
-0.296688;0.648098
-0.307556;0.537947
-0.298259;0.431072
-0.264668;0.342432
-0.209515;0.279251
-0.138174;0.245608
-0.057240;0.244617
0.025769;0.279120
0.102562;0.351876
0.164284;0.465852
0.201521;0.624724
0.203980;0.833253
0.160066;1.097060
0.056548;1.421591
-0.107658;1.787585
0.036961;1.505834
0.145216;1.283636
-0.289631;0.853235
-0.246635;0.884744
-0.245906;0.844625
-0.286908;0.724788
-0.322601;0.575545
-0.325853;0.437607
-0.294747;0.326545
-0.235389;0.247535
-0.155425;0.203320
-0.063120;0.196585
0.032353;0.230188
0.120897;0.306949
0.191841;0.429860
0.234002;0.602760
0.235175;0.830630
0.182089;1.117471
0.064872;1.454799
-0.098561;1.774679
0.035256;1.550522
0.152935;1.321461
-0.255013;0.956079
-0.170212;1.034074
-0.166476;1.001337
-0.262838;0.823044
-0.339718;0.617413
-0.359996;0.441725
-0.331811;0.305370
-0.267296;0.208709
-0.176942;0.152396
-0.070795;0.138698
0.040045;0.170624
0.143205;0.250886
0.225921;0.381909
0.275428;0.566735
0.278323;0.809118
0.221296;1.109161
0.100105;1.447089
-0.049226;1.763593
0.059325;1.560198
0.175901;1.334602
-0.212304;1.067675
-0.035699;1.230538
0.003121;1.236098
-0.227034;0.936551
-0.364559;0.656889
-0.403991;0.439942
-0.378000;0.277051
-0.306914;0.161427
-0.204022;0.091406
-0.080891;0.069338
0.049163;0.098898
0.170639;0.182583
0.268181;0.321447
0.327798;0.516682
0.335697;0.770082
0.278829;1.079008
0.153832;1.421948
-0.020078;1.754602
0.098823;1.553564
0.213586;1.328397
-0.182486;1.168904
0.129272;1.431938
0.294977;1.536685
-0.211122;1.031310
-0.407688;0.682728
-0.462014;0.428204
-0.435834;0.239877
-0.356408;0.104489
-0.238567;0.018766
-0.094417;-0.013562
0.060236;0.013095
0.204960;0.100975
0.320825;0.248534
0.393371;0.453807
0.409516;0.716385
0.356311;1.033196
0.227566;1.386890
0.024559;1.743179
0.156350;1.535005
0.265636;1.306088
-0.198859;1.237256
0.181486;1.544446
0.212583;1.532696
-0.270171;1.064510
-0.480181;0.685189
-0.538066;0.403581
-0.508075;0.192963
-0.418644;0.037206
-0.283587;-0.067274
-0.113216;-0.112920
0.074252;-0.089491
0.249160;0.004913
0.387017;0.163905
0.474890;0.380370
0.502280;0.651599
0.456665;0.976280
0.326320;1.345133
0.110217;1.743581
0.236426;1.500792
0.331937;1.267910
-0.278489;1.260783
-0.005617;1.606218
-0.073162;1.490991
-0.406426;1.047733
-0.585661;0.663586
-0.634855;0.365867
-0.597690;0.136954
-0.497564;-0.040045
-0.344221;-0.168645
-0.141249;-0.233458
0.093356;-0.213169
0.308866;-0.107018
0.471556;0.069194
0.575883;0.299807
0.616927;0.579978
0.583719;0.912301
0.460914;1.298189
0.150338;1.743625
0.343684;1.443934
0.411274;1.212275
-0.401467;1.236315
-0.240958;1.582647
-0.332461;1.469619
-0.582750;1.010760
-0.720237;0.624513
-0.753896;0.317663
-0.708139;0.074493
-0.598748;-0.124865
-0.429614;-0.287272
-0.188883;-0.384290
0.123395;-0.365489
0.395726;-0.236718
0.581843;-0.032341
0.701125;0.217185
0.757026;0.506825
0.741746;0.845775
0.633813;1.252851
0.525119;1.689296
0.481836;1.351056
0.499222;1.137869
-0.539945;1.168203
-0.478323;1.478809
-0.618198;1.435305
-0.778931;0.968721
-0.879629;0.575239
-0.896953;0.263090
-0.844110;0.010334
-0.730231;-0.211113
-0.555137;-0.423105
-0.291111;-0.588702
0.187762;-0.560082
0.534645;-0.386974
0.728929;-0.133907
0.857589;0.139927
0.927435;0.438840
0.935907;0.783505
0.866560;1.194185
0.623825;1.534990
0.614612;1.222882
0.587903;1.046928
-0.674122;1.068323
-0.711470;1.298658
-0.813952;1.493576
-0.993472;0.928281
-1.064375;0.520090
-1.068045;0.206314
-1.012883;-0.049074
-0.904524;-0.286677
-0.741137;-0.562682
-0.594401;-0.935948
0.463332;-0.822462
0.767262;-0.560875
0.929559;-0.220194
1.057111;0.078740
1.136421;0.384608
1.170159;0.734123
1.216580;1.157623
0.887093;1.232301
0.730225;1.070212
0.670551;0.946928
-0.790304;0.957850
-0.858995;1.103742
-1.086135;1.281333
-1.236481;0.911643
-1.284592;0.457388
-1.276286;0.150380
-1.227277;-0.096784
-1.144810;-0.333876
-1.026837;-0.644903
-1.088644;-1.391105
0.891797;-0.987716
1.106392;-0.754755
1.221517;-0.257233
1.324888;0.051463
1.399596;0.357036
1.499079;0.661600
1.250265;1.035676
0.972422;0.982782
0.817378;0.917646
0.744583;0.850364
-0.888846;0.863752
-0.965498;0.923381
-1.150113;0.960538
-1.389671;1.107449
-1.576530;0.390629
-1.545422;0.089411
-1.514827;-0.130804
-1.506885;-0.320336
-1.631898;-0.533324
-0.769243;-0.959488
0.391874;-0.846255
1.372295;-0.809310
1.745898;-0.202339
1.742148;0.146624
1.735997;0.228311
1.457602;0.579999
1.189791;0.743927
0.995272;0.791793
0.881665;0.793188
0.812981;0.773700
-0.977962;0.821515
-1.041960;0.808517
-1.158258;0.752729
-1.366103;0.599764
-1.562980;0.343555
-1.644459;0.053772
-1.612525;-0.143978
-1.454926;-0.321659
-1.088628;-0.601003
-0.464742;-0.945385
0.210275;-0.945188
0.848316;-0.647408
1.219533;-0.307125
1.355579;-0.023427
1.350224;0.205021
1.249923;0.414651
1.121337;0.563595
1.014166;0.661659
0.942841;0.722943
0.883258;0.737795
-1.067661;0.888506
-1.113211;0.802872
-1.176435;0.646958
-1.272125;0.473610
-1.356656;0.264977
-1.372862;0.046994
-1.299267;-0.160867
-1.113978;-0.389885
-0.777528;-0.701671
-0.373993;-1.275798
0.641761;-1.351344
0.653261;-0.830870
0.920912;-0.455897
1.089948;-0.161626
1.152246;0.078951
1.141441;0.282398
1.098590;0.453506
1.055141;0.607748
1.018452;0.744027
0.963303;0.772428
-1.154830;1.194468
-1.184959;0.924848
-1.229549;0.633292
-1.262309;0.412923
-1.280872;0.206206
-1.257046;0.002786
-1.168315;-0.206571
-0.995911;-0.452698
-0.729276;-0.806341
-0.470752;-1.457730
0.531250;-1.303590
0.733494;-1.050615
0.845030;-0.612197
0.994765;-0.283933
1.087478;-0.025003
1.127264;0.195025
1.137013;0.403320
1.131602;0.633179
1.109301;0.913142
1.052120;0.916416
-1.173833;1.153844
-1.251003;1.082377
-1.331530;0.670312
-1.331604;0.396610
-1.317564;0.164848
-1.278137;-0.039284
-1.198035;-0.246024
-1.069640;-0.494989
-0.894292;-0.869230
-0.871095;-1.407651
0.296662;-1.127253
0.999427;-1.275008
0.934279;-0.752535
1.044906;-0.377367
1.141675;-0.095475
1.202957;0.146398
1.238474;0.397291
1.247553;0.705259
1.169580;1.184916
1.109898;1.041695
-1.202717;0.943065
-1.454626;0.952936
-1.479067;0.739022
-1.469273;0.408266
-1.449471;0.128413
-1.418806;-0.072948
-1.370122;-0.269552
-1.320199;-0.505401
-1.366631;-0.797922
-0.724067;-1.075052
0.187741;-0.960593
0.986232;-1.149598
1.159091;-0.886882
1.226382;-0.427879
1.303745;-0.131105
1.360933;0.123292
1.400157;0.413956
1.412389;0.781854
1.242342;1.201823
1.129339;0.921724
-1.204762;0.761818
-1.368352;0.775764
-1.568266;0.686662
-1.659336;0.506038
-1.672214;0.058448
-1.666119;-0.109977
-1.667359;-0.293302
-1.696980;-0.418152
-1.256108;-0.702861
-0.606361;-0.809121
0.134422;-0.804411
0.819595;-0.865449
1.356451;-1.015823
1.557074;-0.436503
1.571425;-0.135301
1.600032;0.105714
1.619613;0.468774
1.524536;0.831021
1.309132;0.839743
1.129544;0.762158
-1.173264;0.625423
-1.300462;0.612537
-1.438311;0.521416
-1.561164;0.348861
-1.626714;0.062198
-1.599217;-0.095913
-1.507739;-0.247487
-1.312306;-0.413825
-0.971626;-0.566645
-0.476727;-0.646498
0.104853;-0.666858
0.668253;-0.675243
1.154833;-0.606170
1.489949;-0.380834
1.635399;-0.129008
1.659797;0.094721
1.574686;0.377595
1.419650;0.560303
1.248724;0.643563
1.099662;0.625786
