5;5;1.000000;1.000000
2.453228;2.481384
-0.695006;0.719004
-0.521899;0.853007
-0.018061;0.999837
0.487262;0.873256
0.742408;0.669948
-0.849546;0.527515
-0.695889;0.718149
-0.017054;0.999855
0.739450;0.673212
0.842289;0.539026
-0.999836;-0.018092
-0.999839;-0.017932
0.964788;0.263028
0.999973;0.007416
1.000000;-0.000833
-0.884725;-0.466114
-0.768239;-0.640164
0.028680;-0.999589
0.772000;-0.635622
0.921240;-0.388995
-0.768882;-0.639391
-0.509961;-0.860198
0.019107;-0.999817
0.619123;-0.785294
0.762278;-0.647250
