20;20
3.525235;-13.618754
3.720614;-14.496705
4.075094;-14.427241
3.984018;-14.812526
3.510687;-15.514505
2.735981;-15.032193
1.916213;-15.219682
1.182130;-16.094143
0.278230;-14.640730
-0.367303;-14.248804
-0.962560;-14.633804
-1.947302;-15.888453
-2.899010;-14.997293
-3.621804;-15.247127
-4.350361;-14.785303
-4.980433;-14.822667
-5.741680;-15.230208
-6.393375;-16.200291
-5.844519;-14.955648
-5.424267;-14.038141
3.720614;-14.496705
3.928377;-15.665622
4.361197;-15.535590
4.320182;-16.086483
3.873285;-17.259226
2.975453;-16.511768
2.081660;-16.946402
1.335422;-19.099272
0.323732;-16.255219
-0.364619;-15.569391
-0.995478;-16.186039
-2.077931;-18.664518
-3.063725;-16.673632
-3.854179;-16.856913
-4.638977;-16.026264
-5.358236;-15.990117
-6.271343;-16.554699
-7.189703;-18.084330
-6.393375;-16.200291
-5.844519;-14.955648
3.928377;-15.665622
4.132303;-17.371693
4.693572;-17.062389
4.754681;-17.946596
4.474676;-20.435907
3.299276;-18.804050
2.307486;-20.145689
4.048583;-95.141701
0.417492;-19.275074
-0.358773;-17.621513
-1.064024;-19.020666
-4.048583;-86.032387
-3.269451;-19.741268
-4.160184;-19.645296
-4.991179;-17.809475
-5.843698;-17.603706
-7.030069;-18.533356
-8.670725;-21.750273
-7.189703;-18.084330
-6.393375;-16.200291
4.162858;-16.555250
4.278863;-19.554708
5.139624;-18.249649
5.489222;-19.816526
17.206478;-89.068825
3.894546;-19.462254
2.551600;-17.957479
1.549280;-19.157234
0.345955;-16.156166
-0.374751;-15.441204
-1.021910;-16.197123
-2.306577;-18.983858
-3.570384;-18.454924
-7.085020;-64.777328
-5.539400;-18.833603
-6.625501;-18.645681
-8.522427;-21.221405
-42.510120;-109.311745
-8.748593;-21.035423
-7.246826;-17.405266
4.208128;-17.493292
-4.048583;-82.995949
5.248904;-18.137724
5.610722;-16.988535
5.101890;-18.297695
3.796321;-15.540408
2.595901;-14.636141
1.550377;-14.698197
0.335568;-12.937680
-0.267223;-12.441602
-0.780117;-12.930600
-2.094701;-14.446003
-3.410262;-14.265820
-4.425862;-16.070206
-5.401618;-14.944319
-6.353813;-15.202938
-7.664023;-16.449100
-9.327181;-19.903410
-7.774482;-16.434614
-6.902082;-14.694076
4.990065;-13.562612
5.209161;-16.142994
6.254443;-13.958968
6.482835;-13.587082
5.394816;-13.834004
4.105254;-12.306912
2.813035;-11.608127
1.654909;-11.338386
0.318733;-9.984178
-0.144624;-9.598426
-0.491910;-10.037331
-1.919070;-11.170786
-3.348348;-11.149318
-4.370123;-12.311810
-5.444438;-12.092874
-6.384218;-12.533399
-7.593494;-13.464214
-8.667686;-15.345779
-7.628201;-13.681061
-6.892095;-12.610331
5.736008;-11.097853
6.277958;-12.294131
7.394525;-11.301997
7.825705;-11.175635
6.098344;-10.946040
4.579209;-9.759139
3.091539;-9.086767
1.751663;-8.591393
0.173284;-7.331268
-0.027676;-6.954276
-0.080533;-7.445256
-1.723376;-8.481342
-3.329506;-8.578690
-4.426108;-9.621133
-5.618505;-9.780641
-6.622198;-10.369726
-7.910577;-11.249800
-8.933271;-12.771048
-7.876212;-11.694462
-7.106728;-10.942752
6.599447;-9.213188
7.454349;-9.914093
8.997192;-9.348736
10.436340;-9.560229
7.262118;-8.776302
5.235425;-7.619308
3.408761;-6.866073
1.750245;-6.120276
-0.424103;-4.651244
0.078805;-4.101863
0.746053;-4.851941
-1.417423;-6.058681
-3.315202;-6.296025
-4.551479;-7.373789
-5.916905;-7.791632
-7.064869;-8.545170
-8.594935;-9.513886
-9.905537;-11.113689
-8.487682;-10.187801
-7.541989;-9.572312
7.707256;-7.681579
9.082949;-8.187638
11.914311;-8.070266
82.995949;-27.327936
9.593046;-7.271770
6.203590;-5.791699
3.722430;-4.812875
1.327689;-3.627497
-33.400810;12.145749
1.012146;29.352226
30.364372;10.121457
-0.697362;-3.628490
-3.229036;-4.142822
-4.720631;-5.364246
-6.355379;-6.026073
-7.773313;-6.998987
-9.831275;-8.224652
-12.316884;-10.522234
-9.646584;-9.149382
-8.269077;-8.476556
7.622766;-6.263214
8.819229;-6.508084
10.834653;-6.139774
11.367165;-6.392946
7.875731;-5.340211
5.627991;-4.327799
3.472466;-3.672932
1.300705;-2.915867
-26.315790;0.000000
s
24.291498;0.000000
-1.301882;-3.067859
-4.092720;-3.088047
-5.697673;-4.244936
-7.625808;-5.012704
-9.490649;-6.240205
-12.933211;-8.156373
-84.008095;-49.595142
-12.588318;-9.315102
-9.842535;-8.010308
8.270761;-4.935627
9.760043;-5.016593
12.620411;-4.598009
10.674323;-4.470686
8.041171;-3.704162
6.103572;-2.875527
4.125167;-2.415542
2.401754;-1.873481
-0.100918;-1.565283
-15.182186;-7.085020
20.242914;-10.121457
-1.902820;-2.170766
-4.846286;-1.541670
-6.217596;-2.620547
-8.045917;-3.269216
-9.513726;-4.270761
-12.017385;-5.387805
-13.610564;-7.800512
-10.684299;-6.681237
-9.118201;-6.218193
9.592514;-3.637056
12.297327;-3.630531
79.959511;-7.085020
12.530817;-2.852863
9.141948;-2.040219
7.083323;-1.218296
5.035848;-0.805836
3.497413;-0.196751
1.151781;-0.296409
1.012146;-11.133603
-0.320220;-0.928444
-3.217285;-0.365196
-6.638454;0.901318
-7.455662;-0.598364
-9.316900;-1.308500
-10.724167;-2.284997
-14.010624;-2.985816
-12.769320;-4.914449
-10.568077;-4.708674
-9.160024;-4.620945
8.877158;-2.150943
10.570971;-1.912564
13.757209;-1.256777
10.810249;-0.863491
8.705297;-0.018106
7.252357;0.896090
5.439042;1.386864
4.535468;2.558480
1.686453;2.070474
-0.234221;1.204810
-1.751426;1.390432
-5.258245;2.313426
-43.522266;32.388664
-9.903377;2.166466
-11.899694;1.081687
-13.951434;0.025913
-92.105263;12.145749
-14.977038;-2.417422
-11.701446;-2.821270
-9.935306;-3.034909
9.225185;-0.689106
10.962358;-0.181904
14.185155;1.001579
11.302699;1.156164
9.585109;2.105677
8.700092;3.281892
7.268515;4.110721
42.510120;39.473682
3.661697;4.893684
0.778250;3.357590
-1.300587;3.065888
-4.490039;3.506760
-8.547042;5.080156
-9.494221;3.274240
-12.690583;2.772666
-12.167693;1.176908
-14.472711;0.244949
-12.136396;-1.391950
-10.258058;-1.737048
-8.988164;-2.001266
10.084059;0.700897
12.886237;1.669545
78.947365;21.255060
13.185941;3.167531
10.798203;3.993672
10.372848;5.421647
7.434275;5.129276
6.293956;6.275786
3.897431;6.740153
0.792604;4.996716
-1.680787;4.663557
-5.131860;5.253471
-9.746721;7.334468
-11.554106;5.365206
-85.020241;25.303644
-13.402337;2.962494
-12.865532;1.372647
-11.291115;-0.156201
-9.733231;-0.623090
-8.613072;-0.988333
9.082993;1.461780
10.702334;2.223119
13.679826;3.673199
11.657986;4.314727
11.557234;6.204950
62.753036;40.485828
8.810810;7.372011
6.786748;8.238545
35.425102;57.692307
1.693778;7.602520
-1.535291;6.753521
-5.701839;7.908243
-56.680161;59.716599
-10.396073;7.418009
-12.417857;5.663672
-10.698682;3.573384
-10.731958;2.124527
-9.819337;0.718860
-8.667079;0.205555
-7.788670;-0.211023
8.087499;1.539641
9.217192;2.197969
10.905123;3.320205
9.930161;4.172842
9.541335;5.716991
9.738533;6.821565
6.770861;6.121682
5.114461;6.550483
3.724999;7.785677
0.843848;6.236670
-1.519116;6.008094
-4.555345;6.730280
-8.576049;9.060964
-8.349208;6.212268
-9.650052;4.820498
-9.108295;3.250200
-9.322298;2.005216
-8.751778;0.773153
-7.860196;0.301461
-7.152563;-0.091804
7.403858;1.815629
8.294695;2.480359
9.523774;3.568640
8.995188;4.646072
8.802327;6.459123
7.956048;6.394465
5.797676;5.898029
4.237583;6.063140
2.606717;6.595147
0.384555;5.935010
-1.679016;6.025072
-4.389410;6.947861
-7.928539;9.568811
-7.606282;6.450803
-8.414523;4.858851
-8.165409;3.366718
-8.392375;2.162440
-7.989162;1.000502
-7.256673;0.523554
-6.660286;0.123912
6.943909;2.289937
7.725394;3.054166
8.784375;4.295888
8.667126;5.861498
9.217561;9.002618
7.394668;7.205503
5.314544;6.342029
3.712132;6.231007
2.006255;6.521535
-0.028423;6.268056
-2.100088;6.787281
-5.159607;8.796634
-40.485828;70.850204
-7.955242;8.364389
-7.944589;5.662976
-7.647344;3.902415
-7.789747;2.587272
-7.451332;1.402709
-6.810680;0.874247
-6.283395;0.438395
6.849529;2.766310
7.650380;3.748422
8.800409;5.439592
9.558762;8.488016
45.546558;81.983803
8.272234;9.422353
5.658701;7.037418
3.915707;6.284409
2.217980;6.138705
0.417771;5.715820
-1.323011;5.818622
-3.583157;6.611219
-6.546168;8.962687
-6.179661;6.036965
-6.657926;4.501168
-6.631223;3.191736
-6.872062;2.117277
-6.665012;1.099910
-6.148706;0.650306
-5.715147;0.269235
