20;20;0.650000;0.650000
6.608128;6.340130
-0.620136;-0.649794
-0.699087;-0.640550
-0.788552;-0.615395
-0.886074;-0.568250
-0.984952;-0.495083
-1.074008;-0.400305
-1.142604;-0.299428
-1.187938;-0.207003
-1.213474;-0.126837
-1.223059;-0.055975
-1.218463;0.010128
-1.199098;0.075911
-1.161873;0.145693
-1.101154;0.223983
-1.011163;0.314264
-0.895280;0.412785
-0.773170;0.502901
-0.665382;0.567192
-0.577842;0.602639
-0.507180;0.616345
-0.612369;-0.727518
-0.701557;-0.729388
-0.808630;-0.713044
-0.933457;-0.666507
-1.068999;-0.574852
-1.195154;-0.437166
-1.284584;-0.296707
-1.335424;-0.188868
-1.361289;-0.108818
-1.370878;-0.044160
-1.367373;0.014075
-1.350261;0.072521
-1.315180;0.137277
-1.251450;0.216672
-1.138267;0.324948
-0.965197;0.468628
-0.784786;0.603744
-0.649288;0.680935
-0.554149;0.707121
-0.482631;0.705805
-0.588614;-0.815050
-0.684628;-0.835410
-0.808760;-0.839014
-0.967242;-0.808038
-1.158422;-0.705701
-1.368578;-0.453062
-1.487766;-0.229061
-1.532242;-0.125123
-1.551274;-0.065574
-1.557940;-0.022295
-1.555702;0.015598
-1.544351;0.055044
-1.519987;0.101695
-1.471830;0.163028
-1.355875;0.272817
-1.047287;0.528958
-0.739820;0.779300
-0.591323;0.848905
-0.506684;0.838882
-0.443649;0.808322
-0.543900;-0.909341
-0.637347;-0.957048
-0.770187;-0.997070
-0.967747;-1.009355
-1.203245;-1.002289
-1.616894;-0.348590
-1.743023;-0.040805
-1.756996;-0.012731
-1.763408;-0.000680
-1.767073;0.006729
-1.769166;0.012329
-1.770014;0.017925
-1.771034;0.032276
-1.771361;0.037133
-1.768238;0.044248
-1.008579;0.698262
-0.513512;1.194926
-0.478747;1.083664
-0.436996;0.989442
-0.392095;0.916478
-0.476384;-1.003489
-0.549286;-1.085369
-0.655480;-1.183216
-0.922481;-1.249280
-1.205822;-1.221195
-1.187872;-0.808161
-1.319451;-0.405089
-1.398609;-0.213715
-1.437514;-0.109456
-1.453881;-0.037149
-1.453900;0.024674
-1.437410;0.089229
-1.397654;0.169732
-1.310110;0.292862
-1.082769;0.560035
-0.524800;1.249067
-0.263679;1.619825
-0.361596;1.296020
-0.360293;1.127557
-0.333720;1.016824
-0.392373;-1.087583
-0.428504;-1.200315
-0.436975;-1.364504
-0.157997;-1.726725
-0.699202;-1.272337
-0.858584;-0.923799
-0.981755;-0.606398
-1.072214;-0.371003
-1.125434;-0.204151
-1.148067;-0.074425
-1.144193;0.042013
-1.111834;0.164707
-1.040446;0.316648
-0.905291;0.536711
-0.669710;0.891460
-0.363057;1.399653
-0.214068;1.696412
-0.282156;1.412420
-0.289819;1.228625
-0.274073;1.098431
-0.305746;-1.153907
-0.312902;-1.282728
-0.268304;-1.465394
-0.073813;-1.771377
-0.361869;-1.395485
-0.569892;-1.038038
-0.700296;-0.732641
-0.787161;-0.480375
-0.839364;-0.275639
-0.861032;-0.101487
-0.853814;0.061642
-0.815528;0.233813
-0.739473;0.438020
-0.616689;0.701950
-0.449140;1.046643
-0.276704;1.445981
-0.186959;1.744102
-0.219131;1.478808
-0.225975;1.296123
-0.215572;1.159002
-0.227381;-1.201678
-0.226035;-1.335066
-0.186152;-1.513497
-0.057945;-1.788598
-0.233122;-1.449128
-0.375211;-1.115898
-0.476905;-0.815122
-0.545827;-0.552350
-0.587153;-0.323792
-0.603263;-0.118188
-0.594762;0.079779
-0.560610;0.287255
-0.498929;0.522158
-0.410170;0.799840
-0.303258;1.122678
-0.197512;1.466966
-0.091945;1.783221
-0.158123;1.520250
-0.166882;1.340323
-0.158899;1.201418
-0.158877;-1.234591
-0.163328;-1.369083
-0.152376;-1.542427
-0.151379;-1.789962
-0.177409;-1.467153
-0.244401;-1.155609
-0.300858;-0.862037
0.000000;0.000000
0.000000;0.000000
0.000000;0.000000
0.000000;0.000000
0.000000;0.000000
-0.302019;0.573083
-0.249681;0.852976
-0.191544;1.159748
-0.135930;1.476609
-0.086222;1.794405
-0.112081;1.545092
-0.113774;1.368300
-0.104335;1.229320
-0.095666;-1.256174
-0.110541;-1.392542
-0.128425;-1.566517
-0.149709;-1.760190
-0.134199;-1.462184
-0.139741;-1.166256
-0.151351;-0.879997
0.000000;0.000000
0.000000;0.000000
0.000000;0.000000
0.000000;0.000000
0.000000;0.000000
-0.130060;0.597430
-0.112015;0.875343
-0.096299;1.172048
-0.086495;1.474876
-0.085410;1.777481
-0.078039;1.560897
-0.065626;1.384792
-0.051124;1.245525
-0.031882;-1.267812
-0.055620;-1.407553
-0.095380;-1.586173
-0.136834;-1.734307
-0.074858;-1.444582
-0.035642;-1.155682
-0.008783;-0.874503
0.000000;0.000000
0.000000;0.000000
0.000000;0.000000
0.000000;0.000000
0.000000;0.000000
0.033156;0.599814
0.019418;0.873668
-0.003848;1.164867
-0.036493;1.463073
-0.075947;1.761825
-0.047087;1.570409
-0.018559;1.392092
0.002805;1.251543
0.037080;-1.268869
0.008556;-1.412830
-0.041380;-1.600030
-0.079879;-1.710132
0.007701;-1.418131
0.082113;-1.127724
0.142006;-0.848425
0.000000;0.000000
0.000000;0.000000
0.000000;0.000000
0.000000;0.000000
0.000000;0.000000
0.201885;0.582229
0.158767;0.849926
0.098011;1.138898
0.021972;1.440438
-0.064961;1.746158
-0.015158;1.574062
0.031939;1.390464
0.060379;1.247462
0.114384;-1.257329
0.084138;-1.405108
0.022677;-1.600588
-0.010087;-1.696148
0.111629;-1.382766
0.223199;-1.081394
0.313389;-0.801140
0.000000;0.000000
0.000000;0.000000
0.000000;0.000000
0.000000;0.000000
0.000000;0.000000
0.389381;0.544451
0.320170;0.802486
0.222990;1.090938
0.100535;1.403316
-0.045795;1.727400
0.024900;1.571185
0.091962;1.378162
0.125043;1.231838
0.203135;-1.229994
0.177749;-1.380391
0.091097;-1.587968
0.039731;-1.674199
0.248283;-1.329250
0.400695;-1.010497
0.517322;-0.728331
0.601578;-0.486875
0.655911;-0.278686
0.683283;-0.091149
0.685336;0.089459
0.661367;0.276878
0.607953;0.484820
0.519140;0.726590
0.388572;1.013156
0.218205;1.345626
0.027975;1.704528
0.096022;1.556053
0.169028;1.349967
0.199880;1.201503
0.304330;-1.182078
0.305079;-1.328485
0.252168;-1.546034
0.225269;-1.626300
0.459223;-1.250910
0.630237;-0.904949
0.765227;-0.621806
0.858177;-0.401100
0.915242;-0.223605
0.943108;-0.070319
0.945232;0.075015
0.921308;0.227260
0.866921;0.401819
0.772433;0.615624
0.619881;0.889426
0.389020;1.250267
0.111599;1.694332
0.193680;1.511305
0.265996;1.296887
0.286023;1.152102
0.409746;-1.109870
0.451337;-1.235418
0.506786;-1.417382
0.603581;-1.644755
0.715105;-1.158691
0.922491;-0.740788
1.067202;-0.468734
1.153074;-0.287724
1.201942;-0.154267
1.225181;-0.044843
1.227633;0.057363
1.209644;0.165859
1.166996;0.296398
1.091231;0.467926
0.959075;0.696778
0.688475;1.050054
0.164602;1.663930
0.319389;1.419124
0.386016;1.208187
0.381813;1.079840
0.504909;-1.016463
0.577485;-1.105983
0.663432;-1.229609
0.682439;-1.500648
1.011504;-0.954348
1.322313;-0.447806
1.429372;-0.262207
1.478643;-0.150875
1.506411;-0.073939
1.519603;-0.016833
1.522022;0.037925
1.515049;0.095979
1.494924;0.169339
1.458896;0.299325
1.423906;0.455989
1.342835;0.602588
0.525882;1.400851
0.559383;1.213622
0.528473;1.074766
0.479649;0.985141
0.579525;-0.911918
0.671405;-0.959986
0.793085;-1.003342
0.973919;-1.013525
1.587608;-0.301139
1.714462;-0.126012
1.749215;-0.085237
1.765042;-0.014046
1.766555;-0.001762
1.766524;0.004771
1.764678;0.024430
1.757734;0.040293
1.748191;0.055082
1.728229;0.130917
1.624244;0.363953
1.470094;0.483568
1.144769;0.741549
0.802148;0.922865
0.652418;0.917266
0.563365;0.877921
0.629305;-0.808358
0.726031;-0.822381
0.853068;-0.809574
1.028125;-0.725022
1.238420;-0.518645
1.384063;-0.326661
1.460697;-0.208268
1.501116;-0.123781
1.520765;-0.062064
1.528686;-0.013625
1.527392;0.033770
1.516273;0.085184
1.493123;0.149807
1.447441;0.250970
1.360248;0.381690
1.225636;0.513685
1.042928;0.650899
0.857242;0.747623
0.718188;0.779221
0.619774;0.773679
0.655895;-0.714533
0.745598;-0.708176
0.853889;-0.676215
0.979500;-0.602996
1.106634;-0.487063
1.209634;-0.361055
1.279902;-0.252756
1.323656;-0.164106
1.348311;-0.090200
1.359029;-0.025162
1.358036;0.037470
1.345188;0.103323
1.318130;0.178568
1.271295;0.268667
1.198111;0.370231
1.097050;0.473113
0.974923;0.566483
0.849606;0.635020
0.739302;0.671196
0.649415;0.681633
