16;8
17.502840;-37.237934
19.000000;-41.000000
13.328325;-37.356674
-5.169403;-31.164665
-29.151365;-29.925472
-48.072884;-35.634377
-55.000000;-41.000000
-50.643116;-36.602863
19.057987;-28.915272
16.704693;-36.606892
6.770600;-28.633600
-8.491522;-22.179853
-24.742483;-19.656282
-39.073109;-22.407177
-49.740028;-33.787239
-42.529129;-24.811871
27.545881;-23.940647
16.441431;-27.207247
4.814599;-19.819427
-9.361862;-13.775617
-23.168102;-9.748184
-34.830353;-8.190767
-40.911766;-15.643145
-36.237801;-10.768026
39.852253;-26.115763
23.665882;-21.921906
7.821824;-14.583179
-8.680857;-7.648822
-23.475365;-1.722811
-35.173004;3.285589
-35.982243;3.412397
-33.344997;1.843243
47.000000;-30.000000
37.210621;-24.845337
16.138718;-14.645995
-6.390438;-4.419658
-25.198919;4.420645
-38.757408;12.228074
-35.154137;20.379213
-33.106899;12.868155
39.072334;-22.184967
20.033550;-12.294711
-1.477356;-2.628096
-21.260777;6.025307
-36.584221;13.850305
-47.102482;21.253304
-36.688210;40.993320
-36.099625;25.627968
30.295620;-6.467352
8.636802;-0.609614
-13.922829;6.877091
-32.830372;14.395365
-46.007786;21.613350
-53.000000;26.000000
-33.000000;65.000000
-37.014194;42.606098
42.340717;-0.293732
16.594553;0.374703
-10.632157;2.212811
-33.981617;3.817499
-52.839756;4.039684
-68.000000;0.000000
s
-42.245667;12.191557
55.000000;0.000000
40.059593;0.405590
9.856016;-0.819855
-17.332655;-3.522414
-35.617565;-6.926107
-46.351536;-10.959614
-36.595436;-24.817476
-35.482506;-12.572180
43.206219;4.747996
21.681347;1.837088
-2.110409;-5.324190
-21.716887;-14.516267
-33.270927;-24.283638
-36.000000;-29.000000
-33.000000;-62.000000
-33.228073;-41.816933
38.235806;23.344574
24.085623;13.782629
5.172459;4.689540
-13.123796;-4.574166
-26.966736;-14.077361
-34.657623;-23.875223
-32.682476;-39.888584
-31.045055;-24.037127
42.000000;33.000000
35.343044;27.586348
18.449772;17.521902
-1.041301;7.214638
-17.696846;-2.388537
-29.229540;-11.793927
-29.229948;-17.470942
-27.224043;-9.337411
37.955162;30.785700
27.059536;24.756575
12.558755;17.974024
-2.603195;11.473525
-15.964302;5.661441
-26.111486;0.367284
-27.335674;3.300820
-25.591724;4.458908
34.611446;37.106628
24.279228;30.055126
11.272840;23.857100
-2.371034;19.055868
-14.633426;16.248983
-24.165527;16.070080
-27.311106;28.151476
-25.158504;21.022451
38.905296;52.579807
28.353203;42.027889
14.188518;33.952740
-0.883972;29.529484
-14.406559;29.733730
-24.652811;35.860977
-29.859489;52.360149
-26.673111;39.968395
43.000000;60.000000
37.277054;54.771309
21.468340;45.990852
1.329443;41.430431
-16.811615;44.576401
-28.503164;54.505909
-32.000000;62.000000
-29.903883;56.025379
