26;11
-98.251015;-89.351524
-97.190948;-95.065315
-95.981522;-100.668701
-94.797508;-106.008522
-93.603043;-109.652229
-93.000000;-111.000000
-93.978905;-109.642998
-97.595734;-106.625839
-104.281693;-104.483261
-107.134636;-97.021584
-109.965736;-89.109673
-100.633347;-81.976822
-99.716614;-87.726219
-98.562820;-93.695045
-97.379974;-100.299194
-95.726738;-105.780922
-93.960899;-109.588814
-97.517998;-106.147377
-104.139282;-103.742493
-112.730537;-105.322411
-114.044510;-95.963440
-115.928879;-86.704163
-103.305473;-75.290482
-102.700287;-80.824127
-101.865959;-86.717964
-101.139549;-93.962288
-99.666634;-100.482094
-97.443596;-105.936562
-103.960808;-102.801216
-112.509148;-104.336021
-120.701195;-111.103432
-120.361534;-99.488091
-121.259773;-88.148880
-106.147575;-70.100151
-105.974403;-75.465782
-105.668549;-81.243210
-105.793678;-88.902321
-105.219048;-96.013123
-103.801636;-102.389732
-112.229073;-103.071808
-120.463043;-110.148514
-126.354683;-120.284012
-125.219009;-107.412766
-125.484924;-93.690033
-109.054520;-67.029999
-109.373077;-72.541725
-109.705727;-78.563362
-110.872025;-86.938141
-111.617340;-94.938065
-111.996674;-102.522545
-120.157852;-108.909401
-126.187866;-119.644257
-129.252625;-129.069412
-128.296188;-118.016533
-128.385315;-102.904335
-111.951569;-66.485207
-112.766663;-72.620102
-113.745407;-79.488152
-115.886452;-89.177498
-117.859276;-98.773117
-119.917938;-108.372383
-125.970634;-118.800621
-129.195602;-128.851349
-130.000000;-133.000000
-129.719223;-128.165573
-129.921783;-114.699333
-110.948227;-52.388802
-111.646591;-57.815983
-112.469826;-63.986629
-114.836632;-73.799416
-116.850937;-83.625015
-118.673279;-93.672386
-124.102951;-103.235008
-127.891434;-116.509560
-129.661743;-127.947968
-129.734421;-112.831894
-131.572647;-91.630775
-110.077644;-37.838047
-110.691093;-42.322060
-111.404533;-47.464962
-114.159035;-56.941708
-116.432091;-66.398567
-118.337128;-76.121750
-123.230293;-83.507584
-127.203850;-96.938118
-129.503326;-112.001251
-131.155365;-87.908974
-135.352921;-63.009815
-109.364563;-23.315882
-109.928329;-26.730040
-110.580299;-30.650478
-113.878365;-39.426445
-116.607826;-47.996246
-118.870399;-56.651546
-123.529358;-61.236084
-127.794861;-72.446815
-130.663147;-86.332390
-134.628754;-57.869804
-141.112656;-34.905003
-108.838821;-9.299980
-109.395508;-11.642261
-110.043709;-14.313074
-114.044807;-22.199163
-117.422951;-29.581291
-120.300331;-36.689476
-125.092377;-38.588211
-129.999054;-46.510059
-133.858017;-55.805096
-140.070923;-29.444248
-147.909286;-13.160145
-108.532974;3.778477
-109.134529;2.390426
-109.849785;0.829973
-114.722725;-6.194055
-118.939880;-12.386887
-122.672272;-17.896845
-127.948463;-17.917511
-133.858780;-22.963264
-139.110077;-27.366114
-146.711304;-8.489239
-154.381561;-0.605700
-108.482002;15.562681
-109.191582;14.911795
-110.061043;14.183099
-115.989449;7.776700
-121.233627;2.466613
-126.033546;-1.858698
-132.074203;-1.292017
-139.171356;-4.963078
-145.761932;-6.807942
-153.390610;2.506718
-159.154190;3.774509
-108.725632;25.780752
s
-110.753365;25.300373
-117.943619;19.078806
-124.399391;14.084986
-130.436279;10.150155
-137.407349;9.832167
-145.536758;5.719162
-152.708511;3.556689
-158.732300;4.967952
-161.000000;4.000000
-102.521637;38.212944
-102.671776;38.811573
-102.873764;39.455517
-110.529099;33.130993
-117.166077;28.082872
-123.065651;24.071543
-129.363922;23.763695
-137.528625;17.401878
-145.055359;12.448339
-152.518890;12.454939
-158.946548;5.832447
-96.353645;50.939240
-95.762505;52.423248
-95.036278;54.104816
-103.309456;48.172699
-110.270500;43.722168
-116.147636;40.538441
-121.792122;41.305805
-129.730621;34.452656
-136.932770;29.213430
-143.887085;30.071491
-152.974213;14.774411
-90.299568;63.469284
-88.989586;65.789261
-87.363808;68.439217
-96.466705;63.245781
-103.964066;59.825348
-110.017792;58.043514
-115.229164;60.436474
-122.996765;54.538086
-129.701904;51.420040
-135.266922;56.016354
-144.314819;33.499725
-84.412865;75.367912
-82.412308;78.365929
-79.920341;81.766869
-90.142662;77.508713
-98.473549;75.323593
-104.989197;75.156952
-110.127480;79.169014
-118.080414;74.960121
-124.605659;75.121071
-129.141037;83.841919
-135.500671;59.668880
-78.706451;86.281364
-76.028740;89.725143
-72.674255;93.564323
-84.406563;90.314026
-93.971809;89.376968
-101.313675;90.724846
-106.802429;95.910278
-115.530960;93.317360
-122.430870;96.264954
-126.688698;106.299301
-129.224319;86.675232
-73.137260;95.950562
-69.752098;99.568977
-65.461342;103.490608
-79.231697;101.240791
-90.574142;101.435318
-99.183327;103.977776
-105.446808;109.631248
-115.667145;107.909691
-123.222847;111.886086
-127.120720;119.292000
-126.715591;107.773041
-67.588158;104.209343
-63.381485;107.721344
-57.936600;111.364082
-74.471809;110.079536
-88.366699;111.230408
-98.784729;114.521172
-106.230774;119.803192
-118.587761;117.767044
-125.992744;120.626289
-128.000000;123.000000
-127.128601;119.668274
-56.470852;109.993210
-50.680416;113.367714
-43.353813;116.648979
-60.366581;115.770538
-75.710167;117.468689
-86.825493;121.825775
-93.088631;128.853577
-106.259659;120.307007
-118.619041;118.046768
-125.998848;121.001961
-123.235519;114.460716
-46.014671;115.302704
-39.130207;118.151070
-30.931227;120.479271
-47.673767;120.935921
-65.183670;124.505730
-78.048424;131.421066
-84.093620;140.866028
-93.088791;129.302948
-106.281738;120.692368
-118.607079;119.062714
-115.632889;112.267365
-36.440617;119.415901
-29.061106;121.234627
-21.415863;122.072678
-36.284145;124.097656
-57.518208;130.705185
-74.314568;141.063431
-81.284927;150.855148
-84.084373;141.127579
-93.088913;129.650604
-106.200974;122.044266
-105.261398;115.259476
-27.861813;121.835533
-20.965704;122.266251
-17.000000;122.000000
-25.287058;124.176666
-52.681232;135.181534
-76.580742;149.622131
-82.000000;155.000000
-81.281609;150.929413
-84.077148;141.331863
-92.962257;130.828064
-94.403610;123.071342
-34.606663;120.458046
-27.861813;121.835533
-20.965704;122.266251
-34.702969;124.833115
-55.316631;132.064194
-72.636650;142.553543
-80.615990;151.570007
-80.783791;143.726868
-85.041321;133.833771
-93.172600;125.272346
-94.684708;117.955383
-40.538521;118.435875
-34.606663;120.458046
-27.861813;121.835533
-41.888477;123.670952
-58.039375;128.567780
-71.383980;136.284424
-79.138786;145.189514
-80.919350;136.590866
-85.895401;127.372650
-93.301842;120.331688
-94.925613;113.422966
