20;20;0.650000;0.650000
6.686338;6.487340
-0.413400;-0.761230
-0.459268;-0.846339
-0.564215;-0.801087
-0.718792;-0.658145
-0.809627;-0.601452
-0.902599;-0.516815
-1.050375;-0.344456
-1.172387;-0.210946
-1.263235;-0.108852
-1.255364;0.031210
-1.090995;0.379305
-1.060370;0.454088
-1.056991;0.382883
-1.082653;0.313111
-1.132082;0.248948
-1.181120;0.196588
-1.216621;0.149452
-1.230360;0.112037
-1.147317;0.156803
-0.944804;0.291445
-0.373407;-0.916711
-0.357463;-1.206194
-0.494255;-1.159633
-0.965454;-0.678853
-1.034389;-0.698716
-1.106202;-0.709851
-1.607559;-0.360618
-1.619413;-0.312145
-1.464065;-0.155265
-1.329243;0.122604
-1.176551;0.658446
-1.163578;0.809404
-1.172808;0.471314
-1.223098;0.300676
-1.339250;0.138833
-1.437558;0.025997
-1.542544;-0.128207
-1.709210;-0.356760
-1.463067;-0.093011
-1.003289;0.308034
-0.322263;-1.037312
-0.291639;-1.357120
-0.552719;-1.156063
-1.154841;-0.639934
-0.861002;-0.852446
-0.649134;-1.016085
-0.957538;-0.469619
-1.037890;-0.195259
-1.170407;0.130154
-1.573621;0.616781
-1.437707;0.463555
-1.361968;0.655509
-1.387018;0.492318
-1.448703;0.237148
-1.556421;0.019403
-1.549412;0.264124
-1.502284;0.208065
-1.454610;0.209084
-1.280031;0.286727
-0.983736;0.412204
-0.261913;-1.126085
-0.198209;-1.461068
-0.283305;-1.327400
-0.520844;-1.002779
-0.460474;-1.103455
-0.424917;-1.115768
-0.726527;-0.493714
-0.863853;-0.167053
-0.970060;0.076501
-1.096301;0.279024
-1.260241;0.415268
-1.427010;0.559598
-1.373473;0.800091
-1.339021;0.448500
-1.320949;0.354023
-1.363646;0.382210
-1.470692;0.522520
-1.487910;0.567315
-1.266324;0.519279
-0.929214;0.551112
-0.213715;-1.180888
-0.123893;-1.541436
-0.109333;-1.463075
-0.449641;-1.190800
-0.441434;-1.220843
-0.409188;-1.064258
-0.750673;-0.416119
-0.907452;-0.116316
-0.976777;0.063385
-1.019508;0.198228
-1.058216;0.302073
-1.094800;0.390182
-1.137442;0.477648
-1.226812;0.573757
-1.439057;0.652485
-0.940355;0.581347
-0.929755;0.655578
-0.789414;0.961765
-1.127608;0.754945
-0.777599;0.694167
-0.193519;-1.182445
-0.133796;-1.566216
-0.045837;-1.527051
-0.629315;-1.426473
-0.436879;-1.120355
-0.466755;-0.906383
-1.603130;-0.062488
-1.642981;-0.006864
-1.704209;-0.061722
-1.698487;-0.044551
-1.592982;0.022081
-1.474380;0.073949
-1.301501;0.206682
-1.394492;0.514960
-0.828941;0.938872
-0.570970;0.791294
-0.532751;0.881775
-0.211633;1.565807
-0.479829;1.027788
-0.499430;0.832257
-0.189218;-1.123736
-0.155551;-1.414982
0.025781;-1.612662
-0.524492;-1.336136
-0.407497;-0.928710
-0.249614;-1.137408
-1.026963;0.737049
-0.879278;0.235632
-0.800442;0.284250
-0.551072;0.693896
-0.512261;0.609323
-0.356200;0.609819
0.204336;0.996696
0.059254;0.976696
0.057227;1.517794
-0.247106;0.965563
-0.283822;1.010722
-0.160160;1.547099
-0.258302;1.172114
-0.296306;0.945707
-0.184025;-1.049765
-0.211338;-1.259287
0.022973;-1.695032
-0.323132;-1.184045
-0.343473;-0.852372
-0.277481;-1.025743
-1.078985;0.574293
-1.177382;1.204084
-0.696443;0.552958
-0.315374;0.946069
-0.149726;0.845656
0.236013;0.882880
0.584128;1.118773
0.813316;1.162035
-0.070877;1.644169
-0.058614;1.050758
-0.109393;1.080481
-0.106647;1.522359
-0.126772;1.254315
-0.148471;1.029256
-0.155840;-0.989813
-0.268000;-1.241872
-0.104153;-1.567871
-0.176970;-1.134952
-0.270801;-0.841979
-0.236121;-1.126173
-0.612298;-0.167041
-1.247127;0.915879
-1.076953;1.086663
-0.343325;0.917812
0.061465;0.848983
0.914163;1.403382
0.944743;1.103327
0.374258;0.948436
-0.110174;1.748932
0.058528;1.089226
0.036907;1.128415
-0.030769;1.498882
-0.012276;1.317149
-0.025575;1.097289
-0.084041;-0.911748
-0.112986;-1.102449
0.052924;-1.433091
-0.049422;-1.146975
-0.193523;-0.870628
-0.214487;-1.238028
-0.512010;-0.435143
-0.763118;0.161003
-0.989434;0.678498
-0.640310;0.711568
0.267905;0.518149
1.017012;0.937847
0.819645;0.554596
0.552209;0.719023
-0.034578;1.502397
0.164826;1.111653
0.194584;1.193136
0.195160;1.496862
0.139623;1.382923
0.079359;1.156209
0.009535;-0.828762
0.018151;-0.986169
0.104172;-1.316716
0.054410;-1.204610
-0.112095;-0.915569
-0.179715;-1.386481
-1.011270;-0.289342
-1.321170;-0.012179
-1.388415;0.059457
-1.385437;0.058563
0.520290;-0.046139
1.335075;0.114082
1.496855;0.169313
1.601174;0.189008
0.606538;0.952908
0.254213;1.144841
0.364233;1.303699
0.591504;1.572065
0.188274;1.423525
0.146680;1.196433
0.110141;-0.753659
0.117107;-0.903655
0.151450;-1.214486
0.142454;-1.288550
-0.018261;-0.960780
-0.130287;-1.558044
-0.294650;-0.654548
-0.472089;-0.361174
-0.602706;-0.393584
-1.432907;-0.988829
0.361824;-0.592625
1.131221;-0.790373
0.846171;0.023284
0.669658;0.456150
0.232927;1.162789
0.296743;1.208827
0.572022;1.428007
0.323463;1.531445
0.165322;1.441455
0.178118;1.215106
0.229524;-0.677330
0.234187;-0.818914
0.227576;-1.108988
0.219983;-1.392895
0.090718;-0.982803
-0.124342;-1.769137
-0.252271;-0.739243
-0.749047;-0.696854
-0.710292;-0.657172
-0.038249;-0.666893
0.272130;-0.725266
0.705239;-0.314226
1.344707;-1.143155
0.735733;0.155985
0.319542;1.055832
0.350126;1.257799
0.559704;1.477689
0.256532;1.486991
0.142391;1.455670
0.195103;1.221393
0.390801;-0.588724
0.409767;-0.710398
0.364269;-0.976001
0.276397;-1.538601
0.243210;-0.949660
-0.009222;-1.755800
-1.358591;-0.982768
-0.216232;-0.550503
0.174354;-0.358863
0.332494;-0.566068
0.405529;-0.700305
0.712126;-0.114462
0.862845;-0.056013
1.162515;-0.668954
0.503873;0.922846
0.388695;1.230969
0.438324;1.640488
0.239673;1.451201
0.128376;1.474191
0.210693;1.222442
0.638905;-0.481135
0.750928;-0.552118
0.647451;-0.770263
0.287745;-1.680750
0.506728;-0.813299
1.224072;-1.050863
0.796296;-0.534211
0.869322;-0.214768
0.978677;-0.095175
1.013632;-0.134629
1.039461;-0.187881
1.207447;0.042399
1.250366;0.131100
1.237535;0.305933
1.542072;0.725657
0.561050;1.131472
0.450587;1.521104
0.356433;1.489704
0.127164;1.498062
0.230852;1.217172
0.940821;-0.374270
1.706781;-0.337977
1.396812;-0.424938
0.701801;-1.142515
0.968047;-0.530764
0.902468;-0.374009
1.010937;-0.247360
1.103529;-0.057740
1.121180;0.054454
1.114465;0.179125
1.153262;0.590079
1.142593;0.229942
1.135699;0.233851
1.065857;0.390771
0.858766;0.678972
0.612293;1.095925
0.522066;1.415401
0.386626;1.457044
0.124743;1.513658
0.260073;1.187989
0.880537;-0.269863
1.079659;-0.268556
1.162709;-0.286722
1.191221;-0.323418
1.309785;-0.202737
1.253813;0.021359
1.330136;0.216587
1.181442;0.199940
1.158495;0.320249
1.152494;0.711868
1.143214;0.601495
1.116169;0.302666
1.101622;0.290614
1.058501;0.388870
0.957423;0.576342
0.757255;0.927429
0.620358;1.538788
0.442146;1.309897
0.250146;1.335572
0.312258;1.101457
0.915660;-0.116676
1.176080;0.032142
1.344668;0.149816
1.505370;0.293438
1.632186;0.418371
1.481706;0.324114
1.597775;0.433213
1.489563;0.424703
1.341429;0.575946
1.557305;0.306730
1.650979;0.123510
1.697271;0.085535
1.736861;0.071884
1.781421;0.057000
1.756716;0.076143
1.380218;0.440618
0.646570;1.413121
0.529337;1.133587
0.423259;1.061610
0.371769;0.982476
0.962925;-0.007192
1.521769;0.356908
1.380293;0.249216
1.262151;0.166554
1.207263;0.151491
1.267417;0.231803
1.216727;0.262772
1.152029;0.381090
1.175277;0.726112
1.187006;0.386644
1.185133;0.284969
1.170469;0.264802
1.142743;0.297962
1.090039;0.391653
0.976154;0.614500
0.730070;1.244243
0.653208;1.208194
0.559192;1.005286
0.471566;0.933400
0.408654;0.882365
0.843915;-0.024242
0.993466;0.052415
1.035486;0.074910
1.023472;0.077351
1.016385;0.099023
1.021920;0.143728
1.012800;0.197643
1.000195;0.273797
1.001245;0.337515
0.996046;0.321813
0.982350;0.304217
0.960486;0.317488
0.927592;0.369998
0.875570;0.479983
0.788635;0.721664
0.634694;1.679824
0.632159;1.022061
0.556556;0.888395
0.484341;0.835094
0.425330;0.799717
