20;20;0.100000;0.150000
1.538689;1.190569
0.000000;0.000000
0.000000;0.000000
0.000000;0.000000
0.000000;0.000000
-1.551270;0.052690
-1.510079;0.131517
-1.409213;0.305885
-1.335924;0.361232
-1.661884;0.313259
-1.543043;0.313811
-0.515551;0.775172
0.862700;0.771894
1.220779;0.550288
1.162715;0.592319
1.442087;0.461836
1.613678;0.238991
0.000000;0.000000
0.000000;0.000000
0.000000;0.000000
0.000000;0.000000
0.000000;0.000000
0.000000;0.000000
0.000000;0.000000
-1.784774;-0.076397
-1.767572;0.009104
-1.753025;-0.032281
-1.734120;0.349855
-1.481768;0.541887
-1.306750;0.469994
-1.018396;0.593680
-1.180286;0.982615
1.177612;1.003186
1.152380;0.699549
1.438823;0.717294
1.546987;0.589208
1.571484;0.257610
1.566594;0.088957
1.501205;-0.419962
0.000000;0.000000
0.000000;0.000000
0.000000;0.000000
0.000000;0.000000
-1.541189;-0.095917
-1.535853;-0.015889
-1.501316;0.063539
-1.451627;0.156426
-1.414578;0.339874
-1.436387;0.573524
-1.585366;0.656495
-0.851663;0.808086
0.726288;1.298029
0.776339;0.953900
1.351028;0.942983
1.334427;0.710539
1.277411;0.504287
1.307805;0.302666
1.329275;0.134914
1.314184;-0.114279
0.000000;0.000000
0.000000;0.000000
0.000000;0.000000
0.000000;0.000000
-1.324717;0.013941
-1.340948;0.050325
-1.308855;0.109918
-1.252125;0.192707
-1.187847;0.317314
-1.140287;0.472944
-1.121243;0.667347
-1.439702;1.080365
0.083899;1.049309
0.883120;1.117721
1.076130;0.902940
1.063305;0.628245
1.103276;0.451908
1.153232;0.311437
1.180583;0.189588
1.169873;0.066993
1.108390;0.020747
0.000000;0.000000
0.000000;0.000000
-1.133558;0.068948
-1.199451;0.069049
-1.217654;0.091650
-1.193294;0.130344
-1.134738;0.186237
-1.049060;0.270776
-0.943328;0.392792
-0.818139;0.580641
-0.729044;0.963084
-0.197218;1.071272
0.872746;1.325572
0.834304;0.762804
0.934612;0.526370
1.032622;0.392575
1.102082;0.302297
1.123933;0.226953
1.100177;0.156409
1.048427;0.119123
0.000000;0.000000
-1.023544;0.092592
-1.090277;0.092347
-1.145332;0.098215
-1.175613;0.113012
-1.166011;0.132123
-1.108466;0.157081
-1.004686;0.203656
-0.851105;0.289697
-0.652199;0.436335
-0.434338;0.672977
0.041732;0.862989
0.610731;0.915393
0.753248;0.566822
0.935558;0.407067
1.078396;0.333094
1.168344;0.293913
1.169353;0.256454
1.094985;0.204512
1.027965;0.172939
0.000000;0.000000
-1.014496;0.103651
-1.077493;0.108568
-1.145118;0.116202
-1.217035;0.126812
-1.239106;0.130722
-1.185579;0.118917
-1.074149;0.123122
-0.877972;0.165807
-0.594036;0.264067
-0.285317;0.394294
0.103125;0.498871
0.501436;0.487914
0.829939;0.349410
1.079679;0.296185
1.252702;0.298650
1.375170;0.312072
1.355174;0.314091
1.129298;0.234906
1.031649;0.208579
0.973828;0.202313
-1.016953;0.113851
-1.084790;0.122640
-1.178112;0.131241
-1.352429;0.142014
-1.428084;0.154114
-1.372196;0.082005
-1.282611;0.041471
-1.070731;0.025793
-0.625007;0.091337
-0.235471;0.151652
0.133088;0.195812
0.558364;0.198327
1.142430;0.149650
1.392400;0.243912
1.567856;0.331158
1.727842;0.391744
1.551814;0.385952
1.152475;0.250057
1.046310;0.241525
0.991044;0.244141
-1.027904;0.124685
-1.102590;0.138749
-1.210993;0.148942
-1.545686;0.143604
-1.725014;0.308548
-1.681360;0.026679
-1.667990;-0.010531
-1.633473;-0.224363
-0.679961;-0.060940
-0.219542;-0.075282
0.157845;-0.073121
0.604943;-0.022533
1.596114;0.019939
1.576496;0.243419
1.484650;0.278446
1.417908;0.277492
1.296715;0.264706
1.141435;0.255742
1.069023;0.289358
1.021903;0.307250
-1.045024;0.137070
-1.128048;0.161019
-1.228026;0.179196
-1.379625;0.174714
-1.491967;0.170113
-1.502117;0.049481
-1.428996;-0.020294
-1.213430;-0.114951
-0.644651;-0.195151
-0.213374;-0.315823
0.185758;-0.365012
0.566934;-0.260659
0.981158;-0.089302
1.171814;0.049175
1.218970;0.126945
1.223997;0.169184
1.189462;0.209064
1.140960;0.278861
1.108675;0.380759
1.070688;0.421537
-1.066243;0.150445
-1.166055;0.192352
-1.273901;0.239597
-1.325247;0.237127
-1.329924;0.172314
-1.287942;0.068343
-1.176552;-0.036666
-0.953014;-0.162044
-0.607515;-0.345679
-0.251954;-0.607427
0.302264;-0.751148
0.615537;-0.551852
0.829286;-0.303340
1.008356;-0.119448
1.110847;-0.000788
1.162048;0.086211
1.178679;0.185037
1.179390;0.336994
1.173634;0.557908
1.143216;0.657296
-1.087390;0.161707
-1.214832;0.228000
-1.417392;0.352527
-1.414175;0.381763
-1.324673;0.271417
-1.241256;0.104089
-1.119294;-0.050082
-0.924579;-0.229119
-0.665894;-0.492134
-0.419557;-0.940425
0.549909;-1.092911
0.860630;-0.858122
0.880015;-0.504619
1.024085;-0.253049
1.137915;-0.093176
1.206225;0.027741
1.240422;0.182551
1.259261;0.430292
1.254521;0.823450
1.221768;1.078937
-1.102259;0.165928
-1.243159;0.245541
-1.595043;0.457393
-1.590907;0.664943
-1.420590;0.473374
-1.326644;0.168291
-1.217689;-0.033784
-1.047486;-0.257901
-0.848204;-0.596185
-0.774684;-1.137404
0.055659;-1.052606
1.241104;-1.111440
1.078139;-0.663108
1.179892;-0.326224
1.282181;-0.140357
1.339523;-0.017204
1.359725;0.186890
1.376158;0.558889
1.419515;1.011640
1.225690;0.835310
-1.108813;0.160537
-1.230872;0.229094
-1.396066;0.355204
-1.482183;0.547298
-1.542730;0.925639
-1.540252;0.197680
-1.466699;0.048800
-1.326665;-0.203530
-1.222468;-0.640256
-0.981487;-1.086092
-0.344494;-1.406926
0.728400;-0.935688
1.662754;-0.595347
1.510507;-0.284331
1.562096;-0.129078
1.570752;-0.073866
1.537382;0.152695
1.563487;0.756827
1.376691;0.745415
1.224695;0.577382
-1.112781;0.148206
-1.215047;0.196889
-1.312436;0.267022
-1.374691;0.352644
-1.439677;0.422475
-1.597832;0.150288
-1.621035;0.122555
-1.640640;-0.096948
-1.322061;-0.602682
-0.646293;-0.950908
-0.405427;-1.530276
0.707305;-1.046605
1.116585;-0.613725
1.432583;-0.294204
1.552850;-0.132041
1.620935;-0.080835
1.653923;0.021616
1.480548;0.409252
1.341209;0.405524
1.210055;0.369569
-1.121389;0.134084
-1.225477;0.167955
-1.309835;0.202691
-1.347227;0.225537
-1.364954;0.204922
-1.377513;0.086630
-1.336606;-0.051030
-1.228348;-0.260086
-0.963071;-0.582229
-0.563608;-1.029266
-0.214956;-1.311018
1.454947;-1.037641
1.181549;-0.617618
1.327793;-0.321166
1.437748;-0.123269
1.516513;0.032333
1.566974;0.093420
1.504677;-0.014990
1.342956;0.105856
0.000000;0.000000
0.000000;0.000000
-1.273250;0.152804
-1.400299;0.179949
-1.419231;0.178015
-1.390018;0.134208
-1.343588;0.036409
-1.265175;-0.111189
-1.138203;-0.324242
-0.944284;-0.625294
-0.756922;-1.111382
-0.253771;-1.124697
0.753125;-0.831540
1.526026;-0.585673
1.672729;-0.252653
1.656338;-0.065274
1.728415;0.258050
1.699213;0.153133
1.592199;-0.686488
1.367406;-0.144707
0.000000;0.000000
0.000000;0.000000
-1.342414;0.151641
-1.625398;0.214000
-1.597330;0.209035
-1.533219;0.160092
-1.462216;0.063667
-1.372613;-0.089510
-1.273537;-0.331138
-1.193289;-0.642247
-1.185381;-1.242054
-0.314152;-0.907286
0.463625;-0.691010
1.035738;-0.497473
1.346836;-0.278304
1.477403;-0.085951
1.485844;0.070425
1.461986;0.037222
1.430863;-0.195101
0.000000;0.000000
0.000000;0.000000
0.000000;0.000000
0.000000;0.000000
-1.650500;0.215803
-1.707392;0.249583
-1.769479;0.283676
-1.721661;0.181228
-1.649645;0.056842
-1.629604;-0.298470
-1.569449;-0.641375
-0.963581;-0.813111
-0.308980;-0.727194
0.290750;-0.592237
0.755660;-0.446339
1.050992;-0.289820
1.208977;-0.144684
1.271839;-0.041161
1.284016;-0.026036
0.000000;0.000000
0.000000;0.000000
0.000000;0.000000
0.000000;0.000000
0.000000;0.000000
0.000000;0.000000
0.000000;0.000000
-1.530667;0.140996
-1.542697;0.088169
-1.538638;-0.014329
-1.445414;-0.278455
-1.186050;-0.491850
-0.773395;-0.606163
-0.285587;-0.592351
0.184080;-0.511224
0.569164;-0.404508
0.840131;-0.287609
1.006875;-0.177949
1.094315;-0.096842
0.000000;0.000000
0.000000;0.000000
0.000000;0.000000
0.000000;0.000000
