20;20;0.650000;0.650000
6.773620;6.396204
1.018141;-1.111039
0.731769;-0.962723
0.415099;-0.816071
0.164495;-0.726088
-0.026834;-0.691983
-0.170713;-0.687556
-0.320363;-0.587845
-0.500886;-0.406221
-0.651131;-0.225964
-0.737528;-0.069103
-0.764526;0.061083
-0.739682;0.155010
-0.691489;0.170117
-0.682270;0.085700
-0.732570;-0.054482
-0.826939;-0.218678
-0.951208;-0.399345
-0.995707;-0.471572
-0.715338;-0.160144
-0.548738;-0.006148
0.841468;-1.023570
1.204696;-1.222060
0.682022;-0.977109
0.288983;-0.837883
0.016737;-0.829010
-0.101270;-1.112007
-0.298637;-0.881020
-0.700001;-0.506334
-0.983136;-0.225082
-1.096294;-0.041993
-1.112652;0.120204
-1.019942;0.298826
-0.806317;0.364905
-0.766101;0.135045
-0.871752;-0.151961
-1.060718;-0.467774
-1.360256;-0.897776
-1.139860;-0.606255
-0.771412;-0.149345
-0.593054;0.017928
0.493092;-0.859082
0.774560;-1.019950
1.182345;-1.217727
0.502972;-0.958766
0.076154;-0.916486
-0.063151;-1.308805
-0.240216;-1.095826
-0.592954;-1.080885
-1.285252;-0.199898
-1.311913;-0.020796
-1.296458;0.178877
-1.200327;0.474661
-0.785108;0.846731
-0.849219;0.146081
-1.109169;-0.446021
-1.366967;-0.883563
-1.082015;-0.425705
-0.918890;-0.178610
-0.782519;-0.016421
-0.646237;0.075340
0.220009;-0.752120
0.326310;-0.837889
0.560421;-0.966630
1.134447;-1.207153
0.202999;-0.950331
-0.084337;-1.249058
-0.201872;-1.125094
-0.127357;-1.421474
-0.568396;-0.249143
-0.642298;0.198976
-0.390673;1.009613
-0.619592;0.797605
-0.685545;1.467649
-1.096421;-0.253464
-1.157422;-0.452730
-1.048322;-0.154253
-1.034741;-0.039357
-1.012463;0.028246
-0.968523;0.074628
-0.812108;0.118871
0.007478;-0.691157
-0.038317;-0.722177
-0.113646;-0.732981
0.006885;-0.804169
1.043384;-1.184457
-0.220650;-1.090999
-0.284057;-1.023146
-0.135303;-1.326764
-0.608064;0.676898
-0.465136;0.459603
-0.195309;1.305978
-0.423480;0.891786
-0.649507;1.127098
-0.798646;0.632051
-0.929093;0.212617
-1.764058;-0.014576
-1.763419;-0.015033
-1.724660;-0.007520
-1.741890;-0.009665
-1.491727;0.038659
-0.134490;-0.678897
-0.285299;-0.685640
-0.755080;-0.546336
-1.612701;-0.194212
-1.398445;-0.294028
-0.882026;-0.584804
-0.687051;-0.698701
-0.211386;-1.305649
-0.658540;0.921344
-0.471191;0.709010
-0.167316;1.318171
-0.319475;0.899572
-0.584037;0.770426
-1.532324;0.742078
-1.103186;0.514674
-0.992869;0.214280
-1.013147;0.121817
-0.982585;0.139293
-0.725599;0.258384
-0.534851;0.278740
-0.197891;-0.718849
-0.375679;-0.758283
-0.653216;-0.757734
-0.961597;-0.764813
-1.684751;-0.314022
-1.463228;-0.353283
-1.273669;-0.502217
-1.104663;-0.770482
-0.574405;0.372885
-0.583430;1.087600
-0.151439;1.310120
-0.224030;0.869313
-0.358728;0.590721
-0.554964;0.530167
-0.785672;0.483285
-0.958228;0.185876
-0.617741;0.268737
0.190665;0.763713
0.078830;0.628974
-0.108643;0.416379
-0.190478;-0.800004
-0.373124;-0.928473
-0.866832;-1.040802
-1.064872;-0.976794
-0.859518;-0.785758
-1.096158;-0.836020
-1.046232;-0.764505
-0.663737;-0.374570
-0.442107;0.157015
-0.524763;0.994588
-0.144967;1.067905
-0.124723;0.695311
-0.123928;0.496460
-0.106542;0.472625
0.040359;0.479521
0.400530;0.508724
0.698710;0.782367
0.775340;0.817955
0.479161;0.528365
0.178918;0.469798
-0.123370;-0.888878
-0.235003;-1.133606
-0.243045;-1.585016
-0.382955;-1.120278
-0.697197;-1.032851
-0.778767;-0.813663
-0.544361;-0.545893
-0.362455;-0.276903
-0.225583;0.014717
-0.136072;0.269182
-0.044266;0.402236
0.027615;0.413240
0.088593;0.410421
0.180732;0.469804
0.426598;0.565369
0.928113;0.624837
0.986492;1.161628
1.028639;0.495600
0.778207;0.440082
0.309641;0.501420
-0.026396;-0.947678
-0.091816;-1.240116
-0.137328;-1.551842
-0.083700;-1.287428
-0.087011;-1.267197
-0.234040;-0.754767
-0.186511;-0.465948
-0.088052;-0.229955
0.010424;-0.029888
0.092505;0.120448
0.160430;0.212611
0.218784;0.266921
0.279350;0.334018
0.367415;0.471032
0.513132;0.725179
0.829758;1.259434
0.170767;1.357269
0.431417;0.785728
0.383610;0.620667
0.283556;0.555321
0.077100;-0.965344
0.040649;-1.272898
0.042163;-1.534040
0.048568;-1.295473
0.067407;-1.349209
0.037856;-0.751681
0.080142;-0.406130
0.159751;-0.166721
0.248870;-0.002856
0.326256;0.091268
0.379970;0.134234
0.415337;0.162652
0.453511;0.230393
0.531377;0.432737
0.743634;0.943020
0.571919;0.990767
-0.130216;1.582823
0.152114;0.838487
0.221441;0.686653
0.232507;0.609283
0.180100;-0.944705
0.143523;-1.248491
0.107514;-1.562876
0.148869;-1.263200
0.145333;-1.392315
0.215308;-0.707721
0.290061;-0.310755
0.381781;-0.049143
0.492043;0.103625
0.591946;0.135287
0.633792;0.091103
0.626132;0.038280
0.620704;0.028477
0.675505;0.223078
0.840744;0.855764
0.582392;0.534639
-0.135370;0.873636
-0.343931;0.929215
0.067062;0.768957
0.188258;0.675432
0.287623;-0.889539
0.252102;-1.187014
0.208383;-1.593475
0.254149;-1.193327
0.196711;-1.418216
0.370536;-0.596530
0.471541;-0.156558
0.570018;0.151615
0.746438;0.368530
1.013837;0.252220
1.049123;0.020937
0.915298;-0.151600
0.806507;-0.408505
0.833959;-0.577457
0.820815;-0.277314
1.458576;-0.114280
1.519455;-0.089030
0.474756;0.534085
-0.149618;1.011285
0.178232;0.764176
0.407458;-0.797906
0.383740;-1.075386
0.226929;-1.705318
0.419079;-1.039051
0.315305;-1.212536
0.557111;-0.374150
0.644584;0.045500
0.696198;0.412744
0.672313;1.066383
1.060292;0.460255
1.150538;0.039523
1.205934;-0.453313
0.898129;-0.703797
0.909690;-0.948304
1.036453;-1.388960
0.725552;-0.099973
0.431425;0.671761
-0.060289;1.292412
0.267511;1.112098
0.211037;0.828028
0.541749;-0.665795
0.569117;-0.890208
0.506338;-1.584451
0.725741;-0.883311
0.737320;-0.491979
0.796167;-0.112434
0.839580;0.248275
0.829758;0.636619
0.485496;1.634458
0.699383;1.106949
0.778129;0.416909
0.761564;0.048346
1.007318;-1.301414
0.900070;-0.886816
0.865433;-0.749551
0.855144;-0.715670
0.427310;0.811099
0.659501;1.604972
0.092198;1.107525
0.181042;0.865754
0.679100;-0.498711
0.761359;-0.614333
0.900815;-0.851174
1.050613;-1.138025
1.010336;-0.377161
1.064889;0.078759
1.117679;0.438088
1.216767;0.796622
0.901335;1.128701
0.324083;1.415464
0.636512;0.608631
0.549380;0.489192
0.844928;-0.519476
0.942711;-1.001757
0.971486;-1.185754
0.836446;-0.493902
0.527902;0.659553
0.148330;1.428655
-0.263399;1.281150
0.085724;0.923357
0.807812;-0.321704
0.931140;-0.326177
1.057802;-0.365636
1.141840;-0.610029
1.216235;-0.492076
1.409470;0.384921
1.417822;0.587388
1.020214;0.782744
0.759878;0.974422
0.211097;1.532271
0.497007;0.707938
0.007459;1.201694
1.137383;-1.229974
0.937091;-0.780524
1.034709;-0.567867
1.034470;-0.426083
0.615575;0.754100
0.358779;1.126610
-0.382237;1.339459
-0.079927;1.041896
0.917164;-0.164263
1.111728;-0.060099
1.350064;0.074443
1.452611;0.247110
1.489015;0.254674
1.613457;0.049070
1.632737;0.042374
1.578845;0.142025
1.011921;0.548495
0.696088;0.691428
0.554271;0.586198
-0.150148;1.473024
0.727490;-0.162739
1.117563;-1.142542
1.025145;-0.262280
0.944507;0.226647
0.492088;1.261023
0.550681;0.611102
-0.018188;1.012537
-0.378551;1.290320
0.974508;-0.059662
1.222473;0.141341
1.558671;0.666700
1.545073;0.165057
1.553412;0.034044
1.569595;0.017613
1.572839;0.034593
1.560293;0.059560
1.541842;0.068563
0.933790;0.337626
0.676779;0.393284
0.511617;0.453881
0.675491;0.059552
0.832360;-0.285055
0.796959;-0.033022
0.640813;0.562392
0.443857;1.190171
0.461877;0.676673
0.182929;0.808093
-0.395233;1.294557
0.959168;-0.025230
1.119702;0.080856
1.252151;0.154651
1.287988;0.109912
1.291660;0.077004
1.281241;0.083925
1.249510;0.117496
1.186617;0.162328
1.072630;0.210236
0.891599;0.258251
0.744402;0.269094
0.675059;0.226426
0.682529;0.122226
0.705723;0.061906
0.681551;0.176962
0.584818;0.531288
0.495581;0.786881
0.458689;0.602037
0.335280;0.629794
0.223087;0.688285
