10;10;0.200000;0.200000
0.969693;1.262943
0.000000;0.000000
0.000000;0.000000
0.000000;0.000000
-0.211832;1.414673
-0.042333;1.706162
-0.028956;1.529061
0.055281;1.609249
0.111323;1.588287
0.000000;0.000000
0.000000;0.000000
0.000000;0.000000
-0.440072;1.656332
-0.414354;1.483052
-0.251905;1.387839
-0.047393;1.692320
-0.023816;1.519769
0.068888;1.652419
0.131763;1.615820
0.231060;1.727036
0.000000;0.000000
-0.356005;1.668686
-0.536677;1.528710
-0.490242;1.445714
-0.353175;1.228103
-0.077665;1.584854
-0.027801;1.355251
0.081655;1.584765
0.165692;1.530477
0.178986;1.655610
0.103271;1.546975
-0.769336;1.363158
-0.894796;1.374709
-0.758302;1.104952
-0.568256;0.896453
-0.267275;0.884944
-0.023368;0.913405
0.163290;1.068952
0.310390;1.231611
0.336378;1.483153
0.270797;1.536731
0.000000;0.000000
-1.077754;1.139079
-1.314721;0.803349
-1.038374;0.467365
-0.373376;0.323280
0.075262;0.323775
0.343382;0.577679
0.626508;0.960385
1.040312;1.321418
0.608734;1.366624
-0.236538;1.642296
-0.975635;0.880547
-1.158403;0.545830
-1.082798;0.170769
-0.244059;-0.605543
0.596834;-0.611843
0.650636;0.019443
0.835650;0.656694
0.861079;1.133371
0.701198;1.439529
-1.035565;1.190556
0.000000;0.000000
-1.294595;0.283015
-1.120183;-0.180305
-1.008277;-1.251198
0.671792;-0.734471
1.394353;-0.554975
1.272401;0.077072
1.055145;1.111413
0.806062;1.044670
-1.063385;0.704831
-1.313187;0.498457
-1.439500;0.181426
0.000000;0.000000
-0.728382;-0.478073
0.092518;-0.708744
0.879557;-0.394921
1.197831;-0.009943
1.114039;0.435398
0.844658;0.632362
0.000000;0.000000
-1.162701;0.349444
-1.411635;0.235345
-1.330911;-0.107217
-1.200067;-0.441036
-0.629977;-1.062321
1.400568;-0.720075
1.588934;-0.082028
1.579426;0.591822
0.000000;0.000000
0.000000;0.000000
0.000000;0.000000
-1.363612;0.192968
-1.372997;-0.082140
0.000000;0.000000
-0.348766;-0.389070
0.516864;-0.270912
0.963237;-0.052732
0.000000;0.000000
0.000000;0.000000
