20;20;0.650000;0.650000
6.409723;6.575671
0.076657;0.442806
0.102047;0.468653
0.128772;0.500306
0.156531;0.539569
0.185217;0.588067
0.214796;0.645546
0.244451;0.704037
0.270069;0.727353
0.287046;0.635155
0.315579;0.417356
0.380663;0.110484
0.441313;-0.149747
0.442466;-0.222083
0.419619;-0.226070
0.392643;-0.223889
0.363379;-0.224376
0.331337;-0.226425
0.297223;-0.228003
0.262803;-0.227813
0.229986;-0.225397
0.076123;0.461066
0.105146;0.491559
0.135618;0.530647
0.167036;0.582577
0.199524;0.653578
0.234259;0.752475
0.273647;0.892103
0.318566;1.079525
0.313589;0.966166
0.305243;0.612776
0.447563;-0.003046
0.657854;-0.733280
0.554228;-0.480107
0.493249;-0.364757
0.450696;-0.314133
0.411255;-0.292324
0.368897;-0.282776
0.323894;-0.277030
0.279304;-0.271126
0.238213;-0.263645
0.075463;0.475552
0.109499;0.509077
0.144977;0.553269
0.180672;0.614866
0.216410;0.705327
0.254581;0.843923
0.302750;1.067296
0.382720;1.479906
0.332578;1.264168
0.177379;1.108168
0.330049;0.463500
0.867737;-1.361149
0.679109;-0.801890
0.575846;-0.524182
0.520868;-0.412449
0.471588;-0.365598
0.414971;-0.344190
0.353591;-0.330825
0.294214;-0.318454
0.242128;-0.304888
0.075213;0.485817
0.116985;0.520171
0.160371;0.565660
0.202397;0.630703
0.241005;0.731241
0.277879;0.895472
0.324160;1.167438
0.411753;1.639235
0.295052;1.226846
0.117778;1.293255
0.199732;0.924505
0.624484;-0.567714
0.819682;-1.204049
0.671583;-0.697722
0.617968;-0.512359
0.558402;-0.442418
0.476641;-0.411021
0.387248;-0.390152
0.304883;-0.370213
0.238049;-0.349007
0.075947;0.492340
0.130870;0.525475
0.188840;0.568079
0.243818;0.628409
0.289408;0.724770
0.320626;0.896848
0.350601;1.217294
0.412241;1.641337
0.258441;1.151023
0.104466;1.296838
0.152959;1.073391
0.483362;-0.078262
0.811644;-1.135563
0.804370;-0.911165
0.804663;-0.613358
0.707954;-0.527375
0.568026;-0.487140
0.425710;-0.457639
0.305396;-0.427423
0.219222;-0.395679
0.077554;0.496557
0.156360;0.527833
0.243480;0.565178
0.328432;0.614056
0.402138;0.689368
0.442855;0.834043
0.414368;1.214942
0.375899;1.420182
0.219001;1.042495
0.089909;1.271181
0.127512;1.138391
0.427353;0.182484
0.700058;-0.546404
0.936859;-1.265880
1.349303;-0.782186
1.002221;-0.647130
0.722586;-0.584541
0.472686;-0.539762
0.282458;-0.491645
0.173200;-0.443571
0.076734;0.500275
0.201908;0.532184
0.351239;0.567173
0.501847;0.605753
0.664300;0.655762
0.855667;0.728139
0.959577;0.860339
0.333754;0.997526
0.152633;0.879476
0.068361;1.209870
0.116113;1.139847
0.502551;0.235647
0.842410;-0.202221
0.926377;-0.404554
1.008561;-0.539580
1.259750;-0.740064
1.141039;-0.752159
0.580649;-0.655194
0.198830;-0.562744
0.078087;-0.488013
0.057575;0.503868
0.280517;0.544535
0.595600;0.593473
0.896053;0.639315
1.333664;0.705213
1.198098;0.695288
0.581689;0.656002
0.099966;0.637439
0.004849;0.662904
0.035213;0.981386
0.124464;0.943669
0.640164;0.126228
1.455766;-0.174592
1.623055;-0.205856
1.667023;-0.211662
1.233859;-0.327447
0.294602;-0.662064
0.827417;-0.800023
-0.131811;-0.616806
-0.083388;-0.518142
-0.034143;0.502869
0.330402;0.559461
1.440396;0.717079
0.869622;0.622869
0.201100;0.510457
-0.166394;0.450565
-0.388459;0.415693
-0.463318;0.401168
-0.321644;0.424955
-0.082948;0.471612
0.109924;0.355300
0.328516;0.057426
0.473917;-0.176267
0.358744;-0.340166
0.017730;-0.471260
-0.592341;-0.609851
-1.488756;-0.774297
-0.966521;-0.673806
-0.731782;-0.614785
-0.233512;-0.526907
-0.257030;0.495518
-0.177414;0.518581
-0.270026;0.471217
-1.630882;0.124604
-1.576788;0.138661
-1.534739;0.147553
-1.497187;0.152043
-1.442915;0.155279
-1.057864;0.208108
-0.274033;0.266176
0.002610;0.163695
0.161243;-0.017736
0.165334;-0.235758
-0.419121;-0.530082
-1.463100;-0.765660
-0.984734;-0.638905
-1.558116;-0.668880
-0.946841;-0.622646
-0.526134;-0.577387
-0.201419;-0.521164
-0.515173;0.497366
-0.797748;0.538384
-1.027189;0.538488
-1.045312;0.438126
-1.067997;0.366379
-1.071906;0.314757
-1.065020;0.270365
-1.017933;0.236411
-0.752682;0.229820
-0.324115;0.206540
-0.061141;0.116061
0.150160;-0.030316
0.285476;-0.226588
0.877402;-0.571849
0.517944;-0.613013
0.006405;-0.583133
-0.006712;-0.570762
-0.025636;-0.569704
-0.042671;-0.559283
-0.039033;-0.526803
-0.650845;0.500247
-1.016502;0.562711
-1.461098;0.642869
-1.540020;0.655370
-1.272669;0.577531
-1.024697;0.496864
-0.811417;0.403874
-0.672983;0.319283
-0.514726;0.248292
-0.333820;0.195359
-0.124239;0.144953
0.272272;0.016427
0.801125;-0.153486
0.826273;-0.285483
0.860555;-0.426097
1.112029;-0.566316
1.362381;-0.654012
0.805978;-0.627731
0.317503;-0.635438
0.079958;-0.572297
-0.647120;0.490798
-0.836638;0.528033
-1.030753;0.565894
-1.179137;0.600058
-1.328630;0.641657
-1.517108;0.677685
-0.744263;0.561245
-0.593154;0.368218
-0.506022;0.205204
-0.449797;0.132163
-0.354763;0.274077
0.069497;0.202621
0.881102;-0.066714
1.170166;-0.185781
1.359949;-0.247385
1.569509;-0.257982
1.642817;-0.262543
0.695161;-0.725590
-0.112605;-0.974759
0.034466;-0.644200
-0.598457;0.478397
-0.703459;0.508458
-0.799590;0.543636
-0.860537;0.592903
-0.857431;0.699373
-0.688244;1.198279
-0.636179;0.924470
-0.585918;0.401725
-0.581754;0.026835
-0.716863;-0.482299
-0.862067;0.830201
-0.580006;0.717887
-0.083909;0.307970
0.247689;0.007147
0.407879;-0.221831
0.409239;-0.427399
0.125162;-0.703864
-1.021569;-1.392313
-0.265199;-0.890866
-0.077592;-0.652957
-0.547354;0.466546
-0.609738;0.496003
-0.660252;0.536269
-0.684152;0.604261
-0.668536;0.754207
-0.617861;1.144034
-0.596757;1.271393
-0.610173;0.379328
-0.698227;-0.350948
-0.822860;-0.864524
-0.012874;1.666833
-1.016531;1.160296
-0.647933;0.745898
-0.305084;0.268121
-0.163216;-0.162189
-0.280250;-0.601585
-0.802119;-1.182517
-0.564898;-1.002658
-0.271724;-0.749935
-0.147930;-0.598189
-0.503962;0.453955
-0.544529;0.482865
-0.575894;0.524055
-0.592457;0.591794
-0.594064;0.718351
-0.591002;0.974344
-0.589333;1.682013
-0.661760;0.242091
-0.920662;-1.190540
-0.535313;0.111897
-0.026892;1.613368
-0.571776;0.903777
-1.130380;1.223853
-0.735709;0.621392
-0.567140;-0.133625
-0.781115;-0.950712
-0.800127;-1.083269
-0.472039;-0.775508
-0.293587;-0.622886
-0.194616;-0.521618
-0.468955;0.439286
-0.498313;0.465529
-0.522140;0.501613
-0.539423;0.555551
-0.553451;0.641886
-0.573027;0.793934
-0.599795;1.207655
-0.766688;-0.198856
-0.749322;-0.523369
-0.390603;0.564677
-0.021471;1.612597
-0.417088;0.877263
-0.738352;0.801095
-1.211037;1.300328
-0.864348;-0.156746
-0.966583;-1.154671
-0.643164;-0.735449
-0.440661;-0.585702
-0.309558;-0.500262
-0.225643;-0.438065
-0.440439;0.422423
-0.463548;0.444294
-0.483718;0.472189
-0.501498;0.508832
-0.520204;0.557108
-0.546967;0.620823
-0.592975;0.729037
-0.719177;-0.035884
-0.563019;0.139169
-0.297957;0.827590
-0.015642;1.616477
-0.338946;0.874195
-0.566840;0.619181
-0.810951;0.584329
-0.945405;-0.003489
-0.744563;-0.517727
-0.552451;-0.455990
-0.413602;-0.417159
-0.313900;-0.385008
-0.243502;-0.354998
-0.416365;0.404153
-0.435319;0.421181
-0.452603;0.440936
-0.468777;0.463156
-0.485559;0.485260
-0.505272;0.498039
-0.526825;0.470770
-0.526200;0.369163
-0.447099;0.442402
-0.274074;0.867702
-0.027711;1.569694
-0.317685;0.792839
-0.464215;0.509680
-0.577355;0.324468
-0.622058;0.068207
-0.565777;-0.164094
-0.470708;-0.250857
-0.381225;-0.278493
-0.307878;-0.283638
-0.250885;-0.278060
-0.395280;0.385493
-0.410964;0.398162
-0.425363;0.411509
-0.438564;0.424404
-0.450721;0.434056
-0.460944;0.435190
-0.464429;0.423290
-0.449035;0.417806
-0.402324;0.482238
-0.329767;0.646726
-0.288251;0.753625
-0.341891;0.597470
-0.408705;0.419292
-0.459555;0.261952
-0.477394;0.103658
-0.454235;-0.035132
-0.404815;-0.125655
-0.348438;-0.175586
-0.295893;-0.200638
-0.251097;-0.210974
