20;20;0.350000;0.150000
0.241636;3.559479
0.369302;-0.207508
0.344797;-0.268141
0.311405;-0.346744
0.268962;-0.448100
0.000000;0.000000
0.163270;-0.740563
0.108766;-0.940630
0.063436;-1.176850
0.037013;-1.438936
0.036222;-1.695181
0.028109;-1.681660
-0.028523;-1.432721
-0.113196;-1.193248
-0.212110;-0.993029
-0.311696;-0.838198
-0.401628;-0.723545
-0.475474;-0.639599
-0.530049;-0.576819
-0.564753;-0.527391
-0.581198;-0.485737
0.521290;-0.078531
0.504855;-0.124212
0.474251;-0.189126
0.426988;-0.280041
0.361894;-0.405323
0.000000;0.000000
0.191105;-0.793384
0.000000;0.000000
0.000000;0.000000
0.000000;0.000000
0.000000;0.000000
0.000000;0.000000
-0.203096;-1.119006
-0.363160;-0.909756
-0.517465;-0.765262
-0.649019;-0.671975
-0.749438;-0.612312
-0.813940;-0.571181
-0.839572;-0.537005
-0.828587;-0.502282
0.746119;0.103236
0.758222;0.091037
0.752786;0.064162
0.724150;0.016288
0.665402;-0.061710
0.568879;-0.182739
0.432005;-0.361043
0.269063;-0.603993
0.000000;0.000000
0.000000;0.000000
0.000000;0.000000
0.000000;0.000000
-0.493291;-0.806697
-0.727451;-0.695367
-0.926389;-0.641354
-1.085553;-0.620193
-1.209053;-0.616391
-1.297641;-0.619473
-1.326755;-0.614876
-1.222340;-0.571199
1.045560;0.309700
1.112109;0.339486
1.158987;0.358969
1.187407;0.368312
1.198294;0.367488
1.178830;0.348597
1.054250;0.266439
0.727251;0.059613
0.000000;0.000000
0.000000;0.000000
0.000000;0.000000
0.000000;0.000000
0.000000;0.000000
-1.323714;-0.627033
-1.489163;-0.663315
-1.614775;-0.697625
-1.585687;-0.686489
-1.506565;-0.655407
-1.413584;-0.615361
-1.260636;-0.547226
1.406461;0.511156
1.540206;0.574083
1.612450;0.607768
1.669584;0.633866
1.575578;0.592366
1.451474;0.539082
1.240330;0.450339
0.895715;0.308590
0.549250;0.171165
0.000000;0.000000
0.000000;0.000000
0.000000;0.000000
0.000000;0.000000
-1.115750;-0.477101
-1.114958;-0.468015
-1.104466;-0.452817
-1.087734;-0.433822
-1.061182;-0.410157
-1.021500;-0.380776
-0.969079;-0.346280
1.233916;0.448685
1.287307;0.478616
1.258816;0.476721
1.194390;0.465502
1.113353;0.454843
1.023700;0.448811
0.933388;0.449857
0.853273;0.459612
0.792299;0.477662
0.748548;0.498635
0.000000;0.000000
0.000000;0.000000
0.000000;0.000000
0.000000;0.000000
0.000000;0.000000
-0.758484;-0.126699
-0.835323;-0.147371
-0.875868;-0.156251
-0.888103;-0.158331
-0.877782;-0.156324
0.915376;0.323243
0.944613;0.359253
0.965120;0.400908
0.988192;0.456469
1.026381;0.531067
1.081814;0.618008
1.149953;0.706596
1.240672;0.799609
1.388211;0.913342
1.335926;0.892686
0.922227;0.699571
0.000000;0.000000
0.000000;0.000000
0.000000;0.000000
0.000000;0.000000
-1.050763;0.018027
-1.128469;-0.002273
-1.163800;-0.015091
-1.152087;-0.024848
-1.087874;-0.034446
0.802508;0.243309
0.843819;0.290688
0.901797;0.361369
1.000810;0.477993
1.206905;0.698168
1.487211;0.970811
1.320626;0.831562
1.129924;0.702987
0.880495;0.576085
0.508428;0.440171
-0.134786;0.278122
0.000000;0.000000
0.000000;0.000000
0.000000;0.000000
0.000000;0.000000
-1.721064;0.012531
-1.734128;0.010892
-1.743902;0.009875
-1.749428;0.009266
-1.504312;0.008326
0.755983;0.122119
0.795414;0.149559
0.842744;0.187202
0.897486;0.234186
0.950259;0.280851
0.977685;0.304509
0.959368;0.292711
0.891362;0.259856
0.769659;0.221119
0.583033;0.182636
0.321480;0.146573
0.000000;0.000000
0.000000;0.000000
0.000000;0.000000
0.000000;0.000000
-0.941433;0.047781
-1.037375;0.040833
-1.086655;0.036176
-1.087980;0.033472
-1.042112;0.032353
0.744880;-0.044976
0.787129;-0.048869
0.843594;-0.044291
0.928106;-0.029507
1.070334;-0.007681
1.297062;0.011170
1.440839;0.019608
1.454992;0.024282
1.432516;0.027397
1.389315;0.029303
1.318446;0.030606
0.000000;0.000000
0.000000;0.000000
0.000000;0.000000
0.000000;0.000000
-0.860809;0.057751
-1.016187;0.057835
-1.074349;0.057948
-1.057858;0.058428
-0.991109;0.059442
0.755697;-0.253823
0.795127;-0.320082
0.841777;-0.380604
0.900951;-0.398794
0.990775;-0.336643
1.124025;-0.222993
1.228483;-0.131514
1.254676;-0.078471
1.232091;-0.044467
1.172549;-0.020316
1.061021;-0.002219
0.000000;0.000000
0.000000;0.000000
0.000000;0.000000
0.000000;0.000000
-1.674936;0.056800
-1.711683;0.057175
-1.734242;0.057275
-1.690774;0.058816
-1.214840;0.074415
0.788197;-0.432573
0.826346;-0.609565
0.873912;-0.896867
0.943246;-1.415607
0.921471;-1.218470
0.884827;-0.885425
0.847930;-0.622998
0.796848;-0.422905
0.719721;-0.274655
0.607458;-0.166150
0.000000;0.000000
0.000000;0.000000
0.000000;0.000000
0.000000;0.000000
0.000000;0.000000
-0.796555;0.085856
-0.923512;0.094448
-0.976686;0.101826
-0.964893;0.110214
-0.908208;0.119958
0.857887;-0.392536
0.884161;-0.536720
0.901785;-0.733367
0.914958;-0.982418
0.932281;-1.274420
0.940418;-1.401932
0.872045;-1.059852
0.764106;-0.750888
0.612669;-0.487598
0.424614;-0.282206
0.000000;0.000000
0.000000;0.000000
0.000000;0.000000
0.000000;0.000000
0.000000;0.000000
-0.678270;0.175668
-0.751897;0.188932
-0.792985;0.196656
-0.806580;0.201077
-0.798953;0.203525
1.071925;-0.172494
1.128508;-0.219294
1.144034;-0.294299
1.124217;-0.412700
1.077818;-0.597380
1.012751;-0.898426
0.958335;-1.414107
0.890797;-0.912562
0.664793;-0.466688
0.000000;0.000000
0.000000;0.000000
0.000000;0.000000
0.000000;0.000000
0.000000;0.000000
-1.087522;0.319348
-1.115026;0.328828
-1.114677;0.331276
-1.089498;0.328272
-1.038898;0.320340
-0.969613;0.309063
1.539026;0.041582
1.759027;0.072954
1.769627;0.073720
1.784379;0.076477
1.793997;0.078943
1.769868;0.070374
1.743831;0.062207
1.494210;0.007481
0.000000;0.000000
0.000000;0.000000
0.000000;0.000000
0.000000;0.000000
-1.269442;0.381425
-1.519851;0.419272
-1.634459;0.434459
-1.718648;0.443907
-1.695419;0.441739
-1.638046;0.436283
-1.527485;0.425519
-1.273180;0.399945
1.072605;0.107723
1.144148;0.106986
1.159558;0.110249
1.130442;0.118385
1.067239;0.132896
0.967967;0.156273
0.818206;0.191724
0.000000;0.000000
0.000000;0.000000
0.000000;0.000000
0.000000;0.000000
0.000000;0.000000
-0.750033;0.461469
-0.931757;0.468064
-1.069156;0.468022
-1.169560;0.464862
-1.237731;0.460593
-1.266819;0.456292
-1.231719;0.452096
-1.129738;0.446398
0.663195;0.300646
0.662149;0.335070
0.635802;0.383683
0.581688;0.450934
0.500729;0.540182
0.396938;0.650042
0.276157;0.763884
0.000000;0.000000
0.000000;0.000000
0.000000;0.000000
0.000000;0.000000
-0.764412;0.776252
-0.846470;0.750800
-0.897025;0.717735
-0.935696;0.683767
-0.965307;0.651729
-0.983676;0.622775
-0.987442;0.597201
-0.974392;0.574556
-0.945668;0.553729
0.395682;0.518772
0.369499;0.597968
0.331379;0.701383
0.284341;0.835165
0.236489;1.004966
0.203742;1.215686
0.215756;1.474880
0.000000;0.000000
0.000000;0.000000
0.000000;0.000000
-1.121867;1.024843
-1.442973;1.042574
-1.326647;1.008520
-1.236539;0.963600
-1.176308;0.918594
-1.130679;0.874345
-1.090678;0.830465
-1.050674;0.786349
-1.007823;0.741939
-0.961850;0.698078
0.237554;0.679229
0.214069;0.781106
0.190205;0.908533
0.172376;1.065219
0.170485;1.250476
0.196011;1.453890
0.258630;1.656878
0.000000;0.000000
0.000000;0.000000
0.000000;0.000000
0.000000;0.000000
-0.953384;1.009273
-1.164043;0.995884
-1.313734;1.008320
-1.426359;1.033894
-1.407680;1.024110
-1.336751;0.989168
-1.264317;0.947126
-1.177496;0.892547
-1.081474;0.828473
0.140315;0.749048
0.123394;0.844867
0.110487;0.960187
0.107448;1.098640
0.123670;1.264834
0.174970;1.467296
0.296898;1.735896
0.165480;1.552140
-0.037547;1.344410
-0.264938;1.180279
-0.494318;1.064919
-0.704243;0.995373
-0.883458;0.961617
-1.031018;0.952349
-1.151609;0.958634
-1.251393;0.974586
-1.336058;0.996698
-1.410061;1.022914
-1.312942;0.975386
-1.141368;0.884489
