7;20
-105.494713;-75.021042
-121.309853;-71.950050
-141.417725;-67.859741
-167.731552;-62.180893
-203.339508;-53.879124
-253.101624;-41.009827
-321.793182;-20.533855
-379.716339;0.000000
-283.012878;-26.816088
-70.662796;-66.813499
147.641220;-54.599953
333.353546;-25.395264
256.617676;-47.174553
208.551971;-58.424644
176.305771;-65.299759
153.350174;-69.967941
136.244354;-73.361290
123.036247;-75.947395
112.545639;-77.987801
104.020576;-79.640976
-64.843628;-87.672348
-74.969795;-86.781982
-87.626373;-85.677925
-103.827393;-84.277794
-125.138588;-82.456360
-153.979126;-80.024170
-193.725082;-76.726715
-245.968155;-72.479393
-99.500626;-83.826378
s
305.086456;-37.205776
428.506714;12.727921
352.053619;-26.061245
285.785645;-49.336922
240.304794;-61.578224
207.627960;-68.978271
183.183731;-73.883759
164.288361;-77.348701
149.284988;-79.912613
137.104660;-81.878632
-59.492447;-103.915482
-68.581650;-104.964912
-79.890732;-106.369537
-94.301636;-108.360664
-113.146507;-111.414429
-138.245483;-116.613754
-170.133881;-126.383720
-192.333038;-138.592926
-115.037315;-134.524307
27.119036;-168.013290
195.222931;-123.607239
251.730011;-138.592926
249.776001;-112.194359
222.779221;-102.604988
196.596283;-99.826080
175.210968;-98.886169
158.078659;-98.522308
144.232330;-98.357201
132.876633;-98.263786
123.422997;-98.196014
0.000000;0.000000
-53.720722;-113.585609
-61.285492;-115.604416
-70.487793;-118.130356
-81.935593;-121.368835
-96.631744;-125.625404
-116.532845;-131.274033
-146.894318;-137.953537
-23.124628;-181.102219
6.363961;-214.253357
65.442177;-175.907211
220.428207;-124.499435
193.028976;-117.953094
172.170273;-114.518654
155.674408;-112.234795
142.332199;-110.534050
131.346985;-109.189011
122.163116;-108.086128
114.381981;-107.159683
0.000000;0.000000
0.000000;0.000000
-47.391945;-111.937492
-53.720722;-113.585609
-61.285492;-115.604416
-70.487793;-118.130356
-81.935593;-121.368835
-96.631744;-125.625404
-116.532845;-131.274033
-27.548973;-157.606079
14.140580;-193.172089
84.513664;-151.785172
193.028976;-117.953094
172.170273;-114.518654
155.674408;-112.234795
142.332199;-110.534050
131.346985;-109.189011
122.163116;-108.086128
114.381981;-107.159683
0.000000;0.000000
0.000000;0.000000
0.000000;0.000000
0.000000;0.000000
-47.391945;-111.937492
-53.720722;-113.585609
-61.285492;-115.604416
-70.487793;-118.130356
-81.935593;-121.368835
-96.631744;-125.625404
-24.270653;-144.018753
21.618349;-169.365417
86.580399;-138.915222
172.170273;-114.518654
155.674408;-112.234795
142.332199;-110.534050
131.346985;-109.189011
122.163116;-108.086128
114.381981;-107.159683
0.000000;0.000000
0.000000;0.000000
0.000000;0.000000
0.000000;0.000000
0.000000;0.000000
0.000000;0.000000
0.000000;0.000000
0.000000;0.000000
-61.285492;-115.604416
-70.487793;-118.130356
-81.935593;-121.368835
-19.915604;-135.283264
25.590796;-153.570084
84.079842;-130.978241
155.674408;-112.234795
142.332199;-110.534050
131.346985;-109.189011
122.163116;-108.086128
0.000000;0.000000
0.000000;0.000000
0.000000;0.000000
0.000000;0.000000
0.000000;0.000000
