10;10;0.200000;0.300000
1.492486;0.271964
1.164596;-1.201964
0.830005;-0.782459
0.596890;-0.693691
0.387150;-0.752530
0.099618;-1.103812
-0.148760;-0.864284
-0.557640;-0.917288
-0.732682;-0.915657
-0.922669;-0.831534
-0.951147;-0.776331
1.089471;-1.046797
1.009169;-0.975288
0.760295;-0.896297
0.593626;-0.953637
0.112089;-1.398506
-0.146530;-0.971557
-0.734698;-1.187033
-0.819946;-0.980358
-1.172113;-1.084057
-1.028436;-0.822415
0.961507;-0.641275
1.193006;-1.231792
0.000000;0.000000
0.000000;0.000000
0.000000;0.000000
0.000000;0.000000
0.000000;0.000000
-0.908523;-0.874976
-1.143226;-0.993772
-0.956962;-0.564077
1.084368;-0.306840
0.943810;-0.402153
0.000000;0.000000
0.000000;0.000000
0.000000;0.000000
0.000000;0.000000
0.000000;0.000000
-0.819406;-0.562839
-0.998047;-0.503462
-1.029509;-0.328623
1.750518;-0.404805
0.000000;0.000000
0.000000;0.000000
0.062784;0.214160
0.017915;0.173515
-0.011728;0.220276
0.000000;0.000000
0.000000;0.000000
-1.218432;-0.243663
-1.451665;-0.302729
1.063553;0.099160
0.000000;0.000000
0.000000;0.000000
-0.443448;0.859534
-0.064423;1.131311
0.189609;1.002644
0.000000;0.000000
0.000000;0.000000
-1.480705;-0.243751
-1.352080;-0.168404
0.895182;0.540710
0.000000;0.000000
-0.332444;0.755618
-1.129146;1.181431
-0.136342;1.317019
0.378574;1.327335
0.814542;0.689053
0.000000;0.000000
-1.435381;0.085231
-1.414369;0.051453
1.175790;0.757787
1.210242;1.114567
-0.237650;0.794942
-1.137378;0.891227
-0.284227;1.010278
0.331098;0.883070
0.725281;0.630071
0.000000;0.000000
-0.930435;0.467328
-1.048690;0.258834
1.105494;0.926403
0.590865;0.935463
0.685049;0.876787
-0.839410;0.639022
-0.374999;0.745230
0.263646;0.632929
1.724719;0.036381
1.435528;0.181636
-0.582584;0.956238
-0.698098;0.514824
0.893974;1.339116
0.842739;0.933313
-0.318970;0.584210
-1.046725;0.403463
-0.319743;0.625623
0.119719;0.589319
0.399067;0.527137
-0.185333;0.900057
-0.666724;1.248570
-0.551828;0.646010
