8;8;0.375000;0.375000
1.459320;1.426153
-0.120659;0.151606
-0.114405;0.193453
-0.076735;0.240218
-0.016776;0.308430
0.031291;0.289137
0.098282;0.227210
0.139902;0.192194
0.143151;0.157935
-0.163869;0.149819
-0.190595;0.223380
-0.148817;0.270469
-0.016437;0.394550
0.039023;0.343028
0.175122;0.249576
0.236351;0.231523
0.190488;0.165193
-0.208957;0.117223
-0.251142;0.216445
-0.293857;0.324058
-0.047308;0.361943
0.085780;0.304051
0.312034;0.286586
0.294973;0.245115
0.223170;0.142581
-0.271847;0.047847
-0.345286;0.057162
-0.301799;0.134461
-0.135482;0.197855
0.193168;0.202666
0.289594;0.165986
0.297888;0.093743
0.254424;0.071366
-0.270585;-0.009142
-0.350653;-0.019526
-0.312013;-0.087816
-0.115554;-0.115118
0.194023;-0.095921
0.433696;-0.012589
0.454714;-0.007043
0.290462;0.008664
-0.195573;-0.074048
-0.223535;-0.162727
-0.282922;-0.329832
-0.028799;-0.364016
0.175315;-0.385532
0.201693;-0.198299
0.247304;-0.074229
0.223424;-0.037217
-0.140379;-0.112047
-0.144074;-0.180624
-0.104912;-0.260517
-0.007165;-0.410606
0.076995;-0.353373
0.141689;-0.272020
0.154804;-0.141369
0.159399;-0.080355
-0.098237;-0.124297
-0.084299;-0.174983
-0.047444;-0.245992
-0.003561;-0.363981
0.035166;-0.311862
0.083150;-0.226313
0.107155;-0.154750
0.117837;-0.102744
