20;20;0.300000;0.300000
2.958439;2.978339
-0.503758;-0.529427
-0.566180;-0.521145
-0.635384;-0.501829
-0.709662;-0.468645
-0.785098;-0.420430
-0.855873;-0.359124
-0.916226;-0.289287
-0.962437;-0.215724
-0.993108;-0.141634
-1.008192;-0.068225
-1.007877;0.005110
-0.991733;0.080413
-0.958356;0.160596
-0.905906;0.248523
-0.834150;0.344977
-0.747916;0.444946
-0.658097;0.535604
-0.575766;0.602859
-0.505454;0.641937
-0.446051;0.657904
-0.500413;-0.590867
-0.570972;-0.589153
-0.652839;-0.574034
-0.745489;-0.539636
-0.844001;-0.482304
-0.938003;-0.405629
-1.016724;-0.319706
-1.074915;-0.233454
-1.112344;-0.151089
-1.130767;-0.073493
-1.131809;0.001149
-1.115378;0.076952
-1.078740;0.159666
-1.016399;0.256463
-0.922659;0.374135
-0.801408;0.509900
-0.676096;0.637044
-0.572520;0.719599
-0.494116;0.752049
-0.432113;0.752883
-0.486169;-0.659900
-0.563226;-0.669114
-0.657767;-0.663456
-0.774030;-0.630673
-0.909295;-0.557906
-1.042315;-0.451671
-1.147736;-0.339834
-1.219733;-0.238330
-1.263069;-0.148628
-1.283547;-0.070825
-1.285970;-0.001303
-1.271445;0.067319
-1.236143;0.143975
-1.169180;0.241554
-1.049472;0.381806
-0.862759;0.584837
-0.665518;0.795873
-0.538741;0.894382
-0.463738;0.895062
-0.406277;0.863727
-0.457447;-0.735540
-0.536108;-0.761884
-0.637426;-0.776511
-0.777231;-0.758230
-0.978880;-0.657532
-1.195296;-0.475689
-1.337260;-0.324467
-1.418950;-0.214696
-1.462967;-0.120343
-1.480502;-0.051274
-1.483020;0.000365
-1.473216;0.048742
-1.447832;0.103661
-1.394780;0.179298
-1.271837;0.315259
-0.954877;0.641246
-0.549185;1.127092
-0.446396;1.171755
-0.411688;1.066633
-0.368615;0.982331
-0.411953;-0.814468
-0.483783;-0.864204
-0.574658;-0.915401
-0.701183;-0.957846
-0.998691;-0.866315
-1.543093;-0.325055
-1.671928;-0.195554
-1.728136;-0.146278
-1.758738;-0.012780
-1.759331;0.002121
-1.757905;0.009473
-1.754665;0.016691
-1.748913;0.025615
-1.738596;0.038900
-1.716303;0.064365
-1.226898;0.493788
-0.299105;1.614549
-0.333290;1.448189
-0.350627;1.223046
-0.322649;1.090884
-0.350583;-0.890817
-0.407502;-0.965970
-0.469234;-1.061389
-0.514338;-1.205963
-0.330426;-1.616589
-1.020847;-0.795294
-1.312954;-0.422981
-1.400900;-0.269740
-1.440922;-0.149131
-1.465535;-0.063343
-1.474463;-0.002864
-1.468391;0.052164
-1.443748;0.114836
-1.386198;0.204421
-1.240628;0.378478
-0.798929;0.870452
-0.296727;1.590433
-0.277944;1.549369
-0.293340;1.325556
-0.271523;1.175263
-0.277546;-0.957946
-0.316885;-1.054317
-0.350106;-1.182411
-0.349964;-1.376127
-0.214301;-1.757791
-0.549140;-1.181996
0.000000;0.000000
0.000000;0.000000
0.000000;0.000000
0.000000;0.000000
0.000000;0.000000
0.000000;0.000000
0.000000;0.000000
0.000000;0.000000
0.000000;0.000000
-0.503029;1.097451
-0.264988;1.581101
-0.232477;1.608975
-0.234672;1.390912
-0.215202;1.235579
-0.198072;-1.010955
-0.221766;-1.121440
-0.235969;-1.266995
-0.228750;-1.474263
-0.204867;-1.748667
-0.340921;-1.304639
0.000000;0.000000
0.000000;0.000000
0.000000;0.000000
0.000000;0.000000
0.000000;0.000000
0.000000;0.000000
0.000000;0.000000
0.000000;0.000000
0.000000;0.000000
-0.326116;1.193254
-0.196822;1.576474
-0.164703;1.656117
-0.168328;1.435490
-0.153551;1.277043
-0.116347;-1.047618
-0.127772;-1.165578
-0.128349;-1.317963
-0.100459;-1.527380
-0.016941;-1.729035
-0.174021;-1.361075
0.000000;0.000000
0.000000;0.000000
0.000000;0.000000
0.000000;0.000000
0.000000;0.000000
0.000000;0.000000
0.000000;0.000000
0.000000;0.000000
0.000000;0.000000
-0.189387;1.239322
-0.113458;1.581518
-0.088677;1.680693
-0.101505;1.462763
-0.088868;1.303077
-0.034883;-1.067732
-0.037972;-1.188274
-0.033164;-1.340814
-0.008065;-1.542253
0.038372;-1.745544
-0.041477;-1.397932
0.000000;0.000000
0.000000;0.000000
0.000000;0.000000
0.000000;0.000000
0.000000;0.000000
0.000000;0.000000
0.000000;0.000000
0.000000;0.000000
0.000000;0.000000
-0.073208;1.257094
-0.062160;1.579619
-0.061432;1.694394
-0.041954;1.477017
-0.022453;1.315879
0.045622;-1.072001
0.047966;-1.192148
0.050983;-1.342927
0.053828;-1.539951
0.052972;-1.757253
0.057692;-1.415198
0.000000;0.000000
0.000000;0.000000
0.000000;0.000000
0.066631;-0.284132
0.000000;0.000000
0.000000;0.000000
0.000000;0.000000
0.000000;0.000000
0.000000;0.000000
0.042976;1.253497
-0.002723;1.569517
-0.034559;1.704150
0.022026;1.480475
0.048878;1.315941
0.125800;-1.060991
0.133528;-1.178524
0.135121;-1.327006
0.121087;-1.524087
0.065560;-1.766603
0.156552;-1.412740
0.000000;0.000000
0.000000;0.000000
0.000000;0.000000
0.000000;0.000000
0.000000;0.000000
0.000000;0.000000
0.000000;0.000000
0.000000;0.000000
0.000000;0.000000
0.176217;1.231593
0.093277;1.556906
0.064311;1.701843
0.102361;1.468875
0.129117;1.301137
0.206329;-1.034724
0.222184;-1.146641
0.227616;-1.290187
0.207381;-1.486582
0.144741;-1.781178
0.274066;-1.389702
0.000000;0.000000
0.000000;0.000000
0.000000;0.000000
0.000000;0.000000
0.000000;0.000000
0.000000;0.000000
0.000000;0.000000
0.000000;0.000000
0.000000;0.000000
0.340699;1.186066
0.184109;1.539210
0.115961;1.679640
0.194044;1.436341
0.220398;1.267720
0.286613;-0.993147
0.315247;-1.094769
0.333620;-1.226845
0.312406;-1.416969
0.163884;-1.754678
0.433243;-1.322598
0.000000;0.000000
0.000000;0.000000
0.000000;0.000000
0.000000;0.000000
0.000000;0.000000
0.000000;0.000000
0.000000;0.000000
0.000000;0.000000
0.000000;0.000000
0.581196;1.101664
0.324414;1.485820
0.189041;1.637060
0.313300;1.373601
0.326106;1.210394
0.363778;-0.937202
0.409776;-1.022325
0.455803;-1.130599
0.475584;-1.288988
0.260648;-1.662809
0.792902;-1.107251
1.044281;-0.762919
1.130072;-0.542553
1.177407;-0.356500
1.201063;-0.209971
1.203329;-0.082725
1.187129;0.048801
1.151133;0.204844
1.091978;0.414148
1.018954;0.694334
0.958289;0.987768
0.845215;1.263503
0.461556;1.485411
0.486796;1.255997
0.443778;1.123789
0.432653;-0.869963
0.495947;-0.933339
0.575814;-1.004803
0.687445;-1.081781
0.980865;-1.073667
1.695243;-0.558392
1.548368;-0.577367
1.505976;-0.434938
1.524152;-0.247315
1.527514;-0.162997
1.518302;-0.094578
1.501549;-0.012164
1.473637;0.085223
1.420535;0.245457
1.332826;0.600445
1.346830;0.990282
1.272136;1.061151
0.866929;1.132204
0.657537;1.087861
0.551925;1.013130
0.487963;-0.796702
0.561701;-0.837673
0.658727;-0.873238
0.798181;-0.885821
1.015641;-0.824020
1.276619;-0.671482
1.471637;-0.540676
1.618097;-0.367824
1.691529;-0.170549
1.721472;-0.132072
1.744854;-0.114358
1.763908;-0.055313
1.773545;-0.046820
1.781937;-0.043360
1.770360;0.017002
1.351540;0.844726
1.138842;0.890939
0.919407;0.929467
0.746702;0.927393
0.627585;0.896335
0.527345;-0.723103
0.602772;-0.745568
0.697842;-0.757017
0.819539;-0.745113
0.969671;-0.693355
1.129713;-0.600819
1.270548;-0.487417
1.377959;-0.358030
1.445165;-0.236777
1.483201;-0.152381
1.505494;-0.085182
1.514820;-0.016114
1.509561;0.058630
1.483150;0.165056
1.402017;0.366620
1.242949;0.595842
1.074278;0.714166
0.915374;0.771812
0.778551;0.792125
0.669426;0.787274
0.551942;-0.653289
0.623222;-0.662455
0.708243;-0.660011
0.808101;-0.639091
0.919660;-0.593428
1.033153;-0.522751
1.135807;-0.433583
1.218036;-0.334430
1.276093;-0.236800
1.312925;-0.149158
1.333250;-0.068495
1.338782;0.012963
1.327999;0.103160
1.295186;0.213342
1.229438;0.349461
1.128346;0.485416
1.009449;0.586124
0.890194;0.648279
0.780976;0.680458
0.686764;0.691057
0.564719;-0.589327
0.629330;-0.589537
0.702924;-0.579300
0.784670;-0.554825
0.871366;-0.513310
0.957191;-0.454753
1.035232;-0.382386
1.099842;-0.301509
1.148236;-0.218031
1.180565;-0.135892
1.198130;-0.055007
1.201400;0.027584
1.189207;0.115743
1.158620;0.212485
1.106329;0.315662
1.033116;0.414183
0.946296;0.495008
0.855390;0.552860
0.767898;0.589275
0.688259;0.608364
