20;20;0.650000;0.650000
6.538462;6.538462
-0.413225;-0.501853
-0.497709;-0.645447
-0.596711;-0.900247
-0.725780;-1.561985
-0.671225;-0.555464
-0.760198;-0.290514
-0.876215;-0.199320
-0.978311;-0.195533
-1.066527;-0.263511
-1.173343;-0.438544
-1.325465;-0.796245
-1.093257;0.037753
-1.082136;0.173808
-1.068996;0.216260
-1.051833;0.226489
-1.039946;0.218195
-1.042389;0.193755
-1.061442;0.156668
-1.074322;0.126197
-0.950965;0.191112
-0.429446;-0.612383
-0.531208;-0.818287
-0.654153;-1.210228
-0.683612;-1.200441
-0.702016;-0.572267
-0.843575;-0.305544
-1.043526;-0.215058
-1.171462;-0.268288
-1.268407;-0.520278
-1.342485;-0.760852
-1.234082;-0.173049
-1.276740;0.145128
-1.294479;0.218689
-1.274402;0.195494
-1.269324;0.149733
-1.296117;0.078355
-1.376851;-0.027067
-1.524789;-0.169701
-1.725081;-0.332682
-1.359222;-0.073498
-0.438649;-0.717200
-0.559227;-0.981092
-0.714950;-1.536984
-0.651084;-0.923606
-0.719432;-0.499898
-0.917333;-0.308232
-1.694464;0.140656
-1.575427;-0.166635
-1.488425;-0.224946
-1.435676;-0.014844
-1.428655;0.047793
-1.496472;0.112294
-1.618854;0.375514
-1.692514;-0.180437
-1.564070;-0.039180
-1.396161;0.085571
-1.233597;0.173825
-1.097585;0.229180
-0.981595;0.265903
-0.797101;0.357402
-0.441657;-0.821581
-0.594085;-1.169061
-0.658710;-1.297812
-0.618532;-0.733090
-0.722865;-0.437799
-0.926848;-0.335144
-1.363022;-0.931372
-1.242911;-0.345572
-1.242706;-0.061453
-1.284479;0.068018
-1.411808;0.054759
-1.454897;0.112692
-1.487120;0.206831
-1.558152;0.272252
-1.702340;0.273666
-1.515583;0.609721
-1.028201;0.656619
-0.678539;0.711367
-0.614193;0.609983
-0.524402;0.591623
-0.439678;-0.932941
-0.666395;-1.445716
-0.565409;-1.008517
-0.578516;-0.627959
-0.753249;-0.429922
-0.978289;-0.265971
-1.114292;-0.183194
-1.145071;-0.047569
-1.138636;0.058371
-1.132295;0.126482
-1.138361;0.173748
-1.138305;0.221691
-1.122297;0.287078
-1.063988;0.391333
-0.914663;0.575309
-0.761503;0.753380
-0.410236;1.054383
-0.398446;1.000099
-0.391786;0.815249
-0.348291;0.748184
-0.416383;-1.030639
-0.617311;-1.377202
-0.447321;-0.817506
-0.498029;-0.649586
-0.763048;-0.949389
-1.567236;-0.198873
-1.452252;-0.092803
-1.450297;0.076321
-1.492154;0.106807
-1.515042;0.077970
-1.489974;0.096173
-1.459030;0.105036
-1.370483;0.150688
-1.231290;0.267961
-0.494750;0.940048
-0.281810;1.138878
0.533502;1.629455
-0.167830;1.103389
-0.235569;0.947999
-0.218523;0.864656
-0.179770;-0.960157
-0.278309;-0.921736
-0.294620;-0.721003
-0.354141;-0.740436
-0.227066;-1.647012
-0.800802;-0.005031
-0.923873;0.345455
-0.864143;0.295325
-0.803150;0.342103
-0.685744;0.450741
-0.585079;0.502617
-0.456263;0.560856
-0.304130;0.718565
-0.122083;0.994146
-0.189364;1.144477
-0.069973;1.380772
-0.183556;1.475732
-0.207236;1.230919
-0.151804;1.060348
-0.124716;0.960413
0.193297;-1.611531
-0.025677;-0.968721
-0.143531;-0.725847
-0.212453;-0.809421
-0.206143;-1.574718
-0.533835;-0.170121
-1.021611;0.815567
-1.041660;0.820572
-0.748956;0.634750
-0.381086;0.859521
-0.192276;0.875468
0.136587;0.902020
0.308098;1.111002
0.287914;1.318707
0.040426;1.197084
0.117924;1.520544
-0.020034;1.360996
-0.372354;1.402735
-0.114552;1.165557
-0.060431;1.043787
0.189791;-1.488072
0.096157;-1.093497
-0.018097;-0.765252
-0.080297;-0.846202
-0.009250;-1.528732
-0.316724;-0.335941
-0.593636;0.256809
-0.988102;0.858464
-1.072030;0.938883
-0.465881;0.867641
-0.001891;0.895964
0.699005;1.369375
0.414317;1.041089
0.359204;1.071966
0.228264;1.169164
0.380181;1.621918
0.220031;1.316154
-0.085903;1.470117
-0.127093;1.271281
-0.026190;1.118607
0.202488;-1.371404
0.168604;-1.176964
0.086170;-0.794549
0.027386;-0.852386
0.029091;-1.590966
-0.181528;-0.434071
-0.575185;0.018766
-0.791709;0.258796
-0.944870;0.672215
-0.468209;0.502485
0.533195;0.351896
0.842051;0.367229
0.856172;0.522353
0.812364;0.609799
0.461567;1.007263
0.071729;1.586599
0.777744;1.380590
0.131899;1.339956
-0.313854;1.407409
-0.035783;1.190987
0.229829;-1.261754
0.221895;-1.257671
0.180201;-0.807752
0.134075;-0.836768
0.134491;-1.673571
-0.025428;-0.504829
-0.530611;-0.089511
-0.727136;0.028662
-0.664113;0.023563
-0.343779;-0.203720
0.460481;-0.169735
0.838486;-0.115598
0.859366;0.283826
0.823012;0.551829
0.568605;0.993081
0.233058;1.611022
0.583568;1.316135
0.775249;1.437733
-0.512865;1.514939
-0.110598;1.274613
0.270676;-1.150743
0.259812;-1.350966
0.269955;-0.803264
0.240703;-0.793775
0.154104;-1.644898
0.192880;-0.564113
0.125014;-0.179942
0.029881;-0.108492
-0.246889;-0.479881
-0.131195;-0.601086
0.286837;-0.928463
0.879867;-0.577995
0.808330;-0.020000
0.687190;0.662146
0.655403;1.119275
0.287781;1.603002
0.720912;1.375332
0.516947;1.323445
-0.008514;1.344247
-0.313436;1.398931
0.326346;-1.022838
0.278752;-1.471694
0.360029;-0.772827
0.347518;-0.727011
0.166424;-1.465871
0.382472;-0.568068
0.478266;-0.181160
0.442914;-0.130761
-0.211986;-0.716783
0.449466;-0.339840
0.346732;-1.032461
0.763232;-0.074953
0.867043;0.052717
0.787572;0.761684
0.958209;1.347156
0.257235;1.611030
0.672438;1.358990
0.748545;1.532050
0.279549;1.266463
-0.237358;1.373312
0.406791;-0.830925
0.268056;-1.648735
0.464830;-0.677518
0.470525;-0.631199
0.148741;-1.427943
0.582030;-0.491582
0.819791;-0.113109
0.944558;-0.030927
0.969129;-0.029098
0.972615;-0.113926
0.489173;-1.015419
1.003543;0.088805
0.985837;0.359751
0.970267;1.019070
0.765084;1.095113
0.644459;1.541731
0.420313;1.426438
0.484941;1.350804
0.369467;1.207684
0.273485;1.138184
0.542196;-0.483948
0.516635;-0.710753
0.624693;-0.424662
0.640496;-0.475841
0.230578;-1.382018
0.835803;-0.354092
1.189447;-0.010995
1.582003;-0.227893
1.535067;-0.133681
1.574258;-0.091356
1.663961;-0.131453
1.496433;0.024770
1.363589;0.147691
1.177436;0.445511
0.921375;1.008720
0.372234;1.528573
0.620516;1.515229
0.208387;1.365150
0.335390;1.190724
0.331085;1.100397
0.704886;-0.158125
0.757264;-0.159542
0.825113;-0.128839
0.866871;-0.214907
0.785217;-0.831733
1.074299;-0.239729
1.393221;0.120611
1.456216;0.209770
1.475479;0.297575
1.481251;0.509859
1.495327;0.313423
1.561474;-0.031801
1.599971;-0.153232
1.305181;0.358928
1.019145;0.886845
0.770357;1.267844
0.471989;1.312844
-0.144218;1.491774
0.247827;1.206819
0.318210;1.092981
0.862943;0.065527
0.948740;0.104583
1.036386;0.141653
1.115234;0.134379
1.163369;-0.039208
1.636268;0.027994
1.667150;0.147315
1.644346;0.311583
1.544829;0.623436
1.559324;0.368943
1.551215;0.285401
1.617888;0.143850
1.584172;0.196318
1.241566;0.728280
1.274204;0.642411
0.799502;1.106820
0.475382;1.165128
-0.357715;1.591916
0.117529;1.259747
0.274809;1.103274
1.034625;0.250162
1.161117;0.327630
1.282580;0.406613
1.412950;0.496336
1.622107;0.661223
1.571111;0.648991
1.457153;0.635500
1.432050;0.980023
1.348006;0.698377
1.000867;1.173028
1.277887;0.607465
1.329336;0.507267
1.280842;0.646158
1.135865;0.930528
0.985436;0.800915
0.782147;0.901693
0.490717;1.056251
-0.066842;1.386618
-0.062405;1.361257
0.213571;1.128358
1.281796;0.450939
1.490641;0.583954
1.568553;0.636278
1.604582;0.698707
1.441904;0.619347
1.420771;0.760565
1.392698;0.731902
1.366859;0.641503
1.322584;0.717335
1.340904;0.777294
1.624501;0.486947
1.406217;0.563208
1.062632;0.980844
1.019346;0.905754
0.930632;0.797996
0.762725;0.851244
0.519188;0.982006
0.091008;1.253270
-0.303123;1.523956
0.152997;1.156868
1.399352;0.541377
1.349936;0.514953
1.302136;0.501201
1.321557;0.567276
1.467111;0.964451
1.335099;0.676288
1.301798;0.595361
1.433784;0.554598
1.141100;0.959921
1.218423;0.738042
1.224400;0.623192
1.143578;0.678020
0.752288;1.463589
0.957039;0.833032
0.883508;0.775496
0.751000;0.813682
0.562948;0.911810
0.259616;1.106213
-0.459967;1.638026
0.172031;1.125320
