40;40
-20.870823;-28.562798
-21.373894;-29.865301
-21.893280;-31.283813
-22.426981;-32.839241
-22.971272;-34.558861
-23.519804;-36.479328
-24.061701;-38.651386
-24.578424;-41.147839
-27.177654;-37.164547
-29.910275;-34.103092
-32.682953;-32.009571
-36.863125;-29.511097
-38.242847;-25.759911
-40.677269;-20.863899
-44.066425;-16.284576
-48.372936;-12.131583
-47.516083;-9.559223
-47.911419;-6.897625
-48.304672;-4.620291
-49.734081;-2.367902
-52.415791;-0.305082
-50.617294;1.667601
-50.090729;3.629021
-50.689575;5.412634
-51.717525;7.222699
-54.235096;8.669762
-50.546249;11.482968
-48.144814;14.203699
-47.117264;16.666351
-46.441860;19.592508
-41.828613;23.259968
-38.102814;26.847494
-34.451702;30.625542
-32.147411;33.115345
-30.941784;32.685104
-29.851686;32.248489
-28.858187;31.811676
-27.946558;31.378757
-27.105190;30.952503
-26.324793;30.534714
-21.373894;-29.865301
-21.893280;-31.283813
-22.426981;-32.839241
-22.971272;-34.558861
-23.519804;-36.479328
-24.061701;-38.651386
-24.578424;-41.147839
-25.037670;-44.077663
-28.064310;-39.376068
-31.206085;-35.885620
-34.399578;-33.578213
-39.167694;-31.047390
-40.309570;-27.126249
-42.971691;-21.785328
-46.825397;-16.779646
-51.811420;-12.264788
-50.487232;-9.762513
-50.730583;-7.071790
-51.133804;-4.833410
-52.824570;-2.587611
-56.021641;-0.550632
-53.780445;1.358832
-53.111927;3.270633
-53.852268;4.968826
-55.310238;6.670940
-58.691364;7.887113
-54.165237;10.825912
-51.341774;13.627195
-50.276321;16.068520
-49.897663;19.015034
-44.503212;22.867357
-40.265556;26.571075
-36.138573;30.681816
-33.493458;33.529774
-32.147411;33.115345
-30.941784;32.685104
-29.851686;32.248489
-28.858187;31.811676
-27.946558;31.378757
-27.105190;30.952503
-21.893280;-31.283813
-22.426981;-32.839241
-22.971272;-34.558861
-23.519804;-36.479328
-24.061701;-38.651386
-24.578424;-41.147839
-25.037670;-44.077663
-25.381306;-47.612350
-28.985670;-41.919201
-32.674168;-37.851635
-36.436352;-35.268356
-41.995350;-32.726620
-42.652473;-28.642714
-45.579597;-22.739668
-50.043163;-17.182695
-55.952370;-12.201744
-53.912281;-9.853096
-53.898262;-7.151362
-54.317028;-4.989878
-56.370918;-2.766881
-60.290997;-0.774148
-57.408997;1.037398
-56.531414;2.874421
-57.460129;4.450131
-59.592628;5.988860
-64.319435;6.854340
-58.528744;9.968170
-55.089958;12.874623
-53.986576;15.267764
-54.163136;18.197546
-47.708866;22.259518
-42.820469;26.058372
-38.098537;30.597282
-35.013412;33.913818
-33.493458;33.529774
-32.147411;33.115345
-30.941784;32.685104
-29.851686;32.248489
-28.858187;31.811676
-27.946558;31.378757
-22.426981;-32.839241
-22.971272;-34.558861
-23.519804;-36.479328
-24.061701;-38.651386
-24.578424;-41.147839
-25.037670;-44.077663
-25.381306;-47.612350
-25.499681;-52.037704
-29.923523;-44.913162
-34.378502;-40.035511
-38.952850;-37.083145
-45.650826;-34.567539
-45.336445;-30.359665
-48.578560;-23.720970
-53.884972;-17.419025
-61.120090;-11.814374
-57.930973;-9.767183
-57.470909;-7.084268
-57.923706;-5.059114
-60.510944;-2.880850
-65.501305;-0.956908
-61.638016;0.707005
-60.433060;2.435679
-61.615898;3.837708
-64.869804;5.126273
-71.828560;5.442018
-63.976009;8.823618
-59.563744;11.887202
-58.406944;14.197386
-59.634880;17.043486
-51.657265;21.344492
-45.905804;25.183643
-40.423130;30.295053
-36.753456;34.243908
-35.013412;33.913818
-33.493458;33.529774
-32.147411;33.115345
-30.941784;32.685104
-29.851686;32.248489
-28.858187;31.811676
-22.971272;-34.558861
-23.519804;-36.479328
-24.061701;-38.651386
-24.578424;-41.147839
-25.037670;-44.077663
-25.381306;-47.612350
-25.499681;-52.037704
-25.173571;-57.862457
-30.832664;-48.555321
-36.432072;-42.476803
-42.255409;-39.006180
-50.759216;-36.576180
-48.442581;-32.366440
-52.074940;-24.720837
-58.633457;-17.351627
-67.922981;-10.877135
-62.769230;-9.403225
-61.497913;-6.787693
-62.041313;-4.995794
-65.471313;-2.891587
-72.166054;-1.070343
-66.683861;0.373867
-64.925255;1.949460
-66.454140;3.105988
-71.726379;3.998366
-82.640732;3.422854
-71.147141;7.243844
-65.029228;10.580906
-63.747810;12.770316
-67.050056;15.411170
-56.701748;19.982143
-49.728035;23.730663
-43.251789;29.644503
-38.779297;34.480450
-36.753456;34.243908
-35.013412;33.913818
-33.493458;33.529774
-32.147411;33.115345
-30.941784;32.685104
-29.851686;32.248489
-23.519804;-36.479328
-24.061701;-38.651386
-24.578424;-41.147839
-25.037670;-44.077663
-25.381306;-47.612350
-25.499681;-52.037704
-25.173571;-57.862457
-23.934301;-66.051765
-31.598953;-53.201183
-39.057312;-45.209141
-47.002113;-40.957432
-58.752075;-38.687443
-52.054012;-34.835419
-56.216179;-25.731592
-64.838768;-16.706161
-77.662560;-8.985323
-68.843521;-8.596045
-65.969551;-6.123655
-66.778969;-4.732495
-71.682777;-2.740752
-81.378296;-1.076239
-72.944580;0.047118
-70.149620;1.411027
-72.144646;2.220479
-81.456726;2.447054
-99.203773;0.504500
-81.408630;4.947590
-71.928513;8.830674
-70.257454;10.886979
-77.924240;13.110455
-63.489605;17.958326
-54.585281;21.302643
-46.804573;28.408571
-41.187511;34.551846
-38.779297;34.480450
-36.753456;34.243908
-35.013412;33.913818
-33.493458;33.529774
-32.147411;33.115345
-30.941784;32.685104
-24.061701;-38.651386
-24.578424;-41.147839
-25.037670;-44.077663
-25.381306;-47.612350
-25.499681;-52.037704
-25.173571;-57.862457
-23.934301;-66.051765
-20.738962;-78.467201
-31.908934;-59.563969
-42.756302;-48.202415
-54.801846;-42.640450
-72.839279;-40.485031
-56.163944;-38.114494
-61.201374;-26.761406
-73.792549;-14.858784
-93.505638;-5.537484
-77.104370;-7.078942
-70.583702;-4.845384
-72.267906;-4.169971
-80.150169;-2.341439
-95.820396;-0.966912
-81.326027;-0.264457
-76.289391;0.817072
-78.851601;1.140891
-97.094833;0.191731
-115.141296;-2.000000
-97.671867;1.437638
-81.118225;6.430510
-78.076797;8.495947
-95.241707;10.077582
-73.380554;14.969490
-60.783642;17.121454
-51.434456;26.119217
-44.125778;34.315498
-41.187511;34.551846
-38.779297;34.480450
-36.753456;34.243908
-35.013412;33.913818
-33.493458;33.529774
-32.147411;33.115345
-24.358723;-41.242805
-24.821604;-44.178566
-25.171537;-47.718948
-25.299992;-52.149170
-24.989531;-57.976738
-23.774673;-66.163857
-20.618622;-78.564674
-13.633387;-97.644058
-30.656199;-69.381157
-48.792355;-51.148926
-69.715836;-43.018757
-89.134491;-40.741543
-60.178989;-42.791737
-67.152832;-27.952160
-89.339127;-10.181857
-115.165382;-2.000000
-90.535370;-4.516381
-73.257988;-2.474532
-78.190041;-3.186001
-93.655556;-1.602781
-115.240318;-1.000000
-93.711868;-0.521210
-77.466324;0.588537
-70.761398;0.895372
-76.408752;1.994210
-85.632736;0.941665
-77.980164;4.594575
-76.945724;7.250765
-84.154373;6.511599
-113.318520;8.000000
-89.244316;11.112679
-66.961510;9.843938
-56.614475;22.181721
-46.676716;34.052124
-42.951450;34.916016
-40.050621;35.113762
-37.703072;34.994602
-35.745022;34.710182
-34.072445;34.335564
-32.616360;33.911438
-21.537275;-45.042122
-21.609728;-48.787388
-21.429369;-53.495464
-20.799314;-59.704010
-19.337717;-68.393532
-16.313257;-81.284538
-10.820147;-99.894691
-6.000000;-113.994789
-14.472197;-94.140205
-29.936966;-65.061729
-41.971996;-51.024780
-53.224281;-47.094501
-34.741859;-53.347816
-46.755859;-37.801144
-64.783913;-11.981814
-67.105408;0.707107
-68.807442;-2.775992
-67.325142;0.707107
-67.692108;-1.616466
-70.971405;-0.860836
-67.336235;0.707107
-71.089317;0.229519
-67.853149;0.562229
-67.375397;0.000000
-67.684525;1.356573
-67.331375;0.707107
-67.634216;3.376263
-66.979866;4.781415
-67.220154;1.414214
-81.077942;7.479037
-66.795151;8.678468
-67.350174;0.707107
-58.154911;13.939246
-44.503487;34.436932
-40.319527;36.713253
-37.482227;37.199558
-35.312866;37.065144
-33.544769;36.678909
-32.047058;36.182140
-30.745283;35.637207
-18.761446;-44.254723
-18.882677;-47.422821
-18.870438;-51.190708
-18.641811;-55.814224
-18.050325;-61.736649
-16.820995;-69.781395
-14.421607;-81.522476
-10.071471;-99.094147
-18.307304;-74.828926
-24.890800;-59.590508
-27.995527;-54.012295
-26.327656;-55.713631
-35.449997;-48.721893
-43.514656;-35.316452
-55.897820;-19.596153
-67.637978;-6.062451
-63.317188;-7.510561
-64.468231;-2.799668
-62.688950;-3.999078
-65.743881;-2.219172
-70.722504;-0.150583
-66.072914;0.506875
-63.274990;1.792861
-64.872978;1.593795
-63.554600;3.977207
-66.360390;3.352431
-61.875511;8.157468
-60.239021;10.859326
-63.800743;7.872460
-65.865288;15.817856
-53.836761;22.011852
-54.584961;17.114725
-40.241116;37.485607
-28.629513;60.356400
-29.360821;52.849846
-29.016441;48.673729
-28.346195;45.918236
-27.583645;43.880669
-26.811550;42.255569
-26.060873;40.892223
-15.879514;-44.657188
-15.924813;-47.634926
-15.866210;-51.059322
-15.655043;-55.066181
-15.216985;-59.861713
-14.435729;-65.776672
-13.127440;-73.378654
-11.020015;-83.709404
-15.299046;-68.201584
-16.956810;-60.491070
-13.677624;-61.153927
-6.866684;-66.414818
-19.176416;-56.386127
-31.190369;-42.155380
-43.516926;-27.602692
-56.851788;-14.408659
-54.142910;-12.390913
-56.482986;-7.294880
-55.049366;-6.081661
-57.715145;-3.256601
-63.839287;-0.594207
-58.285988;1.318631
-56.149380;3.556118
-57.860950;4.601669
-56.255505;7.634641
-58.981541;8.471733
-53.170685;14.160563
-50.541935;18.385063
-52.361507;19.061193
-49.408573;27.653254
-37.896282;37.589115
-31.535170;43.960686
-24.666985;60.998474
-15.664980;90.683121
-20.055357;71.557953
-21.781864;61.379063
-22.351179;55.399166
-22.413298;51.428856
-22.234791;48.533840
-21.935831;46.275555
-13.212934;-45.540527
-13.154999;-48.619564
-12.985181;-52.154259
-12.652594;-56.279816
-12.077265;-61.200344
-11.126768;-67.242920
-9.565522;-74.968781
-6.932522;-85.402580
-11.493467;-70.130844
-13.833977;-61.539600
-13.257617;-59.550308
-13.643456;-60.050552
-22.727903;-49.879910
-29.380880;-39.336765
-37.620201;-28.391106
-47.770504;-17.960932
-46.329758;-14.356267
-48.472858;-9.311788
-47.597641;-6.529390
-49.700233;-3.004853
-54.836597;0.146010
-50.135384;3.165478
-48.390663;6.299626
-49.527534;8.517466
-47.864899;12.389627
-49.461708;14.776382
-43.653244;21.410723
-40.203724;27.238029
-39.396694;31.345781
-33.993320;41.317081
-23.034313;53.456612
-12.997695;63.982639
-13.757617;86.555008
-10.000000;111.957535
-12.906679;94.863327
-15.856284;76.908974
-17.360281;66.340172
-18.058022;59.794491
-18.338196;55.322975
-18.389664;52.013897
-10.570464;-47.598381
-10.369058;-51.045742
-10.021434;-55.076477
-9.454458;-59.906483
-8.542913;-65.899193
-7.055049;-73.720695
-4.532477;-84.670914
-0.211247;-100.759171
-6.044570;-78.870232
-8.518461;-66.324692
-6.513422;-64.076706
-13.106680;-58.116520
-19.003912;-49.870338
-24.052729;-40.641567
-30.523460;-30.910845
-38.708946;-21.420689
-38.359924;-16.606516
-40.445274;-11.126184
-40.079281;-7.204447
-41.798225;-2.958633
-45.909184;0.869069
-42.199249;4.719798
-40.778397;8.620941
-41.385433;11.881078
-39.761955;16.405203
-40.372768;20.036451
-35.049400;27.005402
-31.215790;33.608124
-28.529221;39.648960
-21.750305;49.629597
-10.689031;60.811802
-2.828427;66.936653
-8.987885;68.724510
-11.221996;90.481621
-13.240884;75.888458
-14.544864;67.590546
-15.300912;62.115189
-15.714524;58.113693
-15.913180;54.984524
-15.973023;52.421444
-8.039975;-50.816280
-7.680664;-54.911652
-7.125185;-59.849552
-6.264262;-66.023285
-4.900661;-74.142876
-2.670328;-85.516777
0.899382;-101.735657
4.000000;-114.962059
-0.289606;-94.989815
-3.685461;-71.180252
-2.121320;-67.257935
-6.382450;-63.401329
-12.342066;-54.950462
-17.346834;-45.401791
-23.060707;-35.495998
-30.004938;-25.846582
-30.629848;-19.764498
-32.790462;-13.516747
-32.914635;-8.555645
-34.432720;-3.534142
-37.795643;1.045282
-35.029343;5.573276
-33.997921;10.103258
-34.371853;14.156241
-33.058594;19.078726
-33.343704;23.413317
-29.121202;30.127110
-26.051338;36.485767
-23.962772;42.335396
-19.713034;50.214417
-13.407044;58.377373
-7.859854;64.531174
-11.030725;66.505226
-11.468334;77.350990
-12.561792;70.242706
-13.275801;65.216179
-13.717306;61.348362
-13.971796;58.211006
-14.097195;55.573124
-14.132146;53.297741
-6.732178;-48.917297
-6.521708;-52.492752
-6.203657;-56.642933
-5.729675;-61.562248
-5.019344;-67.568420
-3.927084;-75.229645
-2.163008;-85.655327
0.823290;-100.774277
-3.277549;-79.535431
-5.065845;-67.786385
-4.464327;-65.678368
-7.923883;-60.025471
-11.576782;-52.306446
-14.998424;-43.627644
-19.241131;-34.611465
0.000000;0.000000
0.000000;0.000000
0.000000;0.000000
0.000000;0.000000
0.000000;0.000000
0.000000;0.000000
0.000000;0.000000
0.000000;0.000000
0.000000;0.000000
0.000000;0.000000
0.000000;0.000000
-23.464796;34.585999
-20.773701;41.119511
-18.646252;47.416470
-14.901405;55.069839
-9.707207;62.683868
-6.363961;66.568062
-8.834346;67.250717
-9.576052;77.145432
-10.741640;71.202301
-11.461854;66.673897
-11.907949;63.053326
-12.176397;60.039764
-12.324424;57.456215
-12.388122;55.193493
-5.269899;-48.446346
-5.127925;-51.867901
-4.921492;-55.772175
-4.628300;-60.283943
-4.216636;-65.580925
-3.640458;-71.926277
-2.831858;-79.727463
-1.692049;-89.629303
-3.773284;-73.847153
-4.713221;-66.726723
-4.603683;-67.063713
-5.895295;-62.913078
-8.660881;-54.584133
-11.452719;-45.398354
-14.872469;-36.139217
0.000000;0.000000
0.000000;0.000000
0.000000;0.000000
0.000000;0.000000
0.000000;0.000000
0.000000;0.000000
0.000000;0.000000
0.000000;0.000000
0.000000;0.000000
0.000000;0.000000
0.000000;0.000000
-19.464579;37.153057
-17.517160;43.343491
-16.178226;49.174820
-13.999877;55.618458
-11.041595;61.788918
-8.369467;66.216217
-9.351795;72.593201
-7.475170;93.298592
-9.221361;78.667549
-10.071191;71.146744
-10.532788;66.305916
-10.792914;62.704315
-10.932170;59.793350
-10.992118;57.323399
-3.759163;-48.616711
-3.644565;-52.233112
-3.484263;-56.432449
-3.263665;-61.413315
-2.962928;-67.501022
-2.556252;-75.276558
-2.018829;-85.856796
-1.391582;-101.053848
-2.657094;-80.299309
-3.810834;-68.122307
-4.274675;-65.213074
-5.670704;-59.211128
-7.496154;-51.534855
-9.340897;-43.071861
-11.841566;-34.435738
0.000000;0.000000
0.000000;0.000000
0.000000;0.000000
0.000000;0.000000
0.000000;0.000000
0.000000;0.000000
0.000000;0.000000
0.000000;0.000000
0.000000;0.000000
0.000000;0.000000
0.000000;0.000000
-15.670633;40.948334
-14.216513;47.151920
-13.254407;53.075062
-11.747054;59.348137
-9.713567;65.373657
-7.676252;69.784645
-7.730042;86.151382
-5.000000;115.008614
-6.969270;95.262428
-8.459633;79.862030
-9.145905;71.845909
-9.485896;66.811958
-9.656165;63.147858
-9.730113;60.227398
-2.242522;-50.238293
-2.144757;-54.416874
-2.016967;-59.459049
-1.852137;-65.771782
-1.644202;-74.089211
-1.397175;-85.736214
-1.162816;-102.109489
-1.088562;-114.832985
-1.394082;-97.555466
-2.270848;-74.776077
-2.510838;-66.548523
-3.774821;-60.609726
-5.160266;-52.674500
-6.509170;-43.943584
-8.423128;-35.109283
0.000000;0.000000
0.000000;0.000000
0.000000;0.000000
0.000000;0.000000
0.000000;0.000000
0.000000;0.000000
0.000000;0.000000
0.000000;0.000000
0.000000;0.000000
0.000000;0.000000
0.000000;0.000000
-12.574013;43.187370
-11.573251;49.108906
-10.925299;54.693100
-9.762345;60.232430
-7.786532;65.066307
-5.558963;67.041794
-8.261938;69.964622
-7.266376;88.094971
-8.307825;76.620537
-8.719391;71.090431
-8.901967;67.362968
-8.973975;64.414291
-8.982325;61.897682
-8.950081;59.666225
-0.798976;-47.569538
-0.727545;-51.123505
-0.644473;-55.239170
-0.550901;-60.105869
-0.452953;-66.038284
-0.370649;-73.615753
-0.364267;-84.024223
-0.601617;-99.528488
-0.858359;-77.549469
-1.569873;-67.409760
-1.760278;-67.287743
-2.088236;-63.019016
-2.938777;-54.274731
-3.847233;-44.750202
0.000000;0.000000
0.000000;0.000000
0.000000;0.000000
0.000000;0.000000
0.000000;0.000000
0.000000;0.000000
0.000000;0.000000
0.000000;0.000000
0.000000;0.000000
0.000000;0.000000
0.000000;0.000000
0.000000;0.000000
-10.347677;44.698837
-9.918208;50.175240
-9.898305;55.185898
-9.672243;59.814976
-9.202709;63.683159
-8.355096;66.273048
-10.047228;67.488251
-8.872725;73.928497
-8.891123;70.863945
-8.830092;68.343201
-8.734537;66.044662
-8.620120;63.890369
-8.494353;61.857265
-8.361609;59.936508
0.774497;-45.478355
0.862401;-48.742516
0.962197;-52.458878
1.075734;-56.745399
1.204273;-61.775330
1.345844;-67.820999
1.484758;-75.351334
1.543372;-85.269699
0.831206;-71.668381
-0.261525;-64.681824
-1.226862;-64.424927
-1.077440;-57.662663
-1.348196;-49.546703
-1.681808;-40.805504
-2.595779;-32.109341
0.000000;0.000000
0.000000;0.000000
0.000000;0.000000
0.000000;0.000000
0.000000;0.000000
0.000000;0.000000
0.000000;0.000000
0.000000;0.000000
0.000000;0.000000
0.000000;0.000000
0.000000;0.000000
-8.474704;47.385551
-8.541328;52.581303
-9.000275;57.245396
-9.365913;61.288914
-9.670326;64.393456
-10.026699;66.182861
-10.806743;66.636597
-9.541329;70.780975
-9.222922;69.611870
-8.925590;68.066399
-8.648499;66.337532
-8.389650;64.536034
-8.147040;62.727322
-7.918926;60.950001
2.409570;-44.485416
2.534753;-47.728210
2.681046;-51.424770
2.859203;-55.694096
3.089662;-60.710636
3.414921;-66.747955
3.934104;-74.273460
4.916776;-84.170868
2.887240;-70.965332
1.063953;-64.225807
-0.666517;-64.227013
0.296281;-57.219254
0.579713;-48.853210
0.717513;-39.851833
0.218000;-30.956438
0.000000;0.000000
0.000000;0.000000
0.000000;0.000000
0.000000;0.000000
s
0.000000;0.000000
0.000000;0.000000
0.000000;0.000000
0.000000;0.000000
0.000000;0.000000
0.000000;0.000000
-7.157042;50.610760
-7.714113;55.578907
-8.608979;59.903038
-9.418049;63.337997
-10.146297;65.590988
-10.778779;66.406952
-11.140684;66.227829
-9.948246;70.566071
-9.579781;69.920616
-9.163372;68.800186
-8.752016;67.369789
-8.364094;65.764992
-8.004778;64.079117
-7.674133;62.372883
4.179720;-45.725075
4.339715;-49.216560
4.531039;-53.268410
4.776617;-58.072727
5.125050;-63.950294
5.688694;-71.493408
6.752782;-81.912514
9.033467;-97.493835
4.556843;-76.239815
0.550427;-66.935036
-2.121320;-67.281044
-0.021530;-62.651958
1.758508;-53.590153
2.829341;-43.726604
3.010452;-34.217205
0.000000;0.000000
0.000000;0.000000
0.000000;0.000000
0.000000;0.000000
0.000000;0.000000
0.000000;0.000000
0.000000;0.000000
0.000000;0.000000
0.000000;0.000000
0.000000;0.000000
0.000000;0.000000
-4.447703;48.663460
-5.245030;53.940063
-6.485925;58.855606
-7.624372;63.119068
-8.651998;66.553101
-9.475633;68.823547
-10.124358;70.028458
0.000000;115.363457
-5.702617;85.506088
-6.926413;75.476952
-7.002374;70.959648
-6.813922;67.875679
-6.552103;65.355423
-6.275266;63.133656
6.137363;-47.650639
6.367112;-51.725067
6.653537;-56.665333
7.043314;-62.893810
7.636032;-71.181450
8.647004;-82.937042
10.421352;-99.688629
12.088562;-112.831299
9.412477;-94.820625
5.235419;-72.628387
2.294815;-66.223923
3.947477;-60.479561
5.088057;-52.320156
6.159959;-43.161575
6.507902;-34.212883
0.000000;0.000000
0.000000;0.000000
0.000000;0.000000
0.000000;0.000000
0.000000;0.000000
0.000000;0.000000
0.000000;0.000000
0.000000;0.000000
0.000000;0.000000
0.000000;0.000000
0.000000;0.000000
-1.470685;46.012215
-2.560086;51.308758
-4.299089;56.463638
-6.013586;61.024242
-7.817537;64.812492
-9.866775;66.994370
-13.407198;65.815163
-7.280495;80.791840
-7.108176;74.827713
-6.699970;71.227142
-6.261952;68.422112
-5.844179;65.985245
-5.459768;63.772991
-5.110736;61.726868
7.668567;-45.160400
7.822096;-48.579308
7.979207;-52.554756
8.147951;-57.285152
8.350353;-63.107063
8.645460;-70.650726
9.195935;-81.213013
10.421021;-97.196251
7.766526;-76.618675
5.377902;-66.779816
4.242640;-66.871719
5.304297;-62.252407
7.016375;-53.248367
8.766895;-43.480583
9.674617;-34.363800
0.000000;0.000000
0.000000;0.000000
0.000000;0.000000
0.000000;0.000000
0.000000;0.000000
0.000000;0.000000
0.000000;0.000000
0.000000;0.000000
0.000000;0.000000
0.000000;0.000000
0.000000;0.000000
2.459376;43.308235
1.264789;48.585014
-0.826075;54.037052
-2.863493;59.016567
-4.993946;63.552643
-6.777328;66.896660
-8.777403;68.569115
-5.546384;78.767479
-5.277503;74.081993
-4.894407;70.627007
-4.496109;67.761978
-4.116651;65.246796
-3.767338;62.974892
-3.450670;60.891548
9.480760;-43.056877
9.623632;-46.109360
9.747899;-49.585602
9.847064;-53.601025
9.914957;-58.330208
9.950423;-64.060677
9.973302;-71.322876
10.082530;-81.242455
9.011533;-73.199341
7.725661;-64.619522
5.787691;-63.800064
8.459775;-56.350483
10.486251;-48.023201
12.654102;-39.155624
13.795625;-31.023987
0.000000;0.000000
0.000000;0.000000
0.000000;0.000000
0.000000;0.000000
0.000000;0.000000
0.000000;0.000000
0.000000;0.000000
0.000000;0.000000
0.000000;0.000000
0.000000;0.000000
0.000000;0.000000
6.827744;41.518917
5.573129;46.797661
3.080102;52.686180
0.696927;58.225029
-1.844444;63.717297
-3.518704;68.221046
-3.993765;71.160263
-2.203315;90.637749
-2.791936;78.999321
-2.721045;73.082855
-2.477099;69.064720
-2.192685;65.915604
-1.911592;63.261536
-1.649246;60.934765
11.415032;-41.909370
11.560996;-44.825356
11.671287;-48.124580
11.729514;-51.897579
11.712420;-56.270237
11.586884;-61.425442
11.306309;-67.644203
10.808777;-75.389351
9.666674;-77.950821
9.219787;-65.626038
7.058641;-63.515972
10.818649;-55.435925
13.519036;-46.826233
16.400372;-37.751450
17.955660;-29.787985
18.483072;-22.287401
19.938078;-15.174832
19.888655;-8.964287
20.663382;-3.008787
22.072929;2.497272
20.807491;7.737543
21.068037;12.675706
19.123285;18.114676
18.066780;23.277544
16.787067;28.331079
13.448114;34.508469
11.417826;40.476974
10.075387;45.948750
6.970179;52.691414
4.030195;59.248707
0.768570;66.201485
-1.176954;71.105652
-1.712960;67.234322
0.000000;115.363457
-0.652458;93.723343
-0.739643;80.394409
-0.556072;73.213615
-0.308748;68.469170
-0.060015;64.902283
0.170377;62.006931
13.392569;-42.001942
13.520779;-45.010212
13.584606;-48.448349
13.551009;-52.434109
13.368136;-57.142212
12.950946;-62.850834
12.151935;-70.050201
10.698690;-79.747803
7.958659;-93.560265
7.914004;-69.522026
4.949748;-66.521843
9.260647;-60.835373
14.457884;-50.471344
19.102551;-39.776203
21.653492;-31.106623
22.842182;-23.260981
24.931904;-15.938516
25.061813;-9.932823
26.194290;-4.184167
28.213186;1.038862
27.034647;5.865977
27.714594;10.288921
25.470661;15.361901
24.553684;20.093184
23.546661;24.534361
19.652702;30.549126
17.455313;36.168411
16.420347;41.005386
12.698602;47.779892
9.281048;54.108231
4.754830;61.361702
1.685266;67.474976
-0.176260;71.391258
0.266776;92.226082
0.723796;79.569595
1.124616;72.848305
1.465073;68.315315
1.752664;64.837219
1.994573;61.973255
2.197252;59.515331
15.620803;-42.315266
15.744390;-45.640503
15.764202;-49.574924
15.615314;-54.364101
15.182005;-60.432877
14.241945;-68.581207
12.341655;-80.409081
8.704826;-98.447487
5.000000;-114.659058
9.067361;-90.380783
9.267632;-67.140053
16.418421;-56.436913
20.644365;-46.582405
25.348377;-36.253479
27.681545;-28.499516
28.803921;-21.299795
31.235956;-14.405309
31.180542;-9.115648
32.519993;-3.918849
35.127819;0.746648
33.938854;4.971155
35.175224;8.669275
32.429966;13.349481
31.661932;17.583862
31.143703;21.234238
26.502474;27.223103
24.154495;32.539711
23.704411;36.610184
19.143248;43.800694
15.329774;50.113209
9.304522;58.128025
5.398422;64.613617
3.658918;68.461716
2.870076;78.444901
3.288509;73.183960
3.631350;69.011902
3.907296;65.574333
4.127395;62.652592
4.301354;60.110970
4.437252;57.861340
18.615755;-38.949902
18.924749;-41.746357
19.174011;-44.969196
19.323460;-48.751816
19.305038;-53.303265
18.994968;-58.978825
18.144445;-66.451675
16.181471;-77.182625
11.688079;-94.236763
15.467361;-69.132744
12.149294;-61.441936
22.852001;-48.253254
27.173498;-39.579086
32.536922;-29.916580
34.627598;-23.604765
35.607941;-17.421099
38.417442;-11.261127
37.940994;-6.994170
39.411728;-2.582785
42.630394;1.290104
41.386673;4.771290
43.447189;7.468869
39.899326;11.837338
39.282097;15.528380
39.630333;18.057676
33.882717;24.324532
31.351717;29.420248
31.889492;32.391136
25.839989;40.765350
21.467630;47.439724
12.778814;57.496181
6.987430;65.013588
4.431588;67.104271
4.904922;73.697502
5.570926;71.653282
6.025461;68.162750
6.329525;64.871254
6.533760;61.964039
6.668906;59.407658
6.754266;57.142574
21.785368;-36.565968
22.279579;-39.061325
22.749512;-41.898594
23.171812;-45.164612
23.509817;-48.979729
23.705214;-53.513695
23.664619;-59.006432
23.241043;-65.778160
22.439363;-73.504501
14.991730;-62.298855
6.156879;-65.330551
21.282640;-50.210320
30.509090;-38.058590
38.640179;-26.471743
41.036671;-20.800940
42.261467;-14.989496
45.853634;-9.017344
44.824959;-5.737063
46.483704;-1.978595
50.430199;1.194830
49.238895;3.892835
52.655998;5.336664
48.009171;9.479693
47.689476;12.534795
49.736530;13.267350
42.603954;19.990883
40.236191;24.574856
43.208782;25.047501
35.381031;35.050053
32.095516;40.837982
20.346561;53.486168
12.870852;63.700756
9.745273;68.916153
5.514524;90.515030
7.526789;77.899353
8.413423;70.841629
8.863871;65.981438
9.098595;62.271362
9.211055;59.265820
9.248188;56.736214
25.692419;-33.981426
26.509058;-36.283516
27.378649;-38.922844
28.313213;-42.003712
29.337582;-45.687336
30.510614;-50.240387
31.990166;-56.142822
34.257233;-64.342171
39.121758;-76.347458
32.235661;-56.406891
23.589054;-51.509655
50.960884;-21.659914
46.835873;-23.248667
51.555527;-15.680519
51.260357;-13.864283
51.208450;-9.884995
54.939686;-4.971121
52.609314;-3.275045
54.067566;-0.552837
58.380825;1.535766
57.235523;3.253737
62.127167;2.829489
56.228527;7.073390
56.144341;9.480599
60.536121;7.432586
51.760437;15.267694
49.644733;19.338865
56.480755;15.217461
45.232452;29.164978
44.371101;33.023094
27.190544;51.516632
16.463251;66.121704
16.153250;64.947426
1.000000;115.292389
6.388464;93.734314
9.440992;78.878853
10.762269;70.382736
11.365596;64.787529
11.628438;60.711430
11.711671;57.532516
29.884068;-32.440605
31.037939;-34.770546
32.316555;-37.538719
33.759243;-40.944450
35.433212;-45.346455
37.462383;-51.444927
40.078941;-60.679714
43.551857;-75.388283
46.237888;-88.978279
45.569820;-63.828075
51.939152;-28.215551
66.700851;-5.286663
60.246910;-11.855371
62.202435;-6.887157
60.116886;-8.787756
59.251301;-6.115815
63.255486;-1.697323
59.763084;-1.793159
60.947849;-0.015089
64.927826;1.150871
64.214905;1.755390
67.345985;0.707107
63.771065;3.437825
63.861023;5.252293
67.035423;2.828427
61.526608;8.070178
60.285198;11.074390
66.535767;5.656854
56.593555;19.122934
54.534618;24.617500
44.272640;34.090847
27.177111;53.589096
16.749706;67.775963
8.822057;91.096901
12.969033;75.970596
14.548065;67.817383
15.140637;62.565575
15.299754;58.765743
15.247907;55.804729
15.086811;53.380589
32.101109;-28.719841
33.318451;-30.512012
34.639324;-32.580048
36.079288;-35.033611
37.657158;-38.062641
39.394791;-42.025120
41.311935;-47.663841
43.393425;-56.658306
45.571381;-72.220184
48.596249;-44.596710
54.250259;-27.074644
61.631886;-11.886577
63.097275;-7.085232
67.291534;-0.598738
66.357399;-3.423374
65.293625;-1.944375
67.343529;0.448420
65.154610;-0.248854
65.728310;0.607228
67.306755;0.965794
65.724976;1.808080
65.260857;2.351365
63.293663;5.508532
65.174370;7.454127
63.888931;6.456565
58.138741;12.692070
56.271175;16.239832
60.571598;13.190319
55.228901;24.319590
50.225754;28.787687
38.414814;41.489048
26.971962;56.657867
19.277489;71.007507
14.872708;77.646347
16.464552;69.419518
17.070501;63.875763
17.226845;59.791214
17.156418;56.596775
16.965322;53.990150
16.708727;51.795502
33.849575;-26.079344
35.192688;-27.527514
36.659958;-29.151047
38.270927;-31.005987
40.048397;-33.184189
42.015686;-35.848461
44.185356;-39.316383
46.513123;-44.282745
49.053181;-51.954071
56.710197;-32.953716
67.956604;-20.448626
63.422436;-14.687506
63.850365;-10.639061
67.201744;-4.205824
74.916740;-5.092814
68.145187;-3.637106
66.661392;-0.840719
66.194443;-0.729951
68.817467;0.512426
72.068520;1.121002
68.961884;2.758238
66.956886;4.148793
68.424644;6.806530
76.145615;7.943645
65.932358;9.995179
60.244518;15.356121
57.941917;19.492796
60.124153;20.426283
65.104881;26.853065
50.576897;34.205769
38.283653;48.092327
27.513811;65.971344
21.043579;87.783936
19.111061;77.967583
19.461296;69.518211
19.501072;63.719246
19.335459;59.458138
19.052326;56.152264
18.705759;53.478508
18.327538;51.245819
36.275967;-23.529638
37.872047;-24.655743
39.654778;-25.868931
41.669334;-27.182852
43.979477;-28.615740
46.678894;-30.193405
49.910995;-31.954525
53.904202;-33.960815
59.483883;-35.636425
74.247360;-20.516310
96.189339;-8.350945
76.957291;-11.607505
73.325752;-9.834725
78.036873;-5.923045
98.124573;-4.083292
80.443695;-3.738749
72.397011;-1.794359
73.684113;-0.719306
80.879623;0.419159
95.780640;0.299961
81.187996;2.688243
75.816948;4.827969
81.484070;6.635021
98.719223;5.605419
78.172874;10.347003
68.461090;16.178329
65.772888;21.180990
71.176926;23.724669
90.412048;24.511875
60.967255;37.537506
40.437588;58.562943
25.440395;86.634850
20.325806;104.565086
21.182673;91.903763
21.871927;77.298676
21.937136;67.939247
21.670364;61.801991
21.251156;57.458420
20.766844;54.176769
20.260216;51.570709
39.490417;-21.208485
41.492851;-22.016283
43.796814;-22.822659
46.500423;-23.599409
49.756332;-24.293270
53.816780;-24.799213
59.130028;-24.896669
66.561653;-24.081402
78.348381;-20.515373
100.325233;-7.382084
115.308075;-1.000000
100.428940;-5.110669
90.307060;-6.665318
100.429779;-4.328892
115.066246;-3.000000
101.521904;-3.232963
86.465851;-2.106865
87.718254;-0.840924
101.465462;-0.355006
114.756927;-1.000000
101.568428;0.782140
91.418243;3.686130
101.799637;4.438896
114.703033;3.000000
100.298477;6.329992
84.115860;13.049238
81.741386;18.760830
95.647331;20.732079
111.602020;19.449463
91.561142;25.446413
61.814911;41.079723
39.036324;62.795403
24.672102;88.812233
26.025248;74.466805
26.203724;65.434921
25.693727;59.688965
24.961351;55.669834
24.174736;52.643158
23.397091;50.237705
22.652081;48.248943
37.723221;-20.414553
39.490417;-21.208485
41.492851;-22.016283
43.796814;-22.822659
46.500423;-23.599409
49.756332;-24.293270
53.816780;-24.799213
59.130028;-24.896669
67.056007;-23.341316
81.954842;-13.864644
101.653275;-5.555552
84.145966;-9.149305
79.415474;-8.513179
85.650269;-5.914671
102.880005;-3.765648
86.385300;-3.567470
77.914177;-2.081486
78.500771;-0.601982
86.604057;0.433177
102.264336;0.089080
86.913841;2.640319
81.019371;5.048509
86.573914;6.400891
102.404930;5.143386
83.854256;9.896117
73.267693;15.243955
70.876404;19.848763
77.814095;22.467888
96.427620;22.206959
71.117470;30.211952
51.846394;41.408920
37.422497;55.335373
27.248838;72.504852
26.203724;65.434921
25.693727;59.688965
24.961351;55.669834
24.174736;52.643158
23.397091;50.237705
22.652081;48.248943
21.947557;46.555668
36.144623;-19.642702
37.723221;-20.414553
39.490417;-21.208485
41.492851;-22.016283
43.796814;-22.822659
46.500423;-23.599409
49.756332;-24.293270
53.816780;-24.799213
59.626431;-24.059046
69.714920;-17.076441
83.720047;-10.783481
73.186234;-11.364120
71.224464;-9.623481
75.590462;-6.917205
87.096687;-4.702037
76.100685;-3.750000
71.223526;-2.015047
71.481468;-0.352787
76.468758;1.027459
86.886040;1.465874
76.708885;3.878914
73.024139;6.103333
75.831528;7.853450
85.908829;7.950724
72.739685;12.090079
65.370369;16.583838
63.029888;20.655735
66.209068;23.602749
77.054543;25.274624
58.922344;32.114426
45.605118;40.719509
35.212494;50.909626
27.475126;62.973881
25.693727;59.688965
24.961351;55.669834
24.174736;52.643158
23.397091;50.237705
22.652081;48.248943
21.947557;46.555668
21.284718;45.081474
34.720577;-18.897177
36.144623;-19.642702
37.723221;-20.414553
39.490417;-21.208485
41.492851;-22.016283
43.796814;-22.822659
46.500423;-23.599409
49.756332;-24.293270
54.295902;-23.902483
61.556107;-18.446333
71.257523;-13.691953
65.482292;-12.502481
64.872704;-10.228139
68.264336;-7.476556
75.870201;-5.237163
68.724396;-3.791538
65.746284;-1.896137
65.840019;-0.098246
69.158165;1.498140
76.079979;2.453006
69.243416;4.752703
66.687103;6.919016
68.041214;8.893656
74.077660;9.866471
64.914299;13.467152
59.315125;17.449121
57.067532;21.197392
58.353535;24.265036
64.051064;26.919245
51.207157;32.741600
41.226898;39.804539
33.122562;47.901150
26.864920;57.121220
24.961351;55.669834
24.174736;52.643158
23.397091;50.237705
22.652081;48.248943
21.947557;46.555668
21.284718;45.081474
20.662025;43.775715
33.425568;-18.179905
34.720577;-18.897177
36.144623;-19.642702
37.723221;-20.414553
39.490417;-21.208485
41.492851;-22.016283
43.796814;-22.822659
46.500423;-23.599409
50.210758;-23.361572
55.736073;-18.891996
62.806709;-15.101692
59.702335;-13.031645
59.779022;-10.499900
62.582153;-7.741779
67.912117;-5.472648
63.046101;-3.732203
61.138268;-1.735318
61.146004;0.157864
63.498207;1.893811
68.357063;3.167570
63.433922;5.409018
61.507587;7.558224
62.058052;9.656667
65.746628;11.120624
59.014107;14.377746
54.479095;18.022007
52.343288;21.540592
52.628311;24.625183
55.483086;27.688541
45.855297;32.811028
37.918591;38.871418
31.271307;45.657001
26.004168;53.156731
24.174736;52.643158
23.397091;50.237705
22.652081;48.248943
21.947557;46.555668
21.284718;45.081474
20.662025;43.775715
20.076855;42.603302
