11;28
72.369408;2.359451
67.306412;4.318616
59.090847;6.583749
51.614643;9.048195
0.000000;0.000000
0.000000;0.000000
0.000000;0.000000
0.000000;0.000000
0.000000;0.000000
0.000000;0.000000
0.000000;0.000000
0.000000;0.000000
0.000000;0.000000
0.000000;0.000000
0.000000;0.000000
0.000000;0.000000
0.000000;0.000000
0.000000;0.000000
0.000000;0.000000
0.000000;0.000000
0.000000;0.000000
0.000000;0.000000
0.000000;0.000000
0.000000;0.000000
0.000000;0.000000
-65.395264;1.439375
-67.386703;-0.303774
-68.000000;-1.000000
74.000000;1.500000
71.895126;2.407401
65.271149;4.452695
57.608177;7.036337
0.000000;0.000000
0.000000;0.000000
0.000000;0.000000
0.000000;0.000000
0.000000;0.000000
0.000000;0.000000
0.000000;0.000000
0.000000;0.000000
0.000000;0.000000
s
0.000000;0.000000
0.000000;0.000000
0.000000;0.000000
0.000000;0.000000
0.000000;0.000000
0.000000;0.000000
0.000000;0.000000
0.000000;0.000000
0.000000;0.000000
0.000000;0.000000
0.000000;0.000000
-62.336876;4.706583
-65.599670;2.014794
-67.451355;-0.091342
71.910500;2.734872
65.434586;5.259035
55.118095;7.740478
47.380802;10.403871
0.000000;0.000000
0.000000;0.000000
0.000000;0.000000
0.000000;0.000000
0.000000;0.000000
0.000000;0.000000
0.000000;0.000000
0.000000;0.000000
0.000000;0.000000
0.000000;0.000000
0.000000;0.000000
0.000000;0.000000
0.000000;0.000000
0.000000;0.000000
0.000000;0.000000
0.000000;0.000000
0.000000;0.000000
0.000000;0.000000
0.000000;0.000000
0.000000;0.000000
0.000000;0.000000
-59.112690;9.262527
-63.219013;6.148312
-66.070465;3.036949
65.634453;6.776610
55.773396;9.589993
43.682980;11.090013
37.563061;13.403979
31.334972;15.481532
0.000000;0.000000
0.000000;0.000000
0.000000;0.000000
0.000000;0.000000
0.000000;0.000000
0.000000;0.000000
0.000000;0.000000
0.000000;0.000000
0.000000;0.000000
0.000000;0.000000
0.000000;0.000000
0.000000;0.000000
0.000000;0.000000
0.000000;0.000000
0.000000;0.000000
0.000000;0.000000
0.000000;0.000000
0.000000;0.000000
0.000000;0.000000
-50.738998;17.287580
-56.279297;14.769965
-60.953442;11.946872
-64.541420;8.736674
56.865059;13.154819
45.460911;14.202481
33.173595;13.488983
29.285757;15.507338
24.632154;17.260359
19.569496;18.678097
0.000000;0.000000
0.000000;0.000000
0.000000;0.000000
0.000000;0.000000
0.000000;0.000000
0.000000;0.000000
0.000000;0.000000
0.000000;0.000000
0.000000;0.000000
0.000000;0.000000
0.000000;0.000000
0.000000;0.000000
0.000000;0.000000
0.000000;0.000000
0.000000;0.000000
0.000000;0.000000
0.000000;0.000000
-42.254951;24.006994
-48.593365;22.440424
-54.472057;20.759052
-59.630932;18.886600
-63.846409;16.686567
48.767250;20.321501
36.719307;17.927526
24.583357;14.314926
22.816074;16.466002
19.506453;18.170063
15.339004;19.384132
10.972590;20.016987
0.000000;0.000000
0.000000;0.000000
0.000000;0.000000
0.000000;0.000000
0.000000;0.000000
0.000000;0.000000
0.000000;0.000000
0.000000;0.000000
0.000000;0.000000
0.000000;0.000000
0.000000;0.000000
0.000000;0.000000
0.000000;0.000000
0.000000;0.000000
0.000000;0.000000
-34.301762;29.051531
-41.064178;28.177744
-47.770229;27.413601
-54.136272;26.761919
-59.902351;26.223799
-64.862579;25.796879
43.755558;26.944794
30.317280;20.138416
17.680613;13.255816
17.831043;16.172150
15.631388;18.218290
12.076215;19.428524
8.121628;19.748911
4.534636;19.096581
0.000000;0.000000
0.000000;0.000000
0.000000;0.000000
0.000000;0.000000
0.000000;0.000000
0.000000;0.000000
0.000000;0.000000
0.000000;0.000000
0.000000;0.000000
0.000000;0.000000
0.000000;0.000000
0.000000;0.000000
-20.615625;33.608742
-26.907167;32.814690
-33.804432;32.271435
-41.065056;31.998726
-48.395386;32.030243
-55.484409;32.416489
-62.048290;33.235149
-67.876526;34.616096
42.644844;32.791599
25.735876;20.570864
11.521749;10.039174
13.701699;14.467528
12.587421;17.389687
9.436316;18.842295
5.663859;18.829851
2.361089;17.350136
0.046254;14.409179
1.320284;17.889923
2.008683;21.124666
1.986372;24.639498
1.309668;28.810402
0.193955;33.780449
-0.980098;39.371330
-1.756189;45.007530
-3.369516;42.174648
-5.941920;39.916512
-9.546570;38.154720
-14.223374;36.822620
-19.962509;35.883404
-26.681709;35.329067
-34.206928;35.174946
-42.266140;35.453712
-50.504543;36.210556
-58.523190;37.500614
-65.932457;39.388153
-72.400009;41.938984
45.662746;38.754814
21.514027;18.730665
5.117347;4.575373
9.600740;10.971583
9.924420;15.557370
7.077882;17.614332
3.300498;17.118633
0.315457;14.426407
-1.000000;11.500000
-0.071017;14.635406
0.942879;18.800806
1.281607;23.262341
0.880523;28.624340
-0.037725;35.099495
-0.987641;42.160461
-1.437883;48.495567
-2.727787;45.173649
-5.076612;42.469872
-8.619020;40.405373
-13.447757;38.928135
-19.597813;38.001640
-27.009970;37.619919
-35.490829;37.800552
-44.686901;38.569801
-54.090855;39.943504
-63.089340;41.904507
-71.041191;44.370777
-77.351692;47.133320
54.677177;47.558147
14.583133;12.685179
0.500000;0.000000
4.811503;4.997122
8.632392;12.506752
8.341989;18.425388
5.631092;21.876463
2.928408;23.224634
1.400518;23.380320
2.036873;24.166946
2.341117;26.070711
2.026850;29.513117
1.088887;34.745228
-0.118922;41.379360
-0.982757;47.960835
-1.145794;52.513569
-2.059136;49.591328
-4.201258;46.608143
-7.826379;44.096760
-13.089123;42.223629
-20.052977;41.042332
-28.637077;40.584339
-38.541241;40.872929
-49.191475;41.901527
-59.752743;43.596386
-69.238426;45.776375
-76.697029;48.116608
-81.406349;50.109062
70.000000;61.000000
54.185940;47.690063
14.246045;12.988392
19.008213;20.396486
17.095951;24.513315
12.009028;27.382454
6.823917;29.813953
3.682410;32.512878
3.000000;35.000000
3.091789;32.911690
3.094015;32.446758
2.407041;35.119095
1.030651;40.620506
-0.356110;47.302017
-0.988996;52.338203
-1.000000;54.000000
-1.361625;52.829502
-3.017362;50.399914
-6.561166;47.821980
-12.330765;45.666161
-20.453917;44.211452
-30.768742;43.603691
-42.685246;43.897736
-55.111351;45.029152
-66.579582;46.768936
-75.614464;48.712082
-81.188110;50.321953
-83.000000;51.000000
