20;20;0.650000;0.650000
6.659805;6.354674
-0.243496;-0.886157
-0.208534;-1.084372
-0.224481;-1.156584
-0.531303;-0.742092
-0.806852;-0.495868
-1.023216;-0.350941
-1.152561;-0.265353
-1.230599;-0.208208
-1.284366;-0.167325
-1.325638;-0.137987
-1.357716;-0.116991
-1.361665;-0.094720
-1.155651;0.004422
-0.953270;0.108523
-0.863227;0.154468
-0.830521;0.147676
-0.851545;0.087264
-0.911975;-0.004666
-0.980277;-0.094183
-0.999317;-0.132458
-0.161015;-1.005653
-0.100113;-1.293907
-0.044247;-1.506292
-0.501004;-0.854734
-0.984339;-0.489576
-1.393816;-0.308826
-1.529345;-0.252227
-1.632688;-0.229142
-1.754862;-0.235332
-1.676997;-0.211066
-1.580015;-0.168388
-1.479802;-0.112988
-1.199766;0.036694
-1.002964;0.161880
-0.907956;0.220019
-0.879601;0.187962
-0.964942;0.032061
-1.124434;-0.173265
-1.302435;-0.368059
-1.500689;-0.560154
-0.019093;-1.105629
-0.032891;-1.310702
-0.014663;-1.547433
-0.476188;-0.908619
-0.956376;-0.536247
-1.287612;-0.347966
-1.336149;-0.262348
-1.346772;-0.190111
-1.342517;-0.127948
-1.327700;-0.069672
-1.302399;-0.015381
-1.262590;0.045082
-1.198726;0.124442
-1.114445;0.218980
-0.990864;0.331535
-0.912678;0.286506
-1.220235;-0.197025
-1.575704;-0.614998
-1.440145;-0.488468
-1.223797;-0.299023
0.387933;-1.331056
0.210867;-1.356711
0.017424;-1.577961
-0.482530;-0.931872
-0.890840;-0.645294
-1.199428;-0.478173
-1.420078;-0.247188
-1.505078;-0.159504
-1.573812;-0.123218
-1.629437;-0.052528
-1.668019;-0.042891
-1.715773;-0.045222
-1.735702;0.029950
-1.720330;0.046208
-1.631531;0.148703
-0.799091;0.635342
-1.029684;0.073795
-1.038212;-0.024693
-0.947970;0.015639
-0.834546;0.084289
0.264010;-1.242343
0.658569;-1.505189
-0.040121;-1.268681
-0.608614;-0.957749
-1.240142;-0.801905
-1.319988;-0.638817
-1.335730;-0.214893
-1.354666;-0.084961
-1.335918;-0.011251
-1.299613;0.061005
-1.254998;0.127574
-1.221466;0.175163
-1.187569;0.227416
-1.081159;0.361422
-0.680332;0.944291
-0.541483;1.044037
-0.618137;0.614614
-0.647680;0.430326
-0.632987;0.361642
-0.588819;0.346297
0.128085;-1.154721
0.441634;-1.375409
0.121385;-1.264029
-0.192226;-1.586460
-0.786376;-0.832363
-0.974514;-0.408106
-1.332040;-0.043262
-1.369389;0.037503
-1.362566;0.071943
-1.317027;0.137229
-1.206701;0.276417
-1.218273;0.262513
-1.245354;0.234952
-1.183439;0.313451
-0.552254;0.942333
-0.386648;1.287184
-0.429075;0.853229
-0.442792;0.681148
-0.443355;0.590850
-0.429424;0.536671
0.082951;-1.184810
0.129233;-1.234608
0.064154;-1.259279
-0.068529;-1.676218
-0.411910;-0.932596
-0.653092;-0.440850
-0.944985;0.445716
-0.961913;0.506157
-0.834977;0.311027
-0.652605;0.465037
-0.337396;1.000407
-0.365509;0.791675
-0.336750;0.639157
-0.262706;0.740422
-0.274239;1.038837
-0.270894;1.488523
-0.300699;1.012518
-0.318597;0.861849
-0.327030;0.772730
-0.324866;0.692637
0.199151;-1.422959
0.137588;-1.367695
-0.051786;-1.238645
-0.047732;-1.706629
-0.237336;-1.111158
-0.402596;-0.733457
-0.684360;0.003452
-0.983891;0.886509
-0.751272;0.607663
-0.328926;0.765782
-0.052875;1.240063
0.059316;0.975156
0.822774;1.413850
1.070271;1.120995
-0.186688;1.633291
-0.236787;1.680164
-0.219547;1.140122
-0.268547;1.095906
-0.271174;0.979997
-0.260868;0.839224
0.179754;-1.385038
0.226722;-1.504128
-0.003565;-1.281764
0.069441;-1.706153
-0.136179;-1.280205
-0.257290;-1.027481
-0.576590;-0.237419
-0.978966;0.630105
-0.920823;0.845841
-0.240130;0.810241
0.047702;1.134986
0.517335;1.070948
1.194092;1.136729
0.361337;0.928824
-0.117293;1.465576
-0.214121;1.640794
-0.174241;1.231780
-0.354037;1.510385
-0.277301;1.221186
-0.227998;0.974359
0.161175;-1.329490
0.323779;-1.646132
0.050571;-1.317604
0.061566;-1.641440
-0.100987;-1.323435
-0.238815;-1.095156
-0.700498;-0.364631
-0.935093;0.014934
-0.929707;0.383088
-0.402250;0.419079
0.140543;0.542095
0.970041;0.973343
0.592572;0.582693
0.331661;0.698943
-0.038220;1.300597
-0.126575;1.511849
-0.127190;1.268901
-0.272306;1.385513
-0.296957;1.375154
-0.212177;1.079425
0.155971;-1.279051
0.337660;-1.660140
0.104201;-1.348688
0.057848;-1.586232
-0.082965;-1.342224
-0.250318;-1.129592
-0.755054;-0.497667
-1.026350;-0.242531
-0.975243;-0.176501
-0.694975;-0.107040
0.271905;-0.101280
1.365522;-0.293292
1.271564;-0.196219
0.796805;0.207109
0.096756;1.091081
-0.080343;1.438170
-0.083354;1.282872
-0.197773;1.302840
-0.337586;1.516496
-0.206336;1.161430
0.164126;-1.232034
0.277943;-1.526142
0.168275;-1.386626
0.035072;-1.339271
-0.065497;-1.336530
-0.278023;-1.146218
-1.392092;-0.445223
-1.067201;-0.543906
-0.882982;-1.123435
-0.155678;-0.903376
0.399856;-0.767455
1.250732;-0.716002
1.177675;-0.432562
0.870501;0.015433
0.248313;0.873806
-0.044270;1.396635
-0.044559;1.299736
-0.129830;1.244445
-0.424001;1.707429
-0.211195;1.237324
0.186597;-1.185253
0.258622;-1.430479
0.241924;-1.461345
0.101473;-1.446958
-0.003711;-1.383192
-0.142180;-1.233285
-0.443716;-0.861411
-0.747842;-1.030584
-0.778832;-1.144781
-0.017888;-1.200277
0.337959;-1.331904
0.856234;-0.774929
1.000943;-1.134373
0.947529;-0.132351
0.427356;0.652268
-0.017355;1.422674
0.017353;1.316004
-0.064000;1.198983
-0.327541;1.543202
-0.229682;1.319522
0.226585;-1.132831
0.270508;-1.348768
0.319848;-1.568050
0.156583;-1.469739
0.074857;-1.383748
-0.072094;-1.186617
-0.460515;-0.993793
-0.888010;-1.136405
-0.208012;-1.026330
0.065368;-1.252828
0.176339;-1.489830
0.828987;-0.762960
1.006326;-0.710101
0.655766;0.004297
0.308508;0.763423
-0.049659;1.518363
0.071016;1.310626
0.003971;1.154283
-0.230830;1.403556
-0.265760;1.417408
0.292887;-1.065625
0.317748;-1.256871
0.392244;-1.756243
0.247556;-1.428799
0.212879;-1.322669
0.043492;-1.011106
-0.864292;-1.153239
-0.139373;-0.841791
0.095664;-0.927814
0.157307;-1.221989
0.423044;-0.668916
0.646112;-0.438061
0.871215;-0.438371
0.820205;-0.171726
0.454999;0.688438
-0.084505;1.619594
0.171993;1.260744
0.077235;1.105406
-0.132659;1.281592
-0.321442;1.534572
0.411844;-0.977211
0.430126;-1.118839
0.405134;-1.517144
0.456912;-1.299809
0.627894;-1.301252
0.445781;-0.881993
0.359456;-0.690120
0.422858;-0.584555
0.475563;-0.619269
0.485974;-0.723400
0.695340;-0.355495
0.808001;-0.175449
0.865262;-0.018479
0.850021;0.252371
0.868046;0.703754
1.349275;1.060721
0.392465;1.045441
0.081067;1.143862
-0.081602;1.282543
-0.106138;1.202891
0.665114;-0.885769
0.747160;-0.942299
0.645442;-1.017551
0.646828;-1.028411
0.852009;-1.259089
0.979586;-0.674051
1.067540;-0.354099
1.100565;-0.258485
1.135703;-0.196110
1.191442;-0.138160
1.265607;-0.052048
1.343419;0.058442
1.425310;0.145035
1.497260;0.256053
1.215909;0.817644
0.756845;0.769757
0.387601;0.885740
0.023886;1.225614
-0.183234;1.520099
-0.043567;1.145470
0.950898;-0.835664
1.528204;-0.895215
1.112083;-0.862549
0.900973;-0.821438
0.921916;-0.753651
1.232740;-0.402893
1.321689;-0.197254
1.344423;-0.122236
1.348392;-0.059987
1.347268;-0.016749
1.353227;0.035252
1.351520;0.106175
1.322215;0.173874
1.151941;0.272040
0.890311;0.452371
0.618343;0.605418
0.346144;0.804701
0.033941;1.177510
-0.252094;1.658744
-0.053949;1.189300
0.795556;-0.756597
1.042347;-0.797408
1.296896;-0.836816
1.401721;-0.844916
1.036463;-0.569873
1.158841;-0.262475
1.299344;-0.076301
1.389784;0.029177
1.481847;0.113435
1.598088;0.194040
1.744080;0.269365
1.604612;0.230177
1.459468;0.224256
1.059441;0.246813
0.766885;0.362816
0.550931;0.516476
0.328902;0.729541
0.060799;1.093372
-0.290151;1.734495
-0.067633;1.220794
0.683538;-0.673112
0.821292;-0.687808
0.954370;-0.688645
1.065153;-0.659022
1.052497;-0.433169
1.531634;0.095682
1.469230;0.081732
1.392307;0.062899
1.326595;0.057712
1.268251;0.064508
1.210913;0.082896
1.142280;0.112718
1.035627;0.154431
0.865596;0.217378
0.682009;0.316140
0.511098;0.450146
0.335090;0.635112
0.127441;0.927435
-0.178543;1.496185
-0.027502;1.120075
