20;20;0.650000;0.650000
6.631063;6.393415
-0.592990;-0.268049
-0.655300;-0.259361
-0.720818;-0.238992
-0.784381;-0.205081
-0.838996;-0.160424
-0.880602;-0.109279
-0.910667;-0.050664
-0.935215;0.024950
-0.963144;0.133871
-0.987780;0.260463
-0.968071;0.330758
-0.920181;0.372179
-0.864183;0.408923
-0.804267;0.443446
-0.741121;0.476133
-0.674856;0.506856
-0.605913;0.533403
-0.536517;0.551312
-0.470168;0.557865
-0.409357;0.554748
-0.607323;-0.326234
-0.683461;-0.326201
-0.770252;-0.308854
-0.860222;-0.266176
-0.935291;-0.207317
-0.985374;-0.149395
-1.015442;-0.093998
-1.038042;-0.022249
-1.080279;0.130593
-1.259941;0.630361
-1.133222;0.472920
-1.042524;0.449369
-0.966054;0.462912
-0.891941;0.487312
-0.816012;0.517250
-0.735857;0.552585
-0.648837;0.589764
-0.559595;0.614360
-0.477756;0.617193
-0.406751;0.605443
-0.610789;-0.396337
-0.700117;-0.416561
-0.817989;-0.415726
-0.970731;-0.347396
-1.090071;-0.242868
-1.147790;-0.171010
-1.167971;-0.132586
-1.174806;-0.104831
-1.190995;-0.043158
-1.248570;0.213854
-1.423928;0.988094
-1.209411;0.587180
-1.107877;0.522409
-1.020412;0.519136
-0.932098;0.539049
-0.837288;0.582177
-0.714305;0.656955
-0.579960;0.706673
-0.476122;0.694011
-0.394996;0.663845
-0.596536;-0.476509
-0.686846;-0.538337
-0.810355;-0.632947
-1.283896;-0.413921
-1.505714;-0.168835
-1.560234;-0.083228
-1.518507;-0.049037
-1.467026;-0.119867
-1.419557;-0.320033
-1.393701;-0.291738
-1.367401;0.347514
-1.410122;0.614851
-1.391345;0.525791
-1.319690;0.435612
-1.233275;0.433286
-1.140749;0.478601
-0.891332;0.717226
-0.555755;0.898212
-0.452466;0.791924
-0.369158;0.726922
-0.561530;-0.556891
-0.634505;-0.669979
-0.659066;-0.950630
-0.755817;-0.986795
-1.172655;-0.206813
-1.257246;-0.088696
-1.308145;-0.372633
-1.508437;-0.561719
-1.292833;-0.445736
-1.235597;0.015951
-1.171521;0.685523
-1.213898;0.668447
-1.220442;0.747820
-1.248618;0.846456
-0.904816;0.710425
-0.755979;0.716734
-0.641636;1.007047
-0.420842;1.120393
-0.398740;0.887178
-0.326910;0.785437
-0.509017;-0.624649
-0.561550;-0.771206
-0.531100;-1.146093
-0.790394;-0.890890
-1.194433;-0.379058
-1.359740;0.279273
-1.312531;-0.677367
-1.145836;-0.547386
-1.029762;-0.339453
-1.023108;-0.007454
-0.998212;0.384083
-1.055015;0.899262
-1.109023;0.971272
-0.858612;0.973927
-0.797057;1.095549
-0.564166;0.984945
-0.417321;1.217448
-0.340795;1.215990
-0.338556;0.951705
-0.271161;0.830525
-0.443248;-0.674062
-0.479808;-0.830761
-0.344723;-1.223413
-1.015075;-0.755338
-1.176967;-0.603268
-1.309686;-0.953188
-1.210974;0.339140
-0.930585;-0.401420
-0.940914;-0.472641
-1.173887;-0.345997
-0.945036;0.129816
-0.776313;0.806209
-0.895778;1.072765
-0.277329;1.150904
-0.517680;1.064165
-0.917082;1.003443
-0.699358;1.148270
-0.357691;1.280709
-0.279302;0.991107
-0.201525;0.860858
-0.365488;-0.707788
-0.401642;-0.861568
-0.313175;-1.212361
-0.655593;-1.052470
-1.278424;-1.073088
-1.082583;-0.562093
-1.122472;-0.392732
-1.159882;-0.465548
0.000000;0.000000
0.000000;0.000000
0.000000;0.000000
0.000000;0.000000
-0.361124;1.077748
-0.602648;1.048491
-0.969068;1.055042
-0.864813;0.908221
-0.511183;1.069368
-0.305863;1.382481
-0.191785;1.016399
-0.110648;0.879503
-0.271124;-0.731462
-0.309010;-0.881126
-0.305824;-1.208630
-0.878580;-1.125535
-1.170614;-0.608658
-1.608010;-0.456371
-1.316894;-0.561460
0.000000;0.000000
0.000000;0.000000
0.000000;0.000000
0.000000;0.000000
0.000000;0.000000
0.000000;0.000000
-1.290873;0.893346
-0.909699;0.742391
-1.078141;0.942297
-0.449568;0.942984
-0.261372;1.542931
-0.058612;1.030634
0.005604;0.890463
-0.155471;-0.749436
-0.174565;-0.896107
-0.174759;-1.234984
-0.305765;-1.085480
-0.602922;-0.674039
-0.806562;-0.514951
-0.821775;-0.455922
0.000000;0.000000
0.000000;0.000000
0.000000;0.000000
0.000000;0.000000
0.000000;0.000000
0.000000;0.000000
-0.184470;0.646821
-0.063946;0.646503
0.052349;0.721566
-0.233587;0.764072
-0.128205;1.526265
0.128807;1.038312
0.136200;0.899649
-0.024279;-0.763948
0.004397;-0.907329
0.025495;-1.235552
-0.119786;-1.044293
-0.432329;-0.647346
-0.624787;-0.497176
-0.639647;-0.423777
0.000000;0.000000
0.000000;0.000000
0.000000;0.000000
0.000000;0.000000
0.000000;0.000000
0.000000;0.000000
0.448778;0.556862
1.359060;0.383276
1.086087;0.554359
1.086884;0.853824
0.364413;1.231924
0.255499;1.082527
0.248802;0.913969
0.100080;-0.774256
0.195053;-0.913850
1.266911;-1.089620
-0.264721;-0.862877
-0.743135;-0.530728
-0.453874;-0.506535
-0.162737;-0.490740
0.000000;0.000000
0.000000;0.000000
0.000000;0.000000
0.000000;0.000000
0.000000;0.000000
0.000000;0.000000
0.785584;0.566309
0.960189;0.706570
1.274504;1.001878
0.929105;0.908844
0.363022;1.245194
0.287790;1.144875
0.327438;0.930597
0.191708;-0.778954
0.268665;-0.912351
0.369144;-1.141518
0.758724;-1.090724
1.064629;-0.618565
0.947726;-0.635365
0.756553;-0.655922
0.000000;0.000000
0.000000;0.000000
0.000000;0.000000
0.000000;0.000000
0.000000;0.000000
1.396034;-0.388055
1.149844;0.582307
1.357376;0.874629
1.237852;0.819529
1.090263;0.886349
0.439097;1.179025
0.285780;1.194148
0.380880;0.943326
0.255644;-0.780319
0.293956;-0.920869
0.239724;-1.194543
0.434855;-1.131741
1.009299;-0.832550
1.249779;-0.862339
1.332803;-0.728053
1.042773;-0.834448
1.013811;-0.613006
0.905561;-0.335635
0.865938;0.006838
0.919892;0.357682
1.035379;0.675607
1.103186;1.221403
1.507763;-0.080465
1.200637;0.532023
1.137862;0.951614
0.551039;1.056809
0.245881;1.256787
0.419654;0.952978
0.309736;-0.776265
0.324951;-0.935542
0.189054;-1.287681
0.450306;-1.128560
1.230852;-0.929887
1.023536;-0.906359
1.169580;-1.073119
0.944302;-0.956476
1.150684;-0.833963
1.544111;-0.705429
1.146472;-0.182425
1.107608;0.487492
1.211576;1.045921
1.160877;0.843297
1.285822;0.640642
1.594503;0.347365
1.613849;-0.657245
0.778108;0.881225
0.205862;1.352706
0.462072;0.956858
0.365338;-0.756937
0.380140;-0.927693
0.245678;-1.336797
0.464839;-1.108749
0.795189;-0.853918
0.889955;-1.008791
-0.279801;-1.564904
1.074463;-0.911125
1.141046;-0.898933
1.139216;-0.429087
1.300200;0.056410
1.276965;0.725916
1.130346;0.783222
1.289650;0.940912
1.102267;0.710843
0.403587;1.629214
0.941383;0.707991
0.670169;0.986219
0.390989;1.340610
0.526654;0.931217
0.424906;-0.712059
0.469791;-0.865841
0.368542;-1.269297
0.679380;-0.969983
0.893898;-0.695011
0.804068;-0.754595
0.620443;-0.864994
1.026298;-0.568403
1.209313;-0.573507
1.310503;-0.587997
1.257839;0.149498
1.207852;0.345898
1.185565;0.412246
1.173843;0.454289
1.102429;0.555557
0.568297;1.185148
1.046774;0.618669
0.816399;0.903589
0.525359;1.199533
0.604732;0.852480
0.477584;-0.641511
0.568957;-0.737350
0.778019;-0.854539
1.417059;-0.550896
1.631564;-0.421810
1.604478;-0.139981
1.583111;-0.132256
1.671102;0.058998
1.772588;0.134850
1.704463;-0.078017
1.780598;-0.066395
1.788296;0.027008
1.798263;0.026831
1.781601;0.036692
1.687019;0.150080
1.606250;0.205927
1.514524;0.302252
1.332774;0.450611
0.813537;0.794060
0.679317;0.724311
0.507792;-0.561130
0.603578;-0.603567
0.749136;-0.615168
0.933266;-0.548558
1.072620;-0.438556
1.131239;-0.342500
1.156448;-0.278094
1.171376;-0.210368
1.181457;-0.153699
1.195829;-0.090175
1.212992;-0.000588
1.221989;0.096844
1.218354;0.180791
1.204264;0.251404
1.176072;0.317598
1.135914;0.377470
1.076264;0.440150
0.969215;0.522515
0.820476;0.596891
0.704927;0.607703
0.515994;-0.486882
0.594949;-0.503601
0.690020;-0.499518
0.789575;-0.465041
0.871360;-0.408455
0.925372;-0.346600
0.960483;-0.285380
0.986414;-0.220976
1.007157;-0.151966
1.024287;-0.075157
1.036927;0.010234
1.042626;0.097150
1.039846;0.177325
1.028059;0.248218
1.006236;0.311175
0.972939;0.367740
0.924249;0.420777
0.855447;0.471246
0.772690;0.509843
0.693474;0.526108
