10;10;0.600000;0.400000
1.890482;3.117638
0.037961;-1.799525
0.039090;-1.799521
0.040116;-1.799509
0.044100;-1.799390
0.048872;-1.799266
0.043425;-1.799378
0.037730;-1.799496
0.034046;-1.799567
0.032058;-1.799602
0.030856;-1.799617
0.038007;-1.799534
0.039089;-1.799540
0.039240;-1.799565
0.045795;-1.799359
0.057653;-1.799070
0.044755;-1.799351
0.032673;-1.799615
0.028802;-1.799694
0.029250;-1.799670
0.029030;-1.799660
0.037319;-1.799546
0.038564;-1.799548
0.039054;-1.799569
0.044014;-1.799399
0.057865;-1.799065
0.041190;-1.799428
0.026658;-1.799753
0.024635;-1.799796
0.026636;-1.799730
0.027069;-1.799701
0.035975;-1.799562
0.037451;-1.799563
0.038784;-1.799577
0.038883;-1.799510
0.041293;-1.799422
0.033360;-1.799585
0.024950;-1.799783
0.023666;-1.799812
0.024930;-1.799758
0.025270;-1.799729
0.034085;-1.799579
0.035938;-1.799580
0.038695;-1.799579
0.034384;-1.799586
0.030239;-1.799618
0.026264;-1.799700
0.023145;-1.799809
0.022627;-1.799825
0.023157;-1.799778
0.023349;-1.799748
0.031535;-1.799597
0.033919;-1.799594
0.038834;-1.799580
0.029819;-1.799615
0.021392;-1.799667
0.019067;-1.799734
0.020932;-1.799818
0.021449;-1.799834
0.021080;-1.799789
0.021149;-1.799761
0.027614;-1.799613
0.030302;-1.799605
0.038505;-1.799581
0.018679;-1.799640
-0.011596;-1.799713
-0.002546;-1.799739
0.016667;-1.799817
0.019958;-1.799836
0.018474;-1.799790
0.018565;-1.799760
0.021341;-1.799632
0.019978;-1.799637
0.015450;-1.799648
-0.001022;-1.799687
-0.023116;-1.799726
-0.015686;-1.799734
0.005176;-1.799772
0.013608;-1.799794
0.014238;-1.799769
0.015433;-1.799749
0.015396;-1.799651
0.010848;-1.799662
0.002878;-1.799682
-0.010016;-1.799705
-0.026175;-1.799728
-0.019990;-1.799727
-0.005242;-1.799730
0.004254;-1.799737
0.009379;-1.799736
0.012403;-1.799730
0.012518;-1.799661
0.008152;-1.799671
0.001994;-1.799686
-0.006120;-1.799702
-0.014217;-1.799716
-0.011596;-1.799718
-0.003464;-1.799718
0.003076;-1.799718
0.007681;-1.799716
0.010882;-1.799714
