20;20;0.150000;0.100000
1.819264;1.505988
0.926702;-0.951712
0.895537;-1.034167
0.854828;-1.130192
0.806450;-1.241242
0.757192;-1.357489
0.728400;-1.418375
0.726124;-1.383835
0.719955;-1.334705
0.698963;-1.305980
0.660714;-1.309391
0.605050;-1.352521
0.533887;-1.439629
0.451844;-1.568987
0.395386;-1.670253
0.438848;-1.566761
0.477167;-1.462514
0.508038;-1.365939
0.533828;-1.274421
0.555882;-1.186796
0.574972;-1.102798
0.979491;-0.953959
0.942456;-1.043640
0.886876;-1.156450
0.812898;-1.303550
0.724450;-1.495001
0.653985;-1.670103
0.696570;-1.529968
0.712241;-1.425615
0.700719;-1.363082
0.662569;-1.347807
0.599082;-1.387501
0.515614;-1.484439
0.425838;-1.622807
0.354118;-1.755800
0.398216;-1.657418
0.443120;-1.542251
0.480359;-1.431992
0.511547;-1.326660
0.538056;-1.225840
0.560765;-1.129676
1.071267;-0.932192
1.037168;-1.011824
0.972166;-1.114821
0.880670;-1.252843
0.778337;-1.421155
0.689623;-1.590544
0.678508;-1.605083
0.709508;-1.483208
0.709097;-1.398078
0.676782;-1.360861
0.614560;-1.383237
0.531563;-1.466067
0.445407;-1.588476
0.373101;-1.717057
0.383436;-1.689352
0.427147;-1.576979
0.464992;-1.464096
0.498175;-1.351375
0.527127;-1.240852
0.552144;-1.134549
1.226211;-0.910044
1.211896;-0.962139
1.138011;-1.029676
1.025661;-1.136470
0.893894;-1.286914
0.766510;-1.465313
0.662576;-1.653085
0.704843;-1.532052
0.720105;-1.420781
0.698259;-1.356968
0.642345;-1.354269
0.561533;-1.419007
0.473244;-1.535144
0.394679;-1.671156
0.369649;-1.718836
0.416764;-1.596379
0.456687;-1.474563
0.492058;-1.351186
0.523059;-1.229451
0.549674;-1.112872
1.445675;-0.947020
1.458377;-0.963314
1.364230;-0.967679
1.241745;-1.015446
1.085487;-1.122626
0.907476;-1.295069
0.743140;-1.511685
0.682355;-1.606810
0.726219;-1.448075
0.721057;-1.344657
0.675777;-1.306481
0.599062;-1.348064
0.507424;-1.460544
0.419978;-1.611625
0.352399;-1.758098
0.407079;-1.612431
0.452872;-1.468206
0.492802;-1.323602
0.526424;-1.185342
0.554067;-1.057440
1.345536;-0.835388
1.403185;-0.906646
1.457630;-0.954921
1.474775;-0.971298
1.345042;-0.989242
1.146075;-1.091294
0.893387;-1.310967
0.692938;-1.593731
0.715690;-1.501322
0.740486;-1.324240
0.712093;-1.230491
0.644129;-1.238966
0.553161;-1.342257
0.455503;-1.515721
0.368821;-1.714498
0.398341;-1.624882
0.458520;-1.426202
0.505223;-1.246229
0.540129;-1.090396
0.566623;-0.955302
1.293869;-0.640275
1.320175;-0.714547
1.341999;-0.788048
1.366259;-0.861141
1.408415;-0.930340
1.505173;-0.977200
1.101184;-1.060712
0.820651;-1.336113
0.677214;-1.606377
0.771733;-1.222278
0.755503;-1.079534
0.698359;-1.059173
0.620420;-1.132679
0.532535;-1.283445
0.446497;-1.482152
0.446616;-1.455417
0.501433;-1.241940
0.539938;-1.064358
0.567231;-0.916940
0.587405;-0.792177
1.320355;-0.377582
1.339257;-0.418765
1.342628;-0.471207
1.331585;-0.535653
1.305061;-0.607703
1.248206;-0.673331
1.134647;-0.736556
1.001364;-0.830963
0.908371;-0.887379
0.858949;-0.845645
0.812405;-0.792724
0.756929;-0.781825
0.696359;-0.818288
0.638205;-0.886504
0.594145;-0.945925
0.576181;-0.940114
0.579750;-0.864706
0.590651;-0.762582
0.601863;-0.660629
0.611670;-0.567723
1.451365;-0.113973
1.497450;-0.111616
1.505653;-0.123048
1.491912;-0.143718
1.458437;-0.172503
1.388536;-0.217389
1.263337;-0.288446
1.124215;-0.361178
1.012476;-0.407335
0.928750;-0.422979
0.861649;-0.424184
0.803139;-0.429804
0.750855;-0.447676
0.706008;-0.472877
0.671266;-0.491033
0.648339;-0.487148
0.635985;-0.457309
0.630841;-0.409663
0.629771;-0.355063
0.630827;-0.300965
1.716287;0.029706
1.774675;0.030008
1.776031;0.030098
1.777427;0.030197
1.780109;0.030216
1.783323;0.030098
1.451833;0.024475
1.193177;0.007342
1.048712;-0.012151
0.951508;-0.027714
0.878440;-0.038973
0.819667;-0.048864
0.770927;-0.059312
0.730724;-0.069259
0.698757;-0.075399
0.674801;-0.074525
0.658095;-0.065797
0.647340;-0.051059
0.641072;-0.033299
0.637997;-0.015060
1.458825;0.155268
1.510758;0.150782
1.511678;0.166473
1.488341;0.195213
1.445776;0.234404
1.368875;0.285552
1.240267;0.342172
1.106798;0.368679
1.000976;0.366076
0.918838;0.354176
0.853472;0.341586
0.799883;0.331271
0.755032;0.324722
0.717613;0.321941
0.687428;0.320941
0.664530;0.318525
0.648534;0.312186
0.638422;0.301524
0.632832;0.287897
0.630458;0.273134
1.231601;0.420353
1.241163;0.464594
1.225675;0.535258
1.187109;0.638907
1.130734;0.778201
1.069282;0.926878
1.026496;0.919396
0.973412;0.811514
0.906548;0.756882
0.844950;0.729025
0.793417;0.707259
0.748854;0.691566
0.708372;0.687564
0.671960;0.695122
0.641872;0.705399
0.620787;0.704602
0.609351;0.683928
0.605446;0.645897
0.606077;0.599081
0.609037;0.550847
1.080210;0.708306
1.069304;0.804819
1.047155;0.926809
1.017556;1.078135
0.989073;1.262607
0.977497;1.483141
0.948214;1.292405
0.871409;1.139291
0.792476;1.109719
0.740558;1.092255
0.710245;1.046389
0.679639;1.010123
0.641899;1.008393
0.599876;1.041582
0.561756;1.088634
0.540293;1.104226
0.540558;1.058174
0.551983;0.975713
0.565440;0.886690
0.577928;0.803142
0.990522;0.946948
0.980226;1.069400
0.969486;1.202636
0.963968;1.341221
0.974087;1.486859
0.939198;1.393404
0.857925;1.321535
0.741911;1.350213
0.613947;1.497060
0.580839;1.521633
0.623030;1.332241
0.612458;1.253133
0.572835;1.257641
0.514778;1.335656
0.446551;1.474686
0.402908;1.576832
0.450959;1.412258
0.492093;1.253406
0.522132;1.121491
0.545083;1.009501
0.941899;1.113562
0.942772;1.247074
0.950716;1.375386
0.971678;1.489886
0.935172;1.426935
0.856404;1.377979
0.748847;1.403559
0.629290;1.512269
0.522704;1.680864
0.550347;1.595301
0.578532;1.457615
0.565113;1.393960
0.519099;1.415733
0.452968;1.513571
0.381208;1.661122
0.355758;1.719246
0.409698;1.560750
0.455564;1.407103
0.491256;1.271980
0.519317;1.153792
0.911443;1.200840
0.930332;1.347897
0.969888;1.490822
0.933738;1.440943
0.856753;1.397076
0.760712;1.413924
0.657756;1.490426
0.563911;1.609879
0.513498;1.697678
0.552247;1.577002
0.558335;1.494392
0.533400;1.466546
0.482938;1.505175
0.420261;1.598177
0.360101;1.716480
0.367110;1.694340
0.407697;1.579937
0.444191;1.463248
0.476365;1.348745
0.504032;1.240521
0.870538;1.200301
0.878191;1.298746
0.878100;1.363831
0.832084;1.375468
0.757333;1.403397
0.672539;1.469343
0.591380;1.565835
0.523170;1.679424
0.528743;1.654208
0.548703;1.565993
0.542117;1.512869
0.509179;1.509436
0.456586;1.560228
0.397862;1.649277
0.343851;1.754140
0.376324;1.676089
0.411285;1.580132
0.442842;1.482242
0.471602;1.383564
0.497419;1.286864
0.819003;1.174781
0.804227;1.242967
0.778295;1.303286
0.734476;1.362633
0.674473;1.435341
0.608175;1.526563
0.547464;1.627991
0.502782;1.721689
0.534366;1.626019
0.543472;1.556282
0.528804;1.522002
0.490313;1.536112
0.435785;1.597836
0.379435;1.686994
0.346289;1.749327
0.384539;1.660028
0.417085;1.572229
0.446482;1.483106
0.473187;1.393776
0.497285;1.305955
0.776402;1.160994
0.753308;1.226249
0.721585;1.294607
0.679180;1.371575
0.626852;1.463537
0.570058;1.570823
0.520211;1.678191
0.516442;1.681678
0.537913;1.598526
0.540615;1.539491
0.521107;1.518572
0.479239;1.546078
0.421434;1.620591
0.363744;1.717204
0.357498;1.725917
0.394759;1.638524
0.427223;1.551710
0.455523;1.466841
0.480501;1.384138
0.502735;1.303918
0.747475;1.148585
0.723371;1.211973
0.693275;1.280911
0.656378;1.359113
0.612626;1.451550
0.562524;1.564919
0.503957;1.717146
0.532049;1.625420
0.546873;1.549523
0.544091;1.504430
0.523426;1.494313
0.484641;1.525428
0.428874;1.602356
0.357404;1.728795
0.378847;1.680497
0.417430;1.587646
0.447267;1.505623
0.472259;1.428712
0.494058;1.354910
0.513465;1.283605
