20;20;0.250000;0.250000
2.499746;2.478798
0.933937;-0.961644
0.984581;-1.036260
0.951300;-1.036606
0.862024;-1.007586
0.744321;-0.985109
0.606259;-0.984632
0.453851;-1.017686
0.297078;-1.094787
0.151971;-1.224055
0.040962;-1.401702
-0.018709;-1.458315
-0.103674;-1.279578
-0.237057;-1.132256
-0.395035;-1.040866
-0.557171;-0.999271
-0.709065;-0.996899
-0.842184;-1.021666
-0.949334;-1.059307
-1.005246;-1.077660
-0.953354;-1.007208
1.042156;-1.050188
1.200670;-1.227390
1.110730;-1.155465
0.993277;-1.085983
0.855943;-1.037435
0.696227;-1.020030
0.516173;-1.047911
0.326453;-1.138402
0.149744;-1.309836
0.021869;-1.580560
-0.014051;-1.693279
-0.097198;-1.388074
-0.256754;-1.185074
-0.449748;-1.072768
-0.644255;-1.032977
-0.821336;-1.046376
-0.974519;-1.095825
-1.105666;-1.169218
-1.222891;-1.261880
-1.069451;-1.101726
1.058066;-1.042927
1.189498;-1.208488
1.227746;-1.254464
1.111950;-1.163012
0.970468;-1.090685
0.798659;-1.051360
0.595782;-1.064076
0.373681;-1.152515
0.165593;-1.334602
0.023871;-1.598228
-0.014462;-1.693687
-0.104756;-1.413253
-0.291495;-1.200351
-0.521578;-1.086292
-0.745936;-1.060558
-0.938931;-1.096304
-1.095888;-1.168958
-1.221513;-1.261212
-1.180159;-1.214452
-1.056420;-1.066065
1.021074;-0.957504
1.108025;-1.094308
1.191367;-1.209036
1.220011;-1.247631
1.086089;-1.151296
0.914362;-1.084809
0.697839;-1.070584
0.445980;-1.139963
0.201137;-1.316342
0.032305;-1.583359
-0.015123;-1.680135
-0.123601;-1.392537
-0.346845;-1.182332
-0.617378;-1.085448
-0.865666;-1.089127
-1.062230;-1.154927
-1.211666;-1.253263
-1.178656;-1.211835
-1.091908;-1.098567
-1.004485;-0.967197
0.986679;-0.841728
1.045665;-0.962995
1.107828;-1.081079
1.183863;-1.198206
1.208968;-1.238129
1.045114;-1.133886
0.826655;-1.079008
0.549759;-1.109984
0.257981;-1.269532
0.045305;-1.556005
-0.015563;-1.661016
-0.151111;-1.344751
-0.425981;-1.139684
-0.744011;-1.081910
-1.007947;-1.134440
-1.197638;-1.242435
-1.169831;-1.200724
-1.086966;-1.080461
-1.021614;-0.962041
-0.960843;-0.842464
0.971197;-0.704045
1.009316;-0.808945
1.048565;-0.922770
1.097205;-1.045933
1.173394;-1.182122
1.194010;-1.225540
0.985201;-1.110943
0.693725;-1.076083
0.346220;-1.190229
0.065687;-1.507912
-0.015437;-1.632174
-0.188053;-1.259278
-0.529529;-1.075958
-0.909768;-1.098670
-1.177440;-1.227402
-1.157196;-1.183884
-1.071338;-1.040408
-1.018812;-0.913511
-0.977965;-0.799276
-0.938710;-0.695763
0.985557;-0.547956
1.010497;-0.630535
1.029170;-0.729755
1.048558;-0.848790
1.082972;-0.991011
1.160140;-1.159602
1.173601;-1.208172
0.884668;-1.069252
0.479972;-1.065780
0.120125;-1.339295
-0.016016;-1.493799
-0.236631;-1.088037
-0.624319;-0.980717
-1.129494;-1.190679
-1.136289;-1.154752
-1.046175;-0.971089
-1.010937;-0.824424
-0.992916;-0.706045
-0.974969;-0.609822
-0.949520;-0.530813
1.040688;-0.380302
1.064441;-0.433372
1.070358;-0.505924
1.063321;-0.603915
1.054160;-0.733828
1.063910;-0.903686
1.139408;-1.122800
1.126961;-1.165482
0.610550;-0.910536
0.228020;-0.928311
-0.021022;-0.933843
-0.282184;-0.809178
-0.610627;-0.772834
-0.923014;-0.885144
-0.983023;-0.807953
-1.001344;-0.668800
-1.022869;-0.554556
-1.035653;-0.467670
-1.030965;-0.403740
-1.005250;-0.357092
1.147375;-0.214054
1.187443;-0.234482
1.193089;-0.273340
1.171292;-0.334745
1.129324;-0.423870
1.072609;-0.549826
1.014062;-0.715312
0.927539;-0.814259
0.597759;-0.662487
0.255972;-0.595295
-0.037548;-0.556367
-0.322748;-0.500561
-0.609887;-0.463467
-0.848604;-0.447672
-0.999299;-0.402407
-1.089309;-0.335833
-1.144609;-0.276800
-1.171373;-0.233049
-1.164245;-0.205334
-1.116858;-0.191526
1.316559;-0.068800
1.391999;-0.063963
1.402900;-0.075975
1.381903;-0.100413
1.339378;-0.136891
1.265932;-0.189840
1.118988;-0.269240
0.861445;-0.343291
0.551320;-0.334875
0.232690;-0.291382
-0.074767;-0.247255
-0.385484;-0.204747
-0.717676;-0.166127
-1.039888;-0.128132
-1.235546;-0.099894
-1.326930;-0.081311
-1.377193;-0.066611
-1.401953;-0.055810
-1.388281;-0.051251
-1.293656;-0.057342
1.565373;0.028981
1.672215;0.036794
1.674313;0.035590
1.668408;0.033142
1.659610;0.029890
1.646627;0.026194
1.587847;0.017916
0.977032;-0.047906
0.536067;-0.041202
0.194911;0.003556
-0.119610;0.046777
-0.448655;0.072564
-0.859636;0.074024
-1.512992;0.033862
-1.648912;0.022853
-1.670045;0.019847
-1.684387;0.017330
-1.694970;0.015412
-1.697811;0.014166
-1.535560;0.017154
1.527254;0.070052
1.623928;0.065272
1.613014;0.069175
1.586097;0.074777
1.548156;0.080940
1.489589;0.087381
1.334435;0.102679
0.892607;0.155185
0.475652;0.228824
0.141264;0.309638
-0.157165;0.358863
-0.470561;0.361250
-0.837109;0.326104
-1.257397;0.217030
-1.449989;0.143528
-1.513154;0.109491
-1.550739;0.085566
-1.574558;0.068694
-1.573781;0.059977
-1.441361;0.076193
1.289694;0.175199
1.351966;0.179888
1.353331;0.200454
1.320816;0.233676
1.263356;0.276018
1.169449;0.319953
0.996613;0.356168
0.708564;0.410253
0.371695;0.521492
0.070312;0.677426
-0.177725;0.746831
-0.464343;0.688306
-0.804130;0.688151
-1.030494;0.668179
-1.142825;0.516442
-1.222217;0.391250
-1.275708;0.305409
-1.303963;0.248311
-1.294353;0.216212
-1.224093;0.208010
1.143404;0.329767
1.176424;0.366014
1.179075;0.420496
1.159098;0.497678
1.125839;0.599696
1.081957;0.713438
0.941119;0.716030
0.622455;0.677557
0.277120;0.815017
-0.012275;1.151310
-0.154564;1.372415
-0.426582;1.005355
-0.892808;1.003937
-1.195341;1.184430
-1.099839;0.926657
-1.098328;0.734214
-1.117758;0.592700
-1.130775;0.490641
-1.122597;0.419862
-1.085503;0.372565
1.069846;0.504032
1.097594;0.576403
1.113354;0.666922
1.126466;0.781906
1.156514;0.929199
1.247259;1.121026
1.085274;1.019359
0.596298;0.869171
0.214643;1.024904
-0.052397;1.400831
-0.133048;1.655271
-0.349862;1.219053
-0.742955;1.060250
-1.100222;1.145159
-1.211428;1.208002
-1.118022;1.018354
-1.082287;0.860839
-1.063991;0.732005
-1.043666;0.627726
-1.012193;0.543474
1.053924;0.675787
1.094612;0.776459
1.134767;0.887728
1.186921;1.013791
1.276880;1.160873
1.198889;1.107662
0.916297;0.979476
0.526621;0.964569
0.173057;1.137208
-0.059333;1.455387
-0.127402;1.707331
-0.284220;1.334785
-0.588949;1.118808
-0.905120;1.084700
-1.141400;1.170295
-1.220300;1.221339
-1.130672;1.071930
-1.076991;0.938763
-1.033393;0.816122
-0.989126;0.703587
1.080241;0.831849
1.143026;0.949599
1.208372;1.063797
1.295258;1.184118
1.215445;1.118807
1.029842;1.019178
0.764016;0.967465
0.439746;1.015963
0.138655;1.195991
-0.062118;1.478316
-0.123459;1.745362
-0.236660;1.408056
-0.475657;1.174829
-0.751815;1.079064
-0.988440;1.098433
-1.167263;1.187360
-1.227167;1.231047
-1.140240;1.105289
-1.070014;0.977619
-1.001329;0.843579
1.134858;0.967250
1.222843;1.093553
1.308941;1.200170
1.225071;1.125664
1.080839;1.036175
0.889174;0.974501
0.644150;0.965583
0.367511;1.042314
0.111958;1.222206
-0.063794;1.487203
-0.121383;1.776685
-0.203396;1.457613
-0.395940;1.213990
-0.633938;1.085036
-0.856917;1.061988
-1.040431;1.110273
-1.184957;1.200118
-1.232220;1.237832
-1.137999;1.114714
-1.033009;0.957049
1.204031;1.079148
1.318822;1.211041
1.228606;1.127928
1.106645;1.043926
0.956139;0.978442
0.770538;0.943857
0.551175;0.958606
0.315376;1.043867
0.096993;1.214512
-0.062094;1.472149
-0.120931;1.781826
-0.182638;1.477557
-0.343545;1.222333
-0.545378;1.080980
-0.744243;1.034082
-0.919651;1.053281
-1.067938;1.115678
-1.193530;1.206153
-1.229889;1.236051
-1.053759;1.022587
1.174362;1.063290
1.198502;1.099230
1.101588;1.031621
0.981730;0.971409
0.838101;0.928923
0.669134;0.914263
0.479039;0.939998
0.281032;1.019106
0.096747;1.162077
-0.047561;1.380039
-0.119624;1.702008
-0.179302;1.405011
-0.314232;1.180805
-0.479775;1.054975
-0.647763;1.001400
-0.802152;0.999894
-0.936086;1.033384
-1.045350;1.085469
-1.092250;1.106193
-0.989761;0.979755
