40;40;0.500000;0.500000
9.824911;9.943283
0.511945;0.227969
0.577432;0.235918
0.645928;0.242388
0.711222;0.244869
0.768190;0.241992
0.815808;0.234037
0.856448;0.220608
0.892507;0.198861
0.923231;0.165840
0.944642;0.121922
0.951689;0.070204
0.938515;0.013230
0.896627;-0.042896
0.820328;-0.080226
0.720876;-0.085577
0.624528;-0.077381
0.548805;-0.075633
0.495086;-0.084103
0.458410;-0.100306
0.433780;-0.121525
0.417569;-0.145824
0.407401;-0.171837
0.401829;-0.198470
0.400080;-0.224684
0.401826;-0.249352
0.406817;-0.271277
0.413996;-0.289658
0.420045;-0.305302
0.419818;-0.320819
0.410981;-0.337148
0.395952;-0.352131
0.378113;-0.363873
0.359356;-0.372271
0.340409;-0.378070
0.321604;-0.381940
0.303181;-0.384229
0.285331;-0.385052
0.268174;-0.384441
0.251774;-0.382460
0.236148;-0.379240
0.539124;0.247690
0.625200;0.262276
0.719963;0.276360
0.810063;0.283537
0.884158;0.281119
0.942405;0.273860
0.992963;0.264345
1.044466;0.243965
1.095783;0.201968
1.137628;0.138207
1.160116;0.065746
1.156876;-0.017558
1.109859;-0.121897
0.991010;-0.203281
0.820795;-0.165448
0.668686;-0.107309
0.567623;-0.085100
0.505003;-0.087527
0.466018;-0.102901
0.441549;-0.125234
0.426349;-0.151450
0.417433;-0.179721
0.413193;-0.208682
0.412978;-0.236995
0.416933;-0.263018
0.425882;-0.284525
0.440337;-0.299083
0.455800;-0.308175
0.458342;-0.323076
0.442812;-0.347023
0.419438;-0.369113
0.395803;-0.384214
0.373351;-0.393684
0.351675;-0.399820
0.330603;-0.403897
0.310239;-0.406310
0.290738;-0.407035
0.272190;-0.405992
0.254616;-0.403227
0.237994;-0.398940
0.560364;0.267647
0.676473;0.293249
0.819290;0.324589
0.955521;0.340793
1.056510;0.330290
1.129657;0.320192
1.195478;0.328041
1.282697;0.332351
1.380993;0.275831
1.436079;0.132879
1.396238;0.056401
1.386103;-0.019986
1.428520;-0.194077
1.217311;-0.640512
0.929020;-0.309459
0.689202;-0.130245
0.570694;-0.087608
0.506614;-0.087246
0.469710;-0.103633
0.447876;-0.128068
0.435055;-0.156802
0.428077;-0.187764
0.425372;-0.219396
0.426455;-0.250062
0.431923;-0.277484
0.444086;-0.297721
0.468269;-0.302926
0.508036;-0.284108
0.515850;-0.296291
0.478030;-0.350218
0.438572;-0.388261
0.409111;-0.407055
0.384322;-0.416810
0.360751;-0.423155
0.337837;-0.427782
0.315772;-0.430770
0.294793;-0.431678
0.275000;-0.430199
0.256378;-0.426408
0.238860;-0.420682
0.564316;0.284303
0.715816;0.324464
0.960323;0.403340
1.187733;0.461845
1.355818;0.377754
1.376820;0.354623
1.250466;0.343228
1.140981;0.309436
1.061802;0.239148
1.011280;0.171745
0.996276;0.103846
1.007844;0.013441
1.010367;-0.119772
0.998842;-0.316699
0.842950;-0.236744
0.651036;-0.106811
0.552572;-0.076621
0.499880;-0.081940
0.470520;-0.102190
0.453956;-0.129957
0.444823;-0.161917
0.440363;-0.196111
0.439286;-0.230911
0.441236;-0.264450
0.446791;-0.293974
0.458468;-0.314391
0.484504;-0.313165
0.555601;-0.241408
0.571003;-0.284560
0.504587;-0.359482
0.437949;-0.421833
0.413347;-0.434497
0.390386;-0.441868
0.366529;-0.448379
0.342562;-0.454392
0.319238;-0.458854
0.297104;-0.460359
0.276333;-0.458264
0.256869;-0.452880
0.238603;-0.445022
0.535813;0.292672
0.687797;0.334210
1.007828;0.447693
1.149288;0.484559
1.055735;0.371687
0.972672;0.325081
0.892804;0.297548
0.821670;0.267435
0.762653;0.234438
0.710831;0.210352
0.676516;0.196978
0.761353;0.083550
0.762977;-0.000326
0.731880;-0.063212
0.660593;-0.071478
0.578933;-0.055919
0.522349;-0.056543
0.489412;-0.072907
0.471410;-0.098986
0.461996;-0.131057
0.457426;-0.166940
0.455805;-0.205028
0.456390;-0.243721
0.458987;-0.281018
0.463622;-0.314047
0.470914;-0.338301
0.483348;-0.346770
0.502029;-0.337200
0.501213;-0.354228
0.434441;-0.445662
0.406672;-0.475120
0.411514;-0.461709
0.390424;-0.468327
0.368144;-0.476130
0.344180;-0.485561
0.320165;-0.493235
0.297340;-0.495751
0.275986;-0.492225
0.255968;-0.483914
0.237135;-0.472636
0.476002;0.293925
0.575955;0.318898
0.699774;0.351120
0.762923;0.359004
0.740525;0.337050
0.694066;0.317287
0.650044;0.299059
0.617828;0.276433
0.589151;0.265157
0.605074;0.235077
0.618022;0.188066
0.621945;0.121126
0.610311;0.065452
0.586551;0.024773
0.553049;0.000200
0.519439;-0.016632
0.495370;-0.036400
0.482166;-0.062597
0.476572;-0.094714
0.475035;-0.131573
0.475247;-0.172038
0.476360;-0.214864
0.478552;-0.258486
0.482166;-0.300840
0.486730;-0.339114
0.490524;-0.369662
0.491174;-0.389364
0.485571;-0.401315
0.466971;-0.420844
0.433890;-0.456194
0.450821;-0.449340
0.395148;-0.490403
0.379821;-0.498182
0.365309;-0.508415
0.342417;-0.525893
0.318154;-0.540083
0.295257;-0.543219
0.273891;-0.535410
0.253669;-0.521137
0.234441;-0.504162
0.406661;0.295599
0.462984;0.310459
0.515184;0.324759
0.542063;0.333813
0.536324;0.340207
0.513576;0.352697
0.531095;0.339520
0.546102;0.302932
0.550064;0.253853
0.544126;0.217497
0.534492;0.179406
0.523044;0.138599
0.511495;0.099832
0.499769;0.066199
0.488835;0.037354
0.481581;0.010122
0.480174;-0.019110
0.483990;-0.052202
0.490429;-0.089657
0.496723;-0.131485
0.501294;-0.177289
0.504373;-0.226019
0.507706;-0.276001
0.513206;-0.325167
0.520807;-0.370855
0.526707;-0.409488
0.524389;-0.437738
0.509096;-0.455788
0.481182;-0.468849
0.446415;-0.481339
0.403249;-0.499233
0.264939;-0.580367
0.366950;-0.530219
0.360796;-0.550666
0.337194;-0.587303
0.312499;-0.615289
0.290669;-0.613870
0.270219;-0.592605
0.250146;-0.566022
0.230592;-0.539818
0.343858;0.301710
0.377037;0.314669
0.403864;0.329018
0.417453;0.346622
0.414161;0.376119
0.386391;0.449947
0.425732;0.395293
0.459553;0.299101
0.460277;0.252551
0.455312;0.217744
0.449503;0.185845
0.444931;0.154222
0.443075;0.123101
0.444877;0.092935
0.451271;0.062969
0.463018;0.031355
0.479600;-0.003409
0.498748;-0.041499
0.517080;-0.083412
0.531211;-0.130271
0.539382;-0.182539
0.542705;-0.239035
0.545483;-0.297278
0.553477;-0.355313
0.569571;-0.411388
0.588136;-0.461647
0.593986;-0.500027
0.574943;-0.522873
0.534350;-0.532150
0.484526;-0.533899
0.434014;-0.537224
0.394114;-0.548609
0.379749;-0.567835
0.357648;-0.613689
0.326635;-0.700073
0.299804;-0.772549
0.283387;-0.729141
0.265592;-0.667551
0.245785;-0.618275
0.225712;-0.578743
0.291575;0.312067
0.313839;0.327066
0.331785;0.346269
0.342872;0.374810
0.343943;0.429714
0.339756;0.497916
0.366403;0.364446
0.375933;0.294834
0.376953;0.254210
0.377637;0.224425
0.380509;0.197739
0.386338;0.171332
0.396278;0.144558
0.411636;0.117034
0.433380;0.087553
0.461500;0.053302
0.493950;0.011945
0.527352;-0.030599
0.558211;-0.075045
0.581427;-0.126239
0.593903;-0.186892
0.595478;-0.255222
0.593233;-0.324229
0.601888;-0.392404
0.634577;-0.462192
0.688288;-0.531068
0.723199;-0.585391
0.699427;-0.615391
0.632444;-0.623491
0.554923;-0.615859
0.486527;-0.604912
0.433946;-0.604102
0.393330;-0.625698
0.354319;-0.693833
0.308017;-0.890284
0.256593;-1.293353
0.275089;-0.892580
0.261489;-0.752936
0.241104;-0.673618
0.219852;-0.618599
0.248467;0.325347
0.266234;0.344295
0.282954;0.370377
0.299239;0.411940
0.316815;0.506036
0.313317;0.423326
0.310889;0.336478
0.309319;0.287086
0.310579;0.256193
0.317327;0.233807
0.329192;0.213147
0.345868;0.191613
0.368544;0.169080
0.398192;0.145739
0.435286;0.120471
0.476027;0.091754
0.516814;0.014050
0.550823;-0.028343
0.589385;-0.064453
0.626480;-0.113158
0.659936;-0.183635
0.671220;-0.279827
0.653487;-0.362393
0.652677;-0.437418
0.708202;-0.520750
0.853675;-0.621578
0.978406;-0.700094
0.914744;-0.735490
0.777764;-0.749112
0.645107;-0.728781
0.540333;-0.695661
0.462235;-0.674648
0.402407;-0.684991
0.352355;-0.756037
0.304296;-0.964214
0.249949;-1.387656
0.275231;-1.011313
0.260184;-0.827877
0.236338;-0.725135
0.212767;-0.656369
0.211765;0.340288
0.228101;0.364672
0.247913;0.400300
0.279593;0.461563
0.297211;0.487348
0.270778;0.376852
0.261489;0.316685
0.258756;0.280025
0.265325;0.252888
0.276571;0.241103
0.294933;0.231605
0.324109;0.217866
0.367416;0.201445
0.419990;0.191475
0.465677;0.168536
0.479943;0.116945
0.549110;0.046021
0.646848;0.000402
0.723771;-0.045503
0.738766;-0.107152
0.754181;-0.185474
0.801345;-0.338213
0.733834;-0.428114
0.695232;-0.493947
0.751065;-0.574378
1.039574;-0.708698
1.488124;-0.828891
1.242723;-0.853081
0.946218;-0.924324
0.729592;-0.878157
0.582365;-0.802826
0.479790;-0.746643
0.405476;-0.733334
0.350561;-0.786662
0.314459;-0.954644
0.320613;-1.329323
0.298720;-1.080107
0.262446;-0.885585
0.230567;-0.769294
0.203656;-0.690022
0.178517;0.355597
0.193604;0.387083
0.217722;0.437615
0.266488;0.535836
0.243930;0.427900
0.227633;0.349841
0.222642;0.306029
0.223321;0.279907
0.265156;0.221099
0.258451;0.242909
0.277843;0.255923
0.329158;0.262560
0.431588;0.241320
0.383168;0.199728
0.399155;0.159420
0.466765;0.118337
0.630656;0.087445
0.954383;0.097289
1.199020;0.064183
1.279665;-0.080651
1.235379;-0.279143
1.052729;-0.493945
0.845606;-0.562410
0.722884;-0.577090
0.716394;-0.617808
0.878085;-0.706420
1.159994;-0.810993
1.290730;-1.011255
1.039378;-1.214592
0.760863;-1.074199
0.593055;-0.921344
0.478731;-0.812889
0.397645;-0.767420
0.341760;-0.795705
0.315486;-0.922892
0.355985;-1.207508
0.332142;-1.155086
0.262015;-0.937013
0.220982;-0.807489
0.191156;-0.719094
0.146437;0.369499
0.156651;0.408869
0.175889;0.483647
0.213989;0.517068
0.191998;0.399172
0.191796;0.336049
0.195818;0.303021
0.200492;0.288431
0.208828;0.281294
0.233282;0.277909
0.287215;0.301174
0.343556;0.301499
0.304976;0.250726
0.313520;0.217536
0.347852;0.185475
0.429794;0.148111
0.643667;0.124529
1.474359;0.284789
1.456269;0.165295
1.407766;-0.066138
1.417135;-0.331052
1.559452;-0.885322
0.983452;-0.849720
0.736074;-0.716154
0.623337;-0.681029
0.647016;-0.718775
0.788657;-0.817003
0.868621;-1.050474
0.825811;-1.482712
0.700822;-1.300367
0.556689;-1.033904
0.452599;-0.860403
0.374718;-0.783008
0.320510;-0.789770
0.293673;-0.886380
0.312944;-1.109848
0.336559;-1.269850
0.248182;-0.990109
0.204152;-0.841560
0.173858;-0.743674
0.115347;0.379916
0.117152;0.424233
0.094784;0.515482
0.099987;0.514007
0.148258;0.388012
0.164282;0.330601
0.178508;0.303935
0.192990;0.292164
0.196885;0.295955
0.225151;0.317652
0.278037;0.376598
0.248061;0.293841
0.249347;0.274224
0.266594;0.263346
0.297011;0.241178
0.353091;0.196118
0.477696;0.146660
0.684257;0.109119
0.808961;0.036910
0.848933;-0.103365
0.878717;-0.330459
0.932794;-0.710710
1.168724;-1.228133
0.705874;-0.960449
0.551602;-0.733605
0.462724;-0.766511
0.586136;-0.773551
0.631442;-0.970856
0.609858;-1.346708
0.503246;-1.535396
0.473026;-1.095523
0.402536;-0.865252
0.336311;-0.772172
0.286806;-0.769505
0.257497;-0.849868
0.255575;-1.040306
0.295847;-1.431424
0.219916;-1.041577
0.178393;-0.871089
0.151017;-0.763445
0.086813;0.385671
0.084759;0.430606
0.058910;0.524959
0.066958;0.511616
0.117743;0.384578
0.140007;0.331081
0.163633;0.309033
0.168201;0.307599
0.182653;0.320311
0.245560;0.383416
0.210186;0.329754
0.200680;0.311347
0.214457;0.322043
0.248266;0.349597
0.282877;0.358119
0.279999;0.275500
0.312607;0.191958
0.382795;0.132472
0.451775;0.068877
0.506663;-0.031333
0.560089;-0.201282
0.617483;-0.485551
0.636081;-1.012331
0.561355;-1.275283
0.507945;-0.730148
0.481361;-0.721270
0.496119;-0.713331
0.490019;-0.836857
0.446308;-1.128409
0.318309;-1.465295
0.384863;-1.001097
0.338088;-0.803830
0.285625;-0.729178
0.243467;-0.733716
0.213766;-0.811248
0.200693;-0.984844
0.265828;-1.374616
0.172619;-1.090764
0.143158;-0.894398
0.122937;-0.777560
0.061072;0.386748
0.060393;0.427847
0.037929;0.524528
0.045976;0.509834
0.093954;0.383302
0.112652;0.337700
0.095799;0.334838
0.143415;0.325138
0.178167;0.360702
0.190205;0.369851
0.162181;0.329284
0.164073;0.340065
0.194424;0.388845
0.275141;0.480208
0.468921;0.625286
0.236756;0.360426
0.185920;0.243295
0.193873;0.198504
0.226427;0.175242
0.276053;0.124073
0.342112;-0.001068
0.413252;-0.221258
0.464998;-0.572057
0.473833;-0.881374
0.443058;-0.602628
0.441647;-0.607715
0.555969;-0.714375
0.400159;-0.722155
0.374160;-0.813775
0.343941;-0.867935
0.309621;-0.779957
0.266299;-0.689654
0.226903;-0.657267
0.194298;-0.683066
0.166244;-0.769409
0.140112;-0.941225
0.091382;-1.296953
0.103327;-1.124606
0.101722;-0.907685
0.091333;-0.784919
0.036318;0.384663
0.040152;0.413079
0.032038;0.488173
0.040292;0.473878
0.071981;0.377331
0.090768;0.344513
0.105064;0.335692
0.129763;0.347366
0.244330;0.456011
0.136805;0.343085
0.119556;0.333367
0.128687;0.370515
0.171954;0.460477
0.289029;0.615300
0.277866;0.543958
0.143546;0.363588
0.063468;0.272514
0.036611;0.274141
0.051785;0.337540
0.103172;0.373250
0.192576;0.265734
0.293862;0.050699
0.362946;-0.178681
0.385963;-0.342495
0.377964;-0.417130
0.364809;-0.502527
0.346448;-0.652634
0.316615;-0.715402
0.295628;-0.662215
0.267502;-0.649580
0.227653;-0.601311
0.186640;-0.548509
0.164060;-0.560678
0.144025;-0.620054
0.119735;-0.724997
0.088674;-0.907144
0.052659;-1.266812
0.051812;-1.131859
0.060605;-0.909058
0.058727;-0.785191
0.010197;0.384439
0.017146;0.396449
0.023718;0.408399
0.032939;0.397529
0.046550;0.369495
0.061967;0.351592
0.082242;0.349346
0.130884;0.380964
0.135712;0.375341
0.086252;0.318926
0.076273;0.325219
0.088837;0.389279
0.129196;0.521241
0.204939;0.750143
0.131695;0.488348
0.020261;0.330732
-0.079745;0.267093
-0.130498;0.328828
-0.108260;0.558614
0.000000;0.000000
0.096201;0.625956
0.276312;0.262144
0.364863;0.011519
0.370554;-0.160724
0.343130;-0.290766
0.309620;-0.412426
0.275133;-0.565451
0.263322;-0.812721
0.221831;-0.610733
0.197228;-0.549117
0.151919;-0.469006
0.071638;-0.268302
0.105748;-0.441425
0.098433;-0.550929
0.077712;-0.680677
0.042518;-0.880253
-0.041228;-1.249669
-0.009148;-1.122268
0.022771;-0.900225
0.027230;-0.779305
-0.017964;0.391963
-0.010974;0.396407
-0.003463;0.396203
0.005058;0.387866
0.015642;0.373779
0.030012;0.362389
0.056070;0.367136
0.159610;0.433109
0.069176;0.330138
0.037107;0.255979
0.032754;0.269099
0.046353;0.382898
0.076347;0.555597
0.100898;0.695513
0.020555;0.436094
-0.108711;0.274629
-0.260642;0.208394
0.000000;0.000000
0.000000;0.000000
-0.163425;1.663067
0.000000;0.000000
0.000000;0.000000
0.520604;0.060988
0.433638;-0.092156
0.342852;-0.223556
0.274461;-0.351628
0.216937;-0.504846
0.133925;-0.787040
0.158009;-0.597215
0.141421;-0.500817
0.106804;-0.410964
0.071677;-0.235936
0.070892;-0.348221
0.061326;-0.489019
0.042042;-0.641304
0.009208;-0.863995
-0.072826;-1.286048
-0.032874;-1.090291
-0.006521;-0.883992
-0.001998;-0.769158
-0.047014;0.409395
-0.040882;0.413789
-0.034182;0.413617
-0.026722;0.406640
-0.017520;0.393123
-0.003990;0.379239
0.020195;0.385040
0.050827;0.451485
0.018257;0.292555
0.009130;0.166315
0.005840;0.199274
0.006352;0.350278
0.028578;0.555000
0.039886;0.647981
-0.067971;0.365661
-0.229454;0.195839
-0.478201;0.095148
0.000000;0.000000
0.000000;0.000000
0.000000;0.000000
0.000000;0.000000
0.000000;0.000000
0.886738;0.014013
0.538302;-0.090268
0.351989;-0.201995
0.245804;-0.320784
0.173313;-0.468521
0.099672;-0.755128
0.107396;-0.595924
0.095190;-0.478933
0.072058;-0.399555
0.055286;-0.292458
0.045955;-0.285901
0.029353;-0.442994
0.010558;-0.610466
-0.011375;-0.852908
-0.015991;-1.338393
-0.030953;-1.061550
-0.030042;-0.866826
-0.030201;-0.757167
-0.075410;0.436077
-0.069377;0.445712
-0.062523;0.451730
-0.055680;0.448650
-0.048965;0.431227
-0.038468;0.405200
-0.012555;0.398106
0.021248;0.425451
-0.015052;0.262254
0.001796;0.122210
-0.017376;0.197122
-0.033249;0.298907
-0.032059;0.427023
-0.047323;0.463441
-0.144227;0.262566
-0.304115;0.112560
-0.593748;-0.013873
-1.278141;-0.124825
-1.604628;-0.160280
-0.325518;-0.547914
0.000000;0.000000
0.000000;0.000000
1.022821;-0.052675
0.545582;-0.130188
0.325150;-0.212999
0.205204;-0.313514
0.129241;-0.450320
0.064004;-0.718069
0.064170;-0.597115
0.052280;-0.467302
0.033509;-0.393445
0.018333;-0.312523
0.008118;-0.248387
-0.003165;-0.416181
-0.022324;-0.590591
-0.037964;-0.841508
-0.015000;-1.334852
-0.046181;-1.047590
-0.057946;-0.852028
-0.060517;-0.744628
-0.102068;0.469747
-0.093861;0.489500
-0.082419;0.510885
-0.071087;0.523769
-0.069880;0.500908
-0.071448;0.448969
-0.059774;0.401056
-0.047291;0.350658
-0.045371;0.242656
0.004693;0.085405
-0.046623;0.192470
-0.072816;0.249129
-0.092229;0.279771
-0.125382;0.257902
-0.194359;0.167979
-0.307976;0.050101
-0.482282;-0.081954
0.000000;0.000000
0.000000;0.000000
0.104635;-1.588351
0.000000;0.000000
0.000000;0.000000
0.587429;-0.193708
0.394356;-0.195255
0.241867;-0.241518
0.142146;-0.320675
0.078064;-0.444137
0.039802;-0.696457
0.027780;-0.598402
0.009691;-0.457878
-0.006654;-0.383042
-0.017815;-0.305545
-0.020134;-0.255071
-0.037460;-0.410149
-0.061343;-0.584057
-0.082940;-0.837857
-0.088970;-1.329323
-0.093379;-1.033074
-0.095939;-0.836253
-0.095233;-0.730854
-0.127238;0.506210
-0.114030;0.538515
-0.088673;0.584902
-0.041701;0.654117
-0.054444;0.622569
-0.096731;0.515823
-0.106981;0.432773
-0.101429;0.353899
-0.082567;0.255906
-0.034195;0.110803
-0.069984;0.171960
-0.106616;0.218459
-0.136157;0.222791
-0.170137;0.190452
-0.217670;0.121624
-0.280391;0.022803
-0.346268;-0.105639
-0.361324;-0.287456
0.000000;0.000000
0.000000;0.000000
0.000000;0.000000
0.000000;0.000000
0.271647;-0.288144
0.206706;-0.249070
0.124937;-0.270594
0.058408;-0.333006
0.013902;-0.443657
0.006143;-0.683793
-0.012647;-0.599746
-0.035420;-0.446559
-0.046635;-0.366615
-0.049743;-0.284101
-0.051462;-0.269197
-0.076022;-0.418344
-0.110326;-0.591350
-0.143808;-0.851637
-0.156968;-1.383162
-0.151715;-1.000398
-0.142345;-0.814467
-0.134562;-0.714451
-0.153168;0.540188
-0.135497;0.581058
-0.096961;0.642403
-0.009023;0.739832
-0.038658;0.705347
-0.121817;0.580714
-0.150063;0.486011
-0.150322;0.399929
-0.129535;0.302427
-0.084221;0.179877
-0.065597;0.133449
-0.130505;0.203133
-0.169966;0.206509
-0.203088;0.174725
-0.235886;0.115688
-0.266991;0.033441
-0.285099;-0.073267
-0.266040;-0.215356
-0.188509;-0.400108
-0.081096;-0.554555
0.000000;0.000000
0.051674;-0.387022
0.062716;-0.299614
0.036637;-0.273322
-0.003091;-0.290900
-0.040716;-0.345113
-0.069127;-0.447034
-0.077149;-0.667648
-0.080962;-0.593177
-0.084755;-0.428289
-0.085117;-0.340900
-0.075137;-0.247603
-0.083106;-0.297694
-0.123654;-0.438017
-0.176202;-0.612403
-0.238527;-0.880873
-0.225115;-1.401519
-0.224817;-0.949955
-0.194809;-0.784692
-0.177456;-0.695111
-0.182756;0.568483
-0.165824;0.610393
-0.131628;0.668255
-0.066816;0.748553
-0.096392;0.721409
-0.165874;0.627190
-0.200866;0.548023
-0.208467;0.472748
-0.189505;0.378540
-0.137606;0.249702
-0.033775;0.074567
-0.143376;0.192610
-0.198390;0.209070
-0.236211;0.185684
-0.263524;0.137637
-0.282557;0.075511
-0.290064;0.004926
-0.276183;-0.083817
-0.234973;-0.195093
-0.180862;-0.284126
-0.136578;-0.309276
-0.113822;-0.291358
-0.113868;-0.276378
-0.126749;-0.282061
-0.138584;-0.305989
-0.153040;-0.356958
-0.172416;-0.458056
-0.185561;-0.724644
-0.158627;-0.547579
-0.132621;-0.397769
-0.114489;-0.299597
-0.095476;-0.196284
-0.129310;-0.333518
-0.186345;-0.468105
-0.271049;-0.648747
-0.378578;-0.953721
-0.435160;-1.177659
-0.299069;-0.876152
-0.248522;-0.748482
-0.222343;-0.674955
-0.217182;0.591945
-0.205782;0.629840
-0.185428;0.677031
-0.153675;0.737700
-0.170300;0.733459
-0.227750;0.666222
-0.264707;0.622667
-0.285861;0.589232
-0.273964;0.510481
-0.219715;0.363878
-0.117430;0.172406
-0.123240;0.150320
-0.218585;0.215227
-0.275214;0.213425
-0.304497;0.177810
-0.322823;0.137356
-0.341934;0.129771
-0.353051;0.124037
-0.328958;-0.007556
-0.302757;-0.116292
-0.285087;-0.181893
-0.282853;-0.222821
-0.296824;-0.264795
-0.313812;-0.317209
-0.287397;-0.332070
-0.279832;-0.371624
-0.314163;-0.478598
-0.433854;-0.771638
-0.228949;-0.480970
-0.170312;-0.358292
-0.118746;-0.240695
-0.129213;-0.264717
-0.183305;-0.375343
-0.269927;-0.507198
-0.431933;-0.701080
-0.662404;-1.008373
-0.475224;-0.966403
-0.352918;-0.797924
-0.299680;-0.715508
-0.268701;-0.660012
-0.255730;0.614381
-0.251521;0.647103
-0.245038;0.682004
-0.245269;0.717079
-0.283224;0.725549
-0.301026;0.699153
-0.339649;0.717088
-0.404758;0.830900
-0.409194;0.795477
-0.337028;0.555773
-0.250592;0.344495
-0.128177;0.143116
-0.230179;0.218943
-0.328645;0.260573
-0.357595;0.231986
-0.374232;0.198142
-0.403557;0.250865
-0.461938;0.573420
-0.447009;0.180800
-0.449496;-0.000950
-0.453655;-0.106130
-0.470044;-0.188260
-0.502900;-0.284522
-0.532234;-0.513248
-0.419992;-0.369195
-0.434502;-0.391562
-0.539521;-0.531925
-0.402952;-0.516420
-0.281905;-0.420604
-0.199356;-0.327495
-0.109008;-0.202807
-0.183624;-0.319611
-0.245587;-0.413900
-0.361159;-0.545862
-0.768228;-0.838527
-0.781940;-0.889470
-0.497766;-0.802182
-0.398104;-0.748634
-0.353249;-0.706727
-0.318875;-0.660972
-0.297208;0.640658
-0.299866;0.671315
-0.302783;0.698966
-0.315234;0.715221
-0.363092;0.701803
-0.358665;0.725392
-0.410133;0.807806
-0.530727;1.134828
-0.585667;1.264711
-0.472747;0.804795
-0.395487;0.539997
-0.344793;0.379835
-0.361308;0.335697
-0.400643;0.350012
-0.414202;0.309673
-0.426237;0.244662
-0.444271;0.230387
-0.484431;0.342169
-0.655796;0.300938
-0.657182;0.057485
-0.671799;-0.067320
-0.709276;-0.175063
-0.680905;-0.278061
-0.541801;-0.332295
-0.478952;-0.342648
-0.763602;-0.473636
-0.532681;-0.430456
-0.410116;-0.420850
-0.336717;-0.394399
-0.272815;-0.355283
-0.232650;-0.329118
-0.262050;-0.376101
-0.309410;-0.444966
-0.393920;-0.545477
-0.554108;-0.692653
-0.539888;-0.732060
-0.482518;-0.754403
-0.457360;-0.788192
-0.425181;-0.763720
-0.376826;-0.690641
-0.340700;0.674702
-0.349970;0.710507
-0.359435;0.745996
-0.370601;0.773970
-0.382517;0.777447
-0.408912;0.794175
-0.468805;0.865929
-0.561665;1.066535
-0.759132;1.519635
-0.588121;1.037590
-0.525641;0.707161
-0.487843;0.511461
-0.463916;0.414151
-0.434309;0.436799
-0.441523;0.408229
-0.475744;0.285710
-0.494015;0.205897
-0.515565;0.174973
-0.568523;0.141017
-0.623389;0.041848
-0.632774;-0.058725
-0.608486;-0.146176
-0.569096;-0.217039
-0.531915;-0.273404
-0.517548;-0.322716
-0.527007;-0.370540
-0.507807;-0.397103
-0.464746;-0.404922
-0.414981;-0.398889
-0.370024;-0.389546
-0.344936;-0.392004
-0.349353;-0.419266
-0.376499;-0.469888
-0.421818;-0.540891
-0.474185;-0.624112
-0.508086;-0.708585
-0.533221;-0.825110
-0.580013;-1.055147
-0.532293;-0.950836
-0.438100;-0.742452
-0.385135;0.717417
-0.401325;0.765969
-0.418462;0.828811
-0.435484;0.931279
-0.449488;1.056229
-0.483123;0.952902
-0.528301;0.920908
-0.586393;1.013100
-0.641717;1.293066
-0.637004;1.251677
-0.659764;0.830876
-0.628589;0.592085
-0.571531;0.453323
-0.507827;0.396850
-0.478631;0.404261
-0.524674;0.313877
-0.562114;0.171953
-0.570608;0.105260
-0.564727;0.071662
-0.570509;0.014078
-0.580060;-0.061891
-0.582825;-0.137769
-0.583024;-0.210075
-0.588671;-0.279989
-0.604845;-0.348075
-0.625296;-0.408780
-0.628140;-0.447687
-0.587852;-0.449286
-0.522268;-0.430141
-0.468929;-0.418585
-0.440202;-0.424264
-0.436402;-0.449878
-0.453509;-0.495718
-0.486603;-0.561041
-0.530302;-0.646226
-0.581206;-0.761001
-0.640022;-0.942294
-0.652267;-1.286373
-0.577974;-0.972013
-0.482759;-0.761361
-0.428699;0.766619
-0.451463;0.829730
-0.476040;0.918798
-0.495378;1.108663
-0.415334;1.697253
-0.555971;1.164367
-0.597304;0.987338
-0.638346;0.978193
-0.693969;1.131128
-0.868807;1.409457
-0.886033;0.903363
-0.847151;0.637445
-0.752517;0.477765
-0.632934;0.383185
-0.559604;0.324890
-0.565058;0.254158
-0.611871;0.114658
-0.626571;0.040727
-0.600662;0.043206
-0.597969;-0.002629
-0.617753;-0.076387
-0.641259;-0.155755
-0.668776;-0.240754
-0.706459;-0.334180
-0.761016;-0.435916
-0.834346;-0.541601
-0.905014;-0.632077
-0.815781;-0.584904
-0.654577;-0.485748
-0.569864;-0.449412
-0.532735;-0.450459
-0.526226;-0.477183
-0.542599;-0.526556
-0.578014;-0.599107
-0.631137;-0.699473
-0.703722;-0.841596
-0.804536;-1.058848
-0.748868;-1.058941
-0.600404;-0.874455
-0.507865;-0.732100
-0.468890;0.820334
-0.496525;0.897369
-0.527147;0.987186
-0.565688;1.130297
-0.646789;1.443973
-0.693133;1.316780
-0.685875;1.060967
-0.709294;0.958629
-0.780242;0.964160
-0.986904;1.032899
-1.338443;0.936971
-1.252749;0.618224
-1.119249;0.449569
-0.845389;0.375838
-0.654603;0.306073
-0.600096;0.231764
-0.598936;0.156267
-0.610699;0.094264
-0.630754;0.042307
-0.669221;-0.024154
-0.717171;-0.103626
-0.765126;-0.193186
-0.815689;-0.300712
-0.881051;-0.434922
-0.979962;-0.594532
-1.132595;-0.776698
-1.369362;-1.015499
-1.054235;-0.750151
-0.765423;-0.531098
-0.661820;-0.474079
-0.624458;-0.473183
-0.622388;-0.504771
-0.645469;-0.564062
-0.691856;-0.651959
-0.763684;-0.773844
-0.869951;-0.945101
-0.887419;-1.044640
-0.717142;-0.898180
-0.603297;-0.780430
-0.519639;-0.683827
-0.502760;0.876881
-0.530808;0.982269
-0.558490;1.086992
-0.605367;1.129406
-0.707874;1.256579
-0.876012;1.511491
-0.797968;1.149500
-0.794371;0.970629
-0.830839;0.879897
-0.933968;0.823335
-1.123579;0.726831
-1.343920;0.555150
-1.507073;0.329372
-1.042850;0.358089
-0.731849;0.307156
-0.647785;0.232268
-0.634218;0.160850
-0.658577;0.092551
-0.719267;0.020988
-0.809126;-0.058086
-0.897392;-0.142173
-0.968092;-0.239238
-1.029597;-0.376025
-1.105097;-0.581648
-1.238013;-0.839476
-1.397593;-1.020171
-1.178847;-0.817171
-0.969150;-0.642474
-0.813506;-0.525174
-0.740557;-0.484396
-0.720267;-0.491600
-0.731754;-0.533161
-0.767235;-0.609942
-0.831072;-0.724377
-0.937747;-0.873312
-0.975131;-1.006745
-0.809931;-0.869802
-0.687692;-0.779233
-0.595040;-0.700705
-0.522472;-0.632744
-0.528469;0.924039
-0.548227;1.069438
-0.555293;1.326239
-0.586452;1.202747
-0.707758;1.163107
-0.876251;1.302222
-0.948134;1.274191
-0.919858;1.012071
-0.911209;0.866188
-0.927221;0.766515
-0.973415;0.670292
-1.024346;0.561642
-1.017158;0.458030
-0.885688;0.384540
-0.747805;0.310897
-0.684993;0.233109
-0.681600;0.156194
-0.736466;0.075910
-0.875673;-0.014994
-1.076669;-0.107938
-1.212837;-0.187071
-1.292552;-0.267377
-1.345355;-0.420691
-1.401710;-0.766481
-1.325564;-0.946723
-1.166980;-0.753132
-1.031021;-0.637033
-0.920387;-0.549318
-0.849770;-0.497328
-0.824856;-0.486051
-0.836029;-0.507657
-0.870983;-0.559801
-0.920103;-0.664677
-1.002573;-0.837297
-1.032359;-0.924292
-0.875009;-0.817209
-0.753703;-0.747644
-0.659185;-0.687570
-0.582746;-0.633181
-0.519977;-0.584141
-0.549512;0.942218
-0.559393;1.085628
-0.518349;1.279857
-0.531591;1.284079
-0.693914;1.130793
-0.855619;1.124229
-1.092011;1.244514
-1.159060;1.055902
-1.082880;0.882756
-1.019802;0.773467
-0.974273;0.672669
-0.935906;0.573446
-0.884622;0.480285
-0.811850;0.395231
-0.742907;0.313583
-0.707708;0.232728
-0.720504;0.150672
-0.807065;0.060343
-1.073265;-0.055273
-1.634443;-0.176609
-1.715329;-0.258376
-1.728736;-0.239362
-1.618700;-0.358337
-1.381967;-0.591136
-1.180059;-0.615887
-1.050844;-0.568710
-0.968889;-0.518338
-0.926395;-0.483478
-0.920031;-0.474696
-0.945349;-0.492983
-0.999768;-0.530273
-1.080402;-0.575692
-1.163787;-0.673640
-1.057747;-0.838659
-0.914243;-0.752541
-0.801539;-0.698357
-0.709683;-0.654163
-0.633260;-0.613631
-0.568916;-0.575292
-0.514323;-0.539392
-0.572205;0.929499
-0.587730;1.052309
-0.568192;1.209333
-0.528956;1.341957
-0.711201;1.121189
-0.850159;1.021952
-1.012924;1.004138
-1.274330;0.991048
-1.454038;0.880070
-1.234496;0.830144
-1.111400;0.705088
-0.985967;0.594024
-0.874282;0.492977
-0.794500;0.400966
-0.741413;0.315539
-0.719231;0.233097
-0.738361;0.149894
-0.821578;0.060210
-1.022512;-0.042622
-1.287350;-0.134978
-1.336326;-0.191240
-1.310703;-0.242174
-1.251565;-0.319131
-1.153656;-0.403977
-1.051117;-0.445163
-0.981685;-0.447849
-0.966734;-0.438941
-1.005697;-0.439614
-1.062953;-0.469426
-1.138776;-0.523167
-1.251548;-0.594446
-1.261091;-0.590549
-1.120829;-0.599095
-0.957241;-0.640557
-0.838020;-0.630213
-0.747705;-0.605853
-0.673099;-0.579282
-0.609458;-0.552149
-0.554474;-0.525039
-0.506702;-0.498621
-0.596400;0.894900
-0.628635;0.992782
-0.655572;1.108095
-0.684286;1.251369
-0.817756;1.096610
-0.907654;0.949704
-0.979225;0.887579
-1.088532;0.860029
-1.244187;0.850795
-1.435864;0.940789
-1.470619;0.702086
-1.150223;0.614737
-0.902769;0.501130
-0.795035;0.403266
-0.740892;0.316376
-0.721063;0.234729
-0.735602;0.154461
-0.791698;0.072797
-0.892589;-0.009592
-1.002338;-0.083977
-1.061080;-0.145101
-1.069019;-0.201326
-1.044524;-0.259446
-0.999637;-0.313291
-0.954265;-0.351405
-0.941066;-0.374086
-1.034050;-0.390773
-1.242816;-0.403584
-1.343484;-0.499973
-1.258663;-0.537735
-1.135871;-0.536211
-1.038273;-0.529699
-0.947981;-0.535202
-0.856373;-0.545141
-0.773167;-0.544063
-0.702075;-0.533406
-0.640780;-0.517936
-0.587126;-0.500058
-0.539761;-0.480994
-0.497794;-0.461586
-0.616242;0.847366
-0.663358;0.920021
-0.724882;0.993029
-0.830020;1.046315
-1.035295;1.041568
-1.081585;0.851414
-1.060308;0.777161
-1.030389;0.773209
-1.075676;0.763198
-1.178521;0.738891
-1.296174;0.672755
-1.127192;0.597960
-0.893365;0.491872
-0.787243;0.398059
-0.734836;0.314316
-0.714491;0.236285
-0.721108;0.161201
-0.753536;0.087816
-0.806396;0.017045
-0.862880;-0.048190
-0.902267;-0.106435
-0.917023;-0.159636
-0.911330;-0.209468
-0.894195;-0.254434
-0.880419;-0.292373
-0.897464;-0.325225
-1.015288;-0.359762
-1.176117;-0.387863
-1.122341;-0.421561
-1.043477;-0.451569
-0.971740;-0.462701
-0.905528;-0.468865
-0.841479;-0.475121
-0.777987;-0.480281
-0.717289;-0.480773
-0.661587;-0.475903
-0.611265;-0.466976
-0.565899;-0.455367
-0.524970;-0.442100
-0.488038;-0.427945
-0.626561;0.794456
-0.679653;0.846024
-0.750056;0.889512
-0.853194;0.907422
-1.005495;0.870174
-1.206760;0.737157
-1.343213;0.555779
-1.035819;0.700293
-0.980747;0.696447
-0.996005;0.662915
-0.999925;0.612952
-0.934028;0.545968
-0.835807;0.465483
-0.763470;0.384725
-0.720700;0.308444
-0.701365;0.236307
-0.701720;0.167318
-0.718817;0.101059
-0.747528;0.038039
-0.779132;-0.020670
-0.804225;-0.074510
-0.817707;-0.123901
-0.820203;-0.169362
-0.816860;-0.210824
-0.816978;-0.248395
-0.834533;-0.283531
-0.881846;-0.317839
-0.929489;-0.348267
-0.929366;-0.373342
-0.897858;-0.393327
-0.855756;-0.406991
-0.810402;-0.416570
-0.763678;-0.423858
-0.716446;-0.428822
-0.670009;-0.430582
-0.625676;-0.428803
-0.584176;-0.423899
-0.545728;-0.416571
-0.510303;-0.407517
-0.477774;-0.397336
-0.626152;0.741460
-0.677179;0.777768
-0.740599;0.804807
-0.821041;0.812757
-0.918620;0.790079
-1.017442;0.732740
-1.052193;0.678789
-0.963902;0.671308
-0.907023;0.647940
-0.887758;0.609317
-0.868245;0.560667
-0.828987;0.502102
-0.777678;0.435907
-0.732153;0.367183
-0.700596;0.299557
-0.683863;0.234281
-0.680625;0.171574
-0.688596;0.111558
-0.704160;0.054593
-0.722392;0.001171
-0.738354;-0.048429
-0.748986;-0.094282
-0.754119;-0.136622
-0.756358;-0.175669
-0.760469;-0.211783
-0.771776;-0.245537
-0.791224;-0.276982
-0.808471;-0.304837
-0.810018;-0.328005
-0.794827;-0.346520
-0.768981;-0.360811
-0.737375;-0.371711
-0.702670;-0.379926
-0.666419;-0.385625
-0.629834;-0.388656
-0.593928;-0.388968
-0.559411;-0.386776
-0.526690;-0.382481
-0.495957;-0.376544
-0.467276;-0.369409
