20;20
-7.496906;-22.869238
-8.078526;-23.761539
-8.770621;-24.799450
-9.792766;-25.472347
-11.219142;-25.617920
-12.332743;-24.669224
-14.765476;-23.779686
-15.341453;-21.823076
-17.499748;-19.824175
-21.006483;-17.919544
-18.700996;-14.905212
-18.562878;-12.246547
-18.867613;-9.660461
-17.438303;-7.315463
-16.548666;-5.448342
-16.151566;-3.332900
-15.015432;-2.250416
-13.965620;-2.773593
-13.064368;-3.215857
-12.279967;-3.595832
-8.078526;-23.761539
-8.770621;-24.799450
-9.613619;-26.030375
-10.892828;-26.914404
-12.730314;-27.334795
-14.094448;-26.218637
-17.405125;-25.594982
-17.729631;-23.158909
-20.608952;-20.939325
-26.994385;-19.306875
-21.877283;-15.773055
-21.049459;-12.759032
-21.437855;-9.926197
-19.373014;-7.326667
-18.168159;-5.220546
-17.670370;-2.803038
-16.259823;-1.618615
-15.015432;-2.250416
-13.965620;-2.773593
-13.064368;-3.215857
-8.770621;-24.799450
-9.613619;-26.030375
-10.674046;-27.530586
-12.347654;-28.757090
-14.895144;-29.770567
-16.692286;-28.319880
-22.239216;-28.724253
-21.327402;-24.942961
-26.373507;-22.357258
-58.286091;-23.922361
-27.721300;-17.242908
-24.632336;-13.521293
-25.258228;-10.345254
-21.952093;-7.406757
-20.216810;-4.970192
-19.582083;-2.127905
-17.769070;-0.834508
-16.259823;-1.618615
-15.015432;-2.250416
-13.965620;-2.773593
-9.033514;-26.055496
-10.026700;-27.579645
-11.349072;-29.524063
-13.618768;-31.448484
-17.680529;-34.306461
-20.178299;-31.936310
-47.183201;-44.810253
-23.241713;-28.221083
-23.582771;-23.882158
-29.194675;-21.083252
-24.839333;-16.858772
-25.596914;-13.227475
-30.604422;-10.220826
-24.316338;-6.937747
-21.881256;-4.127451
-21.331810;-0.716018
-18.991858;0.592554
-17.173952;-0.495388
-15.725424;-1.335005
-14.531991;-2.008285
-8.658120;-27.179020
-9.723839;-29.083269
-11.291116;-31.729807
-14.678922;-35.401306
-31.834478;-57.499798
-17.632812;-33.806496
-21.327648;-31.139942
-20.692728;-27.844011
-22.905041;-24.258522
-29.383091;-21.820744
-26.126282;-16.692123
-30.569626;-12.763320
-70.513748;-12.540030
-30.193008;-6.567297
-24.822210;-2.896478
-24.258171;1.589186
-20.762547;2.745069
-18.375385;1.174499
-16.582712;0.021955
-15.163018;-0.870737
-7.101957;-27.344643
-7.863657;-29.231794
-8.872254;-31.714983
-10.922960;-33.882145
-14.109239;-34.912449
-13.696908;-31.400366
-17.619331;-29.766422
-21.784418;-29.988228
-25.291922;-25.835875
-63.935192;-33.442837
-27.310219;-17.931377
-26.228559;-12.488101
-29.907574;-8.485530
-24.685329;-3.922669
-23.822771;0.295824
-27.761152;6.962470
-21.773054;6.669270
-18.664711;3.993563
-16.560471;2.215531
-14.982017;0.921084
-5.390065;-28.153536
-5.997817;-30.435423
-6.851089;-33.670185
-9.175322;-37.167641
-9.988199;-33.913322
-10.890148;-32.244511
-16.654654;-31.973373
-48.018204;-56.935055
-21.541391;-28.320366
-24.973230;-22.306604
-21.279797;-15.675629
-23.320211;-10.495442
-23.934752;-5.620677
-23.113228;-0.258826
-26.579693;5.897608
-62.857536;30.202333
-25.992468;13.145542
-19.990080;8.116065
-16.932583;5.245625
-14.926454;3.315720
-3.244424;-29.579975
-3.869516;-32.831905
-5.313316;-38.574013
-18.860706;-65.637108
-6.638489;-36.715721
-5.718652;-33.421173
-9.198743;-29.962700
-14.036795;-30.086567
-15.890050;-27.995703
-17.624573;-20.381828
-17.732605;-13.907287
-23.965054;-8.969226
-20.556633;-3.785023
-19.516573;1.425038
-19.839630;5.559897
-24.450363;12.620725
-20.390732;18.611467
-16.637432;11.262523
-14.364505;7.552237
-12.761075;5.172536
-0.252899;-29.386114
-0.232455;-32.801163
-0.057811;-39.016663
-2.292890;-38.275543
-1.013719;-34.298149
-0.294957;-35.562119
-4.185445;-29.894669
-8.438776;-29.489580
-31.779650;-62.012302
-15.570226;-21.828249
-19.201126;-12.817874
-68.133224;-9.851260
-22.305660;-1.836907
-19.055866;4.687240
-17.540815;8.864553
-19.431599;17.885098
-31.725101;63.631409
-16.362806;19.479744
-13.193043;11.921798
-11.409203;8.199630
3.340805;-31.057110
3.829176;-37.274414
5.417181;-72.850624
4.307253;-39.504368
5.160586;-37.285576
6.685313;-71.481102
3.594574;-31.750668
2.141358;-25.597530
-5.140979;-24.836489
-6.512401;-16.410023
-8.577438;-9.507324
-16.811485;-4.402438
-13.745210;2.971591
-16.934353;10.568370
-13.254939;10.479298
-13.095921;14.997062
-13.534536;23.185667
-10.704134;15.289075
-9.121427;11.058824
-8.017248;8.270541
6.672771;-26.950962
7.400736;-30.105928
8.151584;-36.061127
10.239629;-32.867203
11.545687;-30.842058
14.519301;-33.574364
11.298295;-25.099024
13.488183;-20.077173
4.510761;-17.607492
s
-1.543751;-4.561699
-7.882803;1.527085
-11.598457;11.609043
-52.108162;44.844379
-13.218019;16.766483
-9.383021;18.674162
-7.694964;26.351068
-6.805539;17.830046
-5.905079;13.271835
-5.177395;10.251296
10.822744;-24.699841
12.238350;-27.035023
14.199594;-30.541004
18.884211;-31.979923
21.327335;-29.778177
54.680489;-49.614445
23.487976;-23.372231
58.205807;-14.892200
16.384224;-14.302773
9.702045;-8.454278
7.140381;-1.503836
1.480986;4.826920
-0.772485;16.051899
-7.191178;17.787975
-3.538860;17.788794
-2.527398;25.352753
0.440329;73.900917
-2.032251;25.506506
-1.859296;17.040596
-1.585674;12.766559
13.671645;-23.257732
15.751014;-25.692554
19.512215;-30.134605
41.384380;-54.389153
23.909311;-28.144947
24.501034;-26.235025
22.457485;-19.240421
27.758270;-14.525047
18.025856;-10.674081
13.892783;-4.432163
13.128925;3.669031
7.393540;12.751460
6.663342;68.471169
2.134298;21.245857
2.198005;18.586443
2.100558;22.297560
0.905183;27.456129
1.025616;19.207907
1.108061;14.788938
1.163417;11.814607
15.264440;-20.608412
17.105591;-22.155716
19.689281;-24.413710
24.541050;-27.134556
28.329769;-23.051006
26.133476;-20.767206
28.452080;-15.675700
68.909782;-11.119217
25.912901;-8.547680
20.669027;-2.440117
22.697405;6.299744
14.098953;8.832577
9.943233;18.119387
8.125944;16.747379
7.298775;18.169376
7.571076;25.447300
4.926853;22.748650
4.443480;17.410034
4.118208;13.903988
3.867060;11.351750
16.954712;-18.585001
19.074121;-19.721579
22.219999;-21.265268
28.645382;-22.548653
65.879425;-26.895306
30.085463;-18.569609
27.755020;-13.808655
32.251423;-10.100699
26.010754;-5.183235
26.898731;3.020638
62.170986;36.954868
22.799704;11.606236
16.069384;15.274890
14.434118;18.384413
12.639241;23.781979
20.143133;68.060471
9.644530;26.832214
7.916211;19.051491
7.011673;14.889145
6.390891;12.081354
16.554970;-17.197382
18.225800;-18.030643
20.428223;-19.105116
23.950361;-19.649130
29.902233;-18.824638
26.536680;-16.086100
27.435108;-12.446667
33.326515;-9.586953
26.879416;-5.470151
26.411314;0.171695
33.047081;7.784113
22.882143;8.361599
18.939171;13.039465
20.553459;18.774784
15.135567;18.327957
13.134120;24.996902
10.274683;19.534260
9.093720;15.391855
8.236924;12.562937
7.567359;10.437223
16.771616;-15.928733
18.289713;-16.527334
20.189938;-17.265574
22.939535;-17.415333
26.573875;-16.232250
27.476355;-14.109371
32.751400;-11.185586
72.492218;-11.775216
33.609558;-5.353736
33.215767;0.342474
73.613411;8.740549
30.266165;8.267776
26.126406;15.155883
53.793823;46.536522
21.918833;19.433878
15.953710;19.320482
12.718678;16.594339
11.156691;13.523364
10.018305;11.236580
9.135839;9.437588
15.519114;-15.430366
16.771616;-15.928733
18.289713;-16.527334
20.377552;-16.559649
22.853477;-15.427819
23.576414;-13.695148
25.892061;-11.066500
32.521973;-8.998935
26.255856;-5.577345
25.689390;-1.324557
31.213610;3.645836
22.982681;5.780988
20.242876;10.221493
22.792276;16.819422
16.626429;13.936815
13.406610;14.910252
11.156691;13.523364
10.018305;11.236580
9.135839;9.437588
8.423598;7.970392
14.461745;-15.007151
15.519114;-15.430366
16.771616;-15.928733
18.433701;-15.897321
20.281361;-14.849422
20.873144;-13.344682
22.191849;-10.978697
25.425499;-8.853958
22.192810;-5.956708
21.553019;-2.373948
23.811659;1.719465
19.122604;3.981054
16.992771;7.515446
17.274675;11.397943
13.963870;10.855406
11.727255;11.994226
10.018305;11.236580
9.135839;9.437588
8.423598;7.970392
7.832135;6.742805
13.553517;-14.642156
14.461745;-15.007151
15.519114;-15.430366
16.884644;-15.362101
18.337126;-14.395338
18.827209;-13.048551
19.664219;-10.900632
21.680300;-8.878383
19.438286;-6.294591
18.770065;-3.142239
19.950476;0.417305
16.575594;2.616277
14.812489;5.647008
14.506619;8.562409
12.232720;8.713799
10.503087;9.852066
9.135839;9.437588
8.423598;7.970392
7.832135;6.742805
7.330447;5.695825
