20;20;1.000000;1.000000
9.455910;9.305816
1
180.000000;10.994371 4.277674;7.739341 3.994294;4.304547 5.637038;2.692134 8.008419;3.189493 11.144821;4.722113 13.923279;6.572431 15.592451;9.414062 15.797373;12.345274 14.859228;14.502252 12.215572;16.022514 8.588816;14.628242 5.105857;11.594747 3.827392
