20;20;0.700000;0.700000
6.792656;10.079208
-1.127861;-0.803847
-1.263533;-0.845829
-1.365547;-0.874279
-1.422242;-0.879461
-1.372742;-0.622286
-1.358565;-0.394327
-1.357484;-0.271867
-1.352657;-0.192696
-1.344504;-0.133519
-1.332392;-0.082371
-1.318292;-0.027314
-1.298892;0.041385
-1.274989;0.131259
-1.241067;0.257186
-1.193232;0.445873
-1.115399;0.679713
-0.987561;0.804552
-0.865917;0.824373
-0.761004;0.802800
-0.669592;0.762639
-1.147779;-0.876815
-1.351030;-0.939945
-1.471314;-0.985312
-1.459085;-0.885498
-1.598189;-0.321487
-1.644675;-0.169437
-1.666944;-0.123205
-1.667080;-0.087237
-1.683961;-0.063410
-1.710323;-0.048319
-1.690452;-0.038921
-1.691113;-0.020771
-1.766218;-0.025404
-1.715990;0.012651
-1.635570;0.129975
-1.563800;0.465783
-1.066011;1.037345
-0.906625;0.993200
-0.777087;0.934540
-0.669601;0.862989
-1.037950;-0.950710
-1.262029;-1.037279
-1.346277;-0.913342
-1.410782;-0.629824
-1.447021;-0.551471
-1.499993;-0.275414
-1.529074;-0.241779
-1.500049;-0.145153
-1.514589;-0.100748
-1.460054;-0.088404
-1.454217;-0.056539
-1.417568;0.009215
-1.421858;0.106171
-1.343669;0.247953
-1.239874;0.530840
-1.091705;1.054484
-1.140982;1.289507
-0.933651;1.173248
-0.773130;1.076635
-0.651461;0.961638
-0.779389;-1.045903
-0.348305;-1.505545
-1.047561;-0.894346
-1.431026;-0.437522
-1.498742;-0.296532
-1.522137;-0.204187
-1.523876;-0.154371
-1.511619;-0.127596
-1.489355;-0.114062
-1.458403;-0.106533
-1.430279;-0.087912
-1.414069;-0.034760
-1.399651;0.057050
-1.354625;0.194963
-1.111155;0.525692
-0.630438;1.224581
-0.921022;1.269378
-0.689116;1.498460
-0.740527;1.217173
-0.604392;1.041967
-0.566296;-1.126646
-0.164104;-1.626244
-0.728546;-1.059619
-1.016741;-0.786803
-1.091533;-0.540480
-1.114844;-0.423690
-1.100194;-0.359548
-1.057963;-0.334040
-0.990228;-0.343306
-0.894760;-0.389428
-0.779739;-0.459513
-0.783323;-0.304647
-0.814896;-0.000064
-0.766435;0.340834
-0.601038;0.793223
-0.215616;1.476847
-0.525965;1.337780
-0.521336;1.518073
-0.619872;1.275948
-0.507296;1.081627
-0.412191;-1.190463
-0.101965;-1.682248
-0.476032;-1.211116
-0.709373;-0.843776
-0.799799;-0.654927
-0.819129;-0.546917
-0.793925;-0.496771
-0.733643;-0.499870
-0.638092;-0.566903
-0.495218;-0.735892
-0.203564;-1.252805
-0.332163;-0.834883
-0.464615;-0.202703
-0.459851;0.305007
-0.357722;0.842180
-0.096586;1.531967
-0.303207;1.357813
-0.250144;1.539165
-0.361742;1.294060
-0.369387;1.090407
-0.290406;-1.238519
-0.087915;-1.644183
-0.328418;-1.226538
-0.495264;-0.913983
-0.568381;-0.734642
-0.580790;-0.638003
-0.550593;-0.606490
-0.485976;-0.642036
-0.388068;-0.766265
-0.249888;-1.038989
-0.054481;-1.658206
-0.132281;-1.170647
-0.249509;-0.413463
-0.263235;0.214379
-0.201185;0.829997
-0.027116;1.564027
-0.122311;1.392240
-0.151321;1.535022
-0.213604;1.318057
-0.243117;1.092404
-0.194159;-1.277555
-0.018505;-1.713496
-0.209434;-1.274446
-0.332797;-0.966400
-0.384416;-0.793726
-0.388910;-0.706587
-0.358663;-0.690619
-0.301343;-0.749637
-0.222304;-0.904597
-0.126735;-1.202097
-0.035199;-1.774149
-0.060745;-1.247437
-0.115700;-0.548498
-0.122758;0.125581
-0.087728;0.798332
0.012718;1.586047
-0.059358;1.347226
-0.106958;1.485901
-0.127848;1.334100
-0.143109;1.091327
-0.125607;-1.293053
-0.024339;-1.711419
-0.130661;-1.298154
-0.204826;-1.004107
-0.235037;-0.835782
-0.232595;-0.754775
-0.205582;-0.748204
-0.161112;-0.818663
-0.107309;-0.980518
-0.054968;-1.261745
-0.032109;-1.770050
-0.003363;-1.332096
-0.013331;-0.626725
-0.004838;0.055147
0.008530;0.761186
0.039388;1.606696
-0.000357;1.376053
-0.054406;1.485990
-0.068134;1.347516
-0.060985;1.086720
-0.063652;-1.309340
-0.013702;-1.685576
-0.062268;-1.326403
-0.097855;-1.029330
-0.108346;-0.862644
-0.100260;-0.783846
-0.077808;-0.780332
-0.046598;-0.853330
-0.015246;-1.013148
0.003083;-1.282633
-0.020329;-1.722039
0.044210;-1.307323
0.088624;-0.660212
0.120092;-0.001262
0.112137;0.710183
0.060819;1.630387
0.060833;1.271699
-0.011280;1.403300
-0.020444;1.356956
0.012247;1.078638
-0.007721;-1.314945
-0.005844;-1.718295
-0.008673;-1.328931
-0.001419;-1.042331
0.006332;-0.875789
0.018818;-0.795322
0.036506;-0.789081
0.056227;-0.858390
0.069831;-1.013865
0.060566;-1.280927
-0.009062;-1.712150
0.090520;-1.360489
0.220269;-0.659407
0.290525;-0.049472
0.265704;0.600820
0.078181;1.665131
0.141847;1.272921
0.029788;1.445555
0.022226;1.367968
0.082536;1.068626
0.054272;-1.319425
0.000728;-1.719116
0.051659;-1.337535
0.096083;-1.045391
0.118831;-0.876796
0.134088;-0.790982
0.146976;-0.776244
0.157334;-0.835240
0.157908;-0.982712
0.126540;-1.253834
0.008375;-1.697316
0.206144;-1.252636
0.434028;-0.581182
0.567546;-0.060777
0.570313;0.389966
0.440819;0.844997
0.341083;0.975174
0.138623;1.273545
0.062284;1.379079
0.152396;1.059320
0.132590;-1.318350
0.044379;-1.679528
0.140873;-1.320831
0.205110;-1.037859
0.238300;-0.867470
0.254075;-0.773108
0.261747;-0.743720
0.264729;-0.782773
0.257699;-0.909318
0.210824;-1.181632
0.053379;-1.648737
0.500098;-1.124212
0.827304;-0.360815
1.022619;0.027667
1.080073;0.277321
0.721223;1.340311
0.673824;0.760535
0.063822;1.519836
0.094593;1.401100
0.221018;1.055486
0.217374;-1.306926
0.044979;-1.722288
0.237576;-1.306147
0.333124;-1.023567
0.373626;-0.850435
0.386820;-0.744885
0.388186;-0.695179
0.385538;-0.702797
0.379303;-0.780434
0.351948;-0.971032
0.274831;-1.295338
0.972703;-0.540434
1.575987;0.074363
1.690854;0.196512
1.769397;0.219196
1.653325;0.255828
0.986533;0.589245
0.355717;1.138644
0.114892;1.434709
0.288901;1.059451
0.323785;-1.277386
0.086510;-1.696878
0.388042;-1.286239
0.493915;-1.003432
0.534231;-0.828494
0.539747;-0.710015
0.532880;-0.636617
0.525024;-0.606711
0.523487;-0.618781
0.541363;-0.660058
0.633701;-0.656230
1.010532;-0.317171
1.268792;-0.013649
1.281216;0.148767
1.235140;0.305706
1.103323;0.437944
0.802674;0.727573
0.014439;1.698643
0.125778;1.482977
0.367181;1.066481
0.457775;-1.240820
0.161709;-1.638911
0.563440;-1.233871
0.705153;-0.977692
0.727694;-0.804425
0.718223;-0.670349
0.701660;-0.572483
0.688066;-0.508846
0.684692;-0.470242
0.704604;-0.434856
0.772641;-0.358985
0.899267;-0.201853
1.007499;-0.011523
1.040995;0.172368
1.014622;0.365898
0.935666;0.596768
0.809691;0.899895
0.593550;1.142245
0.173382;1.510157
0.490311;1.052378
0.645874;-1.183905
0.149615;-1.679363
1.008819;-1.145908
0.974292;-0.961973
0.953303;-0.776543
0.924430;-0.619417
0.902036;-0.497761
0.885261;-0.411123
0.876643;-0.345922
0.881589;-0.283309
0.906268;-0.201041
0.947619;-0.083596
0.983927;0.068540
0.994828;0.255794
0.979073;0.494139
0.952620;0.786027
0.920022;1.129921
0.975611;1.257927
0.783694;1.181812
0.668210;1.011368
0.892563;-1.101151
0.921670;-1.265223
1.220384;-1.115074
1.202710;-0.956228
1.273470;-0.691998
1.164114;-0.526270
1.159146;-0.387048
1.141408;-0.297235
1.132236;-0.230144
1.128370;-0.169600
1.125072;-0.099033
1.129709;-0.003908
1.122680;0.127167
1.107310;0.322266
1.065457;0.598702
1.123575;1.216235
1.063987;1.254948
1.095980;1.366953
0.943347;1.165876
0.782852;0.982679
1.037560;-1.026035
1.247151;-1.101149
1.370941;-1.150061
1.339578;-1.007021
1.395472;-0.566035
1.446778;-0.327346
1.486031;-0.215816
1.479349;-0.146893
1.474745;-0.107352
1.487689;-0.074987
1.452126;-0.037887
1.498616;0.024934
1.418958;0.102949
1.445327;0.451686
1.291538;0.474630
1.114376;1.004723
1.117305;1.399554
1.045569;1.230872
0.936880;1.073281
0.815153;0.926838
1.042222;-0.949830
1.186693;-1.006357
1.291635;-1.036201
1.366531;-0.867658
1.530616;-0.355475
1.572240;-0.202747
1.588411;-0.133548
1.594660;-0.092982
1.596744;-0.064990
1.595849;-0.041740
1.593443;-0.016911
1.589805;0.013936
1.579764;0.056205
1.561045;0.123712
1.511209;0.234294
1.172939;0.785876
1.062366;1.110819
0.992258;1.045148
0.903689;0.942936
0.808315;0.840554
