20;20;0.500000;0.500000
4.873322;7.877060
-0.678923;0.386950
-0.732496;0.485490
-0.796865;0.599626
-0.894977;0.715801
-1.102202;1.106033
-1.160860;0.902088
-1.043145;0.618324
-0.848738;0.448338
-0.570001;0.341719
-0.175562;0.311575
0.310036;0.380706
0.738948;0.555004
1.053899;0.838103
1.432179;1.062360
1.078127;0.825851
0.822729;0.924753
0.661187;0.987161
0.686994;0.629792
0.628880;0.435040
0.571275;0.316472
-0.712100;0.413091
-0.770387;0.553113
-0.821806;0.772736
-0.879311;0.932949
-1.077742;0.852337
-1.364201;0.917528
-1.407297;0.739058
-1.178017;0.516184
-0.881621;0.338471
-0.376449;0.265513
0.487547;0.366826
1.134323;0.623147
1.271730;1.171877
1.132529;0.801692
1.139062;0.801265
1.219167;1.041514
0.784603;1.097824
0.743765;0.640372
0.663640;0.424837
0.598211;0.301910
-0.736691;0.413074
-0.800569;0.577018
-0.843115;0.914027
-0.661411;1.607980
-1.074117;0.841387
-1.172396;0.640025
-1.282842;0.585861
-1.498777;0.569144
-1.563901;0.381979
-1.235882;0.126954
0.599328;0.296333
1.175553;0.473900
1.142861;0.575287
1.287962;0.686522
1.539578;0.914458
1.192960;0.844653
0.931881;0.701039
0.774648;0.509386
0.681578;0.362088
0.615867;0.262922
-0.751543;0.378620
-0.822152;0.513937
-0.913436;0.730721
-1.083181;1.018977
-1.439248;0.857150
-1.301965;0.592672
-1.203066;0.405607
-1.115138;0.264854
-0.986962;0.136523
-0.593851;0.023714
0.664600;-0.007118
1.303976;0.217452
1.620538;0.632621
1.315475;0.624030
1.135423;0.564579
0.984422;0.520227
0.856755;0.449022
0.758599;0.361697
0.685638;0.279592
0.627937;0.211694
-0.756742;0.324913
-0.824975;0.417371
-0.914643;0.522872
-1.049223;0.603014
-1.240015;0.605504
-1.456271;0.581770
-1.642531;0.512099
-1.423063;0.207547
-1.190654;-0.041148
-0.450799;-0.324786
0.357165;-0.298654
0.882864;-0.040677
0.945384;0.151446
0.918602;0.232930
0.884660;0.269471
0.844771;0.286934
0.799015;0.283690
0.748061;0.256456
0.694261;0.212155
0.642318;0.164224
-0.756682;0.273661
-0.819481;0.349643
-0.891757;0.431074
-0.966048;0.467867
-1.035569;0.401387
-1.094994;0.288986
-1.132370;0.157907
-1.116067;-0.025731
-0.910887;-0.343473
-0.377060;-1.377900
0.135333;-1.052814
0.424247;-0.498245
0.618882;-0.228682
0.724138;-0.058990
0.785104;0.065917
0.818937;0.168992
0.822663;0.238607
0.785658;0.235071
0.724897;0.183559
0.665224;0.131020
-0.755603;0.230905
-0.819776;0.321836
-0.901511;0.498525
-0.984867;0.830666
-1.001708;0.481049
-0.983060;0.172476
-0.919038;-0.074997
-0.784355;-0.350606
-0.522551;-0.787014
-0.204330;-1.641977
0.527166;-1.380868
0.495692;-0.810667
0.621690;-0.479918
0.748145;-0.230426
0.857112;-0.006986
0.944507;0.226985
0.989382;0.470491
0.900378;0.370579
0.778275;0.197284
0.694644;0.109670
-0.752404;0.185042
-0.819205;0.283109
-0.917926;0.510265
-1.042369;1.098406
-1.174214;0.802187
-1.123936;0.218533
-1.032442;-0.162684
-0.923441;-0.493680
-0.804596;-0.901415
-0.548795;-1.286968
0.525697;-1.136577
0.932034;-1.025824
0.885668;-0.612529
0.980476;-0.276669
1.111736;0.070459
1.251333;0.464518
1.241402;1.248215
1.007259;0.512082
0.821104;0.194046
0.719489;0.081914
-0.744687;0.127270
-0.805301;0.198353
-0.895103;0.328118
-1.042548;0.528580
-1.315749;0.697403
-1.628847;0.507002
-1.560401;-0.082807
-1.668840;-0.480644
-1.110850;-0.775940
-0.323060;-1.095580
0.139626;-1.204241
0.865284;-0.902230
1.742647;-0.424973
1.549803;-0.131589
1.630642;0.468357
1.448987;0.520113
1.176744;0.467077
0.963447;0.272498
0.824381;0.114194
0.732576;0.034073
-0.735115;0.065689
-0.782465;0.101071
-0.845234;0.147899
-0.931908;0.188255
-1.045523;0.167083
-1.144745;0.021787
-1.123307;-0.239932
-0.912527;-0.532549
-0.561800;-0.831374
-0.205204;-1.260278
0.108857;-1.415263
0.444978;-0.995991
0.816483;-0.653220
1.070339;-0.338512
1.131432;-0.083369
1.080878;0.050608
0.995469;0.085291
0.902207;0.057321
0.816568;0.012598
0.742133;-0.022196
-0.730765;0.014511
-0.765681;0.026930
-0.804366;0.035991
-0.844770;0.025862
-0.877045;-0.035333
-0.876437;-0.174769
-0.807246;-0.381383
-0.652884;-0.631768
-0.443700;-0.936669
-0.306135;-1.387691
0.209061;-1.451849
0.436099;-1.191812
0.614921;-0.788470
0.797172;-0.510344
0.908861;-0.303670
0.954539;-0.164228
0.951472;-0.085667
0.907645;-0.056016
0.837121;-0.056321
0.762150;-0.066666
-0.738817;-0.017483
-0.767589;-0.011398
-0.795985;-0.000106
-0.822252;0.021653
-0.840625;0.012429
-0.838315;-0.161546
-0.783693;-0.417925
-0.674174;-0.692066
-0.554196;-1.023713
-0.621952;-1.625213
0.133190;-1.258086
0.777780;-1.320264
0.759513;-0.852722
0.882135;-0.555245
0.996260;-0.339914
1.073857;-0.187504
1.101077;-0.085913
1.035279;-0.056694
0.906015;-0.073946
0.796919;-0.089026
-0.764372;-0.028091
-0.793674;-0.019165
-0.822621;0.014542
-0.854465;0.157678
-0.847336;0.770195
-0.975570;0.127875
-0.989158;-0.351835
-0.925585;-0.687244
-0.907411;-1.091606
-0.611242;-1.240486
0.024487;-1.086161
0.804500;-1.058115
1.334077;-0.857521
1.292481;-0.454829
1.379287;-0.201602
1.450535;-0.042488
1.518657;0.135168
1.356275;0.100217
0.993202;-0.053487
0.830703;-0.093522
-0.812259;-0.015083
-0.847392;-0.005021
-0.877754;0.025321
-0.917506;0.173965
-0.968819;0.777315
-1.516795;0.287615
-1.522048;-0.235396
-1.611853;-0.576549
-1.073780;-0.961465
-0.546623;-1.129295
-0.316752;-1.248206
0.421650;-0.896114
0.949749;-0.689826
1.315820;-0.391487
1.448786;-0.162942
1.490832;-0.024962
1.451981;0.082165
1.253624;0.043193
0.993711;-0.049899
0.838892;-0.091664
-0.890950;0.034624
-0.942314;0.050033
-0.969256;0.039349
-0.992319;0.044661
-1.068446;0.087021
-1.220910;-0.034377
-1.224229;-0.321414
-1.038025;-0.618830
-0.758595;-0.923182
-0.656434;-1.332542
-0.135686;-1.175353
0.387102;-0.893568
0.695467;-0.683820
0.921895;-0.474521
1.065777;-0.275170
1.139024;-0.110070
1.143407;-0.006274
1.066642;0.002781
0.941871;-0.041310
0.824979;-0.083119
-1.011452;0.149548
-1.115460;0.228849
-1.134860;0.156241
-1.117823;0.023950
-1.103314;-0.100351
-1.086285;-0.254084
-1.026043;-0.466263
-0.911750;-0.733531
-0.827542;-1.083368
-0.715788;-1.305462
0.908040;-1.226200
0.853467;-0.947765
0.835577;-0.729855
0.917780;-0.489113
1.021304;-0.210763
1.114844;0.093461
1.189420;0.311883
1.073745;0.167744
0.922358;0.011299
0.807908;-0.065375
-1.144042;0.307845
-1.448025;0.811814
-1.391256;0.458942
-1.353952;0.141454
-1.309043;-0.077457
-1.256258;-0.266890
-1.194179;-0.501544
-1.149835;-0.823663
-1.112844;-1.324823
-0.483473;-1.020309
0.374478;-0.939375
1.160668;-0.932378
1.286496;-0.884597
1.180340;-0.513271
1.239367;-0.026968
1.303599;0.615135
1.460066;0.836547
1.126859;0.321322
0.911517;0.052913
0.786448;-0.053928
-1.146610;0.275989
-1.369225;0.546929
-1.610418;0.536581
-1.695238;0.389058
-1.698590;0.033130
-1.682955;-0.112634
-1.687415;-0.473469
-1.389043;-0.780802
-0.913188;-0.844547
-0.386630;-0.822806
0.180435;-0.785643
0.710633;-0.756819
1.155535;-0.740375
1.578362;-0.593765
1.754607;0.111615
1.421432;0.530603
1.187002;0.412354
1.014658;0.186784
0.860566;0.024112
0.748847;-0.065475
-1.061700;0.138635
-1.208856;0.224190
-1.340458;0.220108
-1.428345;0.105764
-1.447268;-0.051381
-1.400670;-0.204977
-1.270995;-0.399026
-1.030723;-0.567626
-0.701480;-0.659249
-0.318932;-0.681362
0.086476;-0.666465
0.475131;-0.626460
0.815658;-0.545523
1.076443;-0.369346
1.177202;-0.103457
1.115391;0.074899
1.000324;0.095867
0.885030;0.031461
0.780438;-0.042190
0.694170;-0.096460
-0.959900;0.024776
-1.053189;0.047975
-1.129136;0.028636
-1.169627;-0.041369
-1.162219;-0.143862
-1.101890;-0.260550
-0.981663;-0.382084
-0.795631;-0.486891
-0.551735;-0.554411
-0.268710;-0.581428
0.029816;-0.575147
0.317446;-0.539316
0.568199;-0.468897
0.754772;-0.357336
0.851471;-0.224300
0.861507;-0.121254
0.819279;-0.078657
0.756467;-0.083635
0.690347;-0.108253
0.629381;-0.133790
