20;20;0.250000;0.200000
1.991516;3.238155
-0.371706;-0.131847
-0.364745;-0.093138
-0.354297;-0.048143
-0.339243;0.002813
-0.317748;0.058250
-0.287473;0.115712
-0.246809;0.172383
-0.196408;0.224045
-0.138772;0.261487
-0.075810;0.272658
-0.008493;0.256455
0.060101;0.224821
0.124184;0.186897
0.178199;0.142734
0.219920;0.090033
0.250947;0.030836
0.274297;-0.029354
0.292231;-0.085745
0.305938;-0.135949
0.316025;-0.179458
-0.420125;-0.123029
-0.417401;-0.077200
-0.411959;-0.020815
-0.402891;0.046956
-0.387299;0.124292
-0.358983;0.206480
-0.311510;0.291233
-0.246067;0.382309
-0.172301;0.467288
-0.094932;0.487744
-0.006748;0.432593
0.089221;0.368345
0.178584;0.319419
0.246707;0.267647
0.288972;0.193036
0.314160;0.102652
0.331817;0.014692
0.345594;-0.061486
0.356012;-0.124483
0.363027;-0.175935
-0.475792;-0.120906
-0.478792;-0.068908
-0.480901;0.000133
-0.483826;0.091625
-0.487186;0.206511
-0.476561;0.328958
-0.420487;0.440514
-0.317632;0.589349
-0.206841;0.877516
-0.129282;0.973711
-0.009555;0.677335
0.139343;0.540088
0.282900;0.515697
0.378294;0.496935
0.398011;0.363381
0.396746;0.192771
0.401413;0.055532
0.408915;-0.046421
0.414976;-0.122505
0.417775;-0.180582
-0.539749;-0.127957
-0.549476;-0.073956
-0.559601;0.003944
-0.578054;0.122882
-0.627174;0.314054
-0.729742;0.586718
-0.659575;0.663653
-0.446124;0.747011
-0.237085;1.177323
-0.157130;1.457627
-0.005673;0.864339
0.225949;0.698142
0.484509;0.840479
0.778798;1.320794
0.549836;0.626969
0.487947;0.264781
0.480379;0.069197
0.483480;-0.052860
0.484996;-0.135891
0.482012;-0.196092
-0.614778;-0.144132
-0.633163;-0.096011
-0.648666;-0.023727
-0.669106;0.096813
-0.730888;0.326997
-0.967114;0.828941
-1.125549;1.116153
-0.702371;0.848387
-0.336619;1.074646
-0.168114;1.518185
0.023765;0.887366
0.349450;0.807299
0.706632;1.197856
0.729524;1.136018
0.598984;0.560371
0.569002;0.216334
0.572211;0.025282
0.576023;-0.089970
0.571363;-0.166796
0.558693;-0.222448
-0.706178;-0.163548
-0.742390;-0.127902
-0.767934;-0.077916
-0.777377;0.001095
-0.782547;0.139863
-0.814306;0.377799
-0.916686;0.730984
-1.230651;1.243783
-0.581781;0.944417
-0.177192;1.602390
0.084249;0.796699
0.527644;0.932777
0.782155;1.286292
0.650028;0.642623
0.651109;0.279254
0.681148;0.063400
0.704093;-0.064943
0.705084;-0.147428
0.684189;-0.207488
0.651398;-0.254813
-0.817578;-0.174426
-0.902379;-0.146701
-0.972871;-0.116784
-0.985219;-0.087603
-0.952011;-0.043858
-0.897428;0.036447
-0.838838;0.179789
-0.810359;0.438618
-1.034886;1.010960
-0.257173;0.629354
0.203345;0.504666
0.848792;1.466910
0.675991;0.554568
0.740210;0.180202
0.827412;0.005496
0.896168;-0.086418
0.929733;-0.141559
0.908983;-0.188124
0.838176;-0.238576
0.760117;-0.284870
-0.929112;-0.167367
-1.142189;-0.121091
-1.446337;-0.043533
-1.438491;-0.050665
-1.381696;-0.069664
-1.304580;-0.088453
-1.207017;-0.100249
-1.077374;-0.097590
-0.839210;-0.097895
-0.281875;-0.150861
0.236562;-0.125267
0.665351;-0.021809
0.955910;-0.080180
1.117852;-0.109558
1.229010;-0.111434
1.311499;-0.102007
1.364100;-0.092481
1.317139;-0.117543
1.036302;-0.237880
0.866256;-0.310302
-0.995068;-0.134290
-1.126370;-0.130334
-1.285421;-0.117588
-1.307202;-0.144174
-1.273227;-0.194466
-1.216115;-0.261526
-1.139314;-0.348585
-1.035524;-0.450508
-0.822357;-0.501846
-0.203611;-0.645732
0.378118;-0.704327
0.978182;-0.721252
1.248110;-0.324407
1.321316;-0.231400
1.367011;-0.183656
1.397763;-0.153540
1.408517;-0.137524
1.335998;-0.166664
1.084846;-0.284004
0.927807;-0.346004
-1.151399;0.027415
-1.172663;-0.033738
-1.149895;-0.148076
-1.107265;-0.278036
-1.045853;-0.431114
-0.976174;-0.622409
-0.927906;-0.870811
-0.979443;-1.308311
-0.663592;-1.132968
-0.004261;-1.349664
1.093265;-1.273446
0.889658;-1.032119
1.298496;-1.010007
1.141628;-0.715553
1.150116;-0.561417
1.172222;-0.461482
1.184754;-0.392409
1.166317;-0.352701
1.097920;-0.347174
0.986080;-0.372659
-1.593323;0.456761
-1.633883;0.370714
-1.500003;0.116356
-1.398449;-0.115303
-1.311346;-0.365163
-1.259165;-0.684205
-1.326772;-1.074058
-0.843833;-1.161513
-0.273140;-1.325660
0.021686;-1.528286
0.358430;-1.338125
0.968554;-1.230960
0.958356;-1.053797
1.177689;-0.813785
1.525688;-0.606003
1.613839;-0.449575
1.534707;-0.354536
1.509837;-0.246661
1.463969;-0.154399
1.101388;-0.343966
-1.060414;0.426274
-1.176094;0.179598
-1.240871;-0.019632
-1.247670;-0.217298
-1.189430;-0.503516
-1.124503;-1.060083
-0.901811;-1.050552
-0.501203;-1.129530
-0.134921;-1.417960
0.046430;-1.565668
0.366190;-1.532618
0.574749;-1.288570
0.951755;-1.188261
1.011606;-1.084830
1.018010;-0.825955
1.129772;-0.628877
1.239866;-0.477223
1.304567;-0.353125
1.250819;-0.305894
1.059643;-0.377498
-0.874210;1.525592
-0.990353;0.541280
-1.015298;0.023843
-0.986386;-0.303894
-0.932624;-0.600663
-0.859566;-0.847185
-0.648277;-0.956210
-0.396771;-1.141083
-0.145982;-1.436228
0.068969;-1.589808
0.312609;-1.485275
0.719117;-1.433048
0.749393;-1.152805
0.962706;-1.087739
0.971749;-0.920145
0.989895;-0.699129
1.044364;-0.547671
1.075030;-0.427978
1.057160;-0.367806
0.988322;-0.383854
-0.991621;0.741946
-1.132677;1.210420
-1.112896;0.319224
-1.060309;-0.138570
-0.976720;-0.438556
-0.868232;-0.663412
-0.729954;-0.869457
-0.586403;-1.101467
-0.628522;-1.499656
0.018208;-1.527566
0.491938;-1.511253
0.697098;-1.273816
1.204972;-1.059559
1.080361;-0.879200
1.096929;-0.745924
1.134619;-0.587343
1.183180;-0.385388
1.231699;-0.104225
1.241914;0.125463
1.038282;-0.242949
-0.978065;0.223868
-1.130626;0.422691
-1.453648;0.516329
-1.541092;0.325575
-1.497059;-0.103293
-1.427201;-0.341106
-1.439499;-0.449042
-1.256490;-0.909948
-0.513525;-1.361697
-0.190601;-1.673093
0.447108;-1.570755
0.884990;-1.217574
0.913647;-1.050222
1.152985;-0.825218
1.431938;-0.571224
1.667541;-0.245953
1.722228;0.155776
1.548547;0.223346
1.266801;0.107086
1.047320;-0.243789
-0.936978;-0.101336
-1.023907;-0.081196
-1.113208;-0.112156
-1.175170;-0.216902
-1.169828;-0.382054
-1.094135;-0.576855
-0.957040;-0.811661
-0.813416;-1.096559
-0.773619;-1.440232
-0.228541;-1.527896
0.381070;-1.491378
0.671604;-1.263848
1.168921;-1.197633
1.061644;-0.995155
1.090521;-0.799080
1.158844;-0.617687
1.195467;-0.459141
1.168661;-0.359047
1.087191;-0.347221
0.986543;-0.396066
-0.927327;-0.269339
-1.032426;-0.262382
-1.161375;-0.261178
-1.211831;-0.358119
-1.208345;-0.511262
-1.204086;-0.683031
-1.299555;-0.849300
-1.047503;-1.076167
-0.494758;-1.365007
-0.218140;-1.403449
0.299751;-1.320671
0.781457;-1.410429
0.804671;-1.126874
1.137771;-0.979525
1.473435;-0.856669
1.359706;-0.626218
1.341134;-0.461715
1.249732;-0.414493
1.085954;-0.439792
0.970259;-0.462000
-0.938459;-0.347032
-1.099387;-0.296483
-1.531842;0.027312
-1.670937;-0.202293
-1.527720;-0.424435
-1.305008;-0.642573
-1.048677;-0.837087
-0.814164;-1.064596
-0.800219;-1.469538
-0.284917;-1.256291
0.196217;-1.186628
0.648611;-1.298409
0.823934;-1.245287
0.980459;-0.896408
1.173199;-0.697638
1.352112;-0.530467
1.473081;-0.338734
1.392666;-0.303893
1.138185;-0.397616
0.979821;-0.460037
-0.933362;-0.395200
-1.075709;-0.363239
-1.232249;-0.326199
-1.297650;-0.361398
-1.272748;-0.469555
-1.214662;-0.616857
-1.175900;-0.808059
-1.264062;-1.141676
-0.776735;-1.129429
-0.289328;-1.081307
0.132243;-1.055631
0.550142;-1.060220
1.037182;-1.089625
1.536240;-0.501885
1.533259;-0.273907
1.580917;-0.171199
1.606863;-0.014576
1.705082;0.300150
1.187172;-0.284260
0.971011;-0.441112
-0.911511;-0.427142
-1.100091;-0.369406
-1.714119;-0.051620
-1.759193;-0.033483
-1.713292;-0.176853
-1.561727;-0.462295
-1.291667;-0.701485
-0.941841;-0.859933
-0.584912;-0.930539
-0.242719;-0.948437
0.087136;-0.940500
0.413057;-0.908939
0.739283;-0.824333
1.023150;-0.651981
1.193793;-0.470751
1.273071;-0.353537
1.289653;-0.270515
1.209928;-0.268655
1.044536;-0.378252
0.898879;-0.467443
