20;12
-6.333429;291.004272
28.336643;318.369202
103.734970;291.456573
-7.837094;239.454758
-49.198483;199.353745
-64.766808;169.282928
-111.810577;192.539688
-251.537064;212.825623
-574.814636;152.238205
-524.624695;401.384247
-301.856079;345.913483
-198.491776;312.324615
30.960745;319.092010
110.116211;350.835205
332.681427;322.826874
74.167526;266.108429
-22.998196;205.848160
-46.037914;161.736862
-91.860748;202.815735
-191.361572;254.827408
-455.853973;370.985718
-920.162537;606.012634
-471.506866;445.256531
-274.070496;367.091187
40.244808;359.590210
106.383240;420.851990
232.214111;343.449524
51.839466;269.414337
-12.860916;188.052444
-14.012854;118.952522
-35.882912;170.031754
-57.847473;95.490601
-212.141418;329.096375
-433.250519;538.411194
-399.572174;447.119873
-216.478409;373.470795
76.812469;440.292053
165.296722;534.919800
278.155457;395.330231
43.466228;270.913330
-2.019072;149.532166
14.988264;42.687901
19.977383;125.248756
-3.429564;189.169937
-55.925755;183.520569
-94.277344;320.895172
-223.028351;377.061005
-125.498352;368.076477
76.508041;534.789368
264.532715;843.825073
-40.150276;217.399979
-11.746036;218.009766
3.350620;62.288212
s
61.938568;55.170853
88.916138;165.708664
92.699677;302.255249
24.285418;311.725281
-43.388493;422.365295
-225.320648;563.055298
-48.086311;550.513184
-71.251945;930.179688
-196.940125;368.071991
-88.981575;262.377319
-60.570091;143.321823
130.065491;43.591343
366.725891;80.189812
318.786987;179.916336
125.569794;108.230392
40.955509;190.744614
38.088127;340.822174
14.039923;397.707153
-98.487206;382.210999
-133.359619;489.105927
-204.700027;368.248169
-163.150513;143.163391
-392.240173;135.241760
-208.259399;11.923623
-201.978363;0.410068
142.138489;36.951668
129.163742;136.089340
302.694031;484.556976
17.830233;500.843048
95.659180;654.861633
-127.569946;291.681152
-148.020584;348.579895
-217.145859;399.473999
-251.790604;322.536224
-181.204727;183.300827
-84.593132;119.338089
147.804550;19.559484
111.775963;143.210983
204.263580;220.569641
373.126007;336.750763
298.721680;606.139526
148.855026;386.354187
-167.571854;236.265030
-221.805359;256.852997
-210.720276;247.688812
-393.650330;318.492706
-336.245239;256.928162
-393.959167;158.325439
115.124504;74.447769
143.746552;62.848217
453.017975;213.780670
405.060577;536.014221
218.259933;312.326416
159.417755;251.747253
-243.705307;216.932831
-407.120209;242.195435
-247.531693;196.617798
-268.183929;181.724701
-450.768158;239.713959
-177.554291;88.284424
-517.755493;38.059551
132.491394;98.193954
483.874054;345.499115
282.086884;185.046387
207.329987;184.178009
101.492149;171.931442
-186.409134;211.971649
-151.138275;312.752563
-189.866898;126.434334
-435.612427;202.263397
-250.496506;25.373037
-501.143188;-10.862652
620.367004;-21.985067
229.485458;0.000000
458.971039;0.000000
456.776398;25.373032
199.871277;73.451317
332.365906;313.886719
-204.989319;153.855576
-153.073517;97.733032
-342.944031;122.395874
-348.617218;98.213394
-348.997681;92.036522
-76.383202;23.350662
485.783020;-96.272736
255.652298;12.591091
506.462372;71.918991
238.413849;88.876389
438.850403;251.672913
273.247162;186.417908
-245.278000;158.231583
-281.083313;175.256256
-407.732544;213.086258
-285.836700;110.861893
-253.956558;48.807163
-134.491379;-30.475601
-10.747804;-178.480301
175.607193;-27.129322
274.536407;24.092869
238.618439;63.953781
282.488220;115.877769
208.727951;121.000114
-319.520721;183.190598
-312.040131;200.422806
-748.070923;426.453003
-209.908508;67.539200
-462.361237;-31.319162
-412.340393;-195.081192
15.416576;-61.760067
413.556366;-127.952972
427.748444;-63.432594
218.274063;0.000000
409.194336;64.465355
151.205429;125.832375
-283.464996;136.003311
-330.710052;162.938171
-452.732910;204.506531
-406.593903;142.894836
-418.473358;88.805611
-440.927460;25.373037
189.908310;0.000000
374.664001;-38.059544
379.816650;-0.000000
349.402893;63.200001
279.335907;215.903320
215.474380;107.471893
-284.608215;105.664856
-328.752960;118.740410
-407.245056;117.982811
-342.855682;60.682014
-300.527618;-1.398293
-244.073685;-112.811378
-300.709076;-455.920288
135.582062;-98.986626
234.961990;-19.058023
233.240097;40.778172
231.435486;81.699799
189.961319;63.275639
-326.138519;93.396317
-387.751923;117.840508
-563.698059;102.227806
-442.153625;8.043161
-375.317993;-77.774193
-445.550201;-335.864380
121.822937;-122.310989
404.835663;-191.764450
352.256927;-44.989510
264.024353;108.032486
238.791748;106.709343
210.488388;46.147614
-409.916931;119.398445
-371.035767;206.111069
-922.993347;176.022903
-671.621765;-32.637665
-656.196350;-127.502251
-387.101898;-77.221611
-20.377201;-64.344788
288.583954;1.053398
484.404694;-47.028095
220.042816;-38.059551
445.824066;-49.328430
211.490021;-26.790653
-336.139832;75.246010
-379.414032;92.591850
-534.899780;67.425674
-444.244171;-4.542726
-412.471680;-43.493816
-208.718643;-55.144230
130.603516;-69.641930
180.772888;-29.570574
284.883331;-22.470287
251.803497;-1.097709
256.088776;2.461166
197.484070;10.809600
-301.152222;49.851059
-316.184509;63.432587
-339.270233;-53.820194
-340.610840;-47.671921
-513.629639;-38.059544
-70.545876;-59.532486
530.030518;-143.077316
190.632919;-9.160866
380.803467;-23.504732
382.063293;-1.868299
191.089798;0.000000
193.148743;12.187904
