20;20;0.200000;0.150000
1.449370;2.709692
0.361113;0.720327
0.487390;0.846071
0.643865;1.004892
0.847627;1.229770
0.941493;1.336525
0.535422;0.820259
0.332132;0.541875
0.222299;0.386992
0.155510;0.306068
0.106509;0.279571
0.058631;0.301617
-0.003481;0.375951
-0.099957;0.518134
-0.266664;0.766992
-0.590296;1.228893
-0.695952;1.379195
-0.459356;1.072304
-0.294836;0.870127
-0.169549;0.721885
-0.070301;0.605846
0.416196;0.864480
0.605397;1.027286
0.835302;1.230946
0.971343;1.379727
0.697808;1.054835
0.457134;0.736311
0.293823;0.494280
0.198763;0.340955
0.142743;0.257446
0.103461;0.230191
0.064156;0.254691
0.008829;0.335016
-0.082495;0.485103
-0.237337;0.729554
-0.476893;1.081204
-0.766388;1.477340
-0.628361;1.306767
-0.406318;1.042278
-0.236307;0.847882
-0.105074;0.698147
0.429986;1.035120
0.742574;1.250745
0.996083;1.341240
0.667836;1.078342
0.455350;0.810927
0.304689;0.570198
0.206686;0.380029
0.150307;0.248636
0.120073;0.172796
0.101281;0.147671
0.080857;0.171528
0.045781;0.247107
-0.018755;0.381735
-0.129439;0.584777
-0.299720;0.858687
-0.534238;1.192021
-0.826709;1.559331
-0.514228;1.211009
-0.290097;0.970537
-0.122936;0.786358
0.330994;1.222368
0.497421;1.720020
0.454149;1.182466
0.326947;0.866757
0.219982;0.615011
0.147737;0.406528
0.107650;0.243224
0.092783;0.127177
0.094029;0.058002
0.101766;0.034544
0.106459;0.056462
0.098342;0.125012
0.066789;0.243197
0.000072;0.414967
-0.114211;0.643344
-0.290258;0.930238
-0.552865;1.286203
-0.660792;1.436643
-0.334792;1.111481
-0.114184;0.876489
0.177889;1.360813
0.291083;1.490029
0.104838;1.042262
0.046625;0.715849
0.015547;0.460259
0.004142;0.256694
0.011861;0.099013
0.035548;-0.014391
0.069504;-0.083506
0.106650;-0.107777
0.139487;-0.086980
0.160494;-0.021510
0.161938;0.088361
0.135486;0.243562
0.071850;0.446883
-0.040438;0.703704
-0.222253;1.024271
-0.562689;1.429216
-0.339303;1.313200
-0.045054;0.967413
-0.259912;1.288665
-0.383810;1.498414
-0.227960;0.983500
-0.186442;0.618618
-0.159991;0.338472
-0.126530;0.119469
-0.079615;-0.050480
-0.019599;-0.175939
0.048882;-0.255483
0.118550;-0.284625
0.181732;-0.261399
0.232138;-0.189590
0.264445;-0.075174
0.273019;0.078928
0.251568;0.275461
0.193909;0.524739
0.097915;0.851153
-0.009925;1.327918
-0.012981;1.463595
0.114674;1.000750
-0.399457;1.035903
-0.562320;1.579946
-0.447521;1.051453
-0.375603;0.580445
-0.320828;0.246645
-0.257128;-0.005449
-0.176348;-0.204725
-0.077574;-0.362776
0.033922;-0.474540
0.145338;-0.518567
0.242454;-0.481377
0.320880;-0.381460
0.380606;-0.242508
0.418517;-0.073586
0.428814;0.129499
0.403946;0.383871
0.333429;0.728044
0.189419;1.249638
0.121406;1.444348
0.286220;0.944938
-0.491565;0.754977
-0.559697;1.170458
-0.582759;1.250941
-0.554902;0.589979
-0.498127;0.185300
-0.414895;-0.109417
-0.303322;-0.352122
-0.157953;-0.574110
0.024729;-0.783796
0.225279;-0.898494
0.358508;-0.781617
0.449717;-0.593001
0.528993;-0.399711
0.590895;-0.201952
0.626184;0.013495
0.623144;0.272422
0.560406;0.628784
0.388962;1.227970
0.365664;1.279209
0.482997;0.811741
-0.601724;0.461287
-0.679940;0.727299
-0.825081;1.421558
-0.834737;0.692752
-0.741976;0.184491
-0.646951;-0.165592
-0.517670;-0.451315
-0.334246;-0.754818
-0.096427;-1.164257
0.492452;-1.647262
0.708398;-1.108451
0.690503;-0.769221
0.760224;-0.508223
0.834775;-0.278586
0.888535;-0.055698
0.904137;0.198012
0.854998;0.552343
0.625315;1.225312
0.675819;0.975882
0.733368;0.612686
-0.738926;0.186256
-0.878534;0.271489
-0.995275;0.444306
-1.107933;1.049260
-1.096708;0.324504
-1.045720;-0.137615
-0.953721;-0.431007
-0.833521;-0.731720
-0.911248;-1.291913
0.090284;-1.323089
0.635689;-1.131246
1.386021;-0.747647
1.362443;-0.460060
1.343022;-0.227603
1.380445;-0.046333
1.394496;0.152825
1.377903;0.445421
1.299762;0.719424
1.760855;0.353222
1.021403;0.399749
-0.859576;-0.005605
-1.481567;-0.009379
-1.733319;-0.037025
-1.652982;-0.057904
-1.560941;-0.063204
-1.519042;0.092798
-1.545236;-0.332773
-1.279056;-0.596626
-0.671300;-0.892976
0.051723;-1.230301
0.744790;-1.118335
0.896438;-0.905769
1.053254;-0.482032
1.218870;-0.215409
1.324773;0.059245
1.460512;0.393033
1.474023;0.619723
1.139974;0.456359
1.089493;0.307487
1.001305;0.226667
-0.833886;-0.125237
-0.946395;-0.132251
-1.010847;-0.155015
-1.009035;-0.203260
-0.969953;-0.288240
-0.890495;-0.426783
-0.734550;-0.657545
-0.384762;-1.108747
-0.173560;-1.213721
0.133052;-1.666021
0.331486;-1.208992
0.808080;-0.831348
1.139812;-0.406650
1.229329;-0.224680
1.236093;-0.063245
1.196370;0.019072
1.159340;0.070351
1.125287;0.094571
1.098351;0.095593
1.059615;0.086745
-0.865969;-0.183298
-0.948078;-0.195633
-0.988990;-0.240608
-0.980127;-0.323499
-0.934281;-0.438208
-0.858494;-0.596651
-0.763739;-0.831652
-0.847394;-1.322191
-0.267743;-1.219644
-0.061116;-1.622077
0.316486;-1.313961
0.830381;-1.457044
0.924525;-0.734217
1.060342;-0.468654
1.156459;-0.297869
1.221706;-0.174220
1.268386;-0.080389
1.301267;-0.010907
1.317054;0.049077
1.297894;0.098844
-0.992542;-0.161927
-1.277769;-0.012523
-1.374706;-0.068497
-1.368116;-0.260084
-1.381186;-0.388925
-1.481370;-0.585490
-1.197970;-0.787450
-0.745670;-0.965005
-0.592485;-1.321725
-0.113099;-1.435132
0.525063;-1.271132
1.204997;-0.581561
1.310209;-0.984951
1.445493;-0.340981
1.500017;-0.187231
1.543660;-0.098675
1.565786;-0.009656
1.585976;0.063149
1.603727;0.171116
1.517437;0.230833
-1.066208;-0.144533
-1.541891;0.074033
-1.614466;0.049137
-1.563194;-0.095487
-1.516858;-0.199401
-1.480226;-0.320389
-1.546688;-0.611247
-1.049493;-0.840496
-0.620116;-1.237784
-0.138204;-1.222593
0.486716;-1.330271
0.705960;-1.028552
0.904315;-0.803917
1.172227;-0.687749
1.587712;-0.478893
1.714175;0.064896
1.617549;0.361889
1.467655;0.226339
1.386903;0.143033
1.285343;0.056815
-1.033428;-0.144536
-1.203644;-0.048162
-1.285990;-0.042624
-1.262420;-0.177671
-1.198069;-0.323310
-1.097729;-0.488557
-0.975601;-0.700655
-0.937569;-1.032860
-0.558815;-1.121627
0.015007;-1.390686
0.377455;-1.321815
0.891151;-1.126748
1.051594;-0.921600
1.050364;-0.705009
1.146511;-0.511532
1.232235;-0.329414
1.275297;-0.183536
1.286550;-0.083266
1.271696;-0.028389
1.212821;-0.036496
-1.015794;-0.131480
-1.209105;0.035486
-1.447856;0.304877
-1.765691;0.082234
-1.746164;0.041666
-1.618135;-0.345796
-1.199578;-0.681720
-0.761998;-0.829219
-0.392663;-1.021901
-0.247895;-1.520837
0.384705;-1.647480
0.743756;-1.104110
0.966299;-0.875267
1.328887;-0.745863
1.472180;-0.549677
1.488719;-0.286671
1.508133;-0.128984
1.530316;0.073876
1.650923;0.452411
1.313929;0.056740
-1.024900;-0.124371
-1.176405;-0.025834
-1.254068;-0.023008
-1.253503;-0.141729
-1.209810;-0.276971
-1.125396;-0.423262
-1.023034;-0.570091
-0.953269;-0.716992
-1.116659;-0.876420
-0.314297;-1.158656
0.429936;-1.361488
0.832029;-1.071502
1.314933;-0.947873
1.242880;-0.628302
1.322633;-0.428196
1.405822;-0.247586
1.461538;-0.089138
1.473938;0.037891
1.374587;0.027275
1.260019;-0.026392
-1.077375;-0.099805
-1.359956;0.101371
-1.564783;0.359269
-1.745285;0.037670
-1.735267;-0.124918
-1.596617;-0.361916
-1.332003;-0.458012
-1.045268;-0.592097
-0.750240;-0.822615
-0.882564;-1.424565
0.520074;-1.015769
1.018524;-1.307740
1.100251;-0.758502
1.286289;-0.526601
1.441036;-0.325645
1.520201;-0.130405
1.529801;0.015955
1.492951;0.102977
1.442507;0.132551
1.335844;0.063233
-1.020754;-0.148304
-1.293923;-0.052808
-1.433480;0.009459
-1.480749;0.015343
-1.497286;-0.062031
-1.460486;-0.151530
-1.386492;-0.214093
-1.248784;-0.349102
-0.810863;-0.649351
-0.042814;-0.783182
0.811684;-0.792383
1.463756;-0.700169
1.532189;-0.520254
1.668712;-0.479144
1.671591;-0.121376
1.700980;0.063444
1.733213;0.326111
1.628091;0.327015
1.496055;0.225889
1.328954;0.070130
