20;20;0.250000;0.250000
2.586976;2.467577
1.333269;-1.126301
1.205595;-1.027593
1.074045;-0.943133
0.934826;-0.875575
0.786353;-0.831435
0.628987;-0.821500
0.465613;-0.862661
0.302935;-0.982044
0.153814;-1.229107
0.046970;-1.706151
0.026929;-1.358984
-0.071345;-1.037927
-0.215717;-0.861806
-0.382342;-0.776454
-0.556057;-0.753575
-0.726839;-0.773771
-0.889236;-0.823142
-1.041453;-0.892215
-1.184241;-0.975016
-1.318910;-1.067378
1.248405;-1.047516
1.369125;-1.156672
1.225148;-1.045632
1.071336;-0.951574
0.903675;-0.881402
0.722277;-0.849217
0.530060;-0.877240
0.336125;-1.000197
0.161656;-1.264924
0.049321;-1.694122
0.027615;-1.406446
-0.080519;-1.064744
-0.251343;-0.868626
-0.451799;-0.785024
-0.658629;-0.779328
-0.857462;-0.824076
-1.042054;-0.900297
-1.211303;-0.995955
-1.366527;-1.103437
-1.288359;-1.038613
1.117533;-0.910870
1.224856;-1.024252
1.349900;-1.140497
1.226347;-1.049485
1.044121;-0.946269
0.841398;-0.879877
0.620590;-0.876024
0.393616;-0.974821
0.189206;-1.224411
0.054251;-1.663747
0.027037;-1.378563
-0.098676;-1.032050
-0.303030;-0.842610
-0.545166;-0.783125
-0.789453;-0.812045
-1.015336;-0.892678
-1.217371;-1.001903
-1.389405;-1.120799
-1.249629;-1.004818
-1.129264;-0.892444
1.012862;-0.773786
1.091255;-0.874297
1.180688;-0.979610
1.309131;-1.106048
1.225568;-1.051847
0.999547;-0.933453
0.748177;-0.875468
0.481407;-0.923208
0.233601;-1.144623
0.061924;-1.620177
0.027343;-1.318258
-0.123396;-0.953080
-0.375765;-0.790111
-0.676683;-0.785116
-0.966842;-0.873181
-1.222298;-1.006655
-1.339518;-1.082084
-1.190611;-0.951159
-1.087935;-0.844645
-0.998799;-0.744079
0.937751;-0.635007
0.988591;-0.717282
1.045025;-0.808257
1.121837;-0.916054
1.252849;-1.057519
1.228006;-1.055649
0.934462;-0.909547
0.614230;-0.866231
0.300912;-1.025580
0.073591;-1.554441
0.030697;-1.215962
-0.148127;-0.819697
-0.475917;-0.721102
-0.879849;-0.828511
-1.234015;-1.014702
-1.262740;-1.020624
-1.110649;-0.873767
-1.022289;-0.764843
-0.958939;-0.674546
-0.902810;-0.593472
0.899083;-0.496209
0.929063;-0.556989
0.955395;-0.627660
0.987286;-0.713938
1.044528;-0.825616
1.171465;-0.984114
1.240766;-1.064200
0.831872;-0.855436
0.407948;-0.850059
0.090632;-1.434054
0.040585;-1.005572
-0.146158;-0.586913
-0.594649;-0.646390
-1.264785;-1.032919
-1.141640;-0.918416
-0.996730;-0.756086
-0.935761;-0.648476
-0.904531;-0.567119
-0.879906;-0.500631
-0.851117;-0.443408
0.906915;-0.361563
0.928618;-0.399410
0.932974;-0.446235
0.925054;-0.506007
0.917662;-0.583741
0.935825;-0.690180
1.040501;-0.857445
1.282609;-1.089685
0.576802;-0.638474
0.149790;-0.686498
0.063180;-0.356402
-0.042841;-0.153485
-0.405953;-0.341716
-0.804312;-0.615619
-0.800227;-0.544873
-0.817717;-0.476469
-0.845204;-0.419279
-0.866445;-0.371308
-0.872066;-0.331664
-0.857442;-0.299176
0.975508;-0.238008
1.011204;-0.254412
1.007118;-0.278348
0.968462;-0.311509
0.905211;-0.353542
0.826120;-0.403483
0.746669;-0.459363
0.704716;-0.518991
0.000000;0.000000
0.000000;0.000000
0.000000;0.000000
0.000000;0.000000
0.000000;0.000000
-0.410240;-0.127281
-0.646495;-0.222854
-0.790739;-0.231837
-0.885315;-0.216330
-0.942629;-0.196197
-0.962439;-0.179089
-0.940372;-0.167959
1.126192;-0.136445
1.216922;-0.138342
1.214136;-0.146356
1.156025;-0.158955
1.058928;-0.173165
0.914431;-0.182606
0.690105;-0.165287
0.000000;0.000000
0.000000;0.000000
0.000000;0.000000
0.121526;1.016816
0.866102;1.256841
0.000000;0.000000
-0.428880;0.051329
-0.783542;-0.042910
-0.980016;-0.066208
-1.096713;-0.066981
-1.164786;-0.061371
-1.184875;-0.056745
-1.128913;-0.058868
1.376750;-0.075246
1.605783;-0.083024
1.576527;-0.083033
1.519564;-0.082468
1.436983;-0.080950
1.310429;-0.075908
1.079476;-0.057016
0.000000;0.000000
-0.438169;0.288797
-1.004184;0.909732
0.463397;1.025283
0.694896;0.421267
0.000000;0.000000
-1.032765;0.046245
-1.335365;0.021201
-1.445333;0.014970
-1.507544;0.013870
-1.546289;0.014394
-1.564641;0.015090
-1.490609;0.012997
1.311607;-0.024234
1.510611;-0.048740
1.526790;-0.049695
1.510694;-0.046732
1.479196;-0.042871
1.426012;-0.039252
1.318720;-0.036997
0.000000;0.000000
-1.371370;-0.084287
-1.205449;-0.196372
-0.053810;-0.531858
0.748602;-0.189663
0.000000;0.000000
-0.841919;0.027161
-1.225898;0.039314
-1.377598;0.041395
-1.464488;0.040575
-1.520057;0.038730
-1.550581;0.037019
-1.484458;0.039790
1.082731;0.080811
1.166419;0.072213
1.180819;0.078682
1.145898;0.096706
1.073473;0.121458
0.952932;0.146883
0.736487;0.152728
0.000000;0.000000
0.000000;0.000000
-0.859780;-0.879108
0.065714;-1.180923
0.952960;-0.872997
0.000000;0.000000
-0.338008;0.023483
-0.714415;0.109721
-0.929918;0.132984
-1.059906;0.133523
-1.137622;0.126151
-1.164922;0.119524
-1.113565;0.120817
0.942749;0.211656
0.977765;0.228037
0.980175;0.256988
0.951747;0.301553
0.899299;0.363317
0.830329;0.445313
0.758174;0.546933
0.000000;0.000000
0.000000;0.000000
0.000000;0.000000
0.000000;0.000000
0.000000;0.000000
0.000000;0.000000
-0.287553;0.160445
-0.562082;0.278681
-0.736848;0.313475
-0.843789;0.302114
-0.907791;0.277746
-0.932498;0.255178
-0.913947;0.239589
0.871604;0.356237
0.893210;0.400662
0.900251;0.459314
0.897489;0.538660
0.899117;0.648939
0.939556;0.814599
1.124045;1.116153
0.825185;0.842872
0.272629;0.408366
0.062390;0.363048
0.000000;0.000000
0.000000;0.000000
0.000000;0.000000
-0.411026;0.443312
-0.697949;0.634808
-0.773727;0.616852
-0.801818;0.543694
-0.822934;0.478177
-0.830244;0.424702
-0.818093;0.381958
0.852777;0.506600
0.881172;0.578763
0.907901;0.666768
0.942912;0.779079
1.009227;0.931754
1.163682;1.164189
1.022745;1.042755
0.646472;0.776640
0.299956;0.682626
0.078693;0.960262
-0.016384;1.602176
-0.058737;0.818959
-0.223234;0.610678
-0.563734;0.719495
-1.222088;1.251387
-0.999279;0.994865
-0.896751;0.820604
-0.852117;0.702057
-0.824158;0.611311
-0.796390;0.537247
0.873832;0.656791
0.920468;0.754178
0.974606;0.866359
1.050846;1.003571
1.184476;1.190331
1.090019;1.108525
0.822164;0.914456
0.532665;0.807549
0.265197;0.865336
0.068585;1.192493
-0.018559;1.673631
-0.068446;1.079262
-0.237950;0.815600
-0.535004;0.811712
-0.918743;1.010546
-1.242853;1.271659
-1.061191;1.072260
-0.953559;0.919004
-0.883990;0.798407
-0.828342;0.695554
0.924943;0.802823
0.995923;0.921947
1.079244;1.051065
1.198083;1.207367
1.130610;1.147560
0.921673;0.985204
0.690650;0.876178
0.449202;0.857146
0.226074;0.982965
0.056397;1.303789
-0.020099;1.710643
-0.066990;1.214659
-0.219926;0.940790
-0.460481;0.859495
-0.747379;0.931338
-1.015788;1.085035
-1.252778;1.281151
-1.093268;1.112341
-0.985571;0.974693
-0.897947;0.849537
0.998540;0.942674
1.096594;1.079808
1.207592;1.219068
1.157871;1.173860
0.987146;1.031377
0.798399;0.921885
0.594731;0.866281
0.386788;0.896730
0.194346;1.053680
0.045696;1.367099
-0.021197;1.734459
-0.061706;1.293172
-0.194832;1.015012
-0.394485;0.893452
-0.627966;0.900362
-0.859586;0.990374
-1.068118;1.124066
-1.252041;1.280452
-1.112436;1.135945
-0.993829;0.995889
1.089049;1.075975
1.213666;1.226473
1.176241;1.191767
1.030235;1.062525
0.871237;0.954796
0.700587;0.881158
0.521646;0.858991
0.341776;0.913481
0.173823;1.078896
0.039325;1.391434
-0.021938;1.750724
-0.056538;1.325721
-0.173414;1.043740
-0.341808;0.907201
-0.536422;0.880656
-0.735958;0.929337
-0.926044;1.025069
-1.100458;1.148276
-1.250188;1.278680
-1.109684;1.135536
1.186017;1.196329
1.182722;1.197818
1.049839;1.075195
0.912821;0.972406
0.769198;0.893382
0.619014;0.846110
0.464706;0.842789
0.311455;0.900907
0.167583;1.046059
0.045908;1.324263
-0.022109;1.754951
-0.055412;1.267819
-0.159453;1.018393
-0.300840;0.894956
-0.462287;0.856860
-0.630560;0.879308
-0.796266;0.943703
-0.954889;1.036837
-1.106966;1.151322
-1.248773;1.277318
