20;20;1.000000;1.000000
10.000000;9.960938
0.981239;-0.192798
0.976956;-0.213440
0.968446;-0.249223
0.950522;-0.310657
0.910347;-0.413845
0.816462;-0.577399
0.616998;-0.786964
0.332988;-0.942931
0.122132;-0.992514
0.048985;-0.998800
0.035827;-0.999358
-0.058781;-0.998271
-0.303201;-0.952927
-0.609583;-0.792722
-0.808809;-0.588071
-0.899111;-0.437721
-0.937926;-0.346836
-0.955809;-0.293988
-0.964965;-0.262378
-0.970291;-0.241939
0.989860;-0.142046
0.988697;-0.149927
0.985574;-0.169245
0.978059;-0.208330
0.959864;-0.280466
0.911888;-0.410440
0.778126;-0.628109
0.482580;-0.875852
0.171296;-0.985220
0.051481;-0.998674
0.033855;-0.999427
-0.115937;-0.993257
-0.474537;-0.880235
-0.782014;-0.623261
-0.908942;-0.416922
-0.953242;-0.302207
-0.969899;-0.243506
-0.976639;-0.214889
-0.979642;-0.200754
-0.981324;-0.192364
0.995133;-0.098537
0.995520;-0.094556
0.994981;-0.100059
0.992800;-0.119779
0.987277;-0.159010
0.972663;-0.232220
0.927885;-0.372866
0.776757;-0.629801
0.415047;-0.909800
0.101831;-0.994802
-0.050193;-0.998740
-0.406130;-0.913815
-0.788601;-0.614905
-0.930326;-0.366732
-0.970669;-0.240420
-0.983812;-0.179204
-0.988308;-0.152469
-0.989226;-0.146398
-0.988955;-0.148213
-0.988705;-0.149876
0.997894;-0.064861
0.998814;-0.048690
0.998929;-0.046276
0.998534;-0.054120
0.997586;-0.069438
0.995369;-0.096124
0.989567;-0.144073
0.971726;-0.236113
0.904541;-0.426386
0.551690;-0.834050
-0.548041;-0.836452
-0.904323;-0.426849
-0.970231;-0.242181
-0.987671;-0.156546
-0.993538;-0.113498
-0.995836;-0.091164
-0.996560;-0.082880
-0.995567;-0.094054
-0.994121;-0.108276
-0.993251;-0.115986
0.998943;-0.045968
0.999819;-0.019018
0.999840;-0.017903
0.999829;-0.018506
0.999806;-0.019713
0.999746;-0.022540
0.999704;-0.024329
0.999718;-0.023763
0.999506;-0.031429
0.999201;-0.039958
-0.996620;-0.082146
-0.998406;-0.056448
-0.998925;-0.046364
-0.998924;-0.046377
-0.998806;-0.048845
-0.998785;-0.049283
-0.998782;-0.049342
-0.997784;-0.066537
-0.996669;-0.081554
-0.995933;-0.090093
0.999301;-0.037383
0.999619;-0.027614
0.999767;-0.021594
0.999745;-0.022578
0.999629;-0.027231
0.999393;-0.034831
0.998927;-0.046305
0.997939;-0.064164
0.995105;-0.098826
0.952765;-0.303708
-0.983440;-0.181232
-0.995539;-0.094346
-0.997402;-0.072035
-0.998268;-0.058829
-0.998758;-0.049820
-0.999036;-0.043889
-0.999126;-0.041804
-0.998748;-0.050034
-0.998083;-0.061881
-0.997568;-0.069700
0.999609;-0.027951
0.999877;-0.015698
0.999986;0.005341
0.999986;0.005255
0.999992;0.004029
0.999998;0.002215
1.000000;0.000856
1.000000;0.000228
1.000000;-0.000689
0.999982;-0.006017
-0.999763;-0.021749
-0.999810;-0.019501
-0.999833;-0.018258
-0.999859;-0.016811
-0.999879;-0.015524
-0.999896;-0.014417
-0.999907;-0.013606
-0.999498;-0.031694
-0.998936;-0.046123
-0.998606;-0.052782
0.999809;-0.019530
0.999903;-0.013958
0.999955;-0.009486
0.999958;-0.009210
0.999938;-0.011132
0.999896;-0.014415
0.999815;-0.019239
0.999642;-0.026757
0.999093;-0.042586
0.990189;-0.139733
-0.994186;-0.107673
-0.998670;-0.051566
-0.999238;-0.039035
-0.999467;-0.032629
-0.999595;-0.028443
-0.999668;-0.025776
-0.999684;-0.025126
-0.999599;-0.028315
-0.999433;-0.033682
-0.999277;-0.038013
0.999943;-0.010712
0.999973;-0.007314
0.999998;-0.002097
0.999999;-0.001461
0.999998;-0.002057
0.999996;-0.002980
0.999991;-0.004201
0.999983;-0.005827
0.999965;-0.008407
0.999798;-0.020088
-0.999429;-0.033789
-0.999778;-0.021050
-0.999829;-0.018499
-0.999857;-0.016925
-0.999875;-0.015793
-0.999888;-0.014999
-0.999894;-0.014585
-0.999853;-0.017159
-0.999766;-0.021637
-0.999703;-0.024362
0.999999;-0.001408
1.000000;-0.000327
1.000000;0.000880
0.999999;0.001132
1.000000;0.001005
1.000000;0.000729
1.000000;0.000306
1.000000;-0.000347
0.999999;-0.001613
0.999966;-0.008261
-0.999794;-0.020298
-0.999916;-0.012942
-0.999936;-0.011333
-0.999944;-0.010547
-0.999949;-0.010114
-0.999951;-0.009943
-0.999950;-0.010023
-0.999951;-0.009919
-0.999947;-0.010312
-0.999937;-0.011269
0.999963;0.008550
0.999969;0.007836
0.999977;0.006801
0.999980;0.006322
0.999978;0.006671
0.999973;0.007388
0.999965;0.008403
0.999951;0.009869
0.999920;0.012653
0.999643;0.026721
-0.999653;0.026353
-0.999951;0.009901
-0.999976;0.006923
-0.999986;0.005383
-0.999990;0.004394
-0.999993;0.003772
-0.999994;0.003349
-0.999997;0.002435
-0.999998;0.001890
-0.999998;0.001799
0.999817;0.019132
0.999863;0.016567
0.999953;0.009703
0.999989;0.004666
0.999987;0.005008
0.999986;0.005292
0.999982;0.005936
0.999978;0.006589
0.999975;0.007037
0.999959;0.009023
-0.999425;0.033892
-0.999915;0.013025
-0.999936;0.011322
-0.999949;0.010152
-0.999957;0.009283
-0.999962;0.008676
-0.999965;0.008329
-0.999940;0.010941
-0.999910;0.013429
-0.999891;0.014752
0.999543;0.030243
0.999648;0.026547
0.999762;0.021795
0.999810;0.019487
0.999781;0.020910
0.999701;0.024459
0.999551;0.029977
0.999258;0.038516
0.998475;0.055198
0.991316;0.131503
-0.985569;0.169273
-0.998347;0.057481
-0.999274;0.038084
-0.999581;0.028956
-0.999728;0.023313
-0.999802;0.019882
-0.999823;0.018811
-0.999778;0.021084
-0.999691;0.024843
-0.999615;0.027741
0.999137;0.041524
0.999359;0.035800
0.999679;0.025335
0.999837;0.018068
0.999806;0.019680
0.999736;0.022958
0.999617;0.027666
0.999417;0.034146
0.999042;0.043753
0.996836;0.079491
-0.994770;0.102142
-0.999056;0.043443
-0.999485;0.032092
-0.999689;0.024924
-0.999803;0.019839
-0.999865;0.016419
-0.999879;0.015541
-0.999646;0.026595
-0.999357;0.035849
-0.999158;0.041038
0.998602;0.052867
0.999009;0.044519
0.999485;0.032080
0.999694;0.024731
0.999610;0.027914
0.999402;0.034583
0.998979;0.045179
0.998080;0.061938
0.995787;0.091692
0.976560;0.215244
-0.983656;0.180058
-0.997218;0.074539
-0.998711;0.050764
-0.999326;0.036711
-0.999619;0.027595
-0.999759;0.021942
-0.999790;0.020482
-0.999418;0.034111
-0.998873;0.047460
-0.998469;0.055308
0.997890;0.064922
0.998703;0.050912
0.999475;0.032401
0.999531;0.030612
0.999354;0.035944
0.998944;0.045950
0.998019;0.062918
0.995709;0.092538
0.988651;0.150228
0.912413;0.409271
-0.971334;0.237718
-0.993186;0.116539
-0.997304;0.073374
-0.998792;0.049137
-0.999390;0.034931
-0.999643;0.026729
-0.999702;0.024430
-0.999055;0.043472
-0.998090;0.061770
-0.997400;0.072066
0.996695;0.081232
0.998079;0.061949
0.999550;0.029997
0.999565;0.029496
0.999322;0.036828
0.998746;0.050069
0.997228;0.074409
0.992316;0.123730
0.970568;0.240827
0.729355;0.684135
-0.796619;0.604482
-0.966081;0.258238
-0.991090;0.133196
-0.996924;0.078373
-0.998682;0.051318
-0.999310;0.037144
-0.999462;0.032804
-0.998253;0.059082
-0.996587;0.082548
-0.995605;0.093657
0.994235;0.107220
0.995365;0.096168
0.996276;0.086222
0.995817;0.091370
0.993313;0.115456
0.986153;0.165841
0.962707;0.270547
0.864297;0.502982
0.475416;0.879761
0.026349;0.999653
-0.075699;0.997131
-0.495400;0.868665
-0.861513;0.507735
-0.960994;0.276570
-0.985276;0.170973
-0.992517;0.122107
-0.994574;0.104036
-0.994216;0.107400
-0.993159;0.116768
-0.992444;0.122696
0.989720;0.143020
0.989672;0.143349
0.988744;0.149615
0.985184;0.171500
0.975257;0.221072
0.947448;0.319909
0.859420;0.511270
0.591358;0.806409
0.180711;0.983536
-0.008350;0.999965
-0.034733;0.999397
-0.215816;0.976434
-0.600197;0.799852
-0.856319;0.516447
-0.943978;0.330010
-0.972160;0.234319
-0.982021;0.188772
-0.985436;0.170048
-0.986588;0.163230
-0.987161;0.159729
0.982540;0.186050
0.980141;0.198301
0.975352;0.220653
0.964823;0.262899
0.940246;0.340497
0.878688;0.477396
0.722669;0.691194
0.421207;0.906964
0.124457;0.992225
-0.007280;0.999973
-0.037763;0.999287
-0.166339;0.986069
-0.444807;0.895626
-0.724525;0.689249
-0.873491;0.486840
-0.934479;0.356019
-0.959487;0.281753
-0.970556;0.240875
-0.976010;0.217724
-0.979148;0.203148
