20;20;1.000000;1.000000
10.000000;9.960938
0.339661;-0.940548
0.354527;-0.935046
0.356548;-0.934277
0.333012;-0.942923
0.281460;-0.959573
0.210618;-0.977568
0.132151;-0.991230
0.056322;-0.998413
-0.010963;-0.999940
-0.069630;-0.997573
-0.124320;-0.992242
-0.181036;-0.983476
-0.243297;-0.969952
-0.310009;-0.950734
-0.376122;-0.926570
-0.435314;-0.900279
-0.482256;-0.876030
-0.510189;-0.860062
-0.506360;-0.862322
-0.486459;-0.873703
0.381829;-0.924233
0.414675;-0.909970
0.437588;-0.899176
0.415984;-0.909372
0.349270;-0.937022
0.257636;-0.966242
0.157528;-0.987515
0.064362;-0.997927
-0.012288;-0.999924
-0.072628;-0.997359
-0.125623;-0.992078
-0.182958;-0.983121
-0.251138;-0.967951
-0.327954;-0.944694
-0.404658;-0.914468
-0.471838;-0.881685
-0.524482;-0.851422
-0.563070;-0.826409
-0.541524;-0.840686
-0.506520;-0.862228
0.413932;-0.910308
0.465494;-0.885051
0.535255;-0.844691
0.506047;-0.862506
0.420139;-0.907460
0.306948;-0.951726
0.180714;-0.983536
0.064850;-0.997895
-0.023360;-0.999727
-0.082432;-0.996597
-0.127715;-0.991811
-0.181947;-0.983308
-0.256076;-0.966657
-0.344589;-0.938754
-0.431731;-0.902002
-0.503008;-0.864282
-0.552853;-0.833279
-0.567336;-0.823486
-0.539678;-0.841872
-0.511952;-0.859014
0.427763;-0.903891
0.478590;-0.878038
0.541373;-0.840782
0.560450;-0.828188
0.479590;-0.877493
0.355428;-0.934704
0.202070;-0.979371
0.057220;-0.998362
-0.047482;-0.998872
-0.104413;-0.994534
-0.131506;-0.991315
-0.177639;-0.984096
-0.258572;-0.965992
-0.361414;-0.932405
-0.458970;-0.888452
-0.531118;-0.847298
-0.572348;-0.820011
-0.548043;-0.836450
-0.526997;-0.849867
-0.508793;-0.860889
0.425940;-0.904752
0.463706;-0.885989
0.507239;-0.861805
0.553338;-0.832957
0.530191;-0.847879
0.406161;-0.913802
0.227528;-0.973772
0.048363;-0.998830
-0.076294;-0.997085
-0.143023;-0.989719
-0.135858;-0.990728
-0.170781;-0.985309
-0.260672;-0.965427
-0.382147;-0.924102
-0.490395;-0.871500
-0.561181;-0.827693
-0.549816;-0.835286
-0.528830;-0.848728
-0.514780;-0.857322
-0.504701;-0.863294
0.417890;-0.908498
0.442360;-0.896837
0.471894;-0.881656
0.508624;-0.860989
0.564854;-0.825191
0.468228;-0.883607
0.268536;-0.963270
0.050066;-0.998746
-0.089381;-0.995998
-0.148286;-0.988944
-0.131182;-0.991358
-0.159419;-0.987211
-0.264118;-0.964490
-0.412499;-0.910958
-0.530855;-0.847463
-0.552639;-0.833421
-0.524734;-0.851266
-0.512270;-0.858824
-0.506751;-0.862092
-0.504740;-0.863272
0.412215;-0.911086
0.423942;-0.905689
0.439517;-0.898234
0.462547;-0.886595
0.503952;-0.863731
0.549613;-0.835419
0.339743;-0.940518
0.067177;-0.997741
-0.095602;-0.995420
-0.143877;-0.989596
-0.110133;-0.993917
-0.127114;-0.991888
-0.267842;-0.963463
-0.461513;-0.887133
-0.560935;-0.827860
-0.516473;-0.856303
-0.503457;-0.864020
-0.503258;-0.864136
-0.507975;-0.861372
-0.514163;-0.857692
0.417652;-0.908607
0.416815;-0.908991
0.417276;-0.908780
0.422675;-0.906281
0.442153;-0.896940
0.500873;-0.865521
0.459956;-0.887942
0.105764;-0.994391
-0.114755;-0.993394
-0.139088;-0.990280
-0.034694;-0.999398
-0.019102;-0.999818
-0.277697;-0.960669
-0.543805;-0.839212
-0.502336;-0.864673
-0.486578;-0.873637
-0.495586;-0.868559
-0.511360;-0.859367
-0.527128;-0.849786
-0.540498;-0.841345
0.447103;-0.894483
0.434726;-0.900563
0.419206;-0.907891
0.403227;-0.915100
0.393873;-0.919165
0.409983;-0.912093
0.513609;-0.858025
0.216640;-0.976252
-0.189822;-0.981819
-0.237521;-0.971382
0.293576;-0.955936
0.282846;-0.959165
-0.370210;-0.928948
-0.475911;-0.879493
-0.452650;-0.891688
-0.484743;-0.874657
-0.523626;-0.851948
-0.556026;-0.831165
-0.579570;-0.814922
-0.595257;-0.803535
0.524231;-0.851576
0.506351;-0.862328
0.478519;-0.878077
0.440277;-0.897862
0.394143;-0.919049
0.352034;-0.935987
0.357383;-0.933958
0.531939;-0.846783
0.000000;0.000000
0.000000;0.000000
0.000000;0.000000
0.000000;0.000000
-0.434624;-0.900612
-0.371508;-0.928430
-0.483219;-0.875499
-0.581825;-0.813314
-0.642765;-0.766063
-0.675136;-0.737694
-0.689682;-0.724112
-0.693648;-0.720314
0.690164;-0.723653
0.691359;-0.722511
0.680715;-0.732549
0.652632;-0.757675
0.596911;-0.802307
0.493823;-0.869562
0.314142;-0.949376
0.000000;0.000000
0.000000;0.000000
0.000000;0.000000
0.000000;0.000000
0.000000;0.000000
0.044388;-0.999014
-0.850735;-0.525594
-0.932910;-0.360109
-0.933932;-0.357452
-0.918540;-0.395328
-0.895375;-0.445313
-0.868290;-0.496057
-0.840049;-0.542511
0.935812;-0.352500
0.970672;-0.240408
0.994698;-0.102837
0.996982;0.077634
0.944662;0.328046
0.770913;0.636941
0.510764;0.859721
0.000000;0.000000
-0.943299;0.331944
-0.840590;0.541672
0.742504;0.669841
0.773716;0.633532
0.000000;0.000000
-0.462933;0.886393
-0.665253;0.746618
-0.829224;0.558916
-0.937520;0.347932
-0.991003;0.133840
-0.998128;-0.061167
-0.974959;-0.222385
0.972460;0.233070
0.912454;0.409180
0.826689;0.562659
0.725160;0.688580
0.620122;0.784505
0.535693;0.844413
0.000000;0.000000
0.000000;0.000000
-0.903268;0.429076
-0.918901;0.394489
0.578540;0.815654
0.000000;0.000000
0.000000;0.000000
-0.506911;0.861999
-0.550113;0.835090
-0.633481;0.773758
-0.735167;0.677886
-0.842686;0.538405
-0.934617;0.355656
-0.988606;0.150526
0.817241;0.576296
0.736065;0.676911
0.663142;0.748493
0.602602;0.798042
0.559480;0.828844
0.548289;0.836289
0.525340;0.850892
-0.041899;0.999122
-0.723265;0.690570
-0.713856;0.700292
-0.231294;0.972884
-0.094428;0.995532
-0.441332;0.897344
-0.557819;0.829963
-0.549498;0.835495
-0.579893;0.814693
-0.637496;0.770454
-0.719810;0.694171
-0.817308;0.576201
-0.909958;0.414701
0.703176;0.711015
0.643820;0.765177
0.599929;0.800053
0.571335;0.820717
0.560190;0.828364
0.570836;0.821064
0.465688;0.884949
0.072644;0.997358
-0.423645;0.905828
-0.503309;0.864107
-0.366083;0.930582
-0.338185;0.941079
-0.465298;0.885154
-0.545665;0.838003
-0.558371;0.829591
-0.566636;0.823968
-0.598461;0.801152
-0.656814;0.754053
-0.737642;0.675192
-0.829607;0.558348
0.641817;0.766858
0.602079;0.798436
0.577863;0.816134
0.567309;0.823505
0.570971;0.820970
0.546419;0.837512
0.439338;0.898322
0.166702;0.986007
-0.187349;0.982293
-0.353706;0.935356
-0.380123;0.924936
-0.414762;0.909930
-0.486322;0.873780
-0.540010;0.841659
-0.560241;0.828330
-0.563250;0.826286
-0.583318;0.812244
-0.628024;0.778194
-0.694238;0.719746
-0.775477;0.631376
0.610091;0.792332
0.583649;0.812006
0.571657;0.820493
0.570809;0.821083
0.566685;0.823934
0.527875;0.849322
0.426497;0.904489
0.218972;0.975731
-0.055211;0.998475
-0.256382;0.966575
-0.361626;0.932323
-0.431827;0.901956
-0.492713;0.870192
-0.535793;0.844349
-0.556920;0.830566
-0.563219;0.826308
-0.580823;0.814030
-0.618407;0.785858
-0.674233;0.738519
-0.744717;0.667380
0.593757;0.804645
0.575685;0.817672
0.571430;0.820651
0.572846;0.819663
0.555782;0.831328
0.510819;0.859688
0.414274;0.910152
0.241739;0.970341
0.013218;0.999913
-0.192104;0.981375
-0.332246;0.943193
-0.424103;0.905614
-0.487351;0.873206
-0.528748;0.848779
-0.552322;0.833631
-0.566499;0.824062
-0.586008;0.810305
-0.619613;0.784907
-0.668242;0.743944
-0.730023;0.683423
0.584862;0.811133
0.571126;0.820862
0.570147;0.821542
0.564580;0.825378
0.540730;0.841196
0.490586;0.871393
0.397156;0.917751
0.245439;0.969412
0.047147;0.998888
-0.148481;0.988915
-0.300334;0.953834
-0.404844;0.914386
-0.474232;0.880400
-0.519171;0.854670
-0.547913;0.836535
-0.569258;0.822159
-0.592884;0.805288
-0.625624;0.780125
-0.669957;0.742400
-0.725425;0.688302
0.578284;0.815836
0.564624;0.825348
0.557496;0.830180
0.545962;0.837810
0.517991;0.855386
0.464557;0.885543
0.373847;0.927490
0.236662;0.971592
0.061327;0.998118
-0.119155;0.992876
-0.270493;0.962722
-0.381166;0.924506
-0.456954;0.889490
-0.507837;0.861453
-0.543061;0.839693
-0.571021;0.820936
-0.599206;0.800595
-0.633098;0.774072
-0.675511;0.737350
-0.726868;0.686777
