20;20;1.000000;1.000000
9.843750;10.039062
0.010804;-0.999942
0.010804;-0.999942
0.010804;-0.999942
0.010804;-0.999942
0.010804;-0.999942
0.010804;-0.999942
0.010804;-0.999942
0.010804;-0.999942
0.010804;-0.999942
0.010804;-0.999942
0.010804;-0.999942
0.010804;-0.999942
0.010804;-0.999942
0.010804;-0.999942
0.010804;-0.999942
0.010804;-0.999942
0.010804;-0.999942
0.010804;-0.999942
0.010804;-0.999942
0.010804;-0.999942
0.010804;-0.999942
0.010804;-0.999942
0.010804;-0.999942
0.010804;-0.999942
0.010804;-0.999942
0.010804;-0.999942
0.010804;-0.999942
0.010804;-0.999942
0.010804;-0.999942
0.010804;-0.999942
0.010804;-0.999942
0.010804;-0.999942
0.010804;-0.999942
0.010804;-0.999942
0.010804;-0.999942
0.010804;-0.999942
0.010804;-0.999942
0.010804;-0.999942
0.010804;-0.999942
0.010804;-0.999942
0.010804;-0.999942
0.010804;-0.999942
0.010804;-0.999942
0.010804;-0.999942
0.010804;-0.999942
0.010804;-0.999942
0.010804;-0.999942
0.010804;-0.999942
0.010804;-0.999942
0.010804;-0.999942
0.010804;-0.999942
0.010804;-0.999942
0.010804;-0.999942
0.010804;-0.999942
0.010804;-0.999942
0.010804;-0.999942
0.010804;-0.999942
0.010804;-0.999942
0.010804;-0.999942
0.010804;-0.999942
0.010804;-0.999942
0.010804;-0.999942
0.010804;-0.999942
0.010804;-0.999942
0.010804;-0.999942
0.010804;-0.999942
0.010804;-0.999942
0.010804;-0.999942
0.010804;-0.999942
0.010804;-0.999942
0.010804;-0.999942
0.010804;-0.999942
0.010804;-0.999942
0.010804;-0.999942
0.010804;-0.999942
0.010804;-0.999942
0.010804;-0.999942
0.010804;-0.999942
0.010804;-0.999942
0.010804;-0.999942
0.010804;-0.999942
0.010804;-0.999942
0.010804;-0.999942
0.010804;-0.999942
0.010804;-0.999942
0.010804;-0.999942
0.010804;-0.999942
0.010804;-0.999942
0.010804;-0.999942
0.010804;-0.999942
0.010804;-0.999942
0.010804;-0.999942
0.010804;-0.999942
0.010804;-0.999942
0.010804;-0.999942
0.010804;-0.999942
0.010804;-0.999942
0.010804;-0.999942
0.010804;-0.999942
0.010804;-0.999942
0.010804;-0.999942
0.010804;-0.999942
0.010804;-0.999942
0.010804;-0.999942
0.010804;-0.999942
0.010804;-0.999942
0.010804;-0.999942
0.010804;-0.999942
0.010804;-0.999942
0.010804;-0.999942
0.010804;-0.999942
0.010804;-0.999942
0.010804;-0.999942
0.010804;-0.999942
0.010804;-0.999942
0.010804;-0.999942
0.010804;-0.999942
0.010804;-0.999942
0.010804;-0.999942
0.010804;-0.999942
0.010804;-0.999942
0.010804;-0.999942
0.010804;-0.999942
0.010804;-0.999942
0.010804;-0.999942
0.010804;-0.999942
0.010804;-0.999942
0.010804;-0.999942
0.010804;-0.999942
0.010804;-0.999942
0.010804;-0.999942
0.010804;-0.999942
0.010804;-0.999942
0.010804;-0.999942
0.010804;-0.999942
0.010804;-0.999942
0.010804;-0.999942
0.010804;-0.999942
0.010804;-0.999942
0.010804;-0.999942
0.010804;-0.999942
0.010804;-0.999942
0.010804;-0.999942
0.010804;-0.999942
0.010804;-0.999942
0.010804;-0.999942
0.010804;-0.999942
0.010804;-0.999942
0.010804;-0.999942
0.010804;-0.999942
0.010804;-0.999942
0.010804;-0.999942
0.010804;-0.999942
0.010804;-0.999942
0.010804;-0.999942
0.010804;-0.999942
0.010804;-0.999942
0.010804;-0.999942
0.010804;-0.999942
0.010804;-0.999942
0.010804;-0.999942
0.010804;-0.999942
0.010804;-0.999942
0.010804;-0.999942
0.010804;-0.999942
0.010804;-0.999942
0.010804;-0.999942
0.010804;-0.999942
0.010804;-0.999942
0.010804;-0.999942
0.010804;-0.999942
0.010804;-0.999942
0.010804;-0.999942
0.010804;-0.999942
0.010804;-0.999942
0.010804;-0.999942
0.010804;-0.999942
0.010804;-0.999942
0.010804;-0.999942
0.010804;-0.999942
0.010804;-0.999942
0.010804;-0.999942
0.010804;-0.999942
0.010804;-0.999942
0.010804;-0.999942
0.010804;-0.999942
0.010804;-0.999942
0.010804;-0.999942
0.010804;-0.999942
0.010804;-0.999942
0.010804;-0.999942
0.010804;-0.999942
0.010804;-0.999942
0.010804;-0.999942
0.010804;-0.999942
0.010804;-0.999942
0.010804;-0.999942
0.010804;-0.999942
0.010804;-0.999942
0.010804;-0.999942
0.010804;-0.999942
0.010804;-0.999942
0.010804;-0.999942
0.010804;-0.999942
0.010804;-0.999942
0.010804;-0.999942
0.010804;-0.999942
0.010804;-0.999942
0.010804;-0.999942
0.010804;-0.999942
0.010804;-0.999942
0.010804;-0.999942
0.010804;-0.999942
0.010804;-0.999942
0.010804;-0.999942
0.010804;-0.999942
0.010804;-0.999942
0.010804;-0.999942
0.010804;-0.999942
0.010804;-0.999942
0.010804;-0.999942
0.010804;-0.999942
0.010804;-0.999942
0.010804;-0.999942
0.010804;-0.999942
0.010804;-0.999942
0.010804;-0.999942
0.010804;-0.999942
0.010804;-0.999942
0.010804;-0.999942
0.010804;-0.999942
0.010804;-0.999942
0.010804;-0.999942
0.010804;-0.999942
0.010804;-0.999942
0.010804;-0.999942
0.010804;-0.999942
0.010804;-0.999942
0.010804;-0.999942
0.010804;-0.999942
0.010804;-0.999942
0.010804;-0.999942
0.010804;-0.999942
0.010804;-0.999942
0.010804;-0.999942
0.010804;-0.999942
0.010804;-0.999942
0.010804;-0.999942
0.010804;-0.999942
0.010804;-0.999942
0.010804;-0.999942
0.010804;-0.999942
0.010804;-0.999942
0.010804;-0.999942
0.010804;-0.999942
0.010804;-0.999942
0.010804;-0.999942
0.010804;-0.999942
0.010804;-0.999942
0.010804;-0.999942
0.010804;-0.999942
0.010804;-0.999942
0.010804;-0.999942
0.010804;-0.999942
0.010804;-0.999942
0.010804;-0.999942
0.010804;-0.999942
0.010804;-0.999942
0.010804;-0.999942
0.010804;-0.999942
0.010804;-0.999942
0.010804;-0.999942
0.010804;-0.999942
0.010804;-0.999942
0.010804;-0.999942
0.010804;-0.999942
0.010804;-0.999942
0.010804;-0.999942
0.010804;-0.999942
0.010804;-0.999942
0.010804;-0.999942
0.010804;-0.999942
0.010804;-0.999942
0.010804;-0.999942
0.010804;-0.999942
0.010804;-0.999942
0.010804;-0.999942
0.010804;-0.999942
0.010804;-0.999942
0.010804;-0.999942
0.010804;-0.999942
0.010804;-0.999942
0.010804;-0.999942
0.010804;-0.999942
0.010804;-0.999942
0.010804;-0.999942
0.010804;-0.999942
0.010804;-0.999942
0.010804;-0.999942
0.010804;-0.999942
0.010804;-0.999942
0.010804;-0.999942
0.010804;-0.999942
0.010804;-0.999942
0.010804;-0.999942
0.010804;-0.999942
0.010804;-0.999942
0.010804;-0.999942
0.010804;-0.999942
0.010804;-0.999942
0.010804;-0.999942
0.010804;-0.999942
0.010804;-0.999942
0.010804;-0.999942
0.010804;-0.999942
0.010804;-0.999942
0.010804;-0.999942
0.010804;-0.999942
0.010804;-0.999942
0.010804;-0.999942
0.010804;-0.999942
0.010804;-0.999942
0.010804;-0.999942
0.010804;-0.999942
0.010804;-0.999942
0.010804;-0.999942
0.010804;-0.999942
0.010804;-0.999942
0.010804;-0.999942
0.010804;-0.999942
0.010804;-0.999942
0.010804;-0.999942
0.010804;-0.999942
0.010804;-0.999942
0.010804;-0.999942
0.010804;-0.999942
0.010804;-0.999942
0.010804;-0.999942
0.010804;-0.999942
0.010804;-0.999942
0.010804;-0.999942
0.010804;-0.999942
0.010804;-0.999942
0.010804;-0.999942
0.010804;-0.999942
0.010804;-0.999942
0.010804;-0.999942
0.010804;-0.999942
0.010804;-0.999942
0.010804;-0.999942
0.010804;-0.999942
0.010804;-0.999942
0.010804;-0.999942
0.010804;-0.999942
0.010804;-0.999942
0.010804;-0.999942
0.010804;-0.999942
0.010804;-0.999942
0.010804;-0.999942
0.010804;-0.999942
0.010804;-0.999942
0.010804;-0.999942
0.010804;-0.999942
0.010804;-0.999942
0.010804;-0.999942
0.010804;-0.999942
0.010804;-0.999942
0.010804;-0.999942
0.010804;-0.999942
0.010804;-0.999942
0.010804;-0.999942
0.010804;-0.999942
0.010804;-0.999942
0.010804;-0.999942
0.010804;-0.999942
0.010804;-0.999942
0.010804;-0.999942
0.010804;-0.999942
0.010804;-0.999942
0.010804;-0.999942
0.010804;-0.999942
0.010804;-0.999942
0.010804;-0.999942
0.010804;-0.999942
0.010804;-0.999942
0.010804;-0.999942
0.010804;-0.999942
0.010804;-0.999942
0.010804;-0.999942
0.010804;-0.999942
0.010804;-0.999942
0.010804;-0.999942
0.010804;-0.999942
0.010804;-0.999942
0.010804;-0.999942
0.010804;-0.999942
0.010804;-0.999942
0.010804;-0.999942
0.010804;-0.999942
0.010804;-0.999942
