20;20;1.000000;1.000000
10.000000;10.000000
-0.095789;-1.797449
-0.149617;-1.793771
-0.196184;-1.789277
-0.227397;-1.785579
-0.236612;-1.784381
-0.218417;-1.786699
-0.167664;-1.792174
-0.078813;-1.798274
-0.015716;-1.799931
-0.211692;-1.787508
-0.485422;-1.733310
-0.774750;-1.624735
-1.014914;-1.486590
-1.180008;-1.359258
-1.280959;-1.264573
-1.338313;-1.203710
-1.368492;-1.169286
-1.382174;-1.153081
-1.386042;-1.148428
-1.386928;-1.147358
0.102009;-1.797107
0.009709;-1.799974
-0.075280;-1.798425
-0.140403;-1.794516
-0.176242;-1.791351
-0.176913;-1.791285
-0.139772;-1.794565
-0.067510;-1.798733
-0.015685;-1.799932
-0.195398;-1.789363
-0.480361;-1.734720
-0.797550;-1.613665
-1.053606;-1.459422
-1.217423;-1.325851
-1.309104;-1.235414
-1.355906;-1.183858
-1.376678;-1.159637
-1.382561;-1.152617
-1.379988;-1.155696
-1.383764;-1.151172
0.379664;-1.759504
0.236095;-1.784449
0.093656;-1.797562
-0.025913;-1.799813
-0.106624;-1.796839
-0.140684;-1.794494
-0.127150;-1.795504
-0.069706;-1.798650
-0.018253;-1.799907
-0.212473;-1.787416
-0.520208;-1.723190
-0.858445;-1.582110
-1.114104;-1.413780
-1.262843;-1.282665
-1.337547;-1.204561
-1.370325;-1.167137
-1.380570;-1.155001
-1.378859;-1.157043
-1.385023;-1.149656
-1.400122;-1.131220
0.761701;-1.630893
0.569869;-1.707410
0.353260;-1.764995
0.150360;-1.793709
-0.004202;-1.799995
-0.093292;-1.797581
-0.115229;-1.796308
-0.074324;-1.798465
-0.021673;-1.799870
-0.247343;-1.782925
-0.597348;-1.697992
-0.952537;-1.527309
-1.189429;-1.351022
-1.310095;-1.234363
-1.362013;-1.176826
-1.378707;-1.157224
-1.377624;-1.158513
-1.387970;-1.146097
-1.403700;-1.126776
-1.425770;-1.098717
1.205884;-1.336355
1.020196;-1.482970
0.754639;-1.634173
0.448184;-1.743310
0.174822;-1.791490
-0.009992;-1.799972
-0.092352;-1.797629
-0.078400;-1.798292
-0.025975;-1.799813
-0.301139;-1.774631
-0.712964;-1.652780
-1.071797;-1.446116
-1.268582;-1.276989
-1.351154;-1.189279
-1.377038;-1.159209
-1.379291;-1.156527
-1.392671;-1.140381
-1.412029;-1.116322
-1.435799;-1.085579
-1.464138;-1.047043
1.561038;-0.896193
1.459498;-1.053501
1.260944;-1.284531
0.929097;-1.541680
0.514174;-1.725000
0.160671;-1.792815
-0.038639;-1.799585
-0.078339;-1.798295
-0.031487;-1.799725
-0.384110;-1.758539
-0.873186;-1.574022
-1.202045;-1.339808
-1.337058;-1.205104
-1.375980;-1.160464
-1.381707;-1.153641
-1.400868;-1.130296
-1.426559;-1.097692
-1.455213;-1.059412
-1.485794;-1.016079
-1.518240;-0.966927
1.734866;-0.479833
1.706604;-0.572279
1.636038;-0.750587
1.464804;-1.046111
1.092394;-1.430621
0.540922;-1.716800
0.099406;-1.797253
-0.064798;-1.798833
-0.038879;-1.799580
-0.521081;-1.722926
-1.076828;-1.442373
-1.317583;-1.226367
-1.376117;-1.160302
-1.386999;-1.147272
-1.416763;-1.110307
-1.452493;-1.063139
-1.488621;-1.011932
-1.523425;-0.958736
-1.556769;-0.903588
-1.588896;-0.845820
1.788788;-0.200593
1.784725;-0.234000
1.772477;-0.313569
1.737670;-0.469578
1.626977;-0.770030
1.260945;-1.284530
0.506932;-1.727142
-0.002797;-1.799998
-0.049407;-1.799322
-0.768225;-1.627830
-1.284007;-1.261477
-1.377851;-1.158242
-1.401406;-1.129629
-1.450858;-1.065368
-1.501346;-0.992955
-1.546216;-0.921528
-1.584578;-0.853881
-1.617370;-0.790009
-1.645849;-0.728821
-1.670991;-0.669170
1.799201;-0.053617
1.798967;-0.060960
1.798054;-0.083676
1.795420;-0.128321
1.786659;-0.218746
1.747789;-0.430388
1.486632;-1.014852
0.337405;-1.768094
-0.065578;-1.798805
-1.186116;-1.353931
-1.379130;-1.156720
-1.447788;-1.069537
-1.531961;-0.945037
-1.597129;-0.830169
-1.643925;-0.733151
-1.677534;-0.652596
-1.702316;-0.584911
-1.721269;-0.526528
-1.736317;-0.474556
-1.748628;-0.426965
1.800000;-0.000630
1.799999;-0.001395
1.799997;-0.003172
1.799989;-0.006297
1.799959;-0.012142
1.799831;-0.024695
1.799009;-0.059718
1.782195;-0.252548
0.000000;0.000000
-1.413207;-1.114830
0.000000;0.000000
-1.725849;-0.511318
-1.758365;-0.384904
-1.773564;-0.307362
-1.781803;-0.255303
-1.786782;-0.217739
-1.790061;-0.188892
-1.792381;-0.165443
-1.794118;-0.145393
-1.795475;-0.127549
1.799965;0.011287
1.799956;0.012561
1.799925;0.016443
1.799846;0.023576
1.799611;0.037420
1.798692;0.068613
1.792689;0.162072
1.648573;0.722638
-0.037174;1.799616
-1.385436;1.149160
-1.582493;0.857739
-1.685745;0.631080
-1.731135;0.493126
-1.754083;0.403970
-1.767140;0.342369
-1.775267;0.297365
-1.780703;0.262860
-1.784564;0.235226
-1.787448;0.212198
-1.789691;0.192367
1.798174;0.081058
1.797750;0.089978
1.796051;0.119163
1.791245;0.177315
1.775615;0.295281
1.708797;0.565696
1.325905;1.217364
0.220831;1.786402
-0.033139;1.799695
-1.057142;1.456863
-1.376411;1.159954
-1.422884;1.102452
-1.501886;0.992138
-1.568129;0.883725
-1.617775;0.789179
-1.654411;0.709172
-1.681894;0.641274
-1.703125;0.582549
-1.720071;0.530428
-1.733981;0.483021
1.782457;0.250695
1.776680;0.288805
1.759430;0.380006
1.711585;0.557204
1.566784;0.886108
1.140371;1.392678
0.401705;1.754604
-0.063326;1.798886
-0.023161;1.799851
-0.666418;1.672091
-1.236173;1.308387
-1.371996;1.165172
-1.390156;1.143444
-1.433357;1.088800
-1.481458;1.022390
-1.525757;0.955020
-1.564387;0.890334
-1.597798;0.828879
-1.627019;0.769941
-1.652939;0.712596
1.711980;0.555988
1.676660;0.654836
1.590515;0.842770
1.391290;1.142065
0.991606;1.502238
0.450992;1.742586
0.036776;1.799624
-0.122644;1.795817
-0.020523;1.799883
-0.456063;1.741266
-1.012519;1.488222
-1.290425;1.254911
-1.370332;1.167129
-1.381574;1.153799
-1.406180;1.123681
-1.439102;1.081196
-1.473611;1.033668
-1.507424;0.983704
-1.540104;0.931709
-1.571758;0.877255
1.504959;0.987470
1.391126;1.142265
1.176793;1.362042
0.837204;1.593452
0.433337;1.747060
0.097522;1.797356
-0.093347;1.797578
-0.135757;1.794873
-0.024335;1.799835
-0.339716;1.767652
-0.811007;1.606944
-1.161393;1.375197
-1.318884;1.224967
-1.370782;1.166601
-1.379178;1.156663
-1.394248;1.138452
-1.417334;1.109578
-1.444091;1.074524
-1.473103;1.034393
-1.504123;0.988744
1.117519;1.411082
0.928822;1.541846
0.666727;1.671968
0.371845;1.761173
0.111710;1.796530
-0.065128;1.798821
-0.146042;1.794066
-0.135571;1.794887
-0.027449;1.799791
-0.268581;1.779850
-0.658470;1.675236
-1.024680;1.479875
-1.241095;1.303719
-1.338051;1.204002
-1.372508;1.164569
-1.378333;1.157670
-1.388451;1.145514
-1.405487;1.124547
-1.427260;1.096781
-1.453620;1.061598
0.667856;1.671517
0.484350;1.733610
0.278860;1.778268
0.086736;1.797909
-0.060669;1.798977
-0.147135;1.793976
-0.169813;1.791972
-0.131523;1.795188
-0.028071;1.799781
-0.221853;1.786276
-0.550112;1.713878
-0.903955;1.556556
-1.155682;1.380000
-1.290713;1.254616
-1.352161;1.188133
-1.374795;1.161869
-1.377616;1.158523
-1.385253;1.149380
-1.398863;1.132776
-1.418712;1.107816
0.297292;1.775279
0.163188;1.792587
0.029443;1.799759
-0.083907;1.798043
-0.161725;1.792720
-0.195837;1.789315
-0.183874;1.790584
-0.127711;1.795464
-0.027686;1.799787
-0.190750;1.789864
-0.478225;1.735310
-0.811345;1.606773
-1.077221;1.442080
-1.238900;1.305806
-1.323339;1.220153
-1.362605;1.176140
-1.377148;1.159079
-1.378377;1.157617
-1.383254;1.151785
-1.396133;1.136139
0.032092;1.799714
-0.053822;1.799195
-0.133904;1.795012
-0.196359;1.789258
-0.232011;1.784985
-0.234603;1.784646
-0.200253;1.788826
-0.128596;1.795401
-0.027519;1.799790
-0.174019;1.791568
-0.442127;1.744856
-0.754122;1.634411
-1.016688;1.485377
-1.190903;1.349722
-1.291540;1.253765
-1.344864;1.196387
-1.370239;1.167239
-1.379410;1.156385
-1.379238;1.156591
-1.382440;1.152762
-0.156177;1.793212
-0.206793;1.788082
-0.251392;1.782359
-0.282329;1.777721
-0.293162;1.775966
-0.278468;1.778329
-0.232879;1.784872
-0.149526;1.793779
-0.028054;1.799781
-0.188891;1.790062
-0.453103;1.742038
-0.737785;1.641851
-0.980854;1.509279
-1.152975;1.382262
-1.261153;1.284326
-1.324406;1.218995
-1.359060;1.180236
-1.376087;1.160338
-1.382437;1.152766
-1.384477;1.150314
