20;20;1.000000;1.000000
10.000000;10.000000
1.143495;-1.390115
1.181126;-1.358286
1.196110;-1.345110
1.169916;-1.367954
1.088042;-1.433933
0.905652;-1.555569
0.532913;-1.719303
-0.095107;-1.797486
-0.768307;-1.627791
-1.201422;-1.340367
-1.419195;-1.107197
-1.526536;-0.953775
-1.579400;-0.863420
-1.599322;-0.825936
-1.594282;-0.835622
-1.570072;-0.880270
-1.534436;-0.941014
-1.493931;-1.004076
-1.408442;-1.120844
-1.387407;-1.146779
1.128675;-1.402174
1.188772;-1.351599
1.215922;-1.327227
1.198880;-1.342641
1.134191;-1.397716
0.974505;-1.513387
0.609192;-1.693778
-0.074711;-1.798449
-0.819485;-1.602637
-1.258541;-1.286885
-1.461608;-1.050572
-1.559975;-0.898042
-1.611301;-0.802314
-1.630646;-0.762229
-1.618557;-0.787574
-1.580962;-0.860558
-1.529345;-0.949265
-1.492316;-1.006475
-1.476566;-1.029442
-1.467185;-1.042770
1.218741;-1.324640
1.221136;-1.322432
1.240368;-1.304410
1.215562;-1.327558
1.169423;-1.368375
1.038380;-1.470295
0.689795;-1.662583
-0.055926;-1.799131
-0.877900;-1.571398
-1.309687;-1.234796
-1.491782;-1.007267
-1.580625;-0.861176
-1.638706;-0.744743
-1.671317;-0.668356
-1.648529;-0.722740
-1.601555;-0.821598
-1.525244;-0.955840
-1.525327;-0.955708
-1.523888;-0.958001
-1.529772;-0.948576
1.286086;-1.259358
1.256340;-1.289034
1.200769;-1.340952
1.207152;-1.335209
1.189872;-1.350631
1.098152;-1.426206
0.784622;-1.619990
-0.026176;-1.799810
-0.935201;-1.537986
-1.346846;-1.194155
-1.502770;-0.990799
-1.570544;-0.879428
-1.642095;-0.737240
-1.749327;-0.424095
-1.665337;-0.683119
-1.629810;-0.764014
-1.596830;-0.830742
-1.581653;-0.859286
-1.579157;-0.863864
-1.586272;-0.850730
1.378028;-1.158032
1.310858;-1.233552
1.240916;-1.303890
1.182863;-1.356774
1.185760;-1.354242
1.151581;-1.383424
0.910471;-1.552753
0.045181;-1.799433
-0.976173;-1.512312
-1.357890;-1.181581
-1.494712;-1.002913
-1.506065;-0.985784
-1.610585;-0.803751
-1.695352;-0.604798
-1.697261;-0.599422
-1.674396;-0.660604
-1.655559;-0.706487
-1.644252;-0.732417
-1.641479;-0.738611
-1.646770;-0.726738
1.523807;-0.958130
1.440651;-1.079131
1.343853;-1.197522
1.228136;-1.315934
1.083240;-1.437564
1.190787;-1.349825
1.091983;-1.430934
0.233321;-1.784814
-0.971411;-1.515375
-1.315097;-1.229032
-1.426260;-1.098081
-1.610473;-0.803976
-1.710318;-0.561081
-1.747727;-0.430640
-1.750139;-0.420728
-1.738986;-0.464679
-1.725588;-0.512197
-1.715381;-0.545406
-1.710721;-0.559850
-1.712186;-0.555355
1.706459;-0.572709
1.645952;-0.728590
1.557724;-0.901940
1.422160;-1.103386
1.211527;-1.331241
1.218415;-1.324939
1.340567;-1.201200
0.699448;-1.658545
-0.859893;-1.581323
-1.167794;-1.369765
-1.600411;-0.823823
-1.796907;-0.105472
-1.765864;0.348891
-1.779249;0.272531
-1.797506;0.094722
-1.799074;-0.057722
-1.791903;-0.170542
-1.783028;-0.246600
-1.776331;-0.290945
-1.773391;-0.308356
1.799580;0.038862
1.798064;-0.083461
1.784254;-0.237565
1.741834;-0.453888
1.630617;-0.762292
1.495725;-1.001402
1.549575;-0.915870
1.364374;-1.174089
-0.610530;-1.693297
-1.354628;-1.185320
-1.628252;-0.767330
-1.729671;0.498233
-1.050815;1.461433
-1.321173;1.222499
-1.560076;0.897866
-1.696355;0.601980
-1.760867;0.373292
-1.787475;0.211970
-1.796868;0.106142
-1.799469;0.043730
1.664474;0.685219
1.679829;0.646665
1.697297;0.599318
1.719134;0.533459
1.771312;0.320084
1.797119;-0.101795
1.734159;-0.482383
1.602256;-0.820228
-0.497741;-1.729813
-1.100225;-1.424607
-1.749009;-0.425403
-1.050764;1.461470
-0.180413;1.790936
-0.687363;1.663590
-1.025296;1.479448
-1.297205;1.247902
-1.493801;1.004270
-1.618127;0.788457
-1.689841;0.620030
-1.728999;0.500562
1.396272;1.135969
1.399274;1.132269
1.407274;1.122311
1.388592;1.145344
1.538372;0.934565
1.792484;0.164320
1.784154;-0.238315
1.715900;-0.543770
0.000000;0.000000
-1.239987;-1.304773
-1.330308;1.212551
-0.352762;1.765095
-0.037983;1.799599
-0.299501;1.774908
-0.555241;1.712223
-0.811013;1.606941
-1.051197;1.461159
-1.252635;1.292635
-1.403773;1.126685
-1.507842;0.983063
1.131293;1.400063
1.130553;1.400660
1.173428;1.364942
1.260263;1.285199
1.496263;1.000597
1.714146;0.549275
1.789540;0.193767
1.799595;0.038201
1.771416;0.319509
0.135453;1.794896
-0.138444;1.794668
0.001653;1.799999
0.061351;1.798954
-0.059229;1.799025
-0.234808;1.784619
-0.430688;1.747715
-0.637302;1.683403
-0.839969;1.591996
-1.022114;1.481649
-1.172440;1.365790
0.900314;1.558664
0.881786;1.569221
0.847074;1.588227
1.134402;1.397545
1.332869;1.209736
1.507793;0.983138
1.591063;0.841736
1.520075;0.964039
1.091004;1.431681
0.462188;1.739650
0.223550;1.786064
0.234400;1.784673
0.280718;1.777976
0.118692;1.796082
-0.017633;1.799914
-0.166522;1.792281
-0.329475;1.769589
-0.500668;1.728968
-0.670192;1.670581
-0.827303;1.598615
0.698374;1.658998
0.684974;1.664575
0.756668;1.633234
0.936151;1.537407
1.102512;1.422838
1.221602;1.322002
1.239947;1.304811
1.094203;1.429237
0.785280;1.619671
0.495342;1.730502
0.356909;1.764261
0.328582;1.769755
0.314039;1.772394
0.233438;1.784799
0.131636;1.795180
0.015866;1.799930
-0.113058;1.796446
-0.252329;1.782226
-0.396681;1.755746
-0.539216;1.717337
0.501591;1.728701
0.550573;1.713730
0.596439;1.698311
0.734765;1.643204
0.868062;1.576854
0.951775;1.527784
0.945654;1.531581
0.832711;1.595805
0.658578;1.675194
0.512111;1.725614
0.434586;1.746750
0.398905;1.755242
0.374806;1.760545
0.317174;1.771835
0.237930;1.784206
0.144539;1.794187
0.039573;1.799565
-0.074921;1.798440
-0.195918;1.789306
-0.319253;1.771462
0.298458;1.775084
0.221624;1.786304
0.386934;1.757920
0.537921;1.717743
0.663722;1.673162
0.742017;1.639942
0.750053;1.636282
0.690889;1.662129
0.603297;1.695887
0.533731;1.719049
0.503551;1.728131
0.510991;1.725946
0.448195;1.743307
0.386664;1.757979
0.316876;1.771889
0.237376;1.784279
0.148864;1.793834
0.052502;1.799234
-0.049908;1.799308
-0.155825;1.793242
0.149496;1.793781
0.032904;1.799699
0.218212;1.786724
0.370050;1.761551
0.500011;1.729158
0.590356;1.700435
0.625838;1.687699
0.613622;1.692178
0.582254;1.703226
0.558069;1.711303
0.554923;1.712326
0.573200;1.706295
0.499387;1.729339
0.439060;1.745631
0.374987;1.760507
0.304687;1.774025
0.227827;1.785524
0.144864;1.794161
0.056827;1.799103
-0.034706;1.799665
0.064387;1.798848
0.010083;1.799972
0.104491;1.796965
0.237004;1.784329
0.373840;1.760751
0.482746;1.734058
0.546514;1.715029
0.571099;1.706999
0.579629;1.704121
0.590246;1.700473
0.573974;1.706035
0.559978;1.710680
0.527481;1.720977
0.474248;1.736401
0.415689;1.751343
0.352550;1.765137
0.284616;1.777356
0.212008;1.787471
0.135293;1.794908
0.055462;1.799145
-0.032398;1.799708
-0.042961;1.799487
-0.021006;1.799877
0.120442;1.795966
0.276280;1.778671
0.406488;1.753502
0.494194;1.730830
0.544706;1.715603
0.580377;1.703867
0.631973;1.685411
0.726848;1.646721
0.609035;1.693835
0.548106;1.714520
0.495660;1.730411
0.441857;1.744925
0.385020;1.758340
0.324586;1.770493
0.260486;1.781052
0.193032;1.789620
0.122869;1.795801
-0.159361;1.792932
-0.352938;1.765059
-0.194608;1.789449
0.016254;1.799927
0.205254;1.788259
0.354191;1.764808
0.457334;1.740932
0.520652;1.723056
0.559047;1.710984
0.607014;1.694560
0.664479;1.672862
0.600502;1.696879
0.550435;1.713774
0.503546;1.728132
0.455628;1.741380
0.405127;1.753816
0.351555;1.765335
0.294867;1.775684
0.235298;1.784554
0.173325;1.791636
-0.201772;1.788655
-0.458959;1.740505
-0.314064;1.772389
-0.034998;1.799660
0.170530;1.791904
0.323454;1.770700
0.429750;1.747946
0.494678;1.730691
0.518415;1.723730
0.454895;1.741571
0.524602;1.721857
0.557182;1.711592
0.534680;1.718754
0.499532;1.729297
0.459333;1.740406
0.415537;1.751379
0.368524;1.761871
0.318542;1.771590
0.265898;1.780252
0.211020;1.787588
