20;20;1.000000;1.000000
10.000000;10.000000
-0.259802;-1.781152
-0.247793;-1.782862
-0.231896;-1.785000
-0.214515;-1.787172
-0.210029;-1.787705
-0.252702;-1.782173
-0.369013;-1.761769
-0.555301;-1.712203
-0.793122;-1.615846
-1.047946;-1.463492
-1.277307;-1.268262
-1.453697;-1.061492
-1.574594;-0.872155
-1.652189;-0.714332
-1.700738;-0.589482
-1.731131;-0.493137
-1.750454;-0.419418
-1.763028;-0.362949
-1.771438;-0.319384
-1.777232;-0.285388
-0.174756;-1.791497
-0.172065;-1.791757
-0.157795;-1.793070
-0.128899;-1.795379
-0.092262;-1.797634
-0.117836;-1.796139
-0.254923;-1.781857
-0.472142;-1.736975
-0.752986;-1.634935
-1.053135;-1.459763
-1.312640;-1.231656
-1.498278;-0.997578
-1.615269;-0.794295
-1.684704;-0.633855
-1.725386;-0.512879
-1.749542;-0.423206
-1.764265;-0.356889
-1.773528;-0.307568
-1.779560;-0.270491
-1.783632;-0.242193
-0.085673;-1.797960
-0.104080;-1.796988
-0.103735;-1.797008
-0.077956;-1.798311
-0.024745;-1.799830
-0.036931;-1.799621
-0.187208;-1.790238
-0.429687;-1.747961
-0.754870;-1.634066
-1.099455;-1.425202
-1.378585;-1.157369
-1.559254;-0.899293
-1.662090;-0.690983
-1.718125;-0.536699
-1.748841;-0.426094
-1.766164;-0.347368
-1.776301;-0.291126
-1.782471;-0.250589
-1.786383;-0.220989
-1.788969;-0.198973
0.026444;-1.799806
-0.030241;-1.799746
-0.060430;-1.798985
-0.055695;-1.799138
-0.019970;-1.799889
-0.032425;-1.799708
-0.176669;-1.791309
-0.443441;-1.744523
-0.817737;-1.603529
-1.198642;-1.342854
-1.474230;-1.032785
-1.629974;-0.763665
-1.708932;-0.565287
-1.748418;-0.427826
-1.768751;-0.333945
-1.779686;-0.269660
-1.785841;-0.225325
-1.789462;-0.194493
-1.791687;-0.172794
-1.793122;-0.157210
0.201720;-1.788661
0.079204;-1.798257
-0.006685;-1.799988
-0.039071;-1.799576
-0.020462;-1.799884
-0.037437;-1.799611
-0.203370;-1.788474
-0.521378;-1.722836
-0.958499;-1.523574
-1.350908;-1.189558
-1.585921;-0.851384
-1.698074;-0.597113
-1.748652;-0.426870
-1.772076;-0.315826
-1.783510;-0.243088
-1.789405;-0.195014
-1.792595;-0.163105
-1.794395;-0.141944
-1.795451;-0.127891
-1.796102;-0.118396
0.520247;-1.723178
0.288387;-1.776748
0.095094;-1.797486
-0.009460;-1.799975
-0.020438;-1.799884
-0.046567;-1.799398
-0.265544;-1.780305
-0.684250;-1.664873
-1.186811;-1.353322
-1.530804;-0.946911
-1.687867;-0.625383
-1.750696;-0.418408
-1.776360;-0.290768
-1.787564;-0.211221
-1.792809;-0.160734
-1.795413;-0.128426
-1.796758;-0.107977
-1.797467;-0.095453
-1.797842;-0.088110
-1.798045;-0.083878
1.073494;-1.444856
0.734020;-1.643537
0.336717;-1.768226
0.064551;-1.798842
-0.016877;-1.799921
-0.062388;-1.798918
-0.392296;-1.756731
-0.978774;-1.510629
-1.471175;-1.037133
-1.684476;-0.634459
-1.756850;-0.391764
-1.782055;-0.253531
-1.791700;-0.172655
-1.795754;-0.123564
-1.797595;-0.093020
-1.798477;-0.074040
-1.798903;-0.062819
-1.799095;-0.057059
-1.799162;-0.054926
-1.799168;-0.054719
1.621712;-0.781056
1.439891;-1.080145
0.946358;-1.531145
0.289401;-1.776583
-0.001314;-1.799999
-0.095487;-1.797465
-0.683432;-1.665209
-1.415595;-1.111796
-1.698516;-0.595856
-1.769685;-0.328959
-1.789323;-0.195764
-1.795695;-0.124415
-1.798061;-0.083530
-1.799035;-0.058917
-1.799469;-0.043706
-1.799670;-0.034451
-1.799758;-0.029504
-1.799780;-0.028102
-1.799761;-0.029304
-1.799723;-0.031560
1.789533;-0.193835
1.775727;-0.294606
1.691636;-0.615116
1.094138;-1.429287
0.067933;-1.798718
-0.199878;-1.788868
-1.363283;-1.175355
-1.741208;-0.456282
-1.787869;-0.208621
-1.796547;-0.111434
-1.798803;-0.065619
-1.799526;-0.041285
-1.799793;-0.027304
-1.799901;-0.018836
-1.799949;-0.013559
-1.799970;-0.010326
-1.799979;-0.008738
-1.799977;-0.009153
-1.799962;-0.011622
-1.799942;-0.014449
1.799777;0.028306
1.799881;0.020695
1.799995;-0.004314
1.796999;-0.103901
0.918933;-1.547760
-1.193515;-1.347413
-1.795381;-0.128866
-1.799520;-0.041557
-1.799900;-0.018939
-1.799973;-0.009946
-1.799991;-0.005594
-1.799997;-0.003236
-1.799999;-0.001861
-1.800000;-0.001019
-1.800000;-0.000484
-1.800000;-0.000140
-1.800000;0.000062
-1.800000;-0.000111
-1.799999;-0.001394
-1.799998;-0.002352
1.798859;0.064070
1.798478;0.074017
1.796912;0.105397
1.784836;0.233151
0.735374;1.642932
-0.990408;1.503027
-1.791590;0.173800
-1.799071;0.057815
-1.799787;0.027665
-1.799932;0.015632
-1.799973;0.009783
-1.799988;0.006595
-1.799994;0.004723
-1.799996;0.003564
-1.799998;0.002821
-1.799998;0.002340
-1.799999;0.002071
-1.799998;0.002498
-1.799992;0.005247
-1.799983;0.007821
1.777601;0.283078
1.759082;0.381616
1.659071;0.698200
1.054639;1.458676
0.079537;1.798242
-0.181962;1.790779
-1.314384;1.229795
-1.729903;0.497428
-1.785111;0.231038
-1.795643;0.125162
-1.798437;0.074989
-1.799353;0.048244
-1.799701;0.032826
-1.799847;0.023460
-1.799914;0.017612
-1.799945;0.014047
-1.799958;0.012375
-1.799952;0.013121
-1.799924;0.016491
-1.799883;0.020541
1.594550;0.835111
1.419285;1.107082
0.947580;1.530389
0.307306;1.773573
0.011712;1.799962
-0.084781;1.798002
-0.657571;1.675589
-1.389899;1.143757
-1.688235;0.624389
-1.765905;0.348680
-1.787748;0.209660
-1.794945;0.134799
-1.797660;0.091748
-1.798798;0.065764
-1.799314;0.049689
-1.799557;0.039943
-1.799663;0.034847
-1.799685;0.033674
-1.799650;0.035488
-1.799585;0.038637
1.073876;1.444573
0.754291;1.634333
0.362603;1.763099
0.083556;1.798060
-0.004513;1.799994
-0.053260;1.799212
-0.378690;1.759714
-0.958939;1.523298
-1.455701;1.058742
-1.676647;0.654870
-1.753132;0.408076
-1.780169;0.266454
-1.790652;0.183211
-1.795115;0.132528
-1.797167;0.100948
-1.798161;0.081355
-1.798643;0.069889
-1.798854;0.064223
-1.798915;0.062495
-1.798899;0.062938
0.547931;1.714576
0.318231;1.771646
0.118847;1.796072
0.006997;1.799986
-0.008522;1.799980
-0.038214;1.799594
-0.256201;1.781674
-0.672545;1.669635
-1.173848;1.364581
-1.521013;0.962558
-1.681996;0.641007
-1.747316;0.432304
-1.774336;0.302873
-1.786270;0.221902
-1.791916;0.170398
-1.794745;0.137444
-1.796214;0.116680
-1.796985;0.104143
-1.797382;0.097053
-1.797581;0.093290
0.233394;1.784804
0.106184;1.796865
0.013543;1.799949
-0.024329;1.799836
-0.008784;1.799978
-0.029636;1.799756
-0.196322;1.789262
-0.514826;1.724805
-0.950784;1.528401
-1.342593;1.198935
-1.579172;0.863838
-1.693396;0.610253
-1.745524;0.439485
-1.769936;0.327608
-1.781973;0.254113
-1.788232;0.205488
-1.791641;0.173270
-1.793567;0.152041
-1.794691;0.138141
-1.795372;0.128987
0.055883;1.799132
-0.006571;1.799988
-0.042589;1.799496
-0.042063;1.799508
-0.008386;1.799981
-0.025316;1.799822
-0.172028;1.791761
-0.440792;1.745194
-0.814628;1.605111
-1.193405;1.347510
-1.468128;1.041442
-1.624658;0.774910
-1.704852;0.577477
-1.745380;0.440054
-1.766455;0.345885
-1.777886;0.281282
-1.784364;0.236736
-1.788191;0.205846
-1.790545;0.184255
-1.792055;0.168933
-0.058891;1.799036
-0.082860;1.798092
-0.087677;1.797863
-0.065767;1.798798
-0.013921;1.799946
-0.033144;1.799695
-0.186602;1.790302
-0.430636;1.747728
-0.755109;1.633955
-1.096975;1.427111
-1.373798;1.163048
-1.553934;0.908455
-1.657365;0.702241
-1.714273;0.548880
-1.745758;0.438551
-1.763665;0.359839
-1.774219;0.303556
-1.780678;0.263034
-1.784785;0.233547
-1.787501;0.211755
-0.150082;1.793732
-0.152649;1.793515
-0.143362;1.794282
-0.119187;1.796050
-0.088821;1.797807
-0.120601;1.795955
-0.258186;1.781387
-0.475526;1.736051
-0.755001;1.634006
-1.052223;1.460420
-1.308905;1.235624
-1.493190;1.005178
-1.610155;0.804612
-1.680173;0.645769
-1.721554;0.525596
-1.746325;0.436288
-1.761531;0.370145
-1.771155;0.320953
-1.777449;0.284034
-1.781709;0.255958
-0.236613;1.784381
-0.229621;1.785294
-0.218629;1.786673
-0.206239;1.788146
-0.207166;1.788039
-0.254332;1.781941
-0.372523;1.761030
-0.558867;1.711043
-0.795170;1.614839
-1.047271;1.463975
-1.273916;1.271667
-1.448690;1.068315
-1.569175;0.881868
-1.647085;0.726024
-1.696218;0.602365
-1.727211;0.506695
-1.747054;0.433363
-1.760044;0.377154
-1.768776;0.333815
-1.774814;0.300062
