20;20;1.000000;1.000000
10.000000;10.000000
0.949393;-1.529266
0.773222;-1.625462
0.583586;-1.702770
0.398777;-1.755271
0.237076;-1.784319
0.110771;-1.796588
0.024394;-1.799835
-0.023410;-1.799848
-0.036976;-1.799620
-0.034329;-1.799673
-0.082271;-1.798119
-0.171497;-1.791811
-0.307478;-1.773544
-0.489449;-1.732178
-0.705114;-1.656144
-0.929957;-1.541162
-1.135936;-1.396298
-1.304341;-1.240441
-1.430958;-1.091953
-1.521520;-0.961757
1.126263;-1.404113
0.945402;-1.531736
0.733023;-1.643982
0.511500;-1.725795
0.309729;-1.773152
0.150103;-1.793730
0.041867;-1.799513
-0.016748;-1.799922
-0.034244;-1.799674
-0.034066;-1.799678
-0.078355;-1.798294
-0.174339;-1.791537
-0.330372;-1.769422
-0.544098;-1.715796
-0.794657;-1.615091
-1.044062;-1.466266
-1.255978;-1.289387
-1.414601;-1.113060
-1.524168;-0.957555
-1.597090;-0.830242
1.319598;-1.224199
1.154114;-1.381311
0.933964;-1.538737
0.676882;-1.667882
0.423305;-1.749518
0.214533;-1.787170
0.071346;-1.798586
-0.006943;-1.799987
-0.033144;-1.799695
-0.035390;-1.799652
-0.086494;-1.797921
-0.198641;-1.789006
-0.385957;-1.758134
-0.642748;-1.681331
-0.931596;-1.540172
-1.195388;-1.345752
-1.395526;-1.136885
-1.529279;-0.949372
-1.613240;-0.798409
-1.665140;-0.683601
1.504150;-0.988703
1.379055;-1.156809
1.183995;-1.355786
0.913160;-1.551173
0.603201;-1.695921
0.322964;-1.770789
0.122268;-1.795843
0.009468;-1.799975
-0.031717;-1.799721
-0.037463;-1.799610
-0.103586;-1.797017
-0.248187;-1.782808
-0.487451;-1.732741
-0.801849;-1.611533
-1.121871;-1.407624
-1.373899;-1.162927
-1.537496;-0.936005
-1.633516;-0.756058
-1.688286;-0.624251
-1.719873;-0.531072
1.649143;-0.721337
1.577235;-0.867370
1.444944;-1.073376
1.215496;-1.327618
0.879474;-1.570518
0.509013;-1.726530
0.213157;-1.787334
0.038568;-1.799587
-0.029169;-1.799764
-0.040727;-1.799539
-0.133560;-1.795038
-0.336644;-1.768239
-0.658697;-1.675147
-1.035775;-1.472131
-1.351082;-1.189359
-1.549959;-0.915219
-1.657578;-0.701737
-1.713345;-0.551770
-1.742609;-0.450902
-1.758454;-0.384500
1.738929;-0.464894
1.709547;-0.563427
1.647527;-0.725019
1.514606;-0.972608
1.247305;-1.297779
0.824397;-1.600115
0.385001;-1.758344
0.094361;-1.797525
-0.024174;-1.799837
-0.046292;-1.799405
-0.188350;-1.790118
-0.496871;-1.730063
-0.933631;-1.538939
-1.329686;-1.213233
-1.569070;-0.882055
-1.684961;-0.633171
-1.738195;-0.467630
-1.763278;-0.361734
-1.775601;-0.295367
-1.781829;-0.255118
1.781619;-0.256578
1.773643;-0.306906
1.754702;-0.401275
1.708019;-0.568040
1.586035;-0.851172
1.278769;-1.266787
0.726641;-1.646813
0.215490;-1.787055
-0.013326;-1.799951
-0.057119;-1.799093
-0.300828;-1.774684
-0.797660;-1.613611
-1.312613;-1.231685
-1.599532;-0.825528
-1.715743;-0.544267
-1.760968;-0.372816
-1.779704;-0.269543
-1.788049;-0.207073
-1.791928;-0.170279
-1.793674;-0.150783
1.796519;-0.111890
1.795299;-0.130002
1.791835;-0.171247
1.782614;-0.249577
1.755445;-0.398013
1.661685;-0.691955
1.313974;-1.230233
0.533223;-1.719207
0.015353;-1.799935
-0.083374;-1.798068
-0.577969;-1.704685
-1.302776;-1.242084
-1.648977;-0.721717
-1.749843;-0.421959
-1.780420;-0.264770
-1.791167;-0.178105
-1.795461;-0.127745
-1.797334;-0.097926
-1.798160;-0.081374
-1.798437;-0.074996
1.799775;-0.028463
1.799713;-0.032128
1.799453;-0.044368
1.798717;-0.067933
1.796459;-0.112843
1.787996;-0.207536
1.743467;-0.447574
1.374885;-1.161762
0.136922;-1.794785
-0.183607;-1.790611
-1.311451;-1.232922
-1.724418;-0.516124
-1.782569;-0.249892
-1.794418;-0.141653
-1.797789;-0.089183
-1.798980;-0.060575
-1.799466;-0.043819
-1.799683;-0.033762
-1.799778;-0.028289
-1.799789;-0.027574
1.799996;0.003759
1.799997;0.003405
1.799998;0.002545
1.800000;0.000992
1.799999;-0.001930
1.799982;-0.008018
1.799850;-0.023262
1.798276;-0.078751
0.000000;0.000000
0.000000;0.000000
-1.795446;-0.127956
-1.799321;-0.049419
-1.799802;-0.026689
-1.799918;-0.017155
-1.799958;-0.012310
-1.799975;-0.009552
-1.799983;-0.007866
-1.799987;-0.006794
-1.799990;-0.006129
-1.799990;-0.006056
1.799962;0.011642
1.799959;0.012106
1.799941;0.014589
1.799901;0.018924
1.799803;0.026633
1.799514;0.041828
1.798311;0.077948
1.788476;0.203352
0.000000;0.000000
0.000000;0.000000
-1.791449;0.175248
-1.799064;0.058031
-1.799819;0.025497
-1.799957;0.012415
-1.799990;0.006041
-1.799998;0.002559
-1.800000;0.000513
-1.800000;-0.000740
-1.799999;-0.001488
-1.799999;-0.001586
1.799021;0.059363
1.798894;0.063081
1.798233;0.079745
1.796507;0.112084
1.791677;0.172901
1.775116;0.298264
1.696844;0.600599
1.203030;1.338924
0.140598;1.794501
-0.166182;1.792312
-1.286389;1.259048
-1.718178;0.536529
-1.781741;0.255736
-1.794512;0.140456
-1.798007;0.084685
-1.799176;0.054470
-1.799621;0.036913
-1.799805;0.026458
-1.799880;0.020781
-1.799891;0.019802
1.792768;0.161195
1.790834;0.181422
1.785172;0.230566
1.770621;0.323883
1.730081;0.496809
1.602031;0.820669
1.201892;1.339946
0.484584;1.733545
0.055993;1.799129
-0.050442;1.799293
-0.570474;1.707208
-1.303402;1.241427
-1.650257;0.718786
-1.751066;0.416854
-1.781380;0.258232
-1.791879;0.170791
-1.795992;0.120046
-1.797747;0.090029
-1.798507;0.073296
-1.798769;0.066545
1.770364;0.325284
1.759353;0.380365
1.733456;0.484903
1.672180;0.666194
1.523334;0.958882
1.190759;1.349849
0.671586;1.670022
0.227729;1.785536
0.034450;1.799670
-0.017948;1.799910
-0.282359;1.777716
-0.800961;1.611974
-1.323527;1.219950
-1.607086;0.810725
-1.719978;0.530732
-1.763450;0.360896
-1.781304;0.258760
-1.789191;0.196962
-1.792835;0.160441
-1.794482;0.140830
1.714234;0.549001
1.677769;0.651989
1.603080;0.818618
1.451894;1.063957
1.172844;1.365443
0.771584;1.626240
0.380241;1.759380
0.126670;1.795537
0.026388;1.799806
-0.004190;1.799995
-0.161306;1.792758
-0.490897;1.731768
-0.946270;1.531200
-1.346327;1.194740
-1.580727;0.860989
-1.691920;0.614334
-1.742442;0.451547
-1.766106;0.347663
-1.777694;0.282493
-1.783551;0.242786
1.607770;0.809367
1.526782;0.953382
1.384008;1.150879
1.150864;1.384020
0.831114;1.596637
0.495293;1.730516
0.232766;1.784887
0.079440;1.798246
0.022844;1.799855
0.002985;1.799997
-0.101409;1.797141
-0.322153;1.770937
-0.664701;1.672774
-1.054941;1.458458
-1.370506;1.166925
-1.563837;0.891300
-1.666556;0.680140
-1.719283;0.532979
-1.746831;0.434259
-1.761723;0.369234
1.450838;1.065396
1.321338;1.222320
1.127613;1.403029
0.870292;1.575624
0.585908;1.701973
0.333464;1.768842
0.154099;1.793392
0.054777;1.799166
0.021183;1.799875
0.007198;1.799986
-0.068565;1.798694
-0.228229;1.785472
-0.486192;1.733095
-0.816989;1.603910
-1.143916;1.389769
-1.393706;1.139116
-1.552073;0.911630
-1.643685;0.733688
-1.695543;0.604262
-1.725343;0.513023
1.265873;1.279674
1.104796;1.421065
0.896738;1.560724
0.659502;1.674830
0.428576;1.748234
0.239289;1.784024
0.110079;1.796631
0.041009;1.799533
0.020389;1.799884
0.009765;1.799973
-0.050310;1.799297
-0.175884;1.791386
-0.379408;1.759559
-0.651929;1.677793
-0.951011;1.528260
-1.217012;1.326228
-1.414054;1.113755
-1.543444;0.926165
-1.623783;0.776742
-1.673141;0.663777
1.082762;1.437925
0.913160;1.551173
0.717133;1.650976
0.514444;1.724920
0.330093;1.769474
0.183973;1.790573
0.085171;1.797984
0.033053;1.799696
0.019929;1.799890
0.010922;1.799967
-0.042904;1.799489
-0.150790;1.793673
-0.320298;1.771273
-0.547592;1.714684
-0.808836;1.608037
-1.063411;1.452294
-1.275218;1.270361
-1.430982;1.091921
-1.537206;0.936481
-1.607322;0.810257
0.921120;1.546459
0.759057;1.632125
0.585557;1.702094
0.416444;1.751164
0.267834;1.779962
0.151174;1.793640
0.071387;1.798584
0.028071;1.799781
0.018051;1.799909
0.006717;1.799987
-0.049148;1.799329
-0.147703;1.793930
-0.294461;1.775751
-0.487694;1.732673
-0.713243;1.652660
-0.944558;1.532256
-1.152863;1.382356
-1.320483;1.223243
-1.444890;1.073448
-1.533035;0.943295
