20;20;1.000000;1.000000
10.000000;10.000000
0.041900;-1.799512
0.011938;-1.799960
-0.006965;-1.799986
-0.014378;-1.799943
-0.013041;-1.799953
-0.026177;-1.799810
-0.054305;-1.799181
-0.098379;-1.797310
-0.158089;-1.793044
-0.231245;-1.785084
-0.314103;-1.772382
-0.402180;-1.754494
-0.491209;-1.731679
-0.577851;-1.704725
-0.659980;-1.674642
-0.736580;-1.642391
-0.807449;-1.608734
-0.872875;-1.574195
-0.933378;-1.539092
-0.989542;-1.503598
0.061913;-1.798935
0.022323;-1.799862
-0.002808;-1.799998
-0.013268;-1.799951
-0.013144;-1.799952
-0.026372;-1.799807
-0.058005;-1.799065
-0.111019;-1.796573
-0.184741;-1.790495
-0.275229;-1.778834
-0.376156;-1.760257
-0.480492;-1.734684
-0.582270;-1.703221
-0.677595;-1.667592
-0.764684;-1.629496
-0.843311;-1.590228
-0.914138;-1.550597
-0.978182;-1.511013
-1.036500;-1.471621
-1.090034;-1.432419
0.095798;-1.797449
0.040657;-1.799541
0.004555;-1.799994
-0.011889;-1.799961
-0.013310;-1.799951
-0.029851;-1.799752
-0.069886;-1.798643
-0.138307;-1.794678
-0.233984;-1.784727
-0.349691;-1.765705
-0.474416;-1.736355
-0.597252;-1.698025
-0.710617;-1.653791
-0.811148;-1.606873
-0.898688;-1.559603
-0.974760;-1.513222
-1.041397;-1.468159
-1.100525;-1.424375
-1.153730;-1.381632
-1.202225;-1.339647
0.156046;-1.793223
0.074451;-1.798460
0.018404;-1.799906
-0.009270;-1.799976
-0.013538;-1.799949
-0.036543;-1.799629
-0.093389;-1.797576
-0.190041;-1.789940
-0.322387;-1.770894
-0.475431;-1.736078
-0.629388;-1.686378
-0.768718;-1.627597
-0.886674;-1.566464
-0.983645;-1.507462
-1.063316;-1.452363
-1.129896;-1.401191
-1.186916;-1.353229
-1.236990;-1.307615
-1.281924;-1.263595
-1.322932;-1.220595
0.269226;-1.779752
0.140394;-1.794516
0.045987;-1.799412
-0.003833;-1.799996
-0.013850;-1.799947
-0.048798;-1.799338
-0.138460;-1.794667
-0.288561;-1.776720
-0.483325;-1.733896
-0.687477;-1.663543
-0.867073;-1.577398
-1.007668;-1.491511
-1.112306;-1.415194
-1.190494;-1.350083
-1.251137;-1.294085
-1.300578;-1.244386
-1.342850;-1.198646
-1.380383;-1.155224
-1.414595;-1.113068
-1.446300;-1.071549
0.494814;-1.730653
0.280302;-1.778041
0.105964;-1.796878
0.008279;-1.799981
-0.014277;-1.799943
-0.072965;-1.798520
-0.231247;-1.785084
-0.486485;-1.733013
-0.778051;-1.623156
-1.024707;-1.479856
-1.193160;-1.347727
-1.297688;-1.247400
-1.363142;-1.175518
-1.407586;-1.121918
-1.441315;-1.078245
-1.469647;-1.039297
-1.495184;-1.002211
-1.519126;-0.965534
-1.541976;-0.928607
-1.563896;-0.891195
0.940396;-1.534814
0.605051;-1.695262
0.254921;-1.781857
0.038385;-1.799591
-0.014864;-1.799939
-0.127798;-1.795458
-0.446425;-1.743762
-0.890857;-1.564089
-1.246934;-1.298135
-1.439115;-1.081179
-1.525898;-0.954795
-1.563758;-0.891437
-1.582046;-0.858563
-1.593760;-0.836618
-1.604148;-0.816522
-1.615053;-0.794734
-1.626892;-0.770210
-1.639527;-0.742933
-1.652639;-0.713291
-1.665887;-0.681777
1.534304;-0.941228
1.274949;-1.270632
0.691764;-1.661765
0.131230;-1.795210
-0.015692;-1.799932
-0.287631;-1.776870
-0.981970;-1.508554
-1.488153;-1.012620
-1.663936;-0.686525
-1.715307;-0.545637
-1.726535;-0.508995
-1.724682;-0.515239
-1.720422;-0.529291
-1.717755;-0.537881
-1.717696;-0.538070
-1.720080;-0.530401
-1.724363;-0.516308
-1.729950;-0.497265
-1.736316;-0.474560
-1.743039;-0.449237
1.782268;-0.252034
1.757990;-0.386613
1.597717;-0.829036
0.626368;-1.687502
-0.017575;-1.799914
-0.987396;-1.505008
-1.685877;-0.630729
-1.774065;-0.304456
-1.789598;-0.193234
-1.792344;-0.165840
-1.789977;-0.189692
-1.785765;-0.225929
-1.782197;-0.252531
-1.780143;-0.266629
-1.779613;-0.270145
-1.780307;-0.265531
-1.781858;-0.254915
-1.783931;-0.239977
-1.786256;-0.222010
-1.788630;-0.201993
1.799960;0.012008
1.799992;0.005211
1.799931;-0.015797
1.796935;-0.104993
0.000000;0.000000
-1.796993;-0.103994
-1.799447;-0.044591
-1.799734;-0.030960
-1.799814;-0.025896
-1.799827;-0.024962
-1.799688;-0.033526
-1.799604;-0.037743
-1.799640;-0.035977
-1.799755;-0.029688
-1.799888;-0.020095
-1.799981;-0.008154
-1.799992;0.005404
-1.799889;0.020019
-1.799654;0.035274
-1.799281;0.050864
1.798745;0.067207
1.797763;0.089701
1.792290;0.166427
1.713406;0.551580
-0.009716;1.799974
-1.752000;0.412912
-1.796670;0.109435
-1.799464;0.043942
-1.799887;0.020183
-1.799889;0.020021
-1.798739;0.067351
-1.795955;0.120613
-1.792570;0.163383
-1.789185;0.197020
-1.786049;0.223674
-1.783233;0.245111
-1.780732;0.262667
-1.778506;0.277339
-1.776507;0.289866
-1.774689;0.300795
1.748263;0.428460
1.694896;0.606077
1.413507;1.114449
0.464361;1.739071
0.010162;1.799971
-0.626881;1.687311
-1.530842;0.946849
-1.736028;0.475611
-1.775185;0.297855
-1.782274;0.251991
-1.777334;0.284753
-1.766592;0.345185
-1.754747;0.401078
-1.744165;0.444846
-1.735601;0.477167
-1.729062;0.500344
-1.724273;0.516607
-1.720888;0.527774
-1.718582;0.535234
-1.717079;0.540037
1.406164;1.123700
1.124281;1.405700
0.599762;1.697140
0.140286;1.794525
0.010368;1.799970
-0.194445;1.789467
-0.760777;1.631324
-1.308825;1.235708
-1.562748;0.893206
-1.648844;0.722021
-1.670204;0.671133
-1.667470;0.677896
-1.657471;0.701991
-1.647163;0.725848
-1.638991;0.744117
-1.633465;0.756169
-1.630358;0.762844
-1.629214;0.765285
-1.629561;0.764547
-1.630983;0.761507
0.839254;1.592373
0.548609;1.714359
0.250437;1.782493
0.060762;1.798974
0.010545;1.799969
-0.081507;1.798154
-0.341854;1.767240
-0.725065;1.647508
-1.075398;1.443440
-1.294556;1.250650
-1.404290;1.126042
-1.453773;1.061388
-1.475397;1.031118
-1.485553;1.016431
-1.491708;1.007376
-1.497012;0.999478
-1.502645;0.990989
-1.508926;0.981398
-1.515819;0.970717
-1.523162;0.959154
0.461901;1.739726
0.276167;1.778688
0.122119;1.795853
0.032810;1.799701
0.010721;1.799968
-0.039070;1.799576
-0.173489;1.791620
-0.390886;1.757045
-0.647761;1.679406
-0.879428;1.570543
-1.049134;1.462641
-1.159610;1.376701
-1.229288;1.314858
-1.274742;1.270839
-1.306692;1.237964
-1.331249;1.211518
-1.351709;1.188647
-1.369804;1.167749
-1.386422;1.147969
-1.402007;1.128883
0.268732;1.779827
0.153979;1.793402
0.067941;1.798717
0.021170;1.799875
0.010881;1.799967
-0.019552;1.799894
-0.098026;1.797329
-0.228693;1.785413
-0.398937;1.755235
-0.580828;1.703713
-0.745739;1.638253
-0.878731;1.570933
-0.979430;1.510204
-1.054504;1.458774
-1.111471;1.415850
-1.156265;1.379511
-1.192959;1.347905
-1.224188;1.319607
-1.251607;1.293631
-1.276249;1.269326
0.169075;1.792042
0.094596;1.797513
0.042342;1.799502
0.015832;1.799930
0.011018;1.799966
-0.009430;1.799975
-0.060347;1.798988
-0.146344;1.794041
-0.263504;1.780608
-0.399181;1.755179
-0.536825;1.718086
-0.662879;1.673497
-0.770621;1.626697
-0.859396;1.581594
-0.931787;1.540056
-0.991267;1.502461
-1.041003;1.468439
-1.083485;1.437379
-1.120541;1.408683
-1.153462;1.381855
0.114903;1.796329
0.063594;1.798876
0.029294;1.799762
0.013222;1.799951
0.011130;1.799966
-0.003866;1.799996
-0.040432;1.799546
-0.102398;1.797085
-0.188255;1.790128
-0.291480;1.776243
-0.402564;1.754407
-0.512112;1.725613
-0.613394;1.692261
-0.703150;1.656979
-0.780901;1.621787
-0.847748;1.587868
-0.905390;1.555721
-0.955548;1.525427
-0.999712;1.496855
-1.039081;1.469800
0.084058;1.798036
0.046662;1.799395
0.022354;1.799861
0.011851;1.799961
0.011215;1.799965
-0.001095;1.800000
-0.030480;1.799742
-0.079089;1.798262
-0.145909;1.794077
-0.227200;1.785604
-0.317308;1.771811
-0.410083;1.752664
-0.500291;1.729077
-0.584445;1.702476
-0.660857;1.674296
-0.729210;1.645677
-0.790015;1.617367
-0.844150;1.589783
-0.892580;1.563106
-0.936202;1.537376
0.065757;1.798798
0.037148;1.799617
0.018577;1.799904
0.010816;1.799967
0.011201;1.799965
-0.001510;1.799999
-0.027792;1.799785
-0.068415;1.798699
-0.122838;1.795804
-0.188883;1.790062
-0.263098;1.780668
-0.341467;1.767314
-0.420208;1.750264
-0.496358;1.730211
-0.568008;1.708030
-0.634217;1.684568
-0.694774;1.660509
-0.749923;1.636342
-0.800137;1.612383
-0.845975;1.588813
