20;20;1.000000;1.000000
10.000000;10.000000
-0.273256;-1.779138
-0.235145;-1.784575
-0.190886;-1.789850
-0.137079;-1.794773
-0.070585;-1.798615
-0.061208;-1.798959
-0.185460;-1.790420
-0.362014;-1.763220
-0.593217;-1.699439
-0.860719;-1.580874
-1.125080;-1.405061
-1.345936;-1.195180
-1.505846;-0.986117
-1.611096;-0.802727
-1.677128;-0.653637
-1.718000;-0.537099
-1.743480;-0.447525
-1.759654;-0.378968
-1.770168;-0.326349
-1.777187;-0.285671
-0.220338;-1.786463
-0.193212;-1.789600
-0.157923;-1.793059
-0.111470;-1.796545
-0.056506;-1.799113
-0.051742;-1.799256
-0.160957;-1.792789
-0.343503;-1.766920
-0.598304;-1.697655
-0.898223;-1.559870
-1.186808;-1.353325
-1.412988;-1.115107
-1.564002;-0.891009
-1.655905;-0.705676
-1.709884;-0.562402
-1.741588;-0.454832
-1.760551;-0.374780
-1.772197;-0.315147
-1.779566;-0.270455
-1.784376;-0.236650
-0.161354;-1.792753
-0.153633;-1.793432
-0.135181;-1.794917
-0.102129;-1.797100
-0.056172;-1.799123
-0.054948;-1.799161
-0.167662;-1.792174
-0.364468;-1.762715
-0.650133;-1.678490
-0.983751;-1.507393
-1.285364;-1.260095
-1.499473;-0.995782
-1.628397;-0.767023
-1.700358;-0.590578
-1.739937;-0.461107
-1.762069;-0.367577
-1.774817;-0.300041
-1.782412;-0.251016
-1.787094;-0.215161
-1.790083;-0.188690
-0.077107;-1.798348
-0.101504;-1.797136
-0.110390;-1.796612
-0.095947;-1.797441
-0.057361;-1.799086
-0.060421;-1.798986
-0.191413;-1.789794
-0.423048;-1.749580
-0.756895;-1.633129
-1.122698;-1.406964
-1.414733;-1.112892
-1.594223;-0.835735
-1.689967;-0.619688
-1.738976;-0.464717
-1.764375;-0.356345
-1.777988;-0.280637
-1.785578;-0.227397
-1.789977;-0.189690
-1.792619;-0.162838
-1.794262;-0.143607
0.071802;-1.798567
-0.008899;-1.799978
-0.067084;-1.798749
-0.085041;-1.797990
-0.058539;-1.799048
-0.068230;-1.798706
-0.233511;-1.784789
-0.529653;-1.720310
-0.932024;-1.539913
-1.310177;-1.234276
-1.555209;-0.906270
-1.680597;-0.644665
-1.739737;-0.461861
-1.767812;-0.338882
-1.781685;-0.256121
-1.788878;-0.199789
-1.792782;-0.161031
-1.794988;-0.134235
-1.796274;-0.115760
-1.797044;-0.103109
0.372410;-1.761054
0.189136;-1.790036
0.029302;-1.799761
-0.057734;-1.799074
-0.058505;-1.799049
-0.079815;-1.798230
-0.307055;-1.773617
-0.713960;-1.652350
-1.185878;-1.354139
-1.516168;-0.970172
-1.676212;-0.655982
-1.744026;-0.445393
-1.772927;-0.311015
-1.785921;-0.224690
-1.792137;-0.168063
-1.795286;-0.130184
-1.796961;-0.104558
-1.797883;-0.087269
-1.798401;-0.075859
-1.798691;-0.068640
0.959340;-1.523045
0.649977;-1.678550
0.277759;-1.778440
0.017768;-1.799912
-0.054615;-1.799171
-0.099261;-1.797261
-0.450222;-1.742785
-1.028099;-1.477502
-1.484074;-1.018590
-1.683050;-0.638235
-1.754072;-0.404018
-1.780176;-0.266410
-1.790632;-0.183406
-1.795197;-0.131412
-1.797344;-0.097747
-1.798419;-0.075428
-1.798983;-0.060491
-1.799288;-0.050643
-1.799449;-0.044534
-1.799527;-0.041257
1.596390;-0.831589
1.426580;-1.097665
0.944452;-1.532322
0.264644;-1.780439
-0.038077;-1.799597
-0.141089;-1.794462
-0.781051;-1.621715
-1.467999;-1.041624
-1.708779;-0.565752
-1.770864;-0.322553
-1.789053;-0.198212
-1.795326;-0.129636
-1.797790;-0.089175
-1.798860;-0.064039
-1.799365;-0.047820
-1.799618;-0.037086
-1.799751;-0.029920
-1.799823;-0.025252
-1.799859;-0.022551
-1.799871;-0.021579
1.786612;-0.219129
1.775206;-0.297732
1.708318;-0.567142
1.199073;-1.342469
0.045437;-1.799426
-0.301309;-1.774602
-1.494469;-1.003276
-1.757360;-0.389471
-1.790199;-0.187586
-1.796893;-0.105715
-1.798795;-0.065848
-1.799461;-0.044061
-1.799729;-0.031219
-1.799850;-0.023242
-1.799909;-0.018099
-1.799940;-0.014695
-1.799957;-0.012411
-1.799967;-0.010897
-1.799972;-0.010003
-1.799973;-0.009804
1.799898;-0.019136
1.799856;-0.022765
1.799677;-0.034114
1.798326;-0.077610
0.000000;0.000000
0.000000;0.000000
-1.798650;-0.069701
-1.799762;-0.029278
-1.799919;-0.017025
-1.799961;-0.011876
-1.799976;-0.009333
-1.799982;-0.007957
-1.799986;-0.007171
-1.799988;-0.006708
-1.799989;-0.006430
-1.799989;-0.006264
-1.799989;-0.006164
-1.799990;-0.006102
-1.799990;-0.006053
-1.799991;-0.005850
1.799796;0.027108
1.799581;0.038843
1.798023;0.084347
1.782155;0.252831
0.000000;0.000000
0.000000;0.000000
-1.789707;0.192222
-1.798661;0.069407
-1.799702;0.032758
-1.799919;0.017058
-1.799978;0.008973
-1.799995;0.004314
-1.799999;0.001417
-1.800000;-0.000485
-1.799999;-0.001785
-1.799998;-0.002699
-1.799997;-0.003350
-1.799996;-0.003802
-1.799995;-0.004034
-1.799997;-0.003360
1.767109;0.342527
1.742324;0.452004
1.605086;0.814677
0.910576;1.552691
0.011627;1.799962
-0.283493;1.777535
-1.350780;1.189703
-1.722272;0.523238
-1.781124;0.259993
-1.793964;0.147282
-1.797712;0.090729
-1.799032;0.059015
-1.799559;0.039819
-1.799789;0.027554
-1.799895;0.019412
-1.799946;0.013879
-1.799972;0.010121
-1.799983;0.007738
-1.799987;0.006793
-1.799982;0.008139
1.467650;1.042115
1.255077;1.290264
0.763676;1.629969
0.195681;1.789332
-0.047433;1.799375
-0.155487;1.793272
-0.721555;1.649048
-1.383396;1.151614
-1.670246;0.671028
-1.755759;0.396625
-1.782745;0.248633
-1.792476;0.164403
-1.796417;0.113508
-1.798166;0.081228
-1.798999;0.060013
-1.799418;0.045779
-1.799635;0.036263
-1.799745;0.030280
-1.799791;0.027414
-1.799786;0.027724
0.796453;1.614206
0.526890;1.721159
0.215677;1.787032
-0.001708;1.799999
-0.062297;1.798922
-0.114855;1.796332
-0.438093;1.745874
-0.965737;1.518997
-1.420301;1.105778
-1.646767;0.726746
-1.736215;0.474927
-1.771306;0.320115
-1.786012;0.223969
-1.792655;0.162445
-1.795865;0.121946
-1.797502;0.094794
-1.798370;0.076591
-1.798832;0.064827
-1.799062;0.058100
-1.799143;0.055536
0.295360;1.775602
0.143154;1.794299
0.007726;1.799983
-0.067597;1.798730
-0.066613;1.798767
-0.094903;1.797496
-0.308628;1.773344
-0.682332;1.665660
-1.126060;1.404275
-1.462783;1.048936
-1.642688;0.735919
-1.725115;0.513787
-1.762277;0.366581
-1.779701;0.269563
-1.788316;0.204763
-1.792795;0.160892
-1.795220;0.131085
-1.796564;0.111156
-1.797303;0.098491
-1.797683;0.091295
0.042304;1.799503
-0.026457;1.799805
-0.077213;1.798343
-0.092858;1.797603
-0.067399;1.798738
-0.082690;1.798100
-0.239785;1.783957
-0.514744;1.724830
-0.887935;1.565749
-1.253194;1.292093
-1.508300;0.982359
-1.649504;0.720511
-1.720477;0.529113
-1.755840;0.396263
-1.773985;0.304921
-1.783678;0.241854
-1.789060;0.198148
-1.792143;0.167999
-1.793940;0.147582
-1.794987;0.134244
-0.087268;1.797883
-0.108870;1.796705
-0.116893;1.796200
-0.103495;1.797022
-0.066942;1.798755
-0.074326;1.798465
-0.199487;1.788912
-0.416168;1.751229
-0.725564;1.647288
-1.070798;1.446856
-1.361018;1.177977
-1.552112;0.911564
-1.660890;0.693862
-1.719589;0.531992
-1.751297;0.415885
-1.768860;0.333370
-1.778908;0.274750
-1.784839;0.233129
-1.788435;0.203720
-1.790658;0.183147
-0.162779;1.792625
-0.156516;1.793182
-0.140109;1.794539
-0.109661;1.796656
-0.066325;1.798778
-0.068384;1.798700
-0.176232;1.791352
-0.360942;1.763440
-0.626078;1.687610
-0.938111;1.536212
-1.230280;1.313930
-1.449703;1.066941
-1.590140;0.843477
-1.672875;0.664447
-1.720425;0.529281
-1.747968;0.429660
-1.764285;0.356791
-1.774216;0.303572
-1.780428;0.264718
-1.784413;0.236370
-0.216515;1.786931
-0.193010;1.789622
-0.161269;1.792761
-0.118402;1.796102
-0.066893;1.798757
-0.064725;1.798836
-0.168760;1.792071
-0.340034;1.767591
-0.576786;1.705086
-0.856490;1.583169
-1.132495;1.399090
-1.358853;1.180474
-1.518430;0.966628
-1.620742;0.783067
-1.683581;0.636831
-1.721869;0.524562
-1.745462;0.439729
-1.760298;0.375967
-1.769850;0.328070
-1.776154;0.292022
-0.264842;1.780410
-0.231471;1.785055
-0.191472;1.789787
-0.141547;1.794426
-0.078675;1.798280
-0.071668;1.798573
-0.189584;1.789988
-0.355268;1.764592
-0.570342;1.707252
-0.819830;1.602460
-1.071345;1.446450
-1.289441;1.255923
-1.455015;1.059685
-1.569394;0.881476
-1.644357;0.732181
-1.692509;0.612709
-1.723463;0.519302
-1.743611;0.447015
-1.756967;0.391238
-1.766011;0.348147
