20;20;1.000000;1.000000
10.000000;10.000000
0.059699;-1.798904
0.063552;-1.798753
0.072138;-1.798417
0.079729;-1.798124
0.081850;-1.798042
0.081046;-1.798061
0.081075;-1.798050
0.081773;-1.798013
0.082750;-1.797964
0.083456;-1.797930
0.083185;-1.797940
0.081645;-1.798008
0.079177;-1.798117
0.076235;-1.798246
0.073267;-1.798380
0.070954;-1.798483
0.069991;-1.798526
0.070118;-1.798519
0.070615;-1.798497
0.071143;-1.798473
0.051922;-1.799211
0.057702;-1.798982
0.072034;-1.798427
0.085383;-1.797912
0.086403;-1.797869
0.082771;-1.798001
0.082259;-1.798003
0.083217;-1.797951
0.085038;-1.797862
0.086940;-1.797773
0.086929;-1.797772
0.084183;-1.797893
0.080226;-1.798069
0.075758;-1.798269
0.071042;-1.798479
0.066994;-1.798660
0.066443;-1.798684
0.067911;-1.798621
0.069213;-1.798560
0.070189;-1.798516
0.051958;-1.799207
0.056765;-1.799018
0.071708;-1.798438
0.085272;-1.797915
0.087153;-1.797843
0.083667;-1.797963
0.083169;-1.797966
0.084622;-1.797889
0.087790;-1.797740
0.092991;-1.797499
0.094274;-1.797440
0.087718;-1.797736
0.081563;-1.798010
0.075311;-1.798290
0.068509;-1.798593
0.060689;-1.798941
0.062047;-1.798881
0.065777;-1.798714
0.067922;-1.798618
0.069318;-1.798556
0.052399;-1.799187
0.056708;-1.799023
0.071253;-1.798456
0.084501;-1.797944
0.087329;-1.797837
0.084019;-1.797951
0.083777;-1.797942
0.085715;-1.797841
0.089895;-1.797646
0.097125;-1.797312
0.099641;-1.797198
0.090623;-1.797605
0.082841;-1.797952
0.075254;-1.798290
0.067440;-1.798640
0.060084;-1.798968
0.060869;-1.798934
0.064594;-1.798767
0.067028;-1.798660
0.068649;-1.798586
0.052831;-1.799173
0.056616;-1.799028
0.070810;-1.798475
0.083765;-1.797972
0.087520;-1.797829
0.084190;-1.797941
0.084141;-1.797924
0.086335;-1.797814
0.090679;-1.797610
0.097213;-1.797312
0.100252;-1.797173
0.091856;-1.797548
0.083734;-1.797913
0.075580;-1.798276
0.067524;-1.798637
0.060368;-1.798956
0.060725;-1.798940
0.064181;-1.798786
0.066553;-1.798678
0.068217;-1.798605
0.053217;-1.799155
0.056435;-1.799032
0.070384;-1.798487
0.083102;-1.797998
0.087772;-1.797817
0.084304;-1.797937
0.084335;-1.797917
0.086580;-1.797801
0.090765;-1.797605
0.096809;-1.797329
0.100669;-1.797152
0.092375;-1.797526
0.084310;-1.797887
0.076050;-1.798255
0.067946;-1.798617
0.060716;-1.798940
0.060693;-1.798941
0.064071;-1.798790
0.066346;-1.798689
0.067973;-1.798616
0.053555;-1.799144
0.056180;-1.799040
0.069966;-1.798505
0.082500;-1.798023
0.088085;-1.797809
0.084404;-1.797935
0.084425;-1.797912
0.086619;-1.797803
0.090606;-1.797612
0.096338;-1.797348
0.101124;-1.797132
0.092716;-1.797511
0.084737;-1.797868
0.076528;-1.798235
0.068427;-1.798596
0.061069;-1.798925
0.060662;-1.798943
0.064059;-1.798791
0.066271;-1.798693
0.067851;-1.798622
0.053849;-1.799136
0.055870;-1.799055
0.069544;-1.798519
0.081941;-1.798044
0.088452;-1.797797
0.084504;-1.797931
0.084460;-1.797913
0.086564;-1.797802
0.090373;-1.797622
0.095877;-1.797370
0.101645;-1.797108
0.093038;-1.797497
0.085113;-1.797850
0.076977;-1.798214
0.068887;-1.798576
0.061410;-1.798910
0.060607;-1.798944
0.064068;-1.798790
0.066252;-1.798692
0.067796;-1.798624
0.054100;-1.799123
0.055516;-1.799066
0.069112;-1.798535
0.081415;-1.798062
0.088871;-1.797782
0.084616;-1.797924
0.084473;-1.797912
0.086474;-1.797807
0.090131;-1.797635
0.095449;-1.797391
0.102239;-1.797081
0.093388;-1.797480
0.085482;-1.797835
0.077398;-1.798196
0.069308;-1.798557
0.061732;-1.798894
0.060524;-1.798950
0.064067;-1.798790
0.066248;-1.798693
0.067772;-1.798625
0.054308;-1.799114
0.055124;-1.799083
0.068664;-1.798555
0.080914;-1.798081
0.089340;-1.797762
0.084745;-1.797920
0.084483;-1.797910
0.086380;-1.797811
0.089908;-1.797645
0.095066;-1.797408
0.102987;-1.797050
0.093781;-1.797462
0.085864;-1.797818
0.077797;-1.798177
0.069690;-1.798539
0.062032;-1.798882
0.060410;-1.798953
0.064042;-1.798792
0.066239;-1.798693
0.067759;-1.798626
0.054474;-1.799108
0.054698;-1.799098
0.068194;-1.798575
0.080433;-1.798098
0.089870;-1.797740
0.084895;-1.797919
0.084501;-1.797912
0.086296;-1.797818
0.089715;-1.797654
0.094731;-1.797425
0.102749;-1.797059
0.094220;-1.797444
0.086269;-1.797799
0.078183;-1.798160
0.070034;-1.798524
0.062306;-1.798869
0.060269;-1.798961
0.063989;-1.798794
0.066214;-1.798694
0.067745;-1.798627
0.054592;-1.799102
0.054240;-1.799118
0.067694;-1.798591
0.079969;-1.798116
0.090550;-1.797716
0.085069;-1.797912
0.084531;-1.797911
0.086226;-1.797819
0.089555;-1.797662
0.094447;-1.797437
0.102022;-1.797092
0.094708;-1.797422
0.086705;-1.797779
0.078566;-1.798144
0.070346;-1.798510
0.062552;-1.798858
0.060102;-1.798968
0.063905;-1.798798
0.066170;-1.798696
0.067727;-1.798627
0.054659;-1.799098
0.053749;-1.799135
0.067153;-1.798614
0.079518;-1.798132
0.090710;-1.797710
0.085271;-1.797903
0.084573;-1.797912
0.086171;-1.797826
0.089428;-1.797668
0.094216;-1.797446
0.101450;-1.797119
0.095243;-1.797396
0.087180;-1.797758
0.078951;-1.798126
0.070627;-1.798498
0.062768;-1.798849
0.059912;-1.798976
0.063791;-1.798803
0.066109;-1.798699
0.067708;-1.798628
0.054667;-1.799100
0.053222;-1.799156
0.066553;-1.798634
0.079075;-1.798152
0.090017;-1.797739
0.085500;-1.797895
0.084620;-1.797910
0.086120;-1.797826
0.089325;-1.797672
0.094035;-1.797455
0.100956;-1.797140
0.095827;-1.797370
0.087700;-1.797734
0.079348;-1.798108
0.070882;-1.798486
0.062949;-1.798841
0.059702;-1.798985
0.063651;-1.798809
0.066040;-1.798702
0.067700;-1.798628
0.054614;-1.799100
0.052657;-1.799181
0.065860;-1.798662
0.078624;-1.798166
0.089506;-1.797755
0.085751;-1.797888
0.084650;-1.797908
0.086051;-1.797831
0.089228;-1.797677
0.093895;-1.797461
0.100537;-1.797159
0.096456;-1.797343
0.088269;-1.797709
0.079766;-1.798090
0.071121;-1.798475
0.063094;-1.798835
0.059474;-1.798995
0.063494;-1.798816
0.065984;-1.798705
0.067727;-1.798627
0.054510;-1.799110
0.052054;-1.799206
0.065027;-1.798696
0.078102;-1.798190
0.089086;-1.797771
0.085988;-1.797879
0.084601;-1.797912
0.085918;-1.797836
0.089100;-1.797681
0.093770;-1.797466
0.100191;-1.797174
0.097122;-1.797312
0.088878;-1.797683
0.080216;-1.798069
0.071372;-1.798464
0.063211;-1.798828
0.059235;-1.799006
0.063348;-1.798822
0.065987;-1.798704
0.067835;-1.798621
0.054423;-1.799107
0.051432;-1.799227
0.064049;-1.798733
0.077232;-1.798221
0.088705;-1.797784
0.086020;-1.797879
0.084315;-1.797922
0.085642;-1.797844
0.088860;-1.797691
0.093588;-1.797473
0.099905;-1.797187
0.097797;-1.797283
0.089472;-1.797654
0.080701;-1.798046
0.071728;-1.798448
0.063353;-1.798822
0.058992;-1.799017
0.063288;-1.798825
0.066153;-1.798697
0.068100;-1.798609
0.054715;-1.799100
0.050891;-1.799247
0.063389;-1.798757
0.075277;-1.798291
0.086093;-1.797881
0.084483;-1.797932
0.083525;-1.797948
0.085121;-1.797864
0.088355;-1.797712
0.093145;-1.797492
0.099614;-1.797199
0.098401;-1.797254
0.089826;-1.797639
0.081167;-1.798025
0.072445;-1.798415
0.063804;-1.798802
0.058767;-1.799027
0.063602;-1.798811
0.066698;-1.798672
0.068629;-1.798586
0.057589;-1.798984
0.054251;-1.799119
0.064796;-1.798701
0.073219;-1.798371
0.078939;-1.798144
0.081123;-1.798052
0.082315;-1.797993
0.084296;-1.797897
0.087363;-1.797753
0.091878;-1.797549
0.098812;-1.797236
0.098403;-1.797256
0.089250;-1.797665
0.081407;-1.798016
0.073897;-1.798351
0.066207;-1.798695
0.060486;-1.798951
0.065300;-1.798735
0.067908;-1.798619
0.069496;-1.798547
0.063265;-1.798761
0.063850;-1.798735
0.067997;-1.798571
0.072860;-1.798378
0.076694;-1.798224
0.079227;-1.798121
0.081150;-1.798033
0.083214;-1.797940
0.085797;-1.797821
0.089136;-1.797671
0.093204;-1.797489
0.092755;-1.797507
0.086926;-1.797767
0.081167;-1.798026
0.075703;-1.798270
0.070840;-1.798487
0.068168;-1.798607
0.068567;-1.798589
0.069687;-1.798538
0.070630;-1.798496
