20;20;1.000000;1.000000
10.000000;10.000000
-1.060322;-1.454550
-1.126105;-1.404239
-1.322914;-1.220613
-1.502530;-0.991163
-1.613159;-0.798572
-1.675065;-0.658907
-1.711257;-0.558211
-1.735178;-0.478702
-1.753348;-0.407148
-1.767875;-0.338550
-1.778469;-0.277573
-1.784867;-0.232916
-1.787665;-0.210366
-1.787355;-0.212985
-1.783644;-0.242103
-1.774500;-0.301911
-1.752790;-0.409546
-1.693861;-0.608963
-1.519076;-0.965613
-1.491555;-1.007603
-0.859216;-1.581692
-0.936835;-1.536991
-1.180028;-1.359240
-1.435421;-1.086079
-1.581405;-0.859743
-1.655145;-0.707455
-1.694911;-0.606033
-1.720920;-0.527667
-1.743072;-0.449109
-1.763808;-0.359141
-1.779247;-0.272544
-1.787338;-0.213123
-1.790350;-0.186137
-1.789388;-0.195171
-1.784267;-0.237470
-1.773587;-0.307228
-1.747845;-0.430162
-1.670544;-0.670286
-1.268288;-1.277281
-1.393638;-1.139198
-0.372803;-1.760971
-0.728768;-1.645873
-1.073127;-1.445129
-1.382654;-1.152505
-1.552684;-0.910590
-1.631583;-0.760221
-1.669814;-0.672102
-1.693000;-0.611350
-1.718077;-0.536854
-1.754692;-0.401317
-1.782221;-0.252365
-1.790952;-0.180247
-1.793675;-0.150763
-1.791777;-0.171853
-1.780761;-0.262467
-1.772551;-0.313149
-1.746152;-0.436983
-1.710875;-0.559380
-1.613017;-0.798858
-1.642099;-0.737231
-0.025771;-1.799815
-0.508677;-1.726629
-0.975462;-1.512770
-1.340375;-1.201413
-1.524210;-0.957487
-1.600240;-0.824154
-1.628592;-0.766608
-1.631291;-0.760848
-1.629014;-0.765710
-1.703586;-0.581201
-1.790742;-0.182325
-1.796747;-0.108160
-1.793836;-0.148835
-1.797567;-0.093554
-1.779878;-0.268392
-1.780917;-0.261408
-1.769990;-0.327315
-1.755275;-0.398758
-1.742893;-0.449804
-1.750408;-0.419611
0.112334;-1.796491
-0.304735;-1.774017
-0.859049;-1.581782
-1.293568;-1.251672
-1.487985;-1.012867
-1.553599;-0.909027
-1.561834;-0.894804
-1.492982;-1.005488
-1.478042;-1.027323
-1.731645;-0.491330
-1.786164;-0.222752
-1.796662;-0.109571
-1.799160;-0.054975
-1.799680;-0.033927
-1.799320;-0.049462
-1.798341;-0.077258
-1.795796;-0.122950
-1.791793;-0.171694
-1.788437;-0.203702
-1.788274;-0.205121
0.441677;-1.744970
0.019686;-1.799892
-0.656906;-1.675850
-1.219224;-1.324195
-1.430515;-1.092532
-1.474440;-1.032485
-1.448265;-1.068891
-1.445762;-1.072274
-1.716632;-0.541456
-1.782515;-0.250282
-1.798071;-0.083310
-1.799887;0.020125
-1.797866;0.087629
-1.793057;0.157939
-1.789540;0.193772
-1.792975;0.158872
-1.797819;0.088583
-1.799880;0.020781
-1.799767;-0.028961
-1.799066;-0.057977
0.531581;-1.719716
0.549294;-1.714140
-0.237457;-1.784269
-1.074709;-1.443953
-1.328197;-1.214863
-1.310540;-1.233890
-1.339116;-1.202817
-1.576845;-0.868077
-1.791998;-0.169541
-1.799142;-0.055576
-1.799414;0.045946
-1.790442;0.185255
-1.794206;0.144312
-1.768825;0.333553
-1.708429;0.566806
-1.741824;0.453924
-1.777139;0.285967
-1.792444;0.164750
-1.797751;0.089943
-1.799566;0.039524
0.485899;-1.733177
1.057413;-1.456667
0.517857;-1.723898
-0.723045;-1.648395
-1.142157;-1.391214
-0.988109;-1.504540
-0.786411;-1.619123
-1.654820;-0.708216
-1.782385;-0.251207
-1.798682;-0.068870
-1.798992;0.060243
-1.787712;0.209970
-1.771904;0.316790
-1.743972;0.445604
-1.595250;0.833772
-1.568619;0.882856
-1.746825;0.434283
-1.784160;0.238268
-1.792397;0.165260
-1.797439;0.095983
0.222138;-1.786240
0.883386;-1.568320
1.248481;-1.296648
0.538961;-1.717417
-0.831155;-1.596616
-1.093728;-1.429601
-1.388018;-1.146039
-1.725835;-0.511364
-1.793972;-0.147184
-1.799950;-0.013460
-1.796970;0.104401
-1.756906;0.391511
-1.569293;0.881657
-1.691740;0.614829
-1.708358;0.567020
-1.635976;0.750721
-1.791131;0.178465
-1.773457;0.307977
-1.779724;0.269414
-1.796721;0.108600
-0.626781;-1.687348
0.674457;-1.668864
1.335477;-1.206856
1.549857;-0.915392
1.497969;-0.998042
-1.005840;-1.492745
-1.737666;-0.469594
-1.798523;-0.072903
-1.799748;0.030115
-1.798368;0.076634
-1.795233;0.130920
-1.783019;0.246665
-1.711831;0.556447
-1.260752;1.284720
-1.744378;0.444012
-1.780797;0.262224
-1.796878;0.105967
-1.799655;0.035224
-1.798991;0.060269
-1.799494;0.042691
-1.643267;0.734624
-0.309579;1.773178
1.034149;1.473274
1.372408;1.164687
0.860073;1.581226
-0.911846;1.551946
-1.502017;0.991940
-1.724069;0.517287
-1.780218;0.266129
-1.793599;0.151667
-1.797264;0.099202
-1.799054;0.058342
-1.799712;0.032207
-1.791827;0.171333
-1.793263;0.155591
-1.795654;-0.125007
-1.717839;-0.537614
-1.754790;-0.400890
-1.782331;-0.251591
-1.799518;-0.041636
-1.017696;1.484686
-0.166497;1.792283
0.778468;1.622956
0.906336;1.555170
-0.794980;1.614933
-1.254966;1.290372
-1.474061;1.033027
-1.687732;0.625747
-1.792538;0.163732
-1.799989;-0.006228
-1.798418;-0.075455
-1.796447;-0.113037
-1.794986;-0.134259
-1.799666;-0.034665
-1.798100;-0.082685
-1.722486;-0.522533
-1.464461;-1.046591
-1.737540;-0.470060
-1.789586;-0.193345
-1.799439;-0.044936
-0.844978;1.589343
-0.240605;1.783847
0.332629;1.768999
-0.342842;1.767048
-1.191274;1.349395
-1.464718;1.046231
-1.552611;0.910713
-1.552660;0.910630
-1.793545;0.152298
-1.798563;0.071900
-1.799528;0.041188
-1.799875;0.021256
-1.799561;-0.039764
-1.798677;-0.069006
-1.797466;-0.095476
-1.756062;-0.395279
-1.755680;-0.396971
-1.785933;-0.224596
-1.798080;-0.083124
-1.799959;0.012139
-0.842998;1.590394
-0.399157;1.755185
-0.023753;1.799843
-0.683969;1.664988
-1.269807;1.275771
-1.514091;0.973411
-1.607136;0.810625
-1.647253;0.725644
-1.631725;0.759918
-1.628990;0.765762
-1.727146;0.506920
-1.766400;0.346166
-1.783978;0.239626
-1.792774;0.161127
-1.798283;0.078608
-1.799969;-0.010635
-1.799611;-0.037427
-1.799999;-0.001191
-1.799243;0.052185
-1.797311;0.098355
-0.904725;1.556108
-0.542906;1.716174
-0.141306;1.794445
-0.778560;1.622912
-1.269169;1.276405
-1.509285;0.980846
-1.611723;0.801467
-1.656615;0.704007
-1.665992;0.681521
-1.622562;0.779289
-1.451806;1.064077
-1.634981;0.752886
-1.712764;0.553570
-1.751228;0.416173
-1.772796;0.311760
-1.784740;0.233889
-1.789879;0.190614
-1.791010;0.179670
-1.790346;0.186177
-1.789241;0.196514
-1.000605;1.496258
-0.712937;1.652792
-0.251217;1.782383
-0.841339;1.591272
-1.254918;1.290419
-1.483126;1.019969
-1.595384;0.833517
-1.648168;0.723562
-1.666477;0.680333
-1.654687;0.708527
-1.601124;0.822437
-1.459385;1.053659
-1.567266;0.885255
-1.662138;0.690868
-1.718159;0.536590
-1.748521;0.427402
-1.763154;0.362335
-1.769513;0.329883
-1.772550;0.313156
-1.774931;0.299364
-1.117795;1.410863
-0.918935;1.547759
-0.657334;1.675682
-0.941514;1.534129
-1.261269;1.284212
-1.452747;1.062792
-1.568935;0.882293
-1.632475;0.758305
-1.660636;0.694469
-1.663731;0.687020
-1.643931;0.733137
-1.597503;0.829448
-1.519745;0.964559
-1.507062;0.984259
-1.647434;0.725231
-1.709894;0.562372
-1.734610;0.480756
-1.742114;0.452812
-1.746389;0.436035
-1.753277;0.407457
-1.237378;1.307247
-1.120400;1.408795
-1.032194;1.474644
-1.202895;1.339046
-1.306312;1.238365
-1.421939;1.103671
-1.536026;0.938416
-1.613459;0.797967
-1.652674;0.713210
-1.666551;0.680152
-1.662935;0.688947
-1.644876;0.731015
-1.611949;0.801012
-1.572527;0.875877
-1.574054;0.873128
-1.701739;0.586588
-1.725803;0.511471
-1.714286;0.548839
-1.707014;0.571056
-1.719998;0.530667
-1.341744;1.199884
-1.275555;1.270024
-1.247997;1.297114
-1.297318;1.247785
-1.376131;1.160285
-1.358514;1.180864
-1.496860;0.999705
-1.595695;0.832920
-1.645534;0.729531
-1.667529;0.677750
-1.673640;0.662517
-1.669868;0.671968
-1.660963;0.693686
-1.656411;0.704488
-1.672863;0.664476
-1.714945;0.546776
-1.725839;0.511353
-1.657255;0.702499
-1.622505;0.779408
-1.663634;0.687258
-1.424946;1.099786
-1.383018;1.152069
-1.360859;1.178161
-1.358047;1.181401
-1.316069;1.227991
-1.212775;1.330104
-1.477406;1.028237
-1.589100;0.845435
-1.642810;0.735646
-1.669026;0.674057
-1.680781;0.644185
-1.684670;0.633945
-1.685425;0.631936
-1.688142;0.624640
-1.697114;0.599837
-1.709150;0.564631
-1.708834;0.565585
-1.677972;0.651467
-1.585074;0.852960
-1.624375;0.775504
