20;20;1.000000;1.000000
10.000000;10.000000
1.203066;-1.338892
1.192693;-1.348140
1.172522;-1.365721
1.136506;-1.395835
1.074433;-1.444158
0.969233;-1.516769
0.793894;-1.615466
0.514584;-1.724878
0.119338;-1.796040
-0.328638;-1.769745
-0.713708;-1.652459
-0.978532;-1.510786
-1.140135;-1.392872
-1.234131;-1.310313
-1.287422;-1.257992
-1.316450;-1.227583
-1.330829;-1.211980
-1.336251;-1.205999
-1.336169;-1.206090
-1.333545;-1.208991
1.200097;-1.341554
1.202190;-1.339679
1.189727;-1.350759
1.163715;-1.373233
1.114193;-1.413709
1.023631;-1.480601
0.861562;-1.580415
0.583092;-1.702940
0.159205;-1.792946
-0.339692;-1.767656
-0.758523;-1.632373
-1.028279;-1.477377
-1.181134;-1.358279
-1.263772;-1.281748
-1.306870;-1.237776
-1.327602;-1.215514
-1.335491;-1.206840
-1.335997;-1.206281
-1.334178;-1.208292
-1.341354;-1.200320
1.200084;-1.341565
1.200356;-1.341322
1.200916;-1.340821
1.184206;-1.355602
1.147346;-1.386938
1.072758;-1.445403
0.927297;-1.542763
0.654191;-1.676912
0.200076;-1.788846
-0.359611;-1.763712
-0.813834;-1.605514
-1.082761;-1.437925
-1.222026;-1.321610
-1.290730;-1.254598
-1.322484;-1.221080
-1.334550;-1.207881
-1.335978;-1.206301
-1.335045;-1.207333
-1.343352;-1.198084
-1.355726;-1.184064
1.207682;-1.334730
1.201248;-1.340523
1.200445;-1.341243
1.198950;-1.342580
1.174776;-1.363782
1.117550;-1.411057
0.992540;-1.501620
0.730828;-1.644959
0.244463;-1.783322
-0.391252;-1.756964
-0.881877;-1.569169
-1.141667;-1.391616
-1.261695;-1.283793
-1.313797;-1.230421
-1.333072;-1.209512
-1.335991;-1.206287
-1.336332;-1.205909
-1.346923;-1.194068
-1.361227;-1.177736
-1.379544;-1.156225
1.228112;-1.315956
1.212733;-1.330142
1.202840;-1.339095
1.200524;-1.341172
1.195675;-1.345496
1.157511;-1.378466
1.057822;-1.456369
0.816553;-1.604133
0.296703;-1.775378
-0.439216;-1.745591
-0.964865;-1.519551
-1.203482;-1.338519
-1.297792;-1.247292
-1.330520;-1.212319
-1.336008;-1.206268
-1.338349;-1.203670
-1.352631;-1.187598
-1.370867;-1.166501
-1.392180;-1.140980
-1.416570;-1.110553
1.269539;-1.276037
1.243299;-1.301618
1.221282;-1.322297
1.205564;-1.336643
1.200647;-1.341062
1.189613;-1.350859
1.121304;-1.408076
0.914512;-1.550377
0.364280;-1.762753
-0.511544;-1.725782
-1.063797;-1.452011
-1.264195;-1.281332
-1.325665;-1.217625
-1.336020;-1.206254
-1.341743;-1.199885
-1.362067;-1.176764
-1.386731;-1.147596
-1.413520;-1.114433
-1.441633;-1.077819
-1.470979;-1.037410
1.343837;-1.197540
1.306596;-1.238066
1.270423;-1.275157
1.237082;-1.307528
1.210828;-1.331876
1.200857;-1.340873
1.176328;-1.362443
1.024764;-1.479817
0.460993;-1.739967
-0.623197;-1.688676
-1.175235;-1.363386
-1.314932;-1.229208
-1.336022;-1.206252
-1.348053;-1.192792
-1.378836;-1.157070
-1.413791;-1.114089
-1.448868;-1.068074
-1.482602;-1.020731
-1.514794;-0.972316
-1.545681;-0.922425
1.464292;-1.046829
1.421376;-1.104396
1.374248;-1.162515
1.323030;-1.220488
1.269976;-1.275602
1.222703;-1.320984
1.201239;-1.340531
1.136641;-1.395725
0.614645;-1.691807
-0.802489;-1.611214
-1.283176;-1.262323
-1.336000;-1.206277
-1.361732;-1.177152
-1.412113;-1.116216
-1.463290;-1.048228
-1.509164;-0.981032
-1.548668;-0.917402
-1.582539;-0.857653
-1.611939;-0.801031
-1.637894;-0.746527
1.629300;-0.765102
1.596918;-0.830574
1.556454;-0.904129
1.504663;-0.987921
1.437630;-1.083153
1.352903;-1.187288
1.258148;-1.287270
1.202073;-1.339784
0.879924;-1.570266
-1.088956;-1.433239
-1.335750;-1.206554
-1.400375;-1.130907
-1.489901;-1.010046
-1.561554;-0.895293
-1.613812;-0.797251
-1.651609;-0.715673
-1.679522;-0.647462
-1.700813;-0.589266
-1.717640;-0.538250
-1.731372;-0.492292
1.775575;-0.295523
1.769731;-0.328712
1.761568;-0.369970
1.749365;-0.423936
1.729558;-0.498626
1.694001;-0.608573
1.621735;-0.781009
1.456251;-1.057985
1.203465;-1.338534
-1.335460;-1.206875
-1.583630;-0.855637
-1.699005;-0.594460
-1.743395;-0.447853
-1.763914;-0.358618
-1.774904;-0.299523
-1.781469;-0.257619
-1.785736;-0.226156
-1.788708;-0.201305
-1.790900;-0.180763
-1.792595;-0.163105
1.777097;0.286225
1.770808;0.322858
1.761894;0.368412
1.748448;0.427703
1.726498;0.509119
1.686968;0.627805
1.606758;0.811374
1.426993;1.097128
1.187249;1.352937
-1.336807;1.205383
-1.540635;0.930830
-1.669647;0.672518
-1.724141;0.517047
-1.750495;0.419245
-1.764999;0.353239
-1.773829;0.305825
-1.779657;0.269854
-1.783769;0.241179
-1.786839;0.217270
-1.789236;0.196555
1.630143;0.763304
1.596071;0.832199
1.553379;0.909402
1.498763;0.996849
1.428318;1.095403
1.339887;1.201958
1.242232;1.302636
1.186491;1.353603
0.884217;1.567852
-1.021425;1.482124
-1.338287;1.203739
-1.389520;1.144218
-1.474083;1.032996
-1.545207;0.923221
-1.598573;0.827384
-1.637933;0.746441
-1.667434;0.677984
-1.690208;0.619030
-1.708388;0.566931
-1.723354;0.519663
1.460877;1.051588
1.415743;1.111607
1.366223;1.171937
1.312574;1.231726
1.257270;1.288128
1.208279;1.334189
1.186100;1.353945
1.125157;1.404999
0.634489;1.684465
-0.737280;1.642077
-1.268503;1.277067
-1.338745;1.203229
-1.358888;1.180434
-1.405199;1.124907
-1.454257;1.060724
-1.499195;0.996200
-1.538467;0.934408
-1.572532;0.875867
-1.602395;0.819956
-1.628996;0.765750
1.336291;1.205955
1.297099;1.248012
1.259104;1.286335
1.224175;1.319619
1.196690;1.344594
1.185939;1.354086
1.164358;1.372687
1.017841;1.484587
0.485945;1.733164
-0.567021;1.708358
-1.151920;1.383141
-1.309892;1.234578
-1.339003;1.202943
-1.348160;1.192671
-1.376085;1.160340
-1.409119;1.119992
-1.442927;1.076087
-1.475865;1.030448
-1.507622;0.983400
-1.538374;0.934562
1.259058;1.286379
1.231357;1.312920
1.208121;1.334332
1.191460;1.349230
1.185858;1.354157
1.177462;1.361464
1.111122;1.416124
0.912617;1.551493
0.391056;1.757007
-0.462195;1.739648
-1.035958;1.472003
-1.253981;1.291329
-1.324166;1.219256
-1.339179;1.202747
-1.343246;1.198202
-1.361517;1.177401
-1.384615;1.150149
-1.410196;1.118636
-1.437390;1.083471
-1.466080;1.044323
1.215724;1.327409
1.199340;1.342230
1.188694;1.351668
1.185814;1.354195
1.183374;1.356328
1.146399;1.387721
1.050059;1.461977
0.819163;1.602801
0.324285;1.770548
-0.394506;1.756236
-0.934718;1.538279
-1.189461;1.350993
-1.292959;1.252300
-1.330766;1.212048
-1.339303;1.202608
-1.340617;1.201143
-1.353363;1.186764
-1.370318;1.167145
-1.390541;1.142977
-1.414020;1.113798
1.194082;1.346910
1.187025;1.353134
1.185774;1.354230
1.186524;1.353574
1.163213;1.373658
1.107872;1.418669
0.987458;1.504967
0.737270;1.642082
0.272520;1.779251
-0.349715;1.765701
-0.850576;1.586354
-1.124721;1.405348
-1.254114;1.291201
-1.311716;1.232640
-1.334328;1.208126
-1.339395;1.202506
-1.339056;1.202883
-1.348451;1.192342
-1.361667;1.177227
-1.378991;1.156886
1.185725;1.354273
1.185685;1.354309
1.188399;1.351927
1.172364;1.365856
1.136796;1.395598
1.064783;1.451288
0.924960;1.544166
0.663856;1.673110
0.228463;1.785442
-0.320336;1.771267
-0.781979;1.621268
-1.063489;1.452236
-1.212037;1.330776
-1.286577;1.258857
-1.321994;1.221610
-1.336440;1.205789
-1.339470;1.202423
-1.338056;1.203996
-1.345385;1.195801
-1.356776;1.182860
1.185293;1.354651
1.189709;1.350775
1.177727;1.361234
1.152708;1.382485
1.104877;1.421002
1.017534;1.484798
0.861910;1.580225
0.595450;1.698658
0.187798;1.790176
-0.302141;1.774461
-0.726451;1.646897
-1.007110;1.491888
-1.168946;1.368783
-1.257643;1.287763
-1.304708;1.240055
-1.328093;1.214977
-1.337798;1.204282
-1.339564;1.202318
-1.337340;1.204792
-1.343670;1.197728
1.189504;1.350955
1.180696;1.358660
1.161301;1.375275
1.126485;1.403934
1.066479;1.450042
0.965080;1.519414
0.796764;1.614053
0.529141;1.720468
0.147972;1.793908
-0.292529;1.776070
-0.681653;1.665938
-0.955800;1.525269
-1.125891;1.404411
-1.226030;1.317896
-1.283533;1.261959
-1.315471;1.228632
-1.331908;1.210793
-1.338820;1.203146
-1.339822;1.202030
-1.337095;1.205063
