20;20;1.000000;1.000000
10.000000;10.000000
1.081124;-1.439157
0.641763;-1.681708
-0.605883;-1.694965
-1.352547;-1.187694
-1.572210;-0.876444
-1.660809;-0.694055
-1.683484;-0.637088
-1.379602;-1.156156
-0.791051;-1.616860
-1.773763;-0.306212
-1.798289;0.078468
-1.784083;0.238844
-1.778768;0.275652
-1.790921;0.180557
-1.799083;-0.057440
-1.758919;-0.382364
-1.673881;-0.661907
-1.589075;-0.845482
-1.516925;-0.968988
-1.563620;-0.891680
0.910644;-1.552652
0.872778;-1.574248
-0.699164;-1.658665
-1.368448;-1.169338
-1.557387;-0.902522
-1.662880;-0.689080
-1.731255;-0.492702
-1.726743;-0.508289
-1.721156;-0.526897
-1.799915;-0.017490
-1.780782;0.262325
-1.743306;0.448199
-1.729183;0.499927
-1.759930;0.377685
-1.799876;0.021096
-1.727868;-0.504451
-1.584974;-0.853145
-1.489565;-1.010543
-1.551207;-0.913103
-1.634768;-0.753348
0.002249;-1.799999
-0.317175;-1.771835
-1.080412;-1.439691
-1.378767;-1.157152
-1.498821;-0.996762
-1.616363;-0.792067
-1.758236;-0.385496
-1.795811;-0.122733
-1.799999;-0.002230
-1.799989;0.006395
-1.764534;0.355558
-1.652826;0.712858
-1.613333;0.798221
-1.666147;0.681142
-1.784688;0.234284
-1.683964;-0.635819
-1.532963;-0.943411
-1.613436;-0.798014
-1.669046;-0.674007
-1.719010;-0.533858
-0.824586;-1.600018
-1.013437;-1.487597
-1.213055;-1.329849
-1.327921;-1.215165
-1.378912;-1.156980
-1.528340;-0.950881
-1.719811;-0.531272
-1.782892;-0.247580
-1.799466;-0.043858
-1.790454;0.185135
-1.721251;0.526588
-1.555743;0.905352
-1.376483;1.159868
-1.445179;1.073060
-1.674242;0.660994
-1.799800;-0.026824
-1.756461;-0.393503
-1.752658;-0.410111
-1.763317;-0.361543
-1.776274;-0.291292
-0.994817;-1.500113
-1.090944;-1.431726
-1.175889;-1.362822
-1.241063;-1.303749
-1.347266;-1.193681
-1.522076;-0.960877
-1.684518;-0.634349
-1.771656;-0.318172
-1.799583;-0.038747
-1.782488;0.250471
-1.700142;0.591201
-1.511250;0.977815
-1.149496;1.385156
-1.034198;1.473239
-1.448917;1.068008
-1.716724;0.541163
-1.793080;0.157678
-1.799927;-0.016265
-1.798407;-0.075708
-1.798026;-0.084274
-0.929817;-1.541246
-1.029437;-1.476570
-1.122505;-1.407119
-1.161598;-1.375024
-1.293319;-1.251929
-1.478118;-1.027213
-1.656008;-0.705434
-1.764173;-0.357344
-1.799638;-0.036097
-1.778426;0.277851
-1.686630;0.628713
-1.465696;1.044862
-0.996722;1.498848
-0.550288;1.713821
-1.238312;1.306363
-1.619544;0.785543
-1.753072;0.408338
-1.789024;0.198481
-1.797553;0.093826
-1.799425;0.045490
-0.725684;-1.647235
-0.943572;-1.532864
-1.027728;-1.477760
-0.984385;-1.506979
-1.079460;-1.440405
-1.294590;-1.250614
-1.571713;-0.877335
-1.750776;-0.418069
-1.799164;-0.054865
-1.781781;0.255455
-1.698071;0.597122
-1.479498;1.025225
-0.970622;1.515880
-0.192354;1.789693
-1.169526;1.368287
-1.609561;0.805800
-1.745678;0.438873
-1.783337;0.244357
-1.794098;0.145644
-1.797414;0.096455
-0.311675;-1.772811
-0.668570;-1.671231
-0.339644;-1.767666
0.001594;-1.799999
-0.062078;-1.798929
-0.365269;-1.762549
-1.117239;-1.411303
-1.727258;-0.506535
-1.797787;-0.089222
-1.791441;0.175327
-1.737181;0.471385
-1.575482;0.870549
-1.153084;1.382171
-0.438196;1.745848
-1.285661;1.259792
-1.676968;0.654047
-1.769362;0.330694
-1.790494;0.184745
-1.796072;0.118858
-1.797723;0.090508
0.470799;-1.737339
0.602196;-1.696278
1.439726;-1.080366
1.633556;-0.755973
1.529968;-0.948261
0.338328;-1.767918
-0.617767;-1.690669
-1.757800;-0.387476
-1.797623;-0.092475
-1.799104;0.056779
-1.779887;0.268335
-1.707608;0.569276
-1.498779;0.996825
-0.986996;1.505270
-1.470831;1.037621
-1.759737;0.378585
-1.793492;0.152918
-1.798077;0.083175
-1.799036;0.058898
-1.799081;0.057505
1.514864;-0.972207
1.642040;-0.737363
1.782560;-0.249961
1.787747;-0.209665
1.762611;-0.364967
1.707249;-0.570353
-1.781371;-0.258299
-1.798839;-0.064652
-1.798200;-0.080469
-1.798649;-0.069731
-1.799064;0.058034
-1.791015;0.179630
-1.767509;0.340458
-1.687070;0.627530
-1.659687;0.696734
-1.799920;0.016978
-1.799686;-0.033596
-1.799994;0.004814
-1.799994;0.004458
-1.799370;0.047610
1.380167;1.155482
1.557531;0.902274
1.797942;0.086057
1.799513;-0.041859
1.793210;0.156193
1.792972;0.158902
-1.791233;0.177433
-1.799999;0.001869
-1.799033;-0.058980
-1.798230;-0.079805
-1.796776;-0.107681
-1.785522;-0.227843
-1.739352;-0.463306
-1.665069;-0.683772
-1.791949;-0.170060
-1.799815;0.025815
-1.799793;-0.027303
-1.799806;-0.026424
-1.799907;-0.018263
-1.794468;-0.141014
0.269919;1.779647
0.389724;1.757303
1.302764;1.242097
1.697574;0.598534
1.714172;0.549194
0.413510;1.751859
-1.038585;1.470150
-1.791059;0.179186
-1.800000;0.000785
-1.796918;-0.105285
-1.778590;-0.276797
-1.700423;-0.590392
-1.388787;-1.145107
-1.121081;-1.408254
-1.760477;-0.375128
-1.799005;-0.059842
-1.799997;-0.003293
-1.799953;0.013030
-1.799973;0.009778
-1.799988;0.006583
-0.576319;1.705244
-1.079523;1.440357
-0.960095;1.522570
-0.957317;1.524318
-1.210806;1.331897
-1.428373;1.095332
-1.664186;0.685919
-1.785781;0.225803
-1.799732;0.031042
-1.794203;-0.144343
-1.753103;-0.408202
-1.601656;-0.821400
-1.175141;-1.363468
-1.283219;-1.262279
-1.733168;-0.485931
-1.796485;-0.112442
-1.799914;0.017603
-1.798957;0.061279
-1.798389;0.076142
-1.797830;0.088352
-0.957567;1.524160
-1.144875;1.388978
-1.355466;1.184361
-1.492776;1.005793
-1.635923;0.750837
-1.728838;0.501119
-1.773989;0.304897
-1.792445;0.164743
-1.799570;0.039317
-1.794443;-0.141335
-1.740680;-0.458293
-1.519225;-0.965378
-1.282237;-1.263277
-1.591474;-0.840959
-1.773089;-0.310090
-1.799996;-0.003606
-1.795984;0.120171
-1.792665;0.162332
-1.791549;0.174217
-1.791068;0.179098
-1.096006;1.427856
-1.253426;1.291868
-1.426771;1.097417
-1.629564;0.764539
-1.701552;0.587128
-1.786448;0.220458
-1.797417;0.096393
-1.798936;0.061871
-1.799821;0.025409
-1.797721;-0.090554
-1.751728;-0.414065
-1.588829;-0.845945
-1.644657;-0.731508
-1.774160;-0.303902
-1.793410;0.153879
-1.769581;0.329520
-1.763525;0.360526
-1.765952;0.348447
-1.770644;0.323758
-1.774958;0.299206
-0.975509;1.512740
-1.190101;1.350429
-1.424689;1.100119
-1.594200;0.835779
-1.698512;0.595866
-1.764018;0.358104
-1.781585;0.256817
-1.782411;0.251021
-1.790071;0.188803
-1.799843;0.023780
-1.789820;-0.191166
-1.771250;-0.320429
-1.790772;-0.182034
-1.769034;0.332445
-1.531757;0.945369
-1.610680;0.803560
-1.661291;0.692902
-1.696657;0.601128
-1.723742;0.518376
-1.743714;0.446612
-0.320885;1.771167
-0.590628;1.700341
-1.182753;1.356870
-1.497464;0.998799
-1.625332;0.773495
-1.668715;0.674827
-1.621823;0.780826
-1.242207;1.302660
-1.340994;1.200722
-1.718744;0.534713
-1.788176;0.205976
-1.797487;0.095076
-1.787369;0.212867
-1.700865;0.589118
-1.491964;1.006997
-1.417548;1.109306
-1.514884;0.972177
-1.587195;0.849006
-1.648210;0.723466
-1.696255;0.602260
0.557929;1.711349
0.617027;1.690940
-0.584786;1.702359
-1.290756;1.254571
-1.490158;1.009668
-1.494725;1.002893
-1.262920;1.282588
-0.535729;1.718428
-0.559992;1.710675
-1.386786;1.147529
-1.686655;0.628647
-1.750655;0.418578
-1.745025;0.441461
-1.685432;0.631917
-1.576504;0.868698
-1.466667;1.043498
-1.388529;1.145420
-1.470329;1.038332
-1.557716;0.901954
-1.641654;0.738222
0.823388;1.600635
0.632261;1.685303
-0.253315;1.782086
-1.077267;1.442046
-1.342135;1.199447
-1.323958;1.219482
-1.029675;1.476404
-0.442591;1.744739
-0.377798;1.759906
-1.103831;1.421814
-1.548935;0.916952
-1.682968;0.638451
-1.704456;0.578646
-1.675536;0.657706
-1.613578;0.797725
-1.537271;0.936375
-1.460253;1.052454
-1.385551;1.149020
-1.474943;1.031768
-1.602121;0.820492
0.813319;1.605774
0.431621;1.747485
-0.323290;1.770730
-0.995151;1.499892
-1.250753;1.294456
-1.242272;1.302597
-1.001066;1.495950
-0.496643;1.730129
-0.353352;1.764977
-1.057800;1.456386
-1.476624;1.029360
-1.631849;0.759651
-1.674211;0.661073
-1.668054;0.676459
-1.635058;0.752718
-1.587388;0.848645
-1.534801;0.940418
-1.487975;1.012882
-1.513082;0.974978
-1.606165;0.812548
