20;20;1.000000;1.000000
10.000000;10.000000
0.438087;-1.745875
0.523587;-1.722166
0.534832;-1.718707
0.483578;-1.733826
0.353113;-1.765025
0.122143;-1.795851
-0.209043;-1.787820
-0.584282;-1.702532
-0.913772;-1.550813
-1.150670;-1.384182
-1.304844;-1.239912
-1.403685;-1.126796
-1.468952;-1.040279
-1.513825;-0.973824
-1.546675;-0.920758
-1.573199;-0.874668
-1.592277;-0.839436
-1.593699;-0.836734
-1.569627;-0.881063
-1.650705;-0.717755
0.552790;-1.713016
0.575951;-1.705368
0.599062;-1.697388
0.567329;-1.708256
0.453948;-1.741818
0.226949;-1.785635
-0.126979;-1.795516
-0.545853;-1.715239
-0.909546;-1.553295
-1.158310;-1.377794
-1.311639;-1.232721
-1.406738;-1.122982
-1.469367;-1.039693
-1.511587;-0.977294
-1.540752;-0.930635
-1.570899;-0.878792
-1.606416;-0.812052
-1.603577;-0.817643
-1.586332;-0.850618
-1.614017;-0.796837
0.589856;-1.700608
0.634635;-1.684410
0.675884;-1.668287
0.659798;-1.674714
0.565171;-1.708971
0.347392;-1.766159
-0.028518;-1.799774
-0.499339;-1.729353
-0.902684;-1.557293
-1.161727;-1.374915
-1.310924;-1.233482
-1.400214;-1.131105
-1.462955;-1.048696
-1.506511;-0.985101
-1.520279;-0.963718
-1.561521;-0.895351
-1.591392;-0.841114
-1.605282;-0.814290
-1.612919;-0.799058
-1.631050;-0.761365
0.698278;-1.659038
0.730724;-1.645005
0.769364;-1.627292
0.762501;-1.630519
0.692671;-1.661387
0.494273;-1.730807
0.100334;-1.797201
-0.435631;-1.746490
-0.889272;-1.564991
-1.157845;-1.378185
-1.298915;-1.246122
-1.375176;-1.161417
-1.437536;-1.083277
-1.521588;-0.961650
-1.518202;-0.966986
-1.548374;-0.917899
-1.588752;-0.846089
-1.617388;-0.789972
-1.640103;-0.741663
-1.663719;-0.687050
0.796961;-1.613956
0.881232;-1.569532
0.844896;-1.589387
0.868967;-1.576355
0.841916;-1.590968
0.681055;-1.666182
0.282571;-1.777682
-0.338009;-1.767979
-0.863733;-1.579229
-1.142931;-1.390579
-1.273315;-1.272270
-1.335134;-1.207235
-1.287156;-1.258265
-1.475257;-1.031317
-1.529662;-0.948753
-1.575924;-0.869750
-1.619200;-0.786251
-1.654763;-0.708351
-1.683989;-0.635753
-1.709884;-0.562403
0.870362;-1.575585
0.862045;-1.580152
0.862882;-1.579694
0.990765;-1.502792
1.020301;-1.482898
0.918437;-1.548055
0.551535;-1.713420
-0.173485;-1.791620
-0.818591;-1.603093
-1.111245;-1.416027
-1.219409;-1.324025
-1.313227;-1.231030
-1.374161;-1.162619
-1.482594;-1.020741
-1.570555;-0.879407
-1.633522;-0.756045
-1.680542;-0.644809
-1.715546;-0.544889
-1.741789;-0.454062
-1.761937;-0.368207
0.961638;-1.521595
0.981269;-1.509010
1.009081;-1.490555
1.161721;-1.374920
1.221517;-1.322080
1.193728;-1.347225
0.932998;-1.539323
0.130484;-1.795264
-0.744338;-1.638890
-1.070442;-1.447119
-1.049802;-1.462161
-1.279214;-1.266338
-1.443409;-1.075439
-1.573353;-0.874392
-1.663839;-0.686759
-1.721365;-0.526215
-1.756886;-0.391601
-1.778327;-0.278483
-1.790790;-0.181859
-1.797397;-0.096765
1.070311;-1.447216
1.109089;-1.417717
1.188475;-1.351861
1.336632;-1.205577
1.397760;-1.134137
1.453331;-1.061993
1.367614;-1.170313
0.717760;-1.650703
-0.601570;-1.696500
-1.083172;-1.437616
-1.165629;-1.371608
-1.409230;-1.119853
-1.604625;-0.815586
-1.713576;-0.551052
-1.767998;-0.337908
-1.792133;-0.168100
-1.799696;-0.033073
-1.798477;0.074032
-1.792921;0.159482
-1.785358;0.229126
1.190683;-1.349916
1.228330;-1.315752
1.293875;-1.251354
1.386905;-1.147386
1.494394;-1.003387
1.668310;-0.675827
1.661416;-0.692601
1.500311;-0.994519
-0.115697;-1.796278
-0.884124;-1.567905
-1.404086;-1.126296
-1.682032;-0.640913
-1.770352;-0.325348
-1.796835;-0.106699
-1.798627;0.070280
-1.786511;0.219952
-1.767249;0.341803
-1.746504;0.435571
-1.727756;0.504837
-1.712089;0.555653
1.332180;-1.210494
1.360989;-1.178010
1.408423;-1.120868
1.475559;-1.030885
1.562842;-0.893042
1.655155;-0.707434
1.706039;-0.573960
1.738106;-0.467960
1.422672;-1.102726
-1.388900;-1.144970
-1.794012;-0.146698
-1.799903;-0.018637
-1.798298;0.078255
-1.789602;0.193193
-1.766188;0.347245
-1.728139;0.503522
-1.684235;0.635099
-1.644826;0.731128
-1.615379;0.794071
-1.595041;0.834172
1.503680;-0.989418
1.527441;-0.952325
1.562849;-0.893031
1.610473;-0.803975
1.667767;-0.677165
1.726135;-0.510351
1.776994;-0.286865
1.782152;0.252855
0.374995;1.760505
-1.559813;0.898322
-1.789010;0.198599
-1.796248;0.116157
-1.793647;0.151100
-1.790035;0.189146
-1.741997;0.453262
-1.673967;0.661692
-1.593216;0.837652
-1.527119;0.952842
-1.486942;1.014398
-1.461940;1.050111
1.681673;-0.641854
1.706373;-0.572966
1.736821;-0.472707
1.770648;-0.323736
1.797521;-0.094442
1.777361;0.284584
1.531778;0.945334
0.709576;1.654238
0.062222;1.798924
-0.378026;1.759857
-1.551105;0.913275
-1.745583;0.439248
-1.765012;0.353174
-1.752587;0.410414
-1.707165;0.570602
-1.627365;0.769210
-1.506680;0.984842
-1.388991;1.144860
-1.358871;1.180453
-1.330492;1.212349
1.790009;-0.189387
1.798952;-0.061418
1.796388;0.113971
1.764113;0.357637
1.662916;0.688992
1.427615;1.096319
1.024272;1.480158
0.577399;1.704878
0.262212;1.780799
0.066551;1.798769
-0.819459;1.602650
-1.495147;1.002265
-1.651716;0.715425
-1.665392;0.682985
-1.622657;0.779092
-1.533900;0.941886
-1.387979;1.146086
-1.247974;1.297135
-1.252692;1.292580
-1.208550;1.333944
1.785330;0.229339
1.756844;0.391789
1.698569;0.595705
1.591140;0.841590
1.417232;1.109708
1.182568;1.357031
0.933030;1.539303
0.744255;1.638928
0.711234;1.653525
0.377094;1.760057
-0.241456;1.783732
-1.031437;1.475173
-1.410088;1.118772
-1.507514;0.983565
-1.494366;1.003429
-1.423343;1.101859
-1.320891;1.222803
-1.235691;1.308842
-1.179180;1.359976
-1.091882;1.431011
1.729271;0.499623
1.676708;0.654713
1.592168;0.839644
1.465350;1.045346
1.299717;1.245286
1.122903;1.406801
0.973489;1.514041
0.887542;1.565972
0.810031;1.607436
0.560661;1.710456
0.092294;1.797632
-0.585885;1.701981
-1.085506;1.435854
-1.287939;1.257463
-1.327233;1.215916
-1.286781;1.258648
-1.208246;1.334219
-1.122291;1.407289
-1.046766;1.464337
-0.960392;1.522382
1.689837;0.620040
1.636028;0.750607
1.552370;0.911123
1.430317;1.092792
1.278249;1.267312
1.132629;1.398982
1.045125;1.465508
0.947257;1.530589
0.871547;1.574930
0.669047;1.671040
0.293454;1.775918
-0.261238;1.780942
-0.767151;1.628336
-1.041913;1.467793
-1.134204;1.397706
-1.123037;1.406694
-1.053555;1.459460
-0.948780;1.529646
-0.810566;1.607166
-0.602390;1.696210
1.686189;0.629895
1.644949;0.730850
1.574671;0.872016
1.461362;1.050914
1.306124;1.238564
1.146771;1.387413
1.037911;1.470626
1.042929;1.467072
0.932874;1.539398
0.746698;1.637816
0.426243;1.748805
-0.037232;1.799615
-0.502772;1.728358
-0.805723;1.609599
-0.935466;1.537824
-0.946647;1.530967
-0.879656;1.570415
-0.754813;1.634092
-0.582663;1.703087
-0.399897;1.755016
1.709603;0.563257
1.686725;0.628456
1.637453;0.747494
1.540669;0.930774
1.370141;1.167353
1.170361;1.367572
1.104316;1.421438
1.080724;1.439457
0.984428;1.506951
0.807875;1.608521
0.520700;1.723041
0.120142;1.795986
-0.297584;1.775231
-0.600420;1.696908
-0.750928;1.635881
-0.778799;1.622798
-0.715668;1.651611
-0.579670;1.704107
-0.382600;1.758868
-0.136480;1.794818
1.742528;0.451217
1.736519;0.473817
1.713164;0.552330
1.649429;0.720684
1.512355;0.976105
1.274884;1.270697
1.221626;1.321979
1.147458;1.386845
1.034884;1.472757
0.858058;1.582320
0.590664;1.700328
0.233809;1.784750
-0.141415;1.794436
-0.431915;1.747412
-0.592767;1.699596
-0.635909;1.683930
-0.584398;1.702492
-0.454292;1.741729
-0.259074;1.781258
-0.013916;1.799946
1.769080;0.332199
1.768546;0.335032
1.780268;0.265790
1.705180;0.576506
1.595759;0.832798
1.430211;1.092930
1.314858;1.229288
1.208882;1.333644
1.078797;1.440901
0.897351;1.560372
0.642318;1.681496
0.317311;1.771811
-0.022597;1.799858
-0.297379;1.775265
-0.463862;1.739204
-0.523737;1.722120
-0.494060;1.730868
-0.391033;1.757012
-0.234047;1.784719
-0.079773;1.798231
