20;20;1.000000;1.000000
10.000000;10.000000
0.751437;-1.635647
0.643000;-1.681235
0.452514;-1.742191
0.146781;-1.794005
-0.272563;-1.779244
-0.718549;-1.650360
-1.072163;-1.445845
-1.297607;-1.247484
-1.427561;-1.096389
-1.500585;-0.994105
-1.541536;-0.929337
-1.564257;-0.890561
-1.576375;-0.868931
-1.582311;-0.858074
-1.584920;-0.853247
-1.586507;-0.850292
-1.589693;-0.844320
-1.597570;-0.829319
-1.611379;-0.802158
-1.629142;-0.765438
0.902417;-1.557447
0.825865;-1.599358
0.671075;-1.670227
0.388700;-1.757530
-0.058224;-1.799058
-0.594191;-1.699099
-1.032725;-1.474272
-1.297646;-1.247443
-1.438137;-1.082479
-1.510904;-0.978351
-1.548522;-0.917648
-1.567340;-0.885124
-1.575670;-0.870209
-1.578017;-0.865946
-1.577075;-0.867660
-1.574860;-0.871674
-1.574188;-0.872886
-1.581732;-0.859141
-1.600582;-0.823491
-1.623731;-0.776852
1.006946;-1.491998
0.958624;-1.523496
0.841456;-1.591211
0.598758;-1.697495
0.151245;-1.793635
-0.471502;-1.737149
-1.006658;-1.492193
-1.309785;-1.234691
-1.455320;-1.059265
-1.523933;-0.957929
-1.556027;-0.904864
-1.569779;-0.880792
-1.573753;-0.873670
-1.572335;-0.876221
-1.567943;-0.884057
-1.561999;-0.894516
-1.555499;-0.905771
-1.562160;-0.894235
-1.592999;-0.838066
-1.622511;-0.779396
1.061421;-1.453748
1.036016;-1.471962
0.957018;-1.524505
0.763218;-1.630184
0.338656;-1.767855
-0.364001;-1.762811
-1.004459;-1.493674
-1.337295;-1.204841
-1.478881;-1.026114
-1.538572;-0.934235
-1.562867;-0.892998
-1.570494;-0.879516
-1.569732;-0.880875
-1.564665;-0.889844
-1.557489;-0.902346
-1.549421;-0.916131
-1.551726;-0.912221
-1.568072;-0.883826
-1.598276;-0.827957
-1.629588;-0.764488
1.070142;-1.447341
1.064735;-1.451323
1.026215;-1.478811
0.884926;-1.567452
0.496879;-1.730061
-0.286730;-1.777016
-1.038526;-1.470191
-1.381601;-1.153767
-1.507044;-0.984286
-1.552764;-0.910453
-1.567145;-0.885470
-1.567754;-0.884391
-1.561982;-0.894546
-1.553322;-0.909499
-1.549437;-0.916104
-1.559839;-0.898278
-1.572372;-0.876154
-1.591177;-0.841520
-1.617566;-0.789607
-1.646490;-0.727373
1.105531;-1.420493
1.070071;-1.447394
1.065348;-1.450873
0.977914;-1.511186
0.632114;-1.685358
-0.255795;-1.781732
-1.120383;-1.408809
-1.439859;-1.080188
-1.535691;-0.938963
-1.562961;-0.892834
-1.565671;-0.888074
-1.558428;-0.900723
-1.546242;-0.921486
-1.559265;-0.899273
-1.572338;-0.876215
-1.586163;-0.850932
-1.602235;-0.820269
-1.622343;-0.779746
-1.646411;-0.727550
-1.671790;-0.667173
1.215872;-1.327273
1.127891;-1.402805
1.071524;-1.446318
1.051603;-1.460867
0.758229;-1.632510
-0.296974;-1.775333
-1.253412;-1.291881
-1.502275;-0.991549
-1.557365;-0.902560
-1.562951;-0.892852
-1.552153;-0.911493
-1.558117;-0.901261
-1.575656;-0.870234
-1.592507;-0.839001
-1.608686;-0.807546
-1.624919;-0.774363
-1.642297;-0.736790
-1.661580;-0.692207
-1.682361;-0.640049
-1.703096;-0.582635
1.452820;-1.062692
1.332367;-1.210288
1.158885;-1.377311
1.090705;-1.431908
0.888893;-1.565206
-0.474409;-1.736357
-1.415852;-1.111469
-1.549972;-0.915197
-1.558518;-0.900568
-1.554818;-0.906941
-1.580662;-0.861108
-1.604993;-0.814861
-1.626266;-0.771531
-1.644629;-0.731571
-1.660933;-0.693758
-1.676228;-0.655942
-1.691411;-0.615734
-1.706889;-0.571427
-1.722372;-0.522909
-1.737073;-0.471782
1.714669;-0.547640
1.676088;-0.656299
1.523201;-0.959093
1.180922;-1.358464
1.027877;-1.477656
-0.939568;-1.535322
-1.541086;-0.930083
-1.547902;-0.918694
-1.589250;-0.845154
-1.629184;-0.765349
-1.660134;-0.695668
-1.683085;-0.638141
-1.700242;-0.590913
-1.713555;-0.551115
-1.724530;-0.515748
-1.734260;-0.482019
-1.743441;-0.447675
-1.752353;-0.411410
-1.760901;-0.373131
-1.768778;-0.333801
1.790635;-0.183371
1.789631;-0.192929
1.784570;-0.235180
1.749320;-0.424123
1.127335;-1.403252
-1.535947;-0.938545
-1.623464;-0.777409
-1.700253;-0.590880
-1.736534;-0.473760
-1.754990;-0.400012
-1.765322;-0.351623
-1.771590;-0.318540
-1.775690;-0.294829
-1.778620;-0.276603
-1.780971;-0.261041
-1.783111;-0.245998
-1.785251;-0.229954
-1.787460;-0.212104
-1.789688;-0.192397
-1.791822;-0.171386
1.799756;0.029650
1.799789;0.027529
1.795629;0.125373
1.738420;0.466791
1.108510;1.418170
-1.406398;1.123408
-1.654124;0.709840
-1.742426;0.451611
-1.772540;0.313210
-1.785274;0.229774
-1.791592;0.173779
-1.795085;0.132929
-1.797151;0.101232
-1.798410;0.075649
-1.799168;0.054707
-1.799603;0.037807
-1.799829;0.024790
-1.799932;0.015592
-1.799972;0.010014
-1.799984;0.007631
1.671683;0.667441
1.607009;0.810877
1.425923;1.098519
1.138649;1.394087
0.911416;1.552199
-1.149001;1.385567
-1.405037;1.125109
-1.465525;1.045100
-1.558211;0.901098
-1.627727;0.768444
-1.675348;0.658186
-1.707926;0.568320
-1.730834;0.494181
-1.747512;0.431512
-1.760036;0.377191
-1.769627;0.329274
-1.777000;0.286827
-1.782611;0.249595
-1.786799;0.217602
-1.789858;0.190813
1.367666;1.170252
1.258069;1.287347
1.134478;1.397483
1.097422;1.426767
0.689210;1.662826
-0.809293;1.607807
-1.352664;1.187560
-1.407329;1.122241
-1.423116;1.102152
-1.479284;1.025534
-1.533907;0.941874
-1.580947;0.860585
-1.619989;0.784623
-1.652379;0.713893
-1.679617;0.647214
-1.702792;0.583522
-1.722482;0.522549
-1.738916;0.464941
-1.752248;0.411859
-1.762732;0.364383
1.176119;1.362624
1.119861;1.409224
1.098982;1.425566
1.009395;1.490343
0.516846;1.724201
-0.634638;1.684409
-1.248874;1.296269
-1.392150;1.141017
-1.409479;1.119539
-1.407364;1.122197
-1.443856;1.074839
-1.483139;1.019950
-1.521340;0.962041
-1.557309;0.902656
-1.591165;0.841542
-1.623205;0.777950
-1.653252;0.711870
-1.680574;0.644727
-1.704324;0.579032
-1.724039;0.517388
1.107075;1.419290
1.097120;1.426999
1.061816;1.453460
0.893826;1.562394
0.366036;1.762390
-0.569265;1.707612
-1.156292;1.379488
-1.352681;1.187542
-1.407000;1.122653
-1.411152;1.117430
-1.399187;1.132376
-1.425159;1.099510
-1.454075;1.060974
-1.484637;1.017768
-1.516624;0.969460
-1.550337;0.914578
-1.585427;0.852303
-1.620272;0.784041
-1.652643;0.713281
-1.680846;0.644016
1.096478;1.427493
1.076236;1.442816
0.992924;1.501367
0.759450;1.631942
0.215614;1.787040
-0.567884;1.708071
-1.092904;1.430231
-1.311371;1.233007
-1.390858;1.142591
-1.413919;1.113926
-1.412300;1.115979
-1.398757;1.132907
-1.414070;1.113735
-1.436370;1.084823
-1.462061;1.049941
-1.492406;1.006342
-1.527954;0.951501
-1.566672;0.886306
-1.604842;0.815158
-1.639411;0.743191
1.075812;1.443132
1.020370;1.482850
0.887311;1.566103
0.595832;1.698524
0.053577;1.799202
-0.606170;1.694862
-1.059110;1.455433
-1.277390;1.268178
-1.371421;1.165849
-1.408144;1.121218
-1.417468;1.109408
-1.413083;1.114987
-1.401697;1.129268
-1.406966;1.122697
-1.425336;1.099281
-1.449879;1.066702
-1.483551;1.019351
-1.524029;0.957776
-1.565585;0.888224
-1.604051;0.816712
0.985633;1.506163
0.905696;1.555543
0.728552;1.645968
0.395037;1.756117
-0.120319;1.795974
-0.668082;1.671426
-1.049032;1.462714
-1.253558;1.291740
-1.353440;1.186676
-1.399313;1.132221
-1.417058;1.109930
-1.419612;1.106663
-1.413832;1.114037
-1.403628;1.126867
-1.402168;1.128682
-1.419986;1.106183
-1.452168;1.063583
-1.494301;1.003526
-1.537296;0.936334
-1.577139;0.867544
0.839059;1.592476
0.728704;1.645901
0.515876;1.724492
0.166240;1.792307
-0.295882;1.775515
-0.740974;1.640414
-1.055478;1.458069
-1.239488;1.305247
-1.338901;1.203056
-1.390137;1.143468
-1.414226;1.113537
-1.422644;1.102763
-1.421802;1.103847
-1.415435;1.112000
-1.405747;1.124222
-1.399024;1.132578
-1.436470;1.084691
-1.479377;1.025399
-1.520865;0.962792
-1.559364;0.899101
0.646488;1.679897
0.505320;1.727615
0.270106;1.779619
-0.067185;1.798746
-0.460124;1.740197
-0.815391;1.604724
-1.072100;1.445891
-1.233487;1.310919
-1.328363;1.214682
-1.381971;1.153323
-1.410615;1.118108
-1.424034;1.100967
-1.428090;1.095701
-1.426528;1.097733
-1.422371;1.103115
-1.422640;1.102767
-1.445030;1.073261
-1.479255;1.025575
-1.515153;0.971757
-1.549860;0.915387
