20;20;1.000000;1.000000
10.000000;10.000000
1.430680;-1.092316
1.366444;-1.171678
1.298221;-1.246845
1.218449;-1.324908
1.104331;-1.421427
0.927873;-1.542417
0.678044;-1.667410
0.391090;-1.757000
0.148530;-1.793861
0.021335;-1.799874
-0.009536;-1.799975
-0.150990;-1.793656
-0.403286;-1.754241
-0.691702;-1.661791
-0.935902;-1.537559
-1.104854;-1.421019
-1.213055;-1.329849
-1.289921;-1.255430
-1.358034;-1.181416
-1.423387;-1.101803
1.467824;-1.041870
1.399410;-1.132101
1.334619;-1.207805
1.275703;-1.269875
1.189761;-1.350729
1.032964;-1.474105
0.776275;-1.624006
0.449533;-1.742963
0.165909;-1.792338
0.023656;-1.799845
-0.012169;-1.799959
-0.171382;-1.791822
-0.467464;-1.738240
-0.793733;-1.615546
-1.041143;-1.468339
-1.188290;-1.352023
-1.267374;-1.278187
-1.324422;-1.218977
-1.391408;-1.141921
-1.462041;-1.049970
1.506515;-0.985095
1.423297;-1.101919
1.337436;-1.204685
1.301185;-1.243751
1.258409;-1.287014
1.141296;-1.391921
0.904685;-1.556131
0.550513;-1.713749
0.210201;-1.787684
0.029187;-1.799763
-0.019462;-1.799895
-0.219906;-1.786517
-0.572855;-1.706411
-0.921818;-1.546044
-1.145430;-1.388521
-1.251675;-1.293565
-1.286139;-1.259304
-1.326905;-1.216274
-1.418456;-1.108144
-1.503596;-0.989544
1.557995;-0.901472
1.463511;-1.047919
1.344300;-1.197021
1.283366;-1.262130
1.292865;-1.252398
1.231367;-1.312911
1.046249;-1.464706
0.692933;-1.661278
0.282056;-1.777764
0.037995;-1.799599
-0.030957;-1.799734
-0.297663;-1.775217
-0.717341;-1.650885
-1.058173;-1.456114
-1.228273;-1.315806
-1.279259;-1.266292
-1.270396;-1.275184
-1.347162;-1.193798
-1.465198;-1.045559
-1.558744;-0.900176
1.627864;-0.768154
1.546971;-0.920261
1.438160;-1.082449
1.339530;-1.202355
1.284157;-1.261325
1.287749;-1.257657
1.178316;-1.360724
0.871153;-1.575148
0.391698;-1.756864
0.052142;-1.799245
-0.048999;-1.799333
-0.414513;-1.751622
-0.893264;-1.562715
-1.181379;-1.358066
-1.276233;-1.269342
-1.271251;-1.274332
-1.341461;-1.200201
-1.444696;-1.073710
-1.552344;-0.911168
-1.630922;-0.761638
1.702401;-0.584663
1.652273;-0.714138
1.573027;-0.874978
1.470299;-1.038374
1.362349;-1.176437
1.285240;-1.260221
1.275428;-1.270151
1.068134;-1.448823
0.558942;-1.711018
0.076345;-1.798380
-0.079196;-1.798257
-0.588978;-1.700913
-1.081776;-1.438666
-1.267277;-1.278284
-1.272421;-1.273163
-1.366367;-1.171769
-1.477792;-1.027683
-1.580601;-0.861221
-1.657547;-0.701809
-1.705471;-0.575645
1.759496;-0.379700
1.739196;-0.463894
1.701202;-0.588143
1.635880;-0.750931
1.534819;-0.940388
1.400579;-1.130654
1.286796;-1.258633
1.241624;-1.303215
0.809180;-1.607864
0.122567;-1.795822
-0.135761;-1.794873
-0.841384;-1.591249
-1.240169;-1.304600
-1.274108;-1.271475
-1.408095;-1.121279
-1.543545;-0.925995
-1.643081;-0.735040
-1.706109;-0.573753
-1.742172;-0.452588
-1.761250;-0.371480
1.789243;-0.196498
1.784729;-0.233970
1.774635;-0.301116
1.753718;-0.405551
1.710948;-0.559156
1.624249;-0.775767
1.464678;-1.046287
1.289457;-1.255907
1.128106;-1.402632
0.228022;-1.785499
-0.262171;-1.780805
-1.144851;-1.388998
-1.277024;-1.268546
-1.476410;-1.029666
-1.632953;-0.757275
-1.716086;-0.543185
-1.756583;-0.392957
-1.776220;-0.291619
-1.785635;-0.226955
-1.789810;-0.191255
1.798707;-0.068224
1.798321;-0.077718
1.797153;-0.101202
1.794514;-0.140426
1.788449;-0.203596
1.773109;-0.309977
1.728398;-0.502633
1.583084;-0.856647
1.295052;-1.250136
0.547141;-1.714829
-0.625938;-1.687662
-1.283363;-1.262133
-1.597862;-0.828756
-1.733815;-0.483616
-1.775132;-0.298171
-1.789304;-0.195932
-1.794913;-0.135226
-1.797354;-0.097572
-1.798433;-0.075094
-1.798784;-0.066147
1.799982;-0.007920
1.799978;-0.008845
1.799963;-0.011546
1.799929;-0.015953
1.799852;-0.023081
1.799652;-0.035396
1.799018;-0.059436
1.796181;-0.117198
1.770973;-0.321952
1.313413;-1.230832
-1.307557;-1.237051
-1.775536;-0.295759
-1.796630;-0.110100
-1.799115;-0.056445
-1.799682;-0.033814
-1.799864;-0.022134
-1.799935;-0.015345
-1.799966;-0.011142
-1.799980;-0.008570
-1.799983;-0.007706
1.799982;0.007920
1.799978;0.008845
1.799963;0.011546
1.799929;0.015953
1.799852;0.023081
1.799652;0.035396
1.799018;0.059436
1.796180;0.117198
1.770974;0.321951
1.313413;1.230832
-1.307557;1.237051
-1.775536;0.295759
-1.796630;0.110100
-1.799115;0.056445
-1.799682;0.033814
-1.799864;0.022133
-1.799935;0.015345
-1.799966;0.011142
-1.799980;0.008570
-1.799983;0.007706
1.798707;0.068224
1.798321;0.077718
1.797153;0.101202
1.794514;0.140426
1.788449;0.203596
1.773109;0.309976
1.728398;0.502634
1.583084;0.856647
1.295051;1.250137
0.547140;1.714829
-0.625938;1.687662
-1.283363;1.262133
-1.597862;0.828756
-1.733815;0.483616
-1.775132;0.298172
-1.789304;0.195932
-1.794913;0.135226
-1.797354;0.097572
-1.798433;0.075094
-1.798784;0.066147
1.789242;0.196498
1.784729;0.233970
1.774635;0.301116
1.753719;0.405551
1.710948;0.559155
1.624249;0.775767
1.464678;1.046288
1.289457;1.255906
1.128109;1.402630
0.228022;1.785499
-0.262171;1.780805
-1.144852;1.388997
-1.277024;1.268546
-1.476410;1.029667
-1.632953;0.757275
-1.716085;0.543185
-1.756583;0.392956
-1.776220;0.291619
-1.785635;0.226954
-1.789810;0.191256
1.759496;0.379700
1.739196;0.463895
1.701202;0.588142
1.635880;0.750931
1.534819;0.940389
1.400581;1.130652
1.286797;1.258631
1.241624;1.303215
0.809181;1.607863
0.122568;1.795822
-0.135761;1.794873
-0.841384;1.591249
-1.240170;1.304599
-1.274107;1.271476
-1.408096;1.121279
-1.543546;0.925995
-1.643081;0.735040
-1.706109;0.573752
-1.742172;0.452589
-1.761250;0.371479
1.702401;0.584663
1.652273;0.714138
1.573027;0.874977
1.470298;1.038375
1.362348;1.176439
1.285241;1.260221
1.275427;1.270152
1.068134;1.448823
0.558943;1.711018
0.076345;1.798380
-0.079196;1.798257
-0.588977;1.700913
-1.081775;1.438667
-1.267277;1.278284
-1.272421;1.273163
-1.366367;1.171769
-1.477791;1.027683
-1.580600;0.861221
-1.657548;0.701808
-1.705472;0.575645
1.627864;0.768153
1.546972;0.920260
1.438160;1.082449
1.339530;1.202355
1.284157;1.261325
1.287749;1.257657
1.178317;1.360724
0.871153;1.575148
0.391698;1.756864
0.052142;1.799245
-0.048999;1.799333
-0.414513;1.751622
-0.893263;1.562716
-1.181380;1.358065
-1.276232;1.269342
-1.271252;1.274331
-1.341461;1.200200
-1.444696;1.073709
-1.552345;0.911167
-1.630923;0.761637
1.557995;0.901472
1.463511;1.047919
1.344299;1.197021
1.283366;1.262130
1.292865;1.252398
1.231366;1.312912
1.046248;1.464706
0.692933;1.661278
0.282056;1.777764
0.037995;1.799599
-0.030957;1.799734
-0.297664;1.775217
-0.717341;1.650885
-1.058173;1.456115
-1.228274;1.315805
-1.279259;1.266292
-1.270396;1.275184
-1.347163;1.193797
-1.465198;1.045559
-1.558744;0.900176
1.506515;0.985095
1.423297;1.101919
1.337436;1.204685
1.301185;1.243751
1.258409;1.287015
1.141296;1.391920
0.904685;1.556132
0.550513;1.713749
0.210201;1.787684
0.029187;1.799763
-0.019462;1.799895
-0.219906;1.786517
-0.572855;1.706410
-0.921818;1.546044
-1.145430;1.388521
-1.251675;1.293565
-1.286139;1.259304
-1.326905;1.216274
-1.418455;1.108144
-1.503597;0.989543
1.467823;1.041871
1.399410;1.132100
1.334620;1.207804
1.275702;1.269876
1.189761;1.350729
1.032964;1.474105
0.776275;1.624007
0.449534;1.742963
0.165910;1.792338
0.023656;1.799845
-0.012169;1.799959
-0.171382;1.791822
-0.467463;1.738240
-0.793732;1.615546
-1.041143;1.468340
-1.188289;1.352024
-1.267374;1.278187
-1.324422;1.218978
-1.391408;1.141921
-1.462041;1.049970
1.430680;1.092316
1.366445;1.171678
1.298220;1.246846
1.218450;1.324908
1.104331;1.421426
0.927873;1.542417
0.678043;1.667410
0.391089;1.757000
0.148530;1.793861
0.021335;1.799874
-0.009536;1.799975
-0.150991;1.793656
-0.403286;1.754241
-0.691702;1.661791
-0.935902;1.537559
-1.104855;1.421019
-1.213055;1.329849
-1.289921;1.255430
-1.358035;1.181415
-1.423387;1.101803
