20;20;1.000000;1.000000
10.000000;10.000000
1.250417;-1.294781
1.193887;-1.347083
1.093899;-1.429470
0.915190;-1.549977
0.602287;-1.696246
0.136348;-1.794828
-0.320665;-1.771207
-0.527268;-1.721043
-0.419519;-1.750430
-0.101769;-1.797121
-0.186484;-1.790314
-0.697399;-1.659408
-1.157257;-1.378679
-1.390715;-1.142766
-1.457376;-1.056435
-1.446293;-1.071558
-1.405167;-1.124947
-1.356988;-1.182617
-1.311692;-1.232666
-1.276327;-1.269247
1.209213;-1.333343
1.247730;-1.297370
1.169026;-1.368714
1.012128;-1.488488
0.694292;-1.660710
0.135127;-1.794921
-0.460768;-1.740027
-0.707351;-1.655190
-0.529822;-1.720258
-0.131744;-1.795172
-0.206590;-1.788105
-0.785918;-1.619362
-1.295733;-1.249430
-1.490580;-1.009045
-1.505897;-0.986040
-1.453668;-1.061531
-1.385452;-1.149140
-1.323374;-1.220116
-1.277329;-1.268239
-1.322243;-1.221341
1.147599;-1.386728
1.194316;-1.346703
1.242117;-1.302745
1.110490;-1.416620
0.796498;-1.614184
0.097608;-1.797351
-0.727284;-1.646529
-1.065062;-1.451084
-0.871364;-1.575032
-0.243179;-1.783498
-0.328264;-1.769814
-1.102553;-1.422806
-1.541157;-0.929965
-1.616282;-0.792232
-1.552405;-0.911065
-1.445136;-1.073117
-1.347594;-1.193311
-1.279049;-1.266505
-1.337525;-1.204586
-1.393417;-1.139469
1.069005;-1.448181
1.099984;-1.424793
1.159640;-1.376676
1.229285;-1.314861
0.940189;-1.534941
0.006841;-1.799987
-1.113696;-1.414100
-1.500095;-0.994845
-1.497182;-0.999222
-0.635798;-1.683972
-0.750115;-1.636254
-1.650453;-0.718335
-1.768349;-0.336065
-1.731711;-0.491098
-1.577907;-0.866146
-1.398829;-1.132818
-1.282243;-1.263271
-1.368914;-1.168792
-1.436231;-1.085007
-1.496493;-1.000254
0.985899;-1.505989
0.965840;-1.518931
0.976086;-1.512367
1.064948;-1.451167
1.188187;-1.352113
-0.237300;-1.784289
-1.416189;-1.111040
-1.703415;-0.581702
-1.792442;-0.164779
-1.795525;-0.126850
-1.797526;0.094340
-1.765641;0.350015
-1.765418;0.351140
-1.797240;-0.099646
-1.540910;-0.930374
-1.289288;-1.256080
-1.433741;-1.088296
-1.520973;-0.962621
-1.581320;-0.859899
-1.628593;-0.766605
0.946400;-1.531120
0.830149;-1.597139
0.685742;-1.664259
0.527284;-1.721038
0.274865;-1.778890
-1.031305;-1.475266
-1.390560;-1.142954
-1.702502;-0.584368
-1.799963;-0.011549
-1.746240;0.436629
-1.659321;0.697605
-1.666218;0.680967
-1.642585;0.736149
-1.712550;0.554232
-1.316377;-1.227661
-1.607619;-0.809667
-1.686969;-0.627803
-1.719670;-0.531728
-1.738520;-0.466421
-1.752370;-0.411340
1.042259;-1.467548
0.831247;-1.596568
0.477242;-1.735580
-0.034756;-1.799664
-0.639759;-1.682471
-0.967786;-1.517692
-1.665960;-0.681599
-1.794800;0.136719
-1.679000;0.648814
-0.804990;1.609966
-0.644663;1.680598
-1.290236;1.255106
-1.427795;1.096084
-1.390374;1.143180
-1.503731;0.989339
-1.713459;0.551414
-1.775893;0.293608
-1.794930;0.135009
-1.799479;0.043284
-1.799999;-0.002233
1.331179;-1.211595
1.129167;-1.401778
0.657337;-1.675681
-0.035706;-1.799646
-0.468879;-1.737859
-0.775618;-1.624320
-1.792296;0.166360
-1.376152;1.160261
-1.391095;1.142302
-0.469427;1.737711
-0.131013;1.795226
0.420158;1.750276
1.246289;1.298755
-0.945475;1.531691
-0.948830;1.529615
-1.224791;1.319048
-1.498757;0.996859
-1.686023;0.630339
-1.756573;0.393001
-1.778919;0.274679
1.656352;-0.704626
1.585892;-0.851438
1.280654;-1.264882
0.406835;-1.753421
-0.210202;-1.787684
-0.581303;-1.703551
-1.720034;-0.530548
-1.596591;0.831201
-1.320543;1.223179
-0.541485;1.716623
0.400745;1.754823
1.266622;1.278932
0.921432;1.546274
-0.286267;1.777091
-0.982110;1.508463
-0.910278;1.552866
-1.351540;1.188840
-1.672115;0.666356
-1.756799;0.391991
-1.776181;0.291854
1.791181;-0.177965
1.785744;-0.226091
1.756922;-0.391440
1.485711;-1.016200
-0.236008;-1.784461
-0.595957;-1.698480
-1.745227;-0.440663
-1.799598;0.038027
-1.719435;0.532488
-1.260194;1.285267
1.288317;1.257076
1.695764;0.603644
1.720866;0.527844
1.254305;1.291015
-0.263427;1.780620
-0.404745;1.753905
-1.658616;0.699281
-1.782234;0.252274
-1.796208;0.116775
-1.798415;0.075521
1.793677;-0.150739
1.789043;-0.198303
1.764355;-0.356444
1.518735;-0.966150
-0.056628;-1.799109
-0.346979;-1.766241
-1.676286;-0.655793
-1.764010;-0.358147
-1.708049;-0.567952
-1.275509;-1.270069
1.266394;-1.279159
1.748988;-0.425489
1.799883;0.020528
1.681633;0.641957
0.235451;1.784534
-0.117319;1.796173
-1.688222;0.624424
-1.782224;0.252345
-1.794448;0.141263
-1.796292;0.115477
1.744947;-0.441771
1.702220;-0.585188
1.519748;-0.964555
0.912002;-1.551855
0.206960;-1.788062
0.280854;-1.777954
-0.607532;-1.694374
-1.166549;-1.370826
-1.212961;-1.329934
-0.298386;-1.775096
0.647362;-1.679560
1.213668;-1.329289
1.672756;-0.664746
1.467539;1.042271
0.551100;1.713560
0.250169;1.782531
-0.758753;1.632266
-1.479180;1.025684
-1.665700;0.682234
-1.705370;0.575945
1.731743;-0.490985
1.667265;-0.678401
1.479960;-1.024557
1.100121;-1.424687
0.843827;-1.589955
0.914389;-1.550449
0.013163;-1.799952
-1.191028;-1.349612
-0.537681;-1.717818
0.072128;-1.798554
0.522927;-1.722367
1.402085;-1.128786
1.264769;-1.280765
1.492853;1.005678
0.888817;1.565249
0.495366;1.730495
-0.252967;1.782136
-0.969482;1.516610
-1.332250;1.210417
-1.470485;1.038110
1.786417;-0.220712
1.767465;-0.340689
1.711014;-0.558955
1.571822;-0.877141
1.361013;-1.177983
1.307936;-1.236650
1.285083;-1.260382
0.933740;-1.538873
1.124558;-1.405478
0.500858;-1.728913
0.993070;-1.501270
1.773446;-0.308041
1.743551;0.447247
1.332541;1.210097
1.022289;1.481528
0.337125;1.768148
-0.306759;1.773668
-0.772095;1.625998
-1.066056;1.450354
-1.231686;1.312612
1.781610;0.256643
1.778938;0.274551
1.777803;0.281809
1.775533;0.295773
1.761713;0.369279
1.793607;-0.151565
1.610999;-0.802922
1.745873;-0.438094
1.758451;-0.384512
1.757546;-0.388629
1.794929;-0.135023
1.769248;0.331302
1.570161;0.880110
1.280941;1.264591
-0.331709;1.769172
-0.666429;1.672086
-0.748493;1.636997
-0.884655;1.567605
-1.015732;1.486031
-1.120150;1.408994
1.662320;0.690430
1.623005;0.778366
1.570972;0.878662
1.485609;1.016350
1.313942;1.230267
1.666469;0.680354
1.784718;-0.234053
1.772316;-0.314475
1.796074;-0.118819
1.770069;0.326889
1.745002;0.441551
1.732914;0.486836
1.543747;0.925660
0.906040;1.555343
-0.826943;1.598801
-1.257502;1.287901
-1.111814;1.415581
-1.072188;1.445826
-1.085193;1.436090
-1.117698;1.410940
1.518637;0.966304
1.460659;1.051891
1.393347;1.139554
1.301764;1.243145
1.443735;1.075003
1.650186;0.718948
1.770368;0.325267
1.770130;0.326556
1.579241;0.863712
0.603268;1.695898
0.619754;1.689942
1.293560;1.251680
1.197303;1.344048
0.480353;1.734722
-0.634514;1.684456
-1.140803;1.392325
-1.282954;1.262549
-1.208052;1.334395
-1.173951;1.364492
-1.162406;1.374341
1.408262;1.121069
1.354095;1.185929
1.297366;1.247734
1.376641;1.159681
1.483727;1.019095
1.594811;0.834613
1.639889;0.742135
1.516394;0.969819
1.012162;1.488465
0.281488;1.777854
0.277600;1.778465
0.724767;1.647639
0.739048;1.641282
0.210470;1.787653
-0.551416;1.713459
-1.011313;1.489042
-1.211914;1.330888
-1.291780;1.253517
-1.244895;1.300091
-1.215070;1.328008
1.335847;1.206447
1.296781;1.248342
1.347539;1.193373
1.410860;1.117799
1.479291;1.025523
1.523695;0.958307
1.481482;1.022355
1.230737;1.313501
0.694315;1.660701
0.173642;1.791605
0.164506;1.792467
0.439921;1.745414
0.449432;1.742989
0.068543;1.798695
-0.497180;1.729975
-0.910717;1.552609
-1.131206;1.400133
-1.242118;1.302745
-1.295274;1.249906
-1.261142;1.284337
1.297356;1.247745
1.334441;1.208001
1.377719;1.158400
1.423046;1.102244
1.457746;1.055924
1.453122;1.062278
1.352214;1.188073
1.065999;1.450395
0.591587;1.700007
0.141459;1.794433
0.130120;1.795291
0.334140;1.768714
0.307884;1.773473
0.000686;1.800000
-0.448913;1.743123
-0.821016;1.601853
-1.051485;1.460951
-1.182208;1.357344
-1.255994;1.289372
-1.296299;1.248843
