20;20;1.000000;1.000000
10.000000;10.000000
1.356081;-1.183657
1.296151;-1.248997
1.228238;-1.315839
1.150063;-1.384686
1.057204;-1.456818
0.942946;-1.533249
0.800929;-1.611990
0.630985;-1.685781
0.442967;-1.744643
0.250407;-1.782497
0.058157;-1.799060
-0.137604;-1.794733
-0.335561;-1.768445
-0.523674;-1.722140
-0.689077;-1.662881
-0.827602;-1.598460
-0.943021;-1.533203
-1.041404;-1.468154
-1.127499;-1.403120
-1.204088;-1.337973
1.400825;-1.130349
1.342918;-1.198570
1.277714;-1.267852
1.203642;-1.338374
1.115816;-1.412429
1.003741;-1.494156
0.853848;-1.584595
0.661510;-1.674038
0.444478;-1.744259
0.232287;-1.784949
0.030739;-1.799737
-0.180559;-1.790921
-0.404895;-1.753870
-0.616390;-1.691172
-0.791333;-1.616723
-0.927742;-1.542496
-1.036669;-1.471501
-1.128802;-1.402072
-1.209988;-1.332640
-1.282552;-1.262957
1.448180;-1.069006
1.392008;-1.141189
1.329006;-1.213978
1.259622;-1.285827
1.180808;-1.358562
1.078489;-1.441132
0.925605;-1.543779
0.703053;-1.657020
0.438552;-1.745758
0.202135;-1.788614
0.006675;-1.799988
-0.219540;-1.786561
-0.486657;-1.732964
-0.730575;-1.645071
-0.910021;-1.553017
-1.035272;-1.472485
-1.132291;-1.399256
-1.216612;-1.326596
-1.292877;-1.252385
-1.361474;-1.177450
1.498735;-0.996892
1.443916;-1.074759
1.381186;-1.154264
1.313885;-1.230328
1.245892;-1.299135
1.165042;-1.372106
1.023452;-1.480725
0.768074;-1.627901
0.423651;-1.749434
0.143428;-1.794276
-0.003578;-1.799996
-0.251399;-1.782358
-0.593767;-1.699247
-0.875999;-1.572459
-1.043527;-1.466646
-1.143196;-1.390361
-1.224757;-1.319080
-1.302897;-1.241958
-1.375850;-1.160619
-1.440800;-1.078932
1.553591;-0.909041
1.500958;-0.993541
1.436466;-1.084696
1.363455;-1.175156
1.296529;-1.248604
1.247149;-1.297929
1.141784;-1.391520
0.878248;-1.571203
0.436803;-1.746197
0.080263;-1.798210
0.002515;-1.799998
-0.300644;-1.774715
-0.749561;-1.636508
-1.050034;-1.461995
-1.175316;-1.363316
-1.236356;-1.308214
-1.309594;-1.234894
-1.388528;-1.145422
-1.460287;-1.052408
-1.520893;-0.962749
1.613249;-0.798391
1.566844;-0.886002
1.503764;-0.989290
1.420253;-1.105839
1.326123;-1.217127
1.280674;-1.264861
1.239930;-1.304827
1.034289;-1.473176
0.544171;-1.715773
0.095629;-1.797458
-0.011055;-1.799966
-0.422882;-1.749620
-0.951962;-1.527667
-1.198297;-1.343162
-1.258103;-1.287314
-1.302402;-1.242477
-1.394349;-1.138328
-1.480437;-1.023869
-1.548752;-0.917261
-1.601312;-0.822071
1.675052;-0.658939
1.641695;-0.738130
1.592695;-0.838644
1.517191;-0.968573
1.411823;-1.116582
1.317518;-1.226436
1.280617;-1.264919
1.191787;-1.348942
0.757993;-1.632620
0.140204;-1.794531
-0.041280;-1.799526
-0.644593;-1.680625
-1.143176;-1.390377
-1.258462;-1.286963
-1.291591;-1.253711
-1.396150;-1.136118
-1.507502;-0.983584
-1.586576;-0.850162
-1.640061;-0.741755
-1.678184;-0.650922
1.731458;-0.491990
1.714905;-0.546902
1.691965;-0.614209
1.654312;-0.709403
1.585438;-0.852283
1.476981;-1.028848
1.351796;-1.188549
1.280563;-1.264974
1.057247;-1.456787
0.239023;-1.784060
-0.101334;-1.797145
-0.965369;-1.519231
-1.256536;-1.288843
-1.322078;-1.221520
-1.458019;-1.055547
-1.579565;-0.863118
-1.653647;-0.710951
-1.695073;-0.605582
-1.722387;-0.522860
-1.742729;-0.450438
1.773212;-0.309387
1.768772;-0.333837
1.765838;-0.349020
1.763957;-0.358406
1.753348;-0.407151
1.715422;-0.545277
1.623185;-0.777991
1.441509;-1.077985
1.280846;-1.264687
0.497488;-1.729886
-0.229095;-1.785361
-1.248706;-1.296431
-1.404370;-1.125942
-1.611368;-0.802180
-1.714987;-0.546642
-1.753927;-0.404649
-1.764608;-0.355189
-1.770548;-0.324281
-1.777946;-0.280907
-1.785041;-0.231576
1.795633;-0.125308
1.795177;-0.131681
1.795897;-0.121459
1.798407;-0.075701
1.799399;-0.046517
1.798552;-0.072178
1.795483;-0.127440
1.783552;-0.242782
1.719643;-0.531814
1.308463;-1.236092
-0.657623;-1.675569
-1.703922;-0.580216
-1.780125;-0.266752
-1.794128;-0.145276
-1.797649;-0.091976
-1.798643;-0.069886
-1.797937;-0.086147
-1.798456;-0.074530
-1.799512;-0.041926
-1.799989;-0.006212
1.799073;0.057749
1.799124;0.056142
1.799258;0.051684
1.799586;0.038602
1.799739;0.030641
1.799577;0.039003
1.799055;0.058307
1.797033;0.103311
1.785496;0.228043
1.639257;0.743529
-1.296632;1.248498
-1.790314;0.186479
-1.796481;0.112496
-1.799032;0.059021
-1.799732;0.031065
-1.799818;0.025562
-1.797787;0.089238
-1.793055;0.157964
-1.788999;0.198705
-1.786072;0.223485
1.782847;0.247905
1.781213;0.259386
1.780581;0.263686
1.780865;0.261766
1.776570;0.289482
1.756811;0.391936
1.699206;0.593886
1.543050;0.926821
1.247570;1.297524
0.642333;1.681490
-0.170806;1.791878
-1.241349;1.303477
-1.428252;1.095489
-1.627410;0.769115
-1.714617;0.547803
-1.744437;0.443777
-1.746984;0.433644
-1.742380;0.451786
-1.740342;0.459574
-1.740973;0.457180
1.743876;0.445976
1.732852;0.487055
1.717721;0.537992
1.692543;0.612617
1.641593;0.738357
1.542050;0.928483
1.386573;1.147787
1.224713;1.319120
1.118691;1.410152
0.277513;1.778479
-0.088166;1.797839
-0.959007;1.523255
-1.239376;1.305353
-1.312972;1.231302
-1.437835;1.082881
-1.534534;0.940854
-1.593179;0.837724
-1.627324;0.769297
-1.649798;0.719838
-1.666455;0.680388
1.683363;0.637407
1.654575;0.708789
1.611313;0.802291
1.542567;0.927624
1.438143;1.082472
1.313896;1.230316
1.216660;1.326552
1.177842;1.361135
0.855234;1.583848
0.142589;1.794343
-0.057201;1.799091
-0.642571;1.681399
-1.135101;1.396977
-1.239497;1.305238
-1.271267;1.274315
-1.340639;1.201118
-1.419468;1.106847
-1.487919;1.012964
-1.538854;0.933770
-1.575595;0.870344
1.610347;0.804228
1.563845;0.891285
1.498035;0.997944
1.406787;1.122920
1.297043;1.248071
1.213877;1.329098
1.193421;1.347496
1.070153;1.447333
0.629899;1.686187
0.080219;1.798212
-0.043267;1.799480
-0.443723;1.744451
-0.966188;1.518710
-1.191659;1.349055
-1.239752;1.304996
-1.255257;1.290089
-1.308907;1.235622
-1.377337;1.158854
-1.437944;1.082736
-1.486026;1.015739
1.535998;0.938461
1.478967;1.025991
1.405965;1.123949
1.318832;1.225023
1.233572;1.310840
1.195799;1.345387
1.141792;1.391514
0.938908;1.535725
0.500212;1.729100
0.056813;1.799103
-0.037376;1.799612
-0.343913;1.766840
-0.809336;1.607786
-1.098467;1.425963
-1.211163;1.331572
-1.238459;1.306223
-1.256464;1.288914
-1.305294;1.239438
-1.358927;1.180388
-1.407555;1.121958
1.466909;1.043157
1.406281;1.123554
1.335367;1.206978
1.259464;1.285982
1.191120;1.349531
1.136623;1.395739
1.039696;1.469365
0.819629;1.602563
0.464792;1.738956
0.131256;1.795208
-0.038813;1.799581
-0.312364;1.772690
-0.688839;1.662979
-0.977546;1.511425
-1.128787;1.402084
-1.187741;1.352505
-1.214226;1.328780
-1.250660;1.294546
-1.295034;1.250155
-1.339704;1.202161
1.404338;1.125982
1.343276;1.198169
1.275378;1.270201
1.204283;1.337798
1.133213;1.398509
1.053509;1.459493
0.931318;1.540339
0.729161;1.645698
0.457266;1.740950
0.191630;1.789770
-0.034048;1.799678
-0.295257;1.775619
-0.596820;1.698177
-0.852306;1.585426
-1.015329;1.486306
-1.102411;1.422916
-1.151788;1.383251
-1.192995;1.347873
-1.235129;1.309372
-1.277345;1.268223
1.347026;1.193951
1.285913;1.259534
1.218859;1.324531
1.146803;1.387387
1.067928;1.448976
0.972584;1.514622
0.842013;1.590916
0.661054;1.674219
0.438804;1.745695
0.206344;1.788134
-0.023410;1.799848
-0.267022;1.780084
-0.519317;1.723459
-0.740662;1.640555
-0.902052;1.557659
-1.006672;1.492184
-1.075178;1.443604
-1.127157;1.403395
-1.173046;1.365270
-1.216057;1.327104
1.293531;1.251709
1.231854;1.312454
1.163919;1.373060
1.088967;1.433231
1.003762;1.494143
0.900977;1.558281
0.770540;1.626735
0.606279;1.694823
0.413304;1.751907
0.204958;1.788293
-0.010519;1.799969
-0.232017;1.784984
-0.450523;1.742707
-0.645237;1.680378
-0.799503;1.612698
-0.912180;1.551750
-0.993513;1.500977
-1.055795;1.457840
-1.107753;1.418761
-1.153855;1.381528
