20;20;1.000000;1.000000
10.000000;10.000000
1.291513;-1.253791
1.272511;-1.273073
1.230684;-1.313551
1.149456;-1.385189
1.000315;-1.496453
0.746917;-1.637717
0.395598;-1.755990
0.074321;-1.798465
-0.067149;-1.798747
-0.018952;-1.799900
-0.067243;-1.798743
-0.381975;-1.759004
-0.784035;-1.620274
-1.105863;-1.420235
-1.275871;-1.269705
-1.340707;-1.201043
-1.352830;-1.187372
-1.341124;-1.200577
-1.319280;-1.224541
-1.293794;-1.251438
1.284365;-1.261113
1.291532;-1.253772
1.264390;-1.281139
1.200638;-1.341070
1.067369;-1.449387
0.810375;-1.607262
0.407824;-1.753191
0.026030;-1.799812
-0.113175;-1.796439
-0.036620;-1.799627
-0.082164;-1.798124
-0.435769;-1.746455
-0.896181;-1.561044
-1.216937;-1.326297
-1.345302;-1.195894
-1.370634;-1.166774
-1.355156;-1.184716
-1.326047;-1.217210
-1.293594;-1.251644
-1.326660;-1.216541
1.286053;-1.259392
1.279906;-1.265638
1.291081;-1.254237
1.246893;-1.298175
1.134765;-1.397251
0.880660;-1.569853
0.406496;-1.753500
-0.087557;-1.797869
-0.235890;-1.784476
-0.084485;-1.798016
-0.134833;-1.794943
-0.612403;-1.692620
-1.124163;-1.405794
-1.370391;-1.167060
-1.415700;-1.111663
-1.386715;-1.147616
-1.340393;-1.201393
-1.294275;-1.250941
-1.339185;-1.202740
-1.387861;-1.146229
1.309413;-1.235086
1.280547;-1.264989
1.268804;-1.276768
1.289211;-1.256159
1.206921;-1.335418
0.960802;-1.522123
0.356282;-1.764387
-0.381955;-1.759008
-0.562758;-1.709767
-0.204203;-1.788379
-0.261652;-1.780881
-1.034140;-1.473280
-1.479152;-1.025723
-1.545148;-0.923318
-1.468056;-1.041543
-1.371459;-1.165805
-1.296950;-1.248167
-1.363435;-1.175179
-1.423569;-1.101568
-1.481579;-1.022215
1.371762;-1.165447
1.314284;-1.229901
1.261610;-1.283877
1.237574;-1.307061
1.283083;-1.262417
1.076498;-1.442620
0.171416;-1.791819
-1.018451;-1.484169
-1.373133;-1.163832
-0.678139;-1.667371
-0.732063;-1.644410
-1.702914;-0.583167
-1.773610;-0.307094
-1.705610;-0.575235
-1.463425;-1.048040
-1.304237;-1.240550
-1.411551;-1.116926
-1.489857;-1.010112
-1.552774;-0.910435
-1.604091;-0.816635
1.485622;-1.016331
1.410940;-1.117698
1.306744;-1.237910
1.188003;-1.352275
1.116024;-1.412264
1.253342;-1.291950
-0.411151;-1.752414
-1.369139;-1.168528
-1.796675;-0.109365
-1.798061;-0.083520
-1.795812;-0.122721
-1.799801;-0.026729
-1.784284;0.237336
-1.790181;0.187753
-1.336115;-1.206150
-1.537475;-0.936040
-1.615846;-0.793122
-1.664838;-0.684336
-1.698764;-0.595148
-1.722215;-0.523427
1.628237;-0.767362
1.571800;-0.877180
1.454555;-1.060316
1.223105;-1.320611
0.798959;-1.612967
-0.140933;-1.794474
-1.318064;-1.225850
-1.721054;-0.527230
-1.775666;0.294973
-0.876244;1.572322
-0.622509;1.688929
-1.068043;1.448891
-0.766927;1.628442
-1.340605;1.201158
-1.686931;0.627903
-1.799972;0.009949
-1.791449;-0.175247
-1.786451;-0.220435
-1.786250;-0.222058
-1.787241;-0.213933
1.738360;-0.467015
1.717849;-0.537581
1.654516;-0.708926
1.448295;-1.068850
0.734441;-1.643349
-0.203866;-1.788418
-1.538931;-0.933645
-1.323788;1.219666
-1.416021;1.111253
-0.407757;1.753207
0.011237;1.799965
0.879273;1.570630
1.253901;1.291407
-0.263346;1.780632
-0.580368;1.703870
-1.480096;1.024362
-1.767119;0.342475
-1.796675;0.109359
-1.799782;0.028007
-1.799992;-0.005326
1.787671;-0.210315
1.784388;-0.236561
1.769163;-0.331758
1.701690;-0.586730
1.155442;-1.380201
0.019256;-1.799897
-1.317172;-1.226807
-1.724903;0.514501
-1.309315;1.235190
-0.617125;1.690904
0.564989;1.709031
1.284449;1.261028
1.350452;1.190076
0.675697;1.668362
-0.045259;1.799431
-1.397725;1.134180
-1.762745;0.364320
-1.792978;0.158844
-1.797865;0.087646
-1.798936;0.061894
1.799442;-0.044811
1.799206;-0.053460
1.798188;-0.080744
1.793980;-0.147089
1.749805;-0.422116
0.043936;-1.799464
-1.732072;-0.489823
-1.799146;-0.055442
-1.786175;0.222663
-1.325470;1.217837
1.344019;1.197336
1.768404;0.335775
1.784890;0.232737
1.729023;0.500478
-0.247260;1.782936
-1.765947;0.348468
-1.795910;0.121268
-1.798921;0.062315
-1.799592;0.038305
-1.799749;0.030065
1.799693;-0.033256
1.799507;-0.042120
1.798703;-0.068320
1.794999;-0.134086
1.752146;-0.412291
0.168290;-1.792116
-1.724199;-0.516853
-1.783705;-0.241653
-1.765418;-0.351138
-1.315434;-1.228671
1.352770;-1.187439
1.786884;-0.216900
1.799288;0.050611
1.737761;0.469239
-0.041104;1.799531
-1.755215;0.399025
-1.794718;0.137789
-1.798408;0.075682
-1.799304;0.050059
-1.799513;0.041876
1.798480;-0.073963
1.797127;-0.101648
1.791059;-0.179185
1.755428;-0.398084
1.384275;-1.150557
0.125132;-1.795645
-0.591190;-1.700145
-1.321844;-1.221773
-1.280436;-1.265102
-0.455407;-1.741437
0.738000;-1.641754
1.311931;-1.232412
1.725843;-0.511336
1.345322;1.195871
-0.017604;1.799914
-1.156785;1.379075
-1.706759;0.571817
-1.771338;0.319937
-1.785610;0.227149
-1.788685;0.201510
1.799917;-0.017227
1.799162;-0.054904
1.794045;-0.146291
1.756803;-0.391971
1.500180;-0.994716
1.181575;-1.357896
0.456448;-1.741165
-1.250850;-1.294362
-0.826705;-1.598925
0.045791;-1.799417
0.516990;-1.724158
1.437061;-1.083908
1.324533;-1.218858
1.550578;0.914171
0.218407;1.786700
-0.719675;1.649869
-1.451304;1.064761
-1.658690;0.699105
-1.721119;0.527019
-1.741188;0.456361
1.790833;0.181426
1.790673;0.183005
1.792175;0.167659
1.797547;0.093946
1.793301;-0.155145
1.618512;-0.787667
1.207852;-1.334576
0.685958;-1.664170
1.134676;-1.397323
0.641340;-1.681869
0.996294;-1.499132
1.778858;-0.275072
1.723497;0.519190
1.318608;1.225265
0.159318;1.792935
-0.786888;1.618891
-1.219847;1.323622
-1.455897;1.058473
-1.574630;0.872089
-1.631460;0.760486
1.732567;0.488068
1.711864;0.556348
1.682172;0.640545
1.638561;0.745062
1.561767;0.894921
1.340017;1.201813
1.777361;-0.284587
1.786866;-0.217045
1.799468;-0.043758
1.799702;0.032733
1.798065;0.083442
1.796708;0.108811
1.372859;1.164156
0.428425;1.748271
-1.253108;1.292177
-1.113292;1.414419
-1.185045;1.354868
-1.305201;1.239536
-1.410969;1.117661
-1.486804;1.014600
1.618133;0.788446
1.567539;0.884772
1.504182;0.988654
1.422278;1.103234
1.305397;1.239330
1.474588;1.032274
1.713000;0.552838
1.775622;0.295236
1.701391;0.587595
0.773095;1.625522
0.727075;1.646621
1.404441;1.125854
1.058167;1.456119
-0.143752;1.794251
-1.073429;1.444905
-1.282994;1.262508
-1.236486;1.308091
-1.260113;1.285347
-1.313015;1.231256
-1.371065;1.166268
1.493705;1.004413
1.433469;1.088654
1.369709;1.167860
1.297424;1.247674
1.378969;1.156912
1.481337;1.022566
1.557220;0.902809
1.482837;1.020390
1.036618;1.471537
0.303750;1.774186
0.281738;1.777814
0.638742;1.682857
0.445789;1.743924
-0.324499;1.770508
-0.953651;1.526614
-1.205674;1.336544
-1.289169;1.256202
-1.268146;1.277421
-1.279487;1.266062
-1.308223;1.236347
1.395602;1.136791
1.343497;1.197922
1.294492;1.250716
1.345723;1.195421
1.397623;1.134306
1.430981;1.091922
1.386611;1.147741
1.137707;1.394856
0.634464;1.684475
0.177460;1.791231
0.164631;1.792455
0.314059;1.772390
0.150797;1.793672
-0.372709;1.760991
-0.869755;1.575921
-1.131798;1.399655
-1.246145;1.298893
-1.291060;1.254258
-1.279427;1.266123
-1.285164;1.260299
1.330046;1.212838
1.293748;1.251485
1.330167;1.212706
1.363859;1.174686
1.384139;1.150721
1.362957;1.175733
1.236767;1.307825
0.916294;1.549324
0.463148;1.739394
0.124745;1.795672
0.116614;1.796219
0.188850;1.790066
0.034188;1.799675
-0.372344;1.761068
-0.795806;1.614526
-1.062275;1.453125
-1.198872;1.342649
-1.263834;1.281688
-1.291515;1.253789
-1.283964;1.261522
1.293985;1.251241
1.322838;1.220696
1.348570;1.192207
1.364601;1.173824
1.357050;1.182546
1.296632;1.248497
1.129949;1.401148
0.809741;1.607582
0.411067;1.752434
0.105662;1.796896
0.101201;1.797153
0.140638;1.794497
-0.015946;1.799929
-0.357989;1.764042
-0.728379;1.646045
-0.992467;1.501669
-1.146204;1.387882
-1.229333;1.314815
-1.272023;1.273560
-1.291491;1.253814
