20;20;1.000000;1.000000
10.000000;10.000000
0.956267;-1.524977
0.893056;-1.562834
0.771321;-1.626365
0.550289;-1.713821
0.177908;-1.791186
-0.305986;-1.773802
-0.710526;-1.653830
-0.929161;-1.541642
-1.005477;-1.492989
-0.992331;-1.501759
-1.043239;-1.466851
-1.287158;-1.258262
-1.465027;-1.045798
-1.551882;-0.911956
-1.588093;-0.847326
-1.601234;-0.822222
-1.603690;-0.817421
-1.600834;-0.823000
-1.595171;-0.833924
-1.593541;-0.837034
0.927914;-1.542393
0.941053;-1.534411
0.850589;-1.586348
0.661409;-1.674078
0.290159;-1.776459
-0.264473;-1.780465
-0.732628;-1.644158
-0.947677;-1.530330
-0.994226;-1.500505
-0.974957;-1.513096
-1.123664;-1.406193
-1.362665;-1.176072
-1.519198;-0.965421
-1.579953;-0.862408
-1.598602;-0.827328
-1.601011;-0.822656
-1.596552;-0.831277
-1.592852;-0.838345
-1.602753;-0.819256
-1.617272;-0.790209
0.901229;-1.558136
0.942582;-1.533473
0.907028;-1.554767
0.755733;-1.633667
0.407358;-1.753300
-0.218118;-1.786736
-0.766597;-1.628597
-0.967442;-1.517912
-0.974080;-1.513661
-1.051525;-1.460923
-1.268128;-1.277440
-1.484860;-1.017443
-1.576170;-0.869303
-1.598106;-0.828285
-1.597816;-0.828844
-1.592081;-0.839808
-1.604162;-0.816495
-1.618121;-0.788470
-1.634483;-0.753967
-1.655159;-0.707424
0.878442;-1.571095
0.910694;-1.552622
0.953679;-1.526596
0.840097;-1.591928
0.536872;-1.718071
-0.152068;-1.793565
-0.816357;-1.604232
-0.981091;-1.509126
-1.005095;-1.493247
-1.205777;-1.336452
-1.468981;-1.040237
-1.590876;-0.842089
-1.601519;-0.821666
-1.591453;-0.840997
-1.606979;-0.810937
-1.624924;-0.774352
-1.644628;-0.731573
-1.665344;-0.683104
-1.686646;-0.628670
-1.708685;-0.566037
0.865648;-1.578180
0.882453;-1.568846
0.920958;-1.546556
0.914435;-1.550422
0.674196;-1.668970
-0.054680;-1.799169
-0.893606;-1.562520
-0.967993;-1.517560
-1.210310;-1.332348
-1.564850;-0.889518
-1.709560;-0.563386
-1.599012;-0.826536
-1.625310;-0.773541
-1.649397;-0.720757
-1.669337;-0.673286
-1.691517;-0.615442
-1.714903;-0.546907
-1.736191;-0.475015
-1.753756;-0.405386
-1.767794;-0.338974
0.876690;-1.572073
0.866480;-1.577724
0.881013;-1.569655
0.940176;-1.534949
0.794311;-1.615262
-0.051583;-1.799261
-1.283665;-1.261825
-1.589140;-0.845360
-1.799382;0.047176
-1.352116;1.188184
-1.341216;1.200475
-1.577830;0.866286
-1.795621;0.125480
-1.785207;-0.230298
-1.774173;-0.303826
-1.780480;-0.264368
-1.790200;-0.187573
-1.796239;-0.116301
-1.798900;-0.062908
-1.799836;-0.024325
0.939058;-1.535634
0.889499;-1.564861
0.847058;-1.588236
0.846629;-1.588464
0.734037;-1.643529
-0.856216;-1.583318
-1.764999;0.353238
-1.639647;0.742669
-1.125767;1.404510
-0.312602;1.772648
-0.201405;1.788697
0.559755;1.710752
-0.042128;1.799507
-1.310612;1.233813
-1.729486;0.498877
-1.771820;0.317257
-1.773083;0.310126
-1.771817;0.317279
-1.772181;0.315238
-1.773863;0.305633
1.079899;-1.440076
1.004295;-1.493784
0.882225;-1.568974
0.696300;-1.659869
0.132993;-1.795080
-1.782217;-0.252392
-1.500814;0.993758
-1.488353;1.012327
-1.176772;1.362060
-0.360304;1.763570
0.097439;1.797361
0.593567;1.699317
0.617089;1.690917
0.371354;1.761277
-1.141690;1.391597
-1.633419;0.756268
-1.683799;0.636256
-1.697771;0.597976
-1.707258;0.570326
-1.715998;0.543461
1.264205;-1.281322
1.202905;-1.339036
1.062508;-1.452955
0.745838;-1.638208
-0.306736;-1.773672
-1.771283;-0.320246
-1.695811;0.603510
-1.535760;0.938851
-1.450907;1.065302
-0.546039;1.715180
0.346522;1.766330
0.855000;1.583974
1.425841;1.098625
1.524839;0.956486
-0.027191;1.799795
-1.608294;0.808325
-1.671813;0.667112
-1.670761;0.669744
-1.673159;0.663731
-1.676577;0.655049
1.397584;-1.134354
1.357903;-1.181566
1.266552;-1.279002
1.007408;-1.491686
-0.128238;-1.795426
-1.623773;-0.776763
-1.784656;-0.234527
-1.799978;0.008780
-1.779879;0.268386
-1.617935;0.788851
0.975901;1.512487
1.676030;0.656447
1.707995;0.568111
1.676255;0.655873
0.831705;1.596329
-1.441321;1.078236
-1.633642;0.755786
-1.664349;0.685523
-1.674961;0.659169
-1.671124;0.668838
1.425364;-1.099244
1.420286;-1.105798
1.382726;-1.152419
1.250075;-1.295111
0.405922;-1.753633
-1.598302;-0.827907
-1.735339;-0.478121
-1.743236;-0.448472
-1.652106;-0.714524
-0.814231;-1.605312
1.720435;-0.529247
1.797838;-0.088198
1.799979;0.008600
1.778915;0.274704
1.061376;1.453782
-1.100196;1.424630
-1.497057;0.999410
-1.595269;0.833737
-1.634683;0.753533
-1.650962;0.717165
1.431805;-1.090841
1.428837;-1.094726
1.427505;-1.096462
1.390465;-1.143069
1.106885;-1.419439
-1.107093;-1.419276
-1.593820;-0.836503
-1.402779;-1.127923
-0.803147;-1.610886
-0.216216;-1.786967
0.679676;-1.666746
1.699347;-0.593479
1.788355;-0.204415
1.797981;0.085234
0.604741;1.695373
-0.898557;1.559678
-1.261218;1.284262
-1.426877;1.097279
-1.512618;0.975698
-1.548488;0.917707
1.484409;-1.018101
1.466773;-1.043349
1.446503;-1.071275
1.430248;-1.092881
1.404249;-1.126092
0.902787;-1.557234
-0.581250;-1.703569
-0.740316;-1.640711
-0.673194;-1.669374
-0.034341;-1.799672
0.449184;-1.743053
1.137745;-1.394825
1.780026;-0.267411
1.311765;1.232588
-0.618759;1.690307
-0.971038;1.515614
-1.087339;1.434466
-1.215595;1.327528
-1.319844;1.223933
-1.384649;1.150107
1.596266;-0.831826
1.583627;-0.855643
1.560446;-0.897222
1.522425;-0.960324
1.501061;-0.993386
1.586588;-0.850140
1.250323;-1.294871
-0.082751;-1.798097
-0.400833;-1.754803
0.214546;-1.787168
0.484060;-1.733691
1.031765;-1.474945
1.708108;0.567774
-0.106664;1.796837
-0.902555;1.557368
-1.048641;1.462994
-1.041816;1.467862
-1.091691;1.431157
-1.162522;1.374242
-1.227977;1.316082
1.734088;-0.482639
1.746980;-0.433658
1.757382;-0.389370
1.769868;-0.327975
1.793823;-0.148999
1.792939;0.159282
1.772730;0.312135
1.799949;-0.013560
1.449112;-1.067742
1.331534;-1.211205
1.629243;-0.765223
1.576017;0.869579
0.695382;1.660254
-0.285133;1.777273
-0.846052;1.588772
-1.022893;1.481111
-1.045408;1.465306
-1.049693;1.462240
-1.081362;1.438977
-1.125500;1.404724
1.799654;-0.035298
1.796240;0.116276
1.781281;0.258919
1.755399;0.398212
1.715626;0.544636
1.669834;0.672053
1.634127;0.754738
1.643607;0.733864
1.675462;0.657895
1.468698;1.040637
1.047478;1.463827
0.780417;1.622020
0.589249;1.700819
-0.097562;1.797354
-0.716801;1.651120
-0.964142;1.520010
-1.045156;1.465486
-1.044898;1.465670
-1.050454;1.461693
-1.072306;1.445739
1.769287;0.331095
1.726851;0.507922
1.687482;0.626421
1.656601;0.704040
1.630529;0.762480
1.625104;0.773974
1.631396;0.760623
1.610462;0.803998
1.453591;1.061636
1.086016;1.435468
0.813687;1.605588
0.736325;1.642506
0.615427;1.691523
0.080088;1.798217
-0.559507;1.710834
-0.885516;1.567119
-1.010681;1.489471
-1.055754;1.457869
-1.045050;1.465561
-1.049963;1.462045
1.717718;0.537999
1.656221;0.704933
1.626782;0.770441
1.625145;0.773889
1.634880;0.753104
1.634546;0.753830
1.611320;0.802277
1.517600;0.967931
1.251375;1.293855
0.919167;1.547621
0.759060;1.632124
0.728781;1.645867
0.589775;1.700637
0.158200;1.793034
-0.423324;1.749513
-0.796299;1.614282
-0.964794;1.519596
-1.034173;1.473257
-1.052065;1.460534
-1.044970;1.465618
1.695859;0.603375
1.642616;0.736079
1.636811;0.748900
1.641348;0.738903
1.638497;0.745203
1.618965;0.786735
1.558800;0.900079
1.398313;1.133455
1.097019;1.427077
0.831820;1.596269
0.739493;1.641082
0.715114;1.651851
0.560006;1.710670
0.183487;1.790623
-0.324804;1.770453
-0.706438;1.655580
-0.908751;1.553761
-1.004300;1.493781
-1.046461;1.464554
-1.049466;1.462402
1.697845;0.597766
1.668370;0.675679
1.654011;0.710103
1.644853;0.731066
1.627317;0.769311
1.586364;0.850559
1.492504;1.006196
1.298830;1.246210
1.015764;1.486009
0.791817;1.616485
0.740964;1.640418
0.695788;1.660084
0.523494;1.722194
0.182221;1.790753
-0.257667;1.781462
-0.620781;1.689565
-0.841795;1.591031
-0.960249;1.522472
-1.020788;1.482563
-1.048142;1.463351
