20;20;1.000000;1.000000
10.000000;10.000000
1.295438;-1.249736
1.286929;-1.258497
1.261779;-1.283711
1.209165;-1.333387
1.112430;-1.415097
0.950575;-1.528531
0.712693;-1.652897
0.430213;-1.747832
0.184481;-1.790521
0.054892;-1.799163
0.013613;-1.799948
-0.159402;-1.792928
-0.433109;-1.747117
-0.726109;-1.647047
-0.962346;-1.521147
-1.119356;-1.409624
-1.212329;-1.330511
-1.262830;-1.282677
-1.287063;-1.258360
-1.295406;-1.249769
1.298804;-1.246238
1.295438;-1.249736
1.284586;-1.260888
1.249423;-1.295740
1.171312;-1.366758
1.022189;-1.481597
0.776602;-1.623850
0.460763;-1.740028
0.185725;-1.790393
0.055837;-1.799134
0.016666;-1.799923
-0.166095;-1.792320
-0.476120;-1.735889
-0.799229;-1.612833
-1.037402;-1.470985
-1.178693;-1.360398
-1.252214;-1.293042
-1.285281;-1.260180
-1.295465;-1.249708
-1.298690;-1.246356
1.315927;-1.228144
1.300301;-1.244675
1.295406;-1.249770
1.279675;-1.265872
1.226362;-1.317587
1.103593;-1.422000
0.870248;-1.575649
0.531765;-1.719659
0.216331;-1.786953
0.059425;-1.799019
0.011014;-1.799966
-0.201023;-1.788740
-0.554654;-1.712413
-0.896115;-1.561082
-1.117986;-1.410711
-1.232115;-1.312209
-1.281277;-1.264251
-1.295497;-1.249675
-1.300413;-1.244558
-1.315669;-1.228419
1.354957;-1.184943
1.325147;-1.218189
1.303415;-1.241414
1.295410;-1.249765
1.271518;-1.274066
1.186824;-1.353310
0.989009;-1.503949
0.644534;-1.680647
0.270938;-1.779492
0.065219;-1.798818
0.000888;-1.800000
-0.264089;-1.780522
-0.672752;-1.669552
-1.012643;-1.488137
-1.197253;-1.344093
-1.274542;-1.271040
-1.295556;-1.249614
-1.303879;-1.240927
-1.325336;-1.217984
-1.354599;-1.185353
1.423625;-1.101496
1.382618;-1.152549
1.342652;-1.198868
1.309297;-1.235209
1.295495;-1.249677
1.258180;-1.287239
1.119077;-1.409846
0.800963;-1.611973
0.358531;-1.763932
0.074844;-1.798443
-0.015205;-1.799936
-0.364400;-1.762729
-0.831388;-1.596495
-1.136138;-1.396134
-1.263291;-1.282223
-1.295647;-1.249519
-1.310294;-1.234151
-1.343453;-1.197970
-1.382905;-1.152204
-1.423336;-1.101869
1.524028;-0.957777
1.481995;-1.021612
1.430883;-1.092050
1.373519;-1.163377
1.320269;-1.223474
1.295672;-1.249493
1.235382;-1.309134
0.995079;-1.499939
0.501019;-1.728867
0.092002;-1.797647
-0.042142;-1.799507
-0.523112;-1.722311
-1.021114;-1.482338
-1.243550;-1.301377
-1.295739;-1.249424
-1.321997;-1.221607
-1.375130;-1.161472
-1.432003;-1.090581
-1.482576;-1.020769
-1.524098;-0.957666
1.641296;-0.739017
1.613790;-0.797298
1.570521;-0.879467
1.507494;-0.983596
1.426141;-1.098236
1.340965;-1.200755
1.295638;-1.249529
1.190796;-1.349817
0.735818;-1.642733
0.126278;-1.795565
-0.092841;-1.797604
-0.771955;-1.626064
-1.204327;-1.337758
-1.295756;-1.249407
-1.343617;-1.197786
-1.428701;-1.094904
-1.509528;-0.980471
-1.571993;-0.876835
-1.614755;-0.795340
-1.641815;-0.737864
1.739244;-0.463715
1.732279;-0.489091
1.713702;-0.550660
1.677379;-0.652992
1.614298;-0.796267
1.514216;-0.973217
1.383073;-1.152002
1.295294;-1.249885
1.076548;-1.442583
0.210463;-1.787654
-0.211833;-1.787492
-1.103912;-1.421752
-1.295923;-1.249234
-1.386832;-1.147475
-1.517605;-0.967923
-1.616829;-0.791117
-1.679124;-0.648493
-1.714883;-0.546969
-1.733091;-0.486205
-1.739791;-0.461658
1.788673;-0.201612
1.789906;-0.190355
1.787254;-0.213827
1.780167;-0.266469
1.765102;-0.352725
1.732044;-0.489923
1.655057;-0.707663
1.484816;-1.017507
1.295783;-1.249379
0.613494;-1.692225
-0.659458;-1.674848
-1.297322;-1.247780
-1.489390;-1.010801
-1.658139;-0.700412
-1.733723;-0.483948
-1.765999;-0.348205
-1.780668;-0.263100
-1.787559;-0.211264
-1.790123;-0.188307
-1.788865;-0.199908
1.799676;-0.034148
1.799880;-0.020761
1.799833;-0.024504
1.799715;-0.032011
1.799461;-0.044055
1.798855;-0.064194
1.797146;-0.101318
1.790768;-0.182071
1.743201;-0.448609
1.350713;-1.189780
-1.336421;-1.205811
-1.744695;-0.442763
-1.791127;-0.178509
-1.797262;-0.099236
-1.798900;-0.062910
-1.799481;-0.043223
-1.799725;-0.031448
-1.799839;-0.024106
-1.799884;-0.020450
-1.799684;-0.033723
1.799709;0.032348
1.799901;0.018920
1.799857;0.022648
1.799747;0.030197
1.799503;0.042302
1.798914;0.062516
1.797235;0.099728
1.790920;0.180571
1.743541;0.447286
1.351591;1.188782
-1.337335;1.204796
-1.745036;0.441419
-1.791278;0.176988
-1.797351;0.097628
-1.798959;0.061217
-1.799523;0.041456
-1.799756;0.029622
-1.799863;0.022240
-1.799904;0.018599
-1.799717;0.031911
1.788787;0.200600
1.789997;0.189504
1.787353;0.213001
1.780281;0.265708
1.765230;0.352084
1.732179;0.489445
1.655182;0.707369
1.484909;1.017371
1.295800;1.249360
0.613584;1.692192
-0.659578;1.674801
-1.297340;1.247762
-1.489487;1.010657
-1.658269;0.700102
-1.733862;0.483450
-1.766129;0.347544
-1.780783;0.262319
-1.787659;0.210419
-1.790214;0.187439
-1.788979;0.198880
1.739372;0.463234
1.732347;0.488850
1.713737;0.550550
1.677394;0.652955
1.614293;0.796278
1.514200;0.973241
1.383075;1.152000
1.295297;1.249883
1.076617;1.442531
0.210457;1.787654
-0.211823;1.787493
-1.103991;1.421691
-1.295926;1.249231
-1.386835;1.147471
-1.517593;0.967942
-1.616827;0.791120
-1.679142;0.648446
-1.714922;0.546847
-1.733162;0.485954
-1.739921;0.461167
1.641385;0.738820
1.613797;0.797282
1.570478;0.879544
1.507433;0.983690
1.426094;1.098297
1.340950;1.200772
1.295635;1.249532
1.190835;1.349782
0.735842;1.642722
0.126269;1.795566
-0.092822;1.797605
-0.771993;1.626047
-1.204369;1.337720
-1.295753;1.249410
-1.343603;1.197803
-1.428654;1.094964
-1.509469;0.980563
-1.571951;0.876909
-1.614765;0.795320
-1.641905;0.737663
1.524086;0.957686
1.481992;1.021615
1.430853;1.092089
1.373491;1.163409
1.320261;1.223484
1.295670;1.249496
1.235406;1.309111
0.995116;1.499915
0.501011;1.728869
0.091996;1.797648
-0.042125;1.799507
-0.523108;1.722312
-1.021160;1.482306
-1.243576;1.301352
-1.295737;1.249426
-1.321988;1.221616
-1.375102;1.161505
-1.431974;1.090620
-1.482575;1.020770
-1.524156;0.957574
1.423672;1.101435
1.382631;1.152532
1.342653;1.198867
1.309299;1.235207
1.295496;1.249676
1.258199;1.287220
1.119115;1.409816
0.800982;1.611964
0.358514;1.763935
0.074840;1.798443
-0.015191;1.799936
-0.364379;1.762733
-0.831418;1.596479
-1.136182;1.396098
-1.263312;1.282202
-1.295649;1.249517
-1.310296;1.234149
-1.343454;1.197969
-1.382918;1.152188
-1.423383;1.101807
1.355000;1.184895
1.325167;1.218168
1.303425;1.241404
1.295410;1.249766
1.271538;1.274045
1.186865;1.353275
0.989052;1.503920
0.644542;1.680644
0.270921;1.779495
0.065217;1.798818
0.000900;1.800000
-0.264065;1.780525
-0.672768;1.669546
-1.012695;1.488103
-1.197295;1.344055
-1.274562;1.271020
-1.295556;1.249614
-1.303889;1.240917
-1.325356;1.217962
-1.354643;1.185303
1.315959;1.228109
1.300315;1.244661
1.295408;1.249768
1.279696;1.265851
1.226404;1.317548
1.103649;1.421956
0.870291;1.575625
0.531768;1.719658
0.216317;1.786955
0.059423;1.799019
0.011024;1.799966
-0.201001;1.788742
-0.554663;1.712410
-0.896168;1.561052
-1.118048;1.410662
-1.232158;1.312168
-1.281298;1.264229
-1.295499;1.249673
-1.300427;1.244544
-1.315701;1.228385
1.298819;1.246222
1.295440;1.249734
1.284608;1.260866
1.249467;1.295697
1.171376;1.366703
1.022259;1.481548
0.776648;1.623828
0.460767;1.740027
0.185714;1.790394
0.055836;1.799134
0.016674;1.799923
-0.166076;1.792322
-0.476129;1.735886
-0.799287;1.612805
-1.037480;1.470930
-1.178760;1.360340
-1.252259;1.293000
-1.285303;1.260157
-1.295468;1.249705
-1.298706;1.246340
1.295441;1.249733
1.286953;1.258472
1.261825;1.283665
1.209235;1.333323
1.112517;1.415028
0.950660;1.528478
0.712748;1.652873
0.430226;1.747829
0.184475;1.790522
0.054892;1.799163
0.013621;1.799948
-0.159388;1.792929
-0.433125;1.747113
-0.726173;1.647019
-0.962439;1.521089
-1.119447;1.409552
-1.212401;1.330445
-1.262877;1.282631
-1.287089;1.258333
-1.295410;1.249766
