20;20;1.000000;1.000000
10.000000;10.000000
1.266705;-1.278851
1.214162;-1.328838
1.118267;-1.410489
0.935648;-1.537714
0.592188;-1.699798
0.064531;-1.798843
-0.422177;-1.749790
-0.604158;-1.695580
-0.460578;-1.740077
-0.129595;-1.795329
-0.168417;-1.792104
-0.676949;-1.667855
-1.214202;-1.328802
-1.504749;-0.987790
-1.574755;-0.871864
-1.541529;-0.929348
-1.469710;-1.039208
-1.395934;-1.136384
-1.334280;-1.208179
-1.285361;-1.260098
1.244614;-1.300360
1.263813;-1.281708
1.189764;-1.350726
1.028031;-1.477549
0.663943;-1.673075
0.001245;-1.799999
-0.620571;-1.689643
-0.813081;-1.605895
-0.579924;-1.704021
-0.153901;-1.793409
-0.184423;-1.790527
-0.772646;-1.625736
-1.395584;-1.136813
-1.638198;-0.745859
-1.648129;-0.723651
-1.559491;-0.898881
-1.444704;-1.073699
-1.352348;-1.187921
-1.288073;-1.257325
-1.314318;-1.229865
1.189022;-1.351380
1.230719;-1.313518
1.257243;-1.288153
1.123670;-1.406188
0.734188;-1.643462
-0.157955;-1.793056
-0.949512;-1.529191
-1.187282;-1.352909
-0.948678;-1.529709
-0.275618;-1.778774
-0.303610;-1.774210
-1.159337;-1.376930
-1.693278;-0.610581
-1.774140;-0.304020
-1.731027;-0.493501
-1.570972;-0.878661
-1.399144;-1.132429
-1.294238;-1.250979
-1.328730;-1.214280
-1.393586;-1.139262
1.110939;-1.416268
1.139656;-1.393264
1.196688;-1.344596
1.242295;-1.302575
0.806586;-1.609167
-0.499659;-1.729260
-1.310684;-1.233737
-1.558616;-0.900397
-1.558269;-0.900999
-0.725841;-1.647166
-0.735894;-1.642699
-1.755772;-0.396566
-1.785496;0.228045
-1.774081;0.304364
-1.796749;-0.108124
-1.569319;-0.881610
-1.307476;-1.237136
-1.361911;-1.176945
-1.446344;-1.071489
-1.519461;-0.965008
1.017633;-1.484730
0.990018;-1.503284
0.984423;-1.506954
1.034400;-1.473098
0.471979;-1.737019
-0.994454;-1.500353
-1.492146;-1.006727
-1.679906;-0.646464
-1.784504;-0.235680
-1.799692;-0.033277
-1.784844;0.233091
-1.714997;0.546611
-1.629566;0.764535
-1.606110;0.812656
-1.716640;0.541429
-1.720118;-0.530277
-1.496293;-1.000554
-1.583922;-0.855098
-1.642454;-0.736440
-1.687771;-0.625643
0.960998;-1.521999
0.821099;-1.601810
0.606023;-1.694914
0.207832;-1.787961
-0.581420;-1.703511
-1.199906;-1.341725
-1.417367;-1.109537
-1.668926;-0.674304
-1.799939;-0.014865
-1.407500;1.122027
-1.107390;1.419044
-1.612465;0.799973
-1.597638;0.829188
-1.491606;1.007528
-1.462031;1.049983
-1.597027;0.830365
-1.775525;0.295824
-1.799876;0.021089
-1.798895;-0.063068
-1.798561;-0.071947
1.047906;-1.463521
0.814211;-1.605322
0.391990;-1.756799
-0.211074;-1.787581
-0.741054;-1.640378
-1.052356;-1.460325
-1.496013;-1.000972
-1.789140;0.197433
-1.598200;0.828103
-0.598218;1.697685
-0.361495;1.763327
-0.716326;1.651326
-0.759094;1.632108
-1.395780;1.136573
-1.458648;1.054678
-1.138318;1.394357
-1.292562;1.252711
-1.545539;0.922664
-1.684368;0.634748
-1.737565;0.469965
1.335340;-1.207007
1.138184;-1.394466
0.643929;-1.680879
-0.088365;-1.797830
-0.513085;-1.725324
-0.696572;-1.659755
-1.699542;-0.592923
-1.319168;1.224661
-1.328582;1.214442
-0.447898;1.743384
-0.043971;1.799463
0.686943;1.663763
1.204215;1.337858
-0.206480;1.788118
-0.830963;1.596716
-0.702799;1.657128
-0.909639;1.553241
-1.316597;1.227425
-1.564208;0.890648
-1.658873;0.698670
1.652941;-0.712592
1.600090;-0.824446
1.324779;-1.218590
0.461020;-1.739960
-0.254586;-1.781905
-0.608832;-1.693908
-1.616891;-0.790989
-1.679750;0.646870
-1.287571;1.257840
-0.644751;1.680564
0.368385;1.761900
1.241858;1.302993
1.125713;1.404553
0.704869;1.656249
-0.030323;1.799744
-0.243047;1.783516
-0.831378;1.596500
-1.453218;1.062147
-1.660993;0.693615
-1.705638;0.575152
1.788683;-0.201524
1.786473;-0.220260
1.762507;-0.365469
1.587848;-0.847785
0.034229;-1.799674
-1.192854;-1.347999
-1.739475;-0.462845
-1.798653;-0.069616
-1.760722;0.373975
-1.263091;1.282420
1.190546;1.350037
1.679356;0.647890
1.734531;0.481041
1.683370;0.637388
1.235019;1.309476
0.004006;1.799996
-1.550567;0.914190
-1.761320;0.371152
-1.787897;0.208382
-1.789986;0.189607
1.791508;-0.174640
1.789993;-0.189540
1.773677;-0.306708
1.665712;-0.682206
0.208721;-1.787858
-1.099948;-1.424821
-1.705134;-0.576644
-1.757891;-0.387064
-1.718436;-0.535702
-1.207503;-1.334892
1.322486;-1.221078
1.780902;-0.261512
1.795633;0.125307
1.738769;0.465491
1.334258;1.208203
0.193185;1.789603
-1.616450;0.791890
-1.767003;0.343075
-1.787632;0.210648
-1.787966;0.207795
1.749720;-0.422470
1.721236;-0.526636
1.593425;-0.837255
1.110895;-1.416302
0.418089;-1.750772
0.235858;-1.784480
-0.586737;-1.701687
-1.126096;-1.404246
-1.242772;-1.302120
-0.316765;-1.771908
0.731062;-1.644855
1.297382;-1.247718
1.728095;-0.503673
1.542807;0.927225
0.750170;1.636229
0.465433;1.738785
-0.446915;1.743636
-1.303804;1.241005
-1.567481;0.884874
-1.612059;0.800791
1.750645;-0.418620
1.703994;-0.580002
1.561515;-0.895361
1.209089;-1.333455
0.811571;-1.606659
0.847360;-1.588074
0.315618;-1.772113
-1.201418;-1.340371
-0.645158;-1.680408
0.093643;-1.797562
0.531011;-1.719892
1.392607;-1.140459
1.332256;-1.210411
1.517527;0.968045
0.769163;1.627387
0.544815;1.715569
-0.056144;1.799124
-0.713634;1.652491
-1.108239;1.418381
-1.267137;1.278423
1.796670;-0.109434
1.788248;-0.205355
1.758061;-0.386290
1.662869;-0.689105
1.445104;-1.073161
1.236664;-1.307923
1.339345;-1.202561
0.903737;-1.556682
0.888921;-1.565190
0.444919;-1.744146
0.704720;-1.656312
1.678449;-0.650238
1.795191;0.131494
1.183393;1.356312
0.819985;1.602381
0.220084;1.786495
-0.243231;1.783491
-0.606355;1.694796
-0.865660;1.578174
-1.021954;1.481759
1.762838;0.363871
1.756202;0.394656
1.749087;0.425081
1.736307;0.474594
1.692539;0.612627
1.742364;0.451850
1.603952;-0.816908
1.650113;-0.719114
1.617259;-0.790237
1.310442;-1.233994
1.490045;-1.009835
1.796566;0.111134
1.550596;0.914140
1.185506;1.354465
-1.116555;1.411844
-0.827533;1.598496
-0.752463;1.635176
-0.807737;1.608590
-0.892000;1.563437
-0.967043;1.518166
1.631078;0.761304
1.588731;0.846128
1.533475;0.942579
1.446732;1.070966
1.277053;1.268517
1.629677;0.764298
1.780439;-0.264645
1.712291;-0.555032
1.733508;-0.484717
1.789771;-0.191619
1.799163;0.054877
1.792871;0.160039
1.591467;0.840972
1.075175;1.443606
-0.522975;1.722352
-1.246770;1.298293
-1.126126;1.404222
-1.044477;1.465970
-1.021226;1.482261
-1.022453;1.481415
1.491310;1.007965
1.433978;1.087983
1.367995;1.169867
1.274954;1.270627
1.417385;1.109513
1.637421;0.747564
1.782046;0.253594
1.797881;0.087310
1.732549;0.488133
0.847674;1.587907
0.647941;1.679337
1.478627;1.026480
1.383312;1.151715
0.782246;1.621139
-0.359683;1.763697
-1.028936;1.476920
-1.264188;1.281338
-1.204040;1.338017
-1.145672;1.388321
-1.108830;1.417920
1.386395;1.148002
1.332873;1.209732
1.275149;1.270432
1.350267;1.190286
1.464467;1.046583
1.596364;0.831639
1.676842;0.654369
1.622724;0.778953
1.201969;1.339877
0.356166;1.764411
0.217310;1.786834
0.831875;1.596240
0.942015;1.533821
0.489236;1.732238
-0.309824;1.773135
-0.882446;1.568850
-1.149864;1.384851
-1.271753;1.273831
-1.236047;1.308506
-1.188127;1.352166
1.316512;1.227516
1.273732;1.271851
1.320840;1.222858
1.388518;1.145434
1.469012;1.040194
1.537790;0.935522
1.539484;0.932733
1.361657;1.177239
0.841399;1.591241
0.212664;1.787393
0.094090;1.797539
0.484875;1.733464
0.607201;1.694493
0.296521;1.775409
-0.282785;1.777648
-0.771336;1.626358
-1.051925;1.460635
-1.198425;1.343048
-1.275799;1.269778
-1.250484;1.294716
1.272294;1.273290
1.307220;1.237406
1.353645;1.186442
1.406589;1.123168
1.456304;1.057913
1.478435;1.026758
1.423942;1.101086
1.202250;1.339625
0.743163;1.639423
0.210373;1.787664
0.071519;1.798579
0.382542;1.758881
0.444111;1.744352
0.195263;1.789378
-0.252377;1.782219
-0.672500;1.669654
-0.953794;1.526524
-1.120519;1.408700
-1.218355;1.324994
-1.277475;1.268092
