20;20;1.000000;1.000000
10.000000;10.000000
1.200617;-1.341088
1.117456;-1.411131
1.015619;-1.486108
0.894687;-1.561901
0.757629;-1.632788
0.611578;-1.692918
0.466575;-1.738479
0.332067;-1.769105
0.212891;-1.787366
0.107034;-1.796815
0.006460;-1.799988
-0.099229;-1.797263
-0.218047;-1.786744
-0.352255;-1.765196
-0.497633;-1.729844
-0.645432;-1.680303
-0.785949;-1.619347
-0.911825;-1.551958
-1.019495;-1.483452
-1.108721;-1.418005
1.287474;-1.257939
1.208856;-1.333666
1.107505;-1.418955
0.980360;-1.509600
0.828628;-1.597928
0.660604;-1.674396
0.491350;-1.731639
0.337189;-1.768136
0.207745;-1.787971
0.100769;-1.797177
0.002684;-1.799998
-0.104623;-1.796957
-0.234270;-1.784690
-0.388513;-1.757572
-0.558527;-1.711154
-0.728962;-1.645787
-0.885085;-1.567362
-1.018096;-1.484413
-1.125909;-1.404396
-1.210823;-1.331881
1.380822;-1.154699
1.311716;-1.232640
1.216912;-1.326320
1.089017;-1.433193
0.924344;-1.544535
0.729658;-1.645478
0.526150;-1.721385
0.342249;-1.767163
0.197775;-1.789102
0.092077;-1.797643
0.002059;-1.799999
-0.105301;-1.796917
-0.251315;-1.782369
-0.436105;-1.746371
-0.641005;-1.681997
-0.838981;-1.592517
-1.009062;-1.490568
-1.143550;-1.390069
-1.245020;-1.299971
-1.320152;-1.223601
1.476321;-1.029795
1.422134;-1.103420
1.342383;-1.199170
1.224581;-1.319243
1.055784;-1.457847
0.833794;-1.595239
0.583054;-1.702953
0.351990;-1.765249
0.181693;-1.790806
0.079329;-1.798251
0.006953;-1.799986
-0.100284;-1.797204
-0.274688;-1.778917
-0.508026;-1.726821
-0.761007;-1.631217
-0.987188;-1.505145
-1.162069;-1.374626
-1.286503;-1.258932
-1.372344;-1.164763
-1.431633;-1.091066
1.567281;-0.885230
1.531769;-0.945348
1.475521;-1.030941
1.383346;-1.151674
1.231528;-1.312760
0.996372;-1.499081
0.688739;-1.663021
0.383237;-1.758729
0.164892;-1.792431
0.060497;-1.798983
0.019707;-1.799892
-0.095515;-1.797464
-0.322276;-1.770914
-0.632347;-1.685271
-0.942918;-1.533266
-1.182391;-1.357185
-1.339773;-1.202085
-1.437397;-1.083462
-1.498260;-0.997606
-1.537424;-0.936123
1.646171;-0.728094
1.629017;-0.765703
1.599547;-0.825499
1.545488;-0.922750
1.440709;-1.079053
1.237275;-1.307345
0.892647;-1.563068
0.479625;-1.734923
0.175154;-1.791458
0.051289;-1.799269
0.026214;-1.799809
-0.117637;-1.796152
-0.439516;-1.745516
-0.860293;-1.581106
-1.206345;-1.335939
-1.411891;-1.116495
-1.519930;-0.964268
-1.577227;-0.867383
-1.609431;-0.806058
-1.628739;-0.766296
1.707427;-0.569820
1.703743;-0.580740
1.695625;-0.604032
1.677245;-0.653337
1.633116;-0.756922
1.520849;-0.962818
1.241397;-1.303432
0.729722;-1.645450
0.254735;-1.781884
0.057842;-1.799070
0.015679;-1.799932
-0.214665;-1.787154
-0.721075;-1.649257
-1.236338;-1.308231
-1.509970;-0.979790
-1.620548;-0.783469
-1.665297;-0.683216
-1.684960;-0.633174
-1.694395;-0.607475
-1.699203;-0.593892
1.749736;-0.422403
1.752636;-0.410203
1.755153;-0.399297
1.755842;-0.396256
1.750068;-0.421026
1.722971;-0.520933
1.619509;-0.785614
1.243634;-1.301298
0.502015;-1.728578
0.077467;-1.798332
-0.015872;-1.799930
-0.505531;-1.727553
-1.271235;-1.274348
-1.626502;-0.771033
-1.721483;-0.525829
-1.746174;-0.436893
-1.751619;-0.414526
-1.751441;-0.415276
-1.749670;-0.422674
-1.747473;-0.431670
1.775916;-0.293468
1.779963;-0.267828
1.784299;-0.237227
1.788663;-0.201703
1.791921;-0.170354
1.791332;-0.176437
1.780439;-0.264648
1.717394;-0.539035
1.238982;-1.305727
0.154149;-1.793387
-0.134782;-1.794947
-1.306125;-1.238563
-1.729718;-0.498071
-1.782881;-0.247662
-1.791529;-0.174420
-1.791116;-0.178611
-1.787797;-0.209238
-1.783965;-0.239726
-1.780315;-0.265479
-1.776903;-0.287428
1.790654;-0.183186
1.793338;-0.154717
1.795833;-0.122411
1.798012;-0.084565
1.799540;-0.040684
1.799875;-0.021187
1.799747;-0.030180
1.799096;-0.057034
1.793101;-0.157443
1.086037;-1.435452
-1.392161;-1.141002
-1.795201;-0.131349
-1.799461;-0.044032
-1.799877;-0.021025
-1.799931;-0.015713
-1.799483;-0.043126
-1.798274;-0.078803
-1.796683;-0.109223
-1.794843;-0.136152
-1.792785;-0.161000
1.798010;-0.084624
1.799026;-0.059190
1.799651;-0.035436
1.799933;-0.015491
1.799997;-0.003137
1.800000;0.000802
1.799983;0.007759
1.799768;0.028888
1.796040;0.119335
1.131189;1.400147
-1.342851;1.198645
-1.794286;0.143307
-1.799450;0.044495
-1.799898;0.019167
-1.799963;0.011607
-1.799934;0.015393
-1.799965;0.011236
-1.799998;-0.002652
-1.799862;-0.022264
-1.799435;-0.045103
1.799954;0.012847
1.799619;0.037041
1.799108;0.056658
1.798653;0.069637
1.798297;0.078275
1.797095;0.102217
1.790544;0.184265
1.745701;0.438779
1.298123;1.246946
0.093555;1.797567
-0.178847;1.791093
-1.282901;1.262602
-1.730891;0.493980
-1.785537;0.227723
-1.794229;0.144018
-1.795560;0.126356
-1.795820;0.122591
-1.796491;0.112343
-1.797529;0.094295
-1.798607;0.070807
1.796069;0.118899
1.793773;0.149589
1.791036;0.179415
1.787470;0.212020
1.780870;0.261727
1.761755;0.369081
1.686456;0.629178
1.347462;1.193459
0.509197;1.726476
0.009220;1.799976
-0.079569;1.798240
-0.533203;1.719213
-1.295434;1.249740
-1.650794;0.717550
-1.741675;0.454499
-1.766676;0.344755
-1.775893;0.293605
-1.781209;0.259413
-1.785504;0.227982
-1.789331;0.195686
1.784107;0.238668
1.777281;0.285085
1.767616;0.339902
1.751633;0.414465
1.718556;0.535316
1.633087;0.756986
1.386022;1.148453
0.825469;1.599563
0.236068;1.784453
-0.012759;1.799955
-0.054196;1.799184
-0.274781;1.778903
-0.793139;1.615837
-1.316027;1.228036
-1.578375;0.865293
-1.680171;0.645775
-1.722929;0.521074
-1.744879;0.442038
-1.758740;0.383187
-1.768881;0.333255
1.761255;0.371457
1.745402;0.439969
1.720962;0.527531
1.678431;0.650285
1.594126;0.835920
1.412689;1.115486
1.051335;1.461060
0.550987;1.713597
0.156607;1.793174
-0.016497;1.799924
-0.048663;1.799342
-0.201551;1.788680
-0.547062;1.714854
-0.990659;1.502862
-1.336241;1.206009
-1.529210;0.949482
-1.627535;0.768850
-1.680704;0.644386
-1.712865;0.553258
-1.734569;0.480904
1.725760;0.511618
1.695958;0.603097
1.649452;0.720631
1.571168;0.878312
1.432131;1.090414
1.189998;1.350520
0.830805;1.596798
0.442125;1.744857
0.152842;1.793499
0.001847;1.799999
-0.071383;1.798584
-0.203344;1.788477
-0.454865;1.741579
-0.792683;1.616061
-1.117282;1.411269
-1.353632;1.186457
-1.501520;0.992693
-1.591211;0.841455
-1.647732;0.724555
-1.685678;0.631260
1.678146;0.651020
1.631243;0.760950
1.560188;0.897671
1.448811;1.068151
1.274558;1.271024
1.020818;1.482542
0.707678;1.655050
0.402878;1.754334
0.170275;1.791928
0.020935;1.799878
-0.086852;1.797903
-0.220660;1.786423
-0.422497;1.749713
-0.685241;1.664465
-0.960764;1.522147
-1.195904;1.345293
-1.369061;1.168619
-1.487804;1.013134
-1.568379;0.883283
-1.624380;0.775492
1.621273;0.781968
1.557150;0.902930
1.464692;1.046268
1.331005;1.211786
1.144117;1.389603
0.904585;1.556190
0.638043;1.683123
0.387822;1.757724
0.186133;1.790350
0.034776;1.799664
-0.091883;1.797653
-0.230530;1.785177
-0.407103;1.753359
-0.622899;1.688786
-0.854923;1.584016
-1.070743;1.446897
-1.248385;1.296740
-1.383455;1.151544
-1.482565;1.020784
-1.555043;0.906554
1.559279;0.899250
1.480440;1.023864
1.372790;1.164237
1.228255;1.315823
1.043147;1.466916
0.824962;1.599825
0.595055;1.698797
0.380039;1.759423
0.196942;1.789194
0.045182;1.799433
-0.090703;1.797713
-0.231863;1.785004
-0.394262;1.756291
-0.580947;1.703673
-0.780802;1.621835
-0.974780;1.513210
-1.146093;1.387974
-1.286800;1.258629
-1.397355;1.134636
-1.482582;1.020760
1.496233;1.000643
1.406448;1.123345
1.289957;1.255393
1.142841;1.390652
0.966049;1.518798
0.768377;1.627758
0.565599;1.708829
0.374219;1.760670
0.203828;1.788422
0.053579;1.799202
-0.085886;1.797950
-0.227211;1.785602
-0.380372;1.759351
-0.548220;1.714484
-0.725244;1.647429
-0.900231;1.558712
-1.061481;1.453705
-1.201290;1.340486
-1.317285;1.226687
-1.411044;1.117566
