20;20;1.000000;1.000000
10.000000;10.000000
1.256365;-1.289010
1.211471;-1.331292
1.133478;-1.398294
1.000372;-1.496415
0.778539;-1.622922
0.445267;-1.744058
0.061640;-1.798944
-0.211487;-1.787533
-0.267444;-1.780021
-0.132762;-1.795097
-0.211519;-1.787529
-0.596588;-1.698259
-0.983361;-1.507647
-1.227384;-1.316636
-1.330733;-1.212084
-1.353936;-1.186111
-1.340662;-1.201094
-1.313840;-1.230376
-1.284186;-1.261295
-1.262664;-1.282840
1.225410;-1.318473
1.254784;-1.290549
1.194712;-1.346352
1.081396;-1.438952
0.869969;-1.575803
0.507993;-1.726830
0.044340;-1.799454
-0.285380;-1.777233
-0.323961;-1.770607
-0.147212;-1.793970
-0.252913;-1.782143
-0.695388;-1.660252
-1.122327;-1.407261
-1.338160;-1.203880
-1.393024;-1.139949
-1.375991;-1.160453
-1.335802;-1.206496
-1.293752;-1.251481
-1.263193;-1.282319
-1.298772;-1.246271
1.185987;-1.354044
1.215909;-1.327240
1.251706;-1.293534
1.159648;-1.376668
0.967508;-1.517870
0.578976;-1.704344
-0.006311;-1.799989
-0.446373;-1.743775
-0.480632;-1.734645
-0.189922;-1.789952
-0.375969;-1.760298
-0.964148;-1.520006
-1.365959;-1.172244
-1.479918;-1.024619
-1.453191;-1.062184
-1.382817;-1.152310
-1.313517;-1.230720
-1.263909;-1.281614
-1.310922;-1.233484
-1.357024;-1.182575
1.147273;-1.386998
1.161397;-1.375193
1.195730;-1.345448
1.245367;-1.299639
1.081189;-1.439107
0.668145;-1.671401
-0.125635;-1.795610
-0.765953;-1.628900
-0.856039;-1.583413
-0.298379;-1.775097
-0.718694;-1.650297
-1.468080;-1.041508
-1.660370;-0.695104
-1.625267;-0.773632
-1.491805;-1.007233
-1.356100;-1.183635
-1.264396;-1.281134
-1.335828;-1.206468
-1.392144;-1.141023
-1.444766;-1.073616
1.124451;-1.405564
1.105306;-1.420669
1.105128;-1.420807
1.150350;-1.384447
1.229842;-1.314339
0.809770;-1.607567
-0.384610;-1.758430
-1.208637;-1.333865
-1.477875;-1.027562
-1.314501;-1.229670
-1.695142;-0.605387
-1.799918;-0.017141
-1.799689;0.033434
-1.738572;-0.466229
-1.468991;-1.040223
-1.263751;-1.281769
-1.385506;-1.149075
-1.460285;-1.052411
-1.516945;-0.968957
-1.564528;-0.890086
1.151254;-1.383695
1.081274;-1.439043
1.003116;-1.494576
0.948210;-1.529999
0.995406;-1.499722
1.121158;-1.408192
-0.908063;-1.554163
-1.461864;-1.050216
-1.658648;-0.699204
-1.793757;-0.149787
-1.780273;0.265756
-1.693652;0.609542
-1.629102;0.765523
-1.798451;-0.074660
-1.261981;-1.283513
-1.505873;-0.986077
-1.594452;-0.835299
-1.641038;-0.739590
-1.672646;-0.665022
-1.696643;-0.601167
1.277182;-1.268387
1.165676;-1.371568
0.977432;-1.511498
0.698576;-1.658913
0.293486;-1.775913
-0.495605;-1.730426
-1.320412;-1.223320
-1.469017;-1.040187
-1.691382;-0.615813
-1.197918;1.343500
-0.782355;1.621086
-1.550124;0.914941
-1.463378;1.048106
-1.426456;1.097826
-1.795430;0.128184
-1.799097;-0.057002
-1.793309;-0.155057
-1.787935;-0.208060
-1.785520;-0.227856
-1.785134;-0.230863
1.509549;-0.980440
1.421590;-1.104120
1.192193;-1.348583
0.702368;-1.657311
-0.026422;-1.799806
-0.631134;-1.685725
-0.960646;-1.522222
-1.313198;-1.231061
-1.787776;-0.209417
-0.606644;1.694692
-0.336934;1.768184
-1.071010;1.446699
-1.250291;1.294902
-1.147661;1.386678
-1.142292;1.391103
-1.432260;1.090244
-1.685894;0.630684
-1.773029;0.310431
-1.793558;0.152152
-1.798285;0.078560
1.721207;-0.526733
1.699396;-0.593342
1.597433;-0.829583
1.196342;-1.344904
0.212935;-1.787361
-0.095070;-1.797488
-0.692886;-1.661297
-1.367101;-1.170912
-1.798730;-0.067589
-0.512573;1.725476
-0.101752;1.797122
0.052798;1.799225
-0.183723;1.790599
-0.630724;1.685879
-0.816831;1.603991
-0.937209;1.536762
-1.549443;0.916094
-1.745192;0.440802
-1.782764;0.248498
-1.791075;0.179030
1.796697;-0.108992
1.795503;-0.127153
1.789404;-0.195019
1.757313;-0.389680
0.867171;-1.577344
-0.018338;-1.799906
-1.435614;-1.085823
-1.745152;-0.440960
-1.794136;-0.145170
-1.582287;0.858120
0.802611;1.611153
1.751042;0.416954
1.728904;0.500889
1.363549;1.175047
-0.060544;1.798982
-0.696582;1.659751
-1.740919;0.457384
-1.791646;0.173219
-1.797494;0.094953
-1.798665;0.069306
1.798009;-0.084641
1.796737;-0.108332
1.790795;-0.181804
1.757488;-0.388892
1.086852;-1.434836
0.510786;-1.726006
-0.941524;-1.534123
-1.654475;-0.709022
-1.725006;-0.514155
-0.983863;-1.507320
1.570115;-0.880192
1.798850;0.064322
1.774782;0.300246
1.626070;0.771942
-0.028778;1.799770
-0.431703;1.747465
-1.703649;0.581016
-1.785015;0.231778
-1.794692;0.138127
-1.796569;0.111081
1.779233;-0.272635
1.768720;-0.334109
1.724682;-0.515241
1.547871;-0.918747
1.034179;-1.473253
0.725735;-1.647212
0.740824;-1.640482
0.329256;-1.769630
-0.002195;-1.799999
0.092041;-1.797645
0.412990;-1.751981
1.774498;-0.301920
1.523081;0.959283
0.947133;1.530666
0.355531;1.764539
0.038761;1.799583
-0.987307;1.505066
-1.565369;0.888606
-1.701119;0.588383
-1.731448;0.492023
1.777682;-0.282569
1.760009;-0.377318
1.702997;-0.582924
1.534338;-0.941173
1.216293;-1.326887
1.002078;-1.495273
1.086326;-1.435233
1.049521;-1.462363
0.925535;-1.543821
0.342889;-1.767039
0.497041;-1.730014
1.775923;-0.293421
1.383697;1.151253
1.017793;1.484620
0.928964;1.541761
0.272664;1.779228
-0.545442;1.715370
-1.153828;1.381550
-1.436404;1.084778
-1.545020;0.923533
1.799531;-0.041081
1.797230;-0.099828
1.783451;-0.243519
1.718109;-0.536750
1.528299;-0.950948
1.301332;-1.243597
1.203502;-1.338500
1.235717;-1.308818
1.403246;-1.127342
0.810654;-1.607122
1.005943;-1.492675
1.789893;0.190479
1.423862;1.101189
1.161665;1.374967
0.666078;1.672226
-0.104166;1.796983
-0.618068;1.690560
-0.966135;1.518744
-1.194393;1.346634
-1.329673;1.213247
1.758365;0.384907
1.749221;0.424532
1.747764;0.430488
1.770241;0.325955
1.797454;-0.095704
1.656842;-0.703474
1.498017;-0.997970
1.492949;-1.005536
1.690224;-0.618985
1.755749;-0.396669
1.797237;-0.099697
1.780458;0.264519
1.555511;0.905751
1.069646;1.447707
-0.822413;1.601136
-0.951238;1.528119
-0.937201;1.536767
-1.018172;1.484361
-1.118044;1.410665
-1.206731;1.335590
1.622949;0.778483
1.575844;0.869893
1.523026;0.959370
1.466064;1.044344
1.568916;0.882328
1.792928;0.159402
1.765203;-0.352219
1.751707;-0.414155
1.797039;-0.103209
1.577578;0.866745
1.476388;1.029698
1.648377;0.723086
1.415105;1.112421
0.604771;1.695362
-0.804538;1.610192
-1.256472;1.288906
-1.165177;1.371992
-1.130780;1.400477
-1.143293;1.390281
-1.176028;1.362702
1.480356;1.023985
1.421386;1.104383
1.359646;1.179561
1.288332;1.257061
1.420067;1.106078
1.651906;0.714987
1.750444;0.419459
1.713065;0.552638
1.351905;1.188424
0.411705;1.752284
0.345004;1.766627
0.980650;1.509412
0.910024;1.553015
0.202649;1.788556
-0.691629;1.661821
-1.114041;1.413829
-1.265342;1.280199
-1.218837;1.324551
-1.194500;1.346540
-1.191469;1.349223
1.380058;1.155612
1.331467;1.211279
1.286217;1.259224
1.339271;1.202644
1.428525;1.095132
1.529863;0.948430
1.538832;0.933807
1.316405;1.227631
0.762395;1.630569
0.190792;1.789860
0.134757;1.794948
0.463731;1.739239
0.460203;1.740176
-0.013788;1.799947
-0.634664;1.684399
-1.015089;1.486471
-1.190212;1.350332
-1.269192;1.276382
-1.240961;1.303846
-1.221064;1.322499
1.318709;1.225156
1.284255;1.261225
1.319612;1.224183
1.364780;1.173616
1.414475;1.113221
1.434320;1.087532
1.339564;1.202318
1.016022;1.485833
0.515538;1.724593
0.112392;1.796488
0.061512;1.798949
0.250204;1.782526
0.228594;1.785426
-0.116186;1.796246
-0.590667;1.700327
-0.935845;1.537593
-1.125450;1.404764
-1.222459;1.321209
-1.271172;1.274411
-1.251018;1.294200
1.283276;1.262222
1.311103;1.233292
1.341848;1.199768
1.372026;1.165138
1.388297;1.145702
1.355126;1.184751
1.205043;1.337113
0.875988;1.572464
0.446292;1.743796
0.093872;1.797551
0.037295;1.799614
0.174205;1.791550
0.121895;1.795868
-0.162589;1.792642
-0.549275;1.714146
-0.863393;1.579415
-1.060352;1.454528
-1.173469;1.364907
-1.237143;1.307470
-1.272226;1.273358
