20;20;1.000000;1.000000
10.000000;10.000000
1.283401;-1.262095
1.276791;-1.268781
1.253442;-1.291853
1.202771;-1.339157
1.108411;-1.418247
0.949145;-1.529419
0.711437;-1.653438
0.420226;-1.750260
0.151516;-1.793612
-0.016244;-1.799927
-0.052471;-1.799235
-0.166873;-1.792248
-0.402834;-1.754344
-0.680996;-1.666207
-0.918819;-1.547828
-1.081729;-1.438701
-1.178647;-1.360438
-1.230135;-1.314066
-1.253057;-1.292226
-1.258616;-1.286812
1.288288;-1.257105
1.283443;-1.262051
1.274965;-1.270616
1.242607;-1.302278
1.168569;-1.369104
1.025892;-1.479035
0.787452;-1.618616
0.468290;-1.738017
0.164713;-1.792448
-0.016003;-1.799929
-0.054127;-1.799186
-0.173241;-1.791644
-0.434316;-1.746817
-0.743002;-1.639496
-0.988366;-1.504371
-1.138824;-1.393944
-1.216940;-1.326294
-1.250478;-1.294722
-1.258617;-1.286812
-1.265003;-1.280534
1.309365;-1.235137
1.290316;-1.255023
1.283535;-1.261958
1.271066;-1.274516
1.222297;-1.321359
1.107483;-1.418972
0.885903;-1.566900
0.549562;-1.714054
0.202909;-1.788527
-0.009223;-1.799976
-0.056916;-1.799100
-0.203176;-1.788496
-0.503374;-1.728183
-0.834135;-1.595061
-1.068237;-1.448747
-1.192684;-1.348148
-1.245512;-1.299500
-1.258623;-1.286805
-1.267018;-1.278540
-1.287650;-1.257759
1.354255;-1.185746
1.319923;-1.223848
1.294202;-1.251016
1.283671;-1.261820
1.264312;-1.281217
1.186981;-1.353173
1.002370;-1.495077
0.667464;-1.671673
0.267336;-1.780037
0.002111;-1.799999
-0.061328;-1.798955
-0.253239;-1.782097
-0.609985;-1.693493
-0.949542;-1.529173
-1.150505;-1.384319
-1.236802;-1.307793
-1.258624;-1.286804
-1.270932;-1.274650
-1.298656;-1.246392
-1.334570;-1.207858
1.430607;-1.092412
1.384196;-1.150652
1.338961;-1.202989
1.300851;-1.244101
1.283860;-1.261628
1.252674;-1.292597
1.124867;-1.405231
0.823025;-1.600821
0.367215;-1.762144
0.019908;-1.799890
-0.068602;-1.798692
-0.331759;-1.769163
-0.756713;-1.633213
-1.076975;-1.442264
-1.221577;-1.322025
-1.258603;-1.286825
-1.277510;-1.268056
-1.318321;-1.225573
-1.365934;-1.172273
-1.413397;-1.114588
1.538816;-0.933833
1.491279;-1.008011
1.433986;-1.087973
1.370714;-1.166680
1.312254;-1.232067
1.284148;-1.261335
1.231667;-1.312629
1.007891;-1.491360
0.521781;-1.722714
0.049424;-1.799321
-0.081466;-1.798155
-0.457486;-1.740892
-0.940876;-1.534520
-1.193681;-1.347266
-1.258537;-1.286889
-1.288445;-1.256944
-1.350655;-1.189844
-1.417522;-1.109338
-1.476806;-1.029099
-1.524370;-0.957234
1.659518;-0.697137
1.627355;-0.769231
1.578463;-0.865133
1.509682;-0.980234
1.422847;-1.102501
1.332672;-1.209953
1.284631;-1.260842
1.188621;-1.351732
0.758251;-1.632500
0.103951;-1.796996
-0.106813;-1.796828
-0.663047;-1.673430
-1.135163;-1.396927
-1.258356;-1.287066
-1.307294;-1.237328
-1.402554;-1.128203
-1.494586;-1.003102
-1.566737;-0.886192
-1.616782;-0.791212
-1.648082;-0.723759
1.752749;-0.409719
1.742036;-0.453114
1.719981;-0.530720
1.680500;-0.644920
1.613850;-0.797176
1.509354;-0.980739
1.373425;-1.163488
1.285639;-1.259814
1.073486;-1.444863
0.223825;-1.786030
-0.166353;-1.792296
-0.974913;-1.513124
-1.257795;-1.287614
-1.343711;-1.197682
-1.486988;-1.014331
-1.598695;-0.827148
-1.669995;-0.671653
-1.711972;-0.556015
-1.734908;-0.479681
-1.744893;-0.441982
1.793669;-0.150839
1.792718;-0.161747
1.789177;-0.197096
1.781644;-0.256404
1.765920;-0.348606
1.731124;-0.493164
1.649699;-0.720064
1.472116;-1.035796
1.288612;-1.256773
0.569450;-1.707550
-0.359098;-1.763816
-1.255475;-1.289877
-1.431201;-1.091634
-1.625050;-0.774088
-1.717207;-0.539628
-1.757257;-0.389930
-1.775647;-0.295090
-1.784649;-0.234584
-1.788978;-0.198894
-1.789856;-0.190825
1.800000;-0.000688
1.799999;-0.001623
1.799987;-0.006861
1.799936;-0.015173
1.799780;-0.028168
1.799307;-0.049944
1.797698;-0.091016
1.790499;-0.184694
1.734828;-0.479968
1.305822;-1.238883
-1.249727;-1.295447
-1.693469;-0.610052
-1.780486;-0.264330
-1.793438;-0.153563
-1.796856;-0.106334
-1.798120;-0.082250
-1.798696;-0.068514
-1.798996;-0.060106
-1.799165;-0.054824
-1.799229;-0.052664
1.799697;0.033027
1.799662;0.034901
1.799559;0.039853
1.799367;0.047715
1.798986;0.060402
1.798115;0.082346
1.795671;0.124769
1.786154;0.222833
1.720773;0.528147
1.260363;1.285101
-1.276126;1.269449
-1.760176;0.376536
-1.794900;0.135398
-1.799088;0.057288
-1.799862;0.022279
-1.799997;0.003390
-1.799982;-0.008037
-1.799934;-0.015391
-1.799890;-0.019898
-1.799891;-0.019783
1.792183;0.167569
1.791209;0.177678
1.787415;0.212479
1.779518;0.270768
1.763252;0.361861
1.727494;0.505731
1.643886;0.733238
1.460508;1.052101
1.265071;1.280467
0.460527;1.740090
-0.630367;1.686012
-1.295137;1.250048
-1.509368;0.980718
-1.671160;0.668749
-1.741923;0.453544
-1.771782;0.317474
-1.785167;0.230605
-1.791492;0.174799
-1.794384;0.142080
-1.795093;0.132822
1.751409;0.415411
1.741457;0.455331
1.719724;0.531554
1.680157;0.645811
1.612492;0.799919
1.504799;0.987714
1.362344;1.176444
1.265709;1.279836
1.026567;1.478567
0.188071;1.790148
-0.247908;1.782846
-1.105381;1.420610
-1.296720;1.248406
-1.398545;1.133169
-1.531323;0.946071
-1.629520;0.764634
-1.691057;0.616705
-1.727188;0.506776
-1.747265;0.432508
-1.757088;0.390693
1.658852;0.698720
1.627825;0.768236
1.578772;0.864568
1.508053;0.982739
1.417050;1.109941
1.320876;1.222819
1.265947;1.279600
1.161760;1.374887
0.711818;1.653274
0.103263;1.797036
-0.125069;1.795650
-0.781492;1.621503
-1.209094;1.333451
-1.297267;1.247838
-1.351935;1.188390
-1.441582;1.077888
-1.525577;0.955308
-1.591138;0.841593
-1.637453;0.747494
-1.668048;0.676472
1.536638;0.937414
1.488968;1.011421
1.429684;1.093619
1.362649;1.176090
1.299446;1.245568
1.266074;1.279474
1.211179;1.331557
0.975863;1.512511
0.490233;1.731956
0.066906;1.798756
-0.072115;1.798555
-0.537997;1.717719
-1.025699;1.479169
-1.248048;1.297065
-1.297549;1.247545
-1.328842;1.214157
-1.387150;1.147089
-1.449183;1.067647
-1.504888;0.987579
-1.551051;0.913368
1.424762;1.100024
1.376785;1.159510
1.328644;1.214375
1.287051;1.258372
1.266147;1.279402
1.234708;1.309769
1.101336;1.423748
0.792283;1.616257
0.350583;1.765529
0.048097;1.799357
-0.044557;1.799448
-0.380823;1.759254
-0.836585;1.593777
-1.139995;1.392987
-1.267489;1.278074
-1.297704;1.247383
-1.316244;1.227803
-1.354265;1.185735
-1.399035;1.132563
-1.444817;1.073547
1.344388;1.196921
1.307893;1.236696
1.279596;1.265952
1.266186;1.279364
1.247454;1.297636
1.168023;1.369570
0.978180;1.511014
0.642094;1.681581
0.262309;1.780785
0.037159;1.799616
-0.028436;1.799775
-0.280677;1.777982
-0.678123;1.667378
-1.015509;1.486183
-1.201303;1.340475
-1.278621;1.266936
-1.297782;1.247302
-1.309111;1.235406
-1.334824;1.207578
-1.369091;1.168584
1.296238;1.248906
1.275157;1.270423
1.266205;1.279345
1.254692;1.290638
1.205765;1.336462
1.088950;1.433244
0.864246;1.578948
0.531271;1.719811
0.206191;1.788151
0.030331;1.799744
-0.018354;1.799906
-0.216958;1.786877
-0.559598;1.710804
-0.898090;1.559947
-1.121429;1.407976
-1.236604;1.307979
-1.285312;1.260148
-1.297805;1.247278
-1.305071;1.239674
-1.324245;1.219170
1.272872;1.272713
1.266212;1.279338
1.258813;1.286620
1.227312;1.316702
1.153500;1.381824
1.010213;1.489788
0.771691;1.626189
0.458403;1.740651
0.173902;1.791580
0.026084;1.799811
-0.012227;1.799958
-0.180416;1.790936
-0.480667;1.734635
-0.801041;1.611935
-1.040559;1.468753
-1.183324;1.356372
-1.257110;1.288283
-1.289301;1.256067
-1.297805;1.247278
-1.303067;1.241779
1.266215;1.279335
1.260936;1.284539
1.238957;1.305751
1.189580;1.350888
1.096500;1.427476
0.938938;1.535707
0.704750;1.656299
0.421513;1.749951
0.167960;1.792147
0.025724;1.799816
-0.012484;1.799957
-0.172696;1.791696
-0.439004;1.745645
-0.729364;1.645609
-0.966193;1.518707
-1.124456;1.405560
-1.217993;1.325328
-1.268149;1.277419
-1.291253;1.254059
-1.297808;1.247275
