20;20;1.000000;1.000000
10.000000;10.000000
1.266412;-1.279141
1.274846;-1.270735
1.284897;-1.260571
1.294231;-1.250986
1.299722;-1.245281
1.294315;-1.250899
1.263723;-1.281798
1.180908;-1.358476
0.998698;-1.497532
0.655643;-1.676345
0.148566;-1.793858
-0.376559;-1.760171
-0.767420;-1.628209
-1.011496;-1.488918
-1.157211;-1.378718
-1.245115;-1.299880
-1.299270;-1.245751
-1.333116;-1.209463
-1.354336;-1.185653
-1.365464;-1.172820
1.279905;-1.265639
1.266497;-1.279056
1.278606;-1.266951
1.294690;-1.250512
1.312327;-1.231990
1.326380;-1.216847
1.323771;-1.219684
1.276657;-1.268915
1.131374;-1.399997
0.800309;-1.612298
0.237362;-1.784281
-0.376213;-1.760245
-0.812124;-1.606379
-1.063148;-1.452486
-1.202489;-1.339411
-1.281567;-1.263956
-1.327484;-1.215643
-1.354201;-1.185807
-1.363003;-1.175680
-1.351772;-1.188575
1.303287;-1.241548
1.284433;-1.261044
1.266596;-1.278958
1.286894;-1.258532
1.315734;-1.228350
1.351250;-1.189169
1.383341;-1.151680
1.383512;-1.151475
1.294050;-1.251174
1.005643;-1.492877
0.395016;-1.756121
-0.347824;-1.766074
-0.852890;-1.585112
-1.114460;-1.413499
-1.246445;-1.298605
-1.315651;-1.228439
-1.352941;-1.187246
-1.358685;-1.180667
-1.346344;-1.194720
-1.337076;-1.205085
1.341324;-1.200354
1.317551;-1.226401
1.294604;-1.250600
1.266641;-1.278914
1.304460;-1.240316
1.363326;-1.175305
1.440659;-1.079121
1.503651;-0.989461
1.486409;-1.015179
1.281841;-1.263678
0.671546;-1.670038
-0.268664;-1.779837
-0.894738;-1.561872
-1.171902;-1.366252
-1.293761;-1.251473
-1.351575;-1.188800
-1.350486;-1.190037
-1.334570;-1.207858
-1.326041;-1.217217
-1.322012;-1.221591
1.400253;-1.131058
1.374025;-1.162779
1.347505;-1.193411
1.315450;-1.228654
1.266600;-1.278955
1.347861;-1.193009
1.488939;-1.011464
1.637249;-0.747940
1.681088;-0.643385
1.577623;-0.866664
1.098155;-1.426203
-0.091964;-1.797649
-0.954414;-1.526137
-1.246782;-1.298282
-1.351281;-1.189134
-1.333163;-1.209412
-1.310964;-1.233440
-1.302835;-1.242023
-1.303221;-1.241618
-1.308983;-1.235542
1.487045;-1.014247
1.463979;-1.047266
1.441260;-1.078317
1.412952;-1.115153
1.365753;-1.172484
1.266739;-1.278816
1.503308;-0.989982
1.769729;-0.328721
1.794954;-0.134688
1.760117;-0.376811
1.517847;-0.967543
0.289856;-1.776509
-1.082079;-1.438439
-1.357816;-1.181666
-1.289216;-1.256154
-1.256936;-1.288454
-1.253234;-1.292055
-1.264092;-1.281433
-1.281984;-1.263534
-1.303421;-1.241407
1.604495;-0.815841
1.594199;-0.835781
1.589899;-0.843931
1.590145;-0.843468
1.587009;-0.849354
1.550513;-0.914281
1.534119;-0.941529
1.744658;0.442909
1.776386;0.290607
1.799870;-0.021665
1.688378;-0.624002
0.996790;-1.498802
-1.321201;-1.222468
-1.115790;-1.412449
-1.095340;-1.428366
-1.128778;-1.402091
-1.176719;-1.362105
-1.226038;-1.317889
-1.272552;-1.273032
-1.315464;-1.228639
1.733502;-0.484739
1.741600;-0.454783
1.760575;-0.374665
1.788092;-0.206702
1.796198;0.116924
1.670130;0.671316
1.301375;1.243553
1.306566;1.238097
1.645961;0.728569
1.772255;0.314821
1.798558;0.072031
1.024560;-1.479958
0.393690;-1.756419
-0.381059;-1.759203
-0.742119;-1.639896
-0.955154;-1.525674
-1.102423;-1.422907
-1.211168;-1.331568
-1.294579;-1.250626
-1.360575;-1.178489
1.799973;0.009789
1.794478;0.140885
1.758625;0.383718
1.617370;0.790009
1.260319;1.285145
0.822401;1.601142
0.841256;1.591316
-1.093586;1.429710
1.181431;1.358021
1.709005;0.565069
1.791945;0.170101
1.028041;-1.477542
0.551521;-1.713425
0.085979;-1.797945
-0.437624;-1.745991
-0.830056;-1.597188
-1.090344;-1.432184
-1.260874;-1.284600
-1.375371;-1.161187
-1.455049;-1.059638
1.708172;0.567580
1.623487;0.777361
1.438219;1.082370
1.082053;1.438458
0.611723;1.692866
0.258894;1.781284
0.169214;1.792029
-1.397564;1.134378
-0.031791;1.799719
1.637351;-0.747717
1.689651;-0.620548
0.728236;-1.646108
0.242355;-1.783610
0.034309;-1.799673
-0.432460;-1.747277
-0.897817;-1.560104
-1.223353;-1.320382
-1.417573;-1.109273
-1.530522;-0.947365
-1.598339;-0.827836
1.502823;0.990718
1.353243;1.186901
1.100688;1.424249
0.711480;1.653420
0.247657;1.782881
-0.100071;1.797216
-0.196193;1.789276
-1.761255;0.371456
-1.554299;-0.907830
0.082376;-1.798114
1.094217;-1.429227
0.408452;-1.753045
0.046622;-1.799396
-0.266397;-1.780178
-0.766560;-1.628615
-1.244860;-1.300124
-1.524165;-0.957559
-1.653946;-0.710256
-1.713212;-0.552183
-1.741840;-0.453865
1.323048;1.220469
1.174142;1.364328
0.952792;1.527150
0.622386;1.688975
0.163677;1.792543
-0.330369;1.769423
-0.736529;1.642414
-1.690229;-0.618972
-0.784191;-1.620199
-0.506908;-1.727149
0.564892;-1.709063
-0.161698;-1.792722
-0.459673;-1.740316
-0.909119;-1.553545
-1.448512;-1.068557
-1.707592;-0.569322
-1.780451;-0.264564
-1.796925;-0.105176
-1.799801;-0.026779
-1.799988;0.006551
1.224939;1.318910
1.115319;1.412821
0.970123;1.516200
0.766679;1.628559
0.458493;1.740628
-0.063981;1.798862
-0.895549;1.561407
-1.478382;1.026834
-1.764489;-0.355778
-1.701466;-0.587377
-1.749409;-0.423756
-1.432930;-1.089362
-1.435787;-1.085595
-1.785226;-0.230146
-1.791035;0.179428
-1.765527;0.350592
-1.749020;0.425356
-1.742734;0.450421
-1.743843;0.446107
-1.749658;0.422724
1.192637;1.348190
1.129179;1.401768
1.059894;1.454862
0.986810;1.505392
0.922363;1.545719
0.919703;1.547303
1.202300;1.339580
-1.459296;1.053781
-1.799056;0.058296
-1.768572;-0.334894
-1.725457;-0.512639
-1.740326;-0.459638
-1.526614;0.953651
-1.482212;1.021297
-1.551042;0.913383
-1.577733;0.866463
-1.594530;0.835149
-1.610606;0.803709
-1.628663;0.766457
-1.649158;0.721304
1.195785;1.345399
1.168093;1.369510
1.148054;1.386352
1.143749;1.389906
1.172251;1.365953
1.261394;1.284089
1.021700;1.481934
-0.400302;1.754924
-1.693043;0.611233
-1.799996;0.003597
-1.794992;-0.134173
-1.790110;0.188433
-1.583907;0.855125
-1.379223;1.156609
-1.385795;1.148726
-1.435590;1.085855
-1.469129;1.040029
-1.496561;1.000152
-1.523015;0.959389
-1.551025;0.913412
1.212470;1.330382
1.206659;1.335655
1.210274;1.332380
1.228581;1.315518
1.270551;1.275030
1.191382;1.349299
0.947100;1.530686
0.181516;1.790824
-1.192422;1.348380
-1.694571;0.606982
-1.754739;0.401112
-1.705357;0.575983
-1.571430;0.877842
-1.441591;1.077875
-1.362462;1.176306
-1.358493;1.180888
-1.391323;1.142024
-1.418692;1.107841
-1.445143;1.073109
-1.473718;1.033515
1.231577;1.312714
1.237150;1.307463
1.249785;1.295391
1.273828;1.271756
1.233350;1.311048
1.136834;1.395568
0.919194;1.547605
0.393218;1.756525
-0.623676;1.688499
-1.384151;1.150707
-1.591706;0.840519
-1.596421;0.831529
-1.531107;0.946421
-1.454730;1.060075
-1.395211;1.137272
-1.354473;1.185496
-1.347101;1.193867
-1.370135;1.167360
-1.392555;1.140522
-1.417953;1.108787
1.248940;1.296205
1.259565;1.285884
1.275297;1.270283
1.250688;1.294519
1.197994;1.343433
1.096512;1.427467
0.893006;1.562863
0.467545;1.738218
-0.304338;1.774085
-1.061599;1.453618
-1.398733;1.132937
-1.486115;1.015610
-1.480201;1.024210
-1.444660;1.073758
-1.406386;1.123423
-1.374494;1.162224
-1.349975;1.190617
-1.341512;1.200144
-1.358883;1.180439
-1.379476;1.156307
1.263709;1.281811
1.276032;1.269544
1.259280;1.286162
1.225343;1.318535
1.165193;1.371979
1.057626;1.456512
0.858234;1.582224
0.480479;1.734687
-0.152603;1.793519
-0.831505;1.596434
-1.227984;1.316076
-1.382861;1.152256
-1.425588;1.098954
-1.423113;1.102156
-1.404898;1.125282
-1.383602;1.151367
-1.363985;1.174540
-1.347337;1.193600
-1.338485;1.203519
-1.353690;1.186391
1.276386;1.269188
1.263092;1.282419
1.238156;1.306511
1.197024;1.344296
1.128925;1.401973
1.013703;1.487416
0.812707;1.606084
0.460917;1.739987
-0.085526;1.797967
-0.683460;1.665197
-1.091066;1.431633
-1.289817;1.255536
-1.370453;1.166987
-1.395406;1.137032
-1.395570;1.136831
-1.385661;1.148888
-1.372522;1.164553
-1.359108;1.180180
-1.346468;1.194582
-1.336719;1.205481
