20;20;1.000000;1.000000
10.000000;10.000000
1.239163;-1.274428
1.103879;-1.220262
0.972673;-1.180815
0.839499;-1.156897
0.700173;-1.149389
0.552670;-1.159496
0.397534;-1.189468
0.238601;-1.244110
0.083934;-1.334329
-0.051805;-1.487613
-0.134409;-1.766356
-0.170658;-1.506598
-0.279034;-1.324934
-0.411037;-1.221718
-0.547121;-1.161425
-0.679199;-1.130292
-0.804415;-1.121755
-0.922546;-1.131755
-1.033014;-1.156255
-1.108485;-1.178890
1.158563;-1.228955
1.234701;-1.271068
1.095172;-1.212009
0.950920;-1.171967
0.797840;-1.153429
0.633140;-1.157970
0.456659;-1.187900
0.272922;-1.248544
0.093589;-1.351706
-0.057695;-1.520427
-0.136301;-1.790385
-0.182111;-1.513953
-0.309281;-1.328725
-0.464927;-1.216259
-0.623290;-1.153560
-0.774871;-1.127286
-0.918148;-1.130598
-1.055832;-1.159625
-1.192702;-1.211383
-1.241163;-1.232827
1.071253;-1.153255
1.157764;-1.217945
1.227734;-1.265440
1.072030;-1.197247
0.908610;-1.160296
0.729432;-1.153951
0.532675;-1.179304
0.323369;-1.240500
0.117358;-1.347515
-0.053937;-1.520444
-0.135359;-1.762784
-0.203675;-1.481260
-0.356522;-1.304035
-0.536945;-1.194790
-0.716132;-1.138022
-0.883832;-1.124010
-1.039781;-1.147119
-1.188087;-1.203152
-1.237269;-1.226058
-1.129246;-1.150079
1.027730;-1.061029
1.080112;-1.120430
1.152091;-1.198273
1.218624;-1.257270
1.038929;-1.179794
0.846624;-1.151775
0.630709;-1.165968
0.394026;-1.222749
0.155304;-1.329851
-0.045769;-1.509780
-0.135730;-1.724032
-0.236673;-1.433511
-0.424026;-1.262216
-0.631654;-1.161939
-0.829620;-1.119550
-1.009990;-1.129246
-1.177465;-1.189285
-1.228018;-1.212318
-1.133107;-1.124188
-1.065595;-1.054069
1.037626;-0.943996
1.065986;-0.992344
1.092469;-1.067668
1.146137;-1.171064
1.206370;-1.246247
0.992575;-1.163262
0.757668;-1.152981
0.491049;-1.198903
0.210433;-1.303754
-0.033636;-1.494098
-0.139105;-1.675623
-0.286339;-1.374962
-0.518032;-1.209300
-0.754856;-1.123877
-0.969287;-1.109473
-1.163598;-1.170218
-1.217276;-1.190633
-1.132529;-1.075711
-1.088520;-0.994853
-1.052181;-0.937882
1.114966;-0.788446
1.137124;-0.818343
1.130238;-0.892239
1.116605;-0.999992
1.140130;-1.138383
1.188838;-1.232779
0.924693;-1.152918
0.625390;-1.173577
0.290876;-1.271784
-0.015893;-1.475218
-0.148314;-1.616065
-0.362510;-1.306078
-0.649645;-1.148914
-0.915108;-1.092115
-1.146612;-1.145099
-1.206382;-1.156986
-1.140715;-1.001864
-1.125037;-0.897846
-1.115453;-0.830479
-1.095117;-0.794895
1.283928;-0.563845
1.322803;-0.570109
1.291462;-0.659253
1.225037;-0.784209
1.154283;-0.928951
1.133101;-1.102751
1.161878;-1.217971
0.817133;-1.157447
0.414162;-1.235748
0.011913;-1.453960
-0.168802;-1.543902
-0.483623;-1.226493
-0.836958;-1.088076
-1.126779;-1.111920
-1.199310;-1.103315
-1.170485;-0.893717
-1.193370;-0.757829
-1.217170;-0.669243
-1.224413;-0.622383
-1.202756;-0.617619
1.625470;-0.146535
1.663175;-0.201855
1.604096;-0.365232
1.491866;-0.542660
1.352836;-0.694222
1.215990;-0.853794
1.126919;-1.062048
1.116391;-1.204530
0.619792;-1.200339
0.061592;-1.429808
-0.211037;-1.458840
-0.685117;-1.139155
-1.107230;-1.068331
-1.215075;-1.001722
-1.257926;-0.721424
-1.326071;-0.556546
-1.378754;-0.449550
-1.411793;-0.384095
-1.421346;-0.361223
-1.387693;-0.394461
1.508815;-0.289317
1.560321;-0.289655
1.554691;-0.367595
1.548366;-0.468602
1.601907;-0.526011
1.614168;-0.592395
1.360001;-0.745802
1.142557;-0.985885
1.018152;-1.212321
0.181990;-1.383019
-0.301709;-1.352557
-1.017345;-1.097172
-1.473550;-0.664828
-1.656280;-0.186961
-1.722249;-0.143031
-1.752823;-0.048170
-1.746415;-0.010349
-1.729047;0.010390
-1.708457;0.002263
-1.690913;-0.069707
1.711952;-0.087328
1.776640;-0.033173
1.749059;-0.106579
1.735079;-0.080428
1.719586;-0.116424
1.646447;-0.304228
1.522476;-0.510434
1.318358;-0.748024
0.896684;-1.127507
0.599702;-1.246557
-0.539102;-1.224990
-0.961858;-1.147132
-1.285530;-0.879483
-1.668840;-0.152331
-1.705441;-0.097794
-1.726083;-0.071184
-1.739956;-0.054223
-1.749624;-0.048168
-1.780329;-0.146754
-1.731205;-0.281900
1.352184;-0.421568
1.426379;-0.372933
1.422288;-0.392376
1.387458;-0.437585
1.332967;-0.520814
1.263654;-0.635713
1.151507;-0.846134
1.001231;-1.347269
0.659755;-1.241627
0.248326;-1.230995
-0.262536;-1.241184
-0.562856;-1.370601
-0.833658;-1.149199
-1.100527;-0.721128
-1.255964;-0.518786
-1.353321;-0.408784
-1.419529;-0.340576
-1.462184;-0.309034
-1.472893;-0.325533
-1.428389;-0.377767
1.121710;-0.607432
1.162056;-0.587100
1.155313;-0.607556
1.113392;-0.660850
1.043595;-0.745687
0.945668;-0.867365
0.814857;-1.047480
0.664973;-1.326405
0.507327;-1.510829
0.195599;-1.328599
-0.135815;-1.340995
-0.279829;-1.608190
-0.499867;-1.303449
-0.751380;-0.984632
-0.932773;-0.781916
-1.061142;-0.649192
-1.150545;-0.562539
-1.206817;-0.513472
-1.226980;-0.500998
-1.202936;-0.522513
0.947377;-0.734183
0.961519;-0.734626
0.944031;-0.762063
0.896051;-0.816991
0.819928;-0.899943
0.716620;-1.014509
0.588731;-1.169260
0.451390;-1.384547
0.361154;-1.723175
0.167281;-1.440862
-0.066773;-1.437425
-0.156049;-1.714711
-0.318578;-1.397880
-0.524090;-1.142727
-0.696375;-0.959752
-0.830125;-0.827159
-0.928003;-0.734464
-0.992393;-0.675862
-1.023217;-0.648251
-1.020006;-0.648120
0.805898;-0.830011
0.802112;-0.843830
0.774478;-0.877811
0.721776;-0.934094
0.644621;-1.014210
0.544973;-1.120453
0.428287;-1.257076
0.310037;-1.435246
0.233293;-1.716965
0.127121;-1.530427
-0.028118;-1.509640
-0.021043;-1.758693
-0.201779;-1.468565
-0.370560;-1.252897
-0.522274;-1.088758
-0.648786;-0.962641
-0.746689;-0.869379
-0.815463;-0.805398
-0.855519;-0.767611
-0.868422;-0.752426
0.688885;-0.905123
0.673285;-0.927491
0.638664;-0.966123
0.583692;-1.023257
0.508736;-1.100673
0.416121;-1.200228
0.311251;-1.324707
0.203707;-1.481451
0.091495;-1.709090
0.071691;-1.591362
-0.017850;-1.561404
-0.069971;-1.773954
-0.139576;-1.521767
-0.267536;-1.333345
-0.395987;-1.184325
-0.510026;-1.065589
-0.603045;-0.974155
-0.672608;-0.907597
-0.718584;-0.863261
-0.742490;-0.837994
0.591750;-0.964663
0.568832;-0.992341
0.530432;-1.033752
0.475604;-1.090982
0.404830;-1.165917
0.320415;-1.260492
0.227027;-1.377231
0.131175;-1.521799
0.033165;-1.721211
0.033134;-1.627435
-0.011224;-1.598557
-0.003046;-1.789821
-0.094107;-1.560538
-0.197261;-1.392046
-0.305472;-1.254546
-0.406064;-1.142588
-0.491721;-1.054112
-0.559179;-0.987069
-0.607710;-0.939090
-0.638268;-0.907480
0.511211;-1.011743
0.484264;-1.042411
0.444674;-1.084961
0.391900;-1.141348
0.326542;-1.213601
0.250731;-1.304038
0.168722;-1.415566
0.087552;-1.552758
0.016419;-1.733329
0.016551;-1.650120
-0.005439;-1.623164
-0.001278;-1.791179
-0.061833;-1.589926
-0.148683;-1.433115
-0.241391;-1.303738
-0.329537;-1.197953
-0.406861;-1.113333
-0.470226;-1.047546
-0.518619;-0.998274
-0.552466;-0.963170
0.444572;-1.048507
0.415946;-1.080385
0.377059;-1.122612
0.327688;-1.176999
0.268479;-1.245690
0.201226;-1.331516
0.129408;-1.438505
0.059794;-1.572044
0.007956;-1.742095
0.006951;-1.663938
-0.000057;-1.636010
0.038011;-1.788598
-0.038028;-1.608658
-0.116746;-1.456220
-0.197495;-1.333352
-0.274351;-1.234331
-0.343041;-1.154878
-0.401084;-1.092013
-0.447435;-1.043415
-0.482141;-1.007018
0.389485;-1.076579
0.360800;-1.108263
0.323883;-1.148841
0.278759;-1.199898
0.226086;-1.263450
0.167251;-1.342514
0.104294;-1.442335
0.039118;-1.573156
-0.033478;-1.747624
-0.010148;-1.663803
-0.001365;-1.629212
0.025376;-1.784903
-0.030069;-1.605753
-0.100259;-1.455632
-0.169586;-1.343081
-0.235554;-1.253616
-0.295535;-1.181286
-0.347597;-1.123010
-0.390704;-1.076727
-0.424625;-1.040757
0.343885;-1.097341
0.316183;-1.127721
0.281976;-1.165529
0.241484;-1.211959
0.195423;-1.268522
0.145012;-1.337436
0.091679;-1.422637
0.035402;-1.533067
-0.032100;-1.695316
-0.013452;-1.614248
-0.008490;-1.577833
-0.006481;-1.634366
-0.043189;-1.538288
-0.097128;-1.425776
-0.153497;-1.334222
-0.208731;-1.258356
-0.260232;-1.195188
-0.306160;-1.142921
-0.345411;-1.100234
-0.377538;-1.065979
