20;20;1.000000;1.000000
10.000000;10.000000
1.056491;-1.457335
1.019742;-1.483282
0.923174;-1.545235
0.700428;-1.658131
0.225423;-1.785829
-0.561152;-1.710295
-1.279599;-1.265949
-1.632684;-0.757855
-1.759534;-0.379526
-1.795619;-0.125515
-1.799734;0.030935
-1.797149;0.101270
-1.795488;0.127361
-1.794315;0.142947
-1.793865;0.148488
-1.794132;0.145229
-1.794762;0.137215
-1.795354;0.129248
-1.795374;0.128966
-1.793065;0.157854
1.055204;-1.458268
1.047803;-1.463594
0.979819;-1.509952
0.788189;-1.618258
0.319251;-1.771462
-0.526797;-1.721187
-1.287633;-1.257776
-1.642262;-0.736869
-1.763540;-0.360454
-1.796372;-0.114219
-1.799447;0.044632
-1.799197;0.053754
-1.799442;0.044810
-1.799308;0.049909
-1.799385;0.047049
-1.799563;0.039660
-1.799731;0.031146
-1.799850;0.023221
-1.799920;0.016973
-1.799826;0.025032
1.059660;-1.455033
1.055586;-1.457991
1.023687;-1.480562
0.867985;-1.576896
0.406221;-1.753563
-0.522077;-1.722624
-1.328028;-1.215048
-1.684472;-0.634472
-1.779906;-0.268204
-1.797156;-0.101136
-1.798993;0.060210
-1.792155;0.167872
-1.786632;0.218962
-1.783276;0.244801
-1.785724;0.226248
-1.789637;0.192870
-1.792784;0.161010
-1.794923;0.135101
-1.795982;0.120201
-1.793917;0.147856
1.090386;-1.432152
1.056736;-1.457158
1.057797;-1.456388
0.952557;-1.527297
0.533802;-1.719027
-0.446477;-1.743748
-1.284861;-1.260608
-1.746754;-0.434567
-1.797716;-0.090645
-1.795970;-0.120384
-1.798987;0.060395
-1.783314;0.244523
-1.723721;0.518446
-1.629146;0.765430
-1.656514;0.704244
-1.694715;0.606581
-1.724126;0.517098
-1.744355;0.444102
-1.754975;0.400078
-1.753967;0.404474
1.169541;-1.368274
1.098841;-1.425675
1.052993;-1.459865
1.034316;-1.473157
0.740235;-1.640747
-0.113430;-1.796422
-0.657395;-1.675659
-1.261338;-1.284144
-1.699013;-0.594437
-1.794266;-0.143562
-1.792908;0.159631
-1.754389;0.402641
-1.674701;0.659831
-1.496554;1.000163
-1.418150;1.108535
-1.494376;1.003415
-1.552001;0.911752
-1.606507;0.811870
-1.646725;0.726839
-1.668134;0.676261
1.321031;-1.222652
1.219445;-1.323992
1.116690;-1.411738
1.051230;-1.461135
0.964817;-1.519582
0.517697;-1.723946
0.373689;-1.760783
-0.194794;-1.789429
-1.299615;-1.245392
-1.795619;-0.125504
-1.744166;0.444843
-1.657444;0.702055
-1.578137;0.865727
-1.481227;1.022725
-1.375551;1.160974
-1.311343;1.233037
-1.327548;1.215573
-1.402794;1.127905
-1.482476;1.020913
-1.545432;0.922844
1.537516;-0.935972
1.443386;-1.075470
1.307899;-1.236689
1.152780;-1.382425
1.057321;-1.456733
0.879795;-1.570338
0.570695;-1.707134
0.474735;-1.736268
-0.514817;-1.724808
-1.603086;0.818606
-1.185142;1.354784
-1.127063;1.403470
-1.267623;1.277940
-1.345360;1.195829
-1.310252;1.234196
-1.184777;1.355103
-1.104991;1.420913
-1.181160;1.358257
-1.296445;1.248691
-1.410022;1.118855
1.724988;-0.514216
1.688102;-0.624748
1.605709;-0.813448
1.446233;-1.071639
1.216863;-1.326365
1.063319;-1.452361
0.703198;-1.656959
0.682157;-1.665731
-1.610987;0.802944
-0.442887;1.744664
0.124913;1.795661
0.605904;1.694957
-0.095352;1.797473
-1.009903;1.489998
-1.175597;1.363074
-1.105412;1.420586
-0.952366;1.527416
-0.944176;1.532492
-1.110026;1.416983
-1.289256;1.256112
1.793603;-0.151614
1.790212;-0.187462
1.779469;-0.271091
1.746260;-0.436551
1.635629;-0.751476
1.317629;-1.226317
1.050101;-1.461947
0.721665;-1.649000
-1.265284;1.280257
-0.479177;1.735047
0.533015;1.719272
1.281959;1.263559
0.811845;1.606520
-0.513286;1.725265
-1.015358;1.486286
-1.009499;1.490272
-0.771850;1.626114
-0.579641;1.704117
-0.950152;1.528794
-1.220403;1.323109
1.799197;-0.053759
1.799067;-0.057940
1.799101;-0.056894
1.799030;-0.059078
1.798496;-0.073555
1.793883;-0.148263
1.571189;-0.878274
0.724719;-1.647660
-1.669833;0.672054
-1.259649;1.285801
1.283850;1.261637
1.638197;0.745863
1.342640;1.198881
-0.101556;1.797133
-0.925582;1.543793
-1.003762;1.494142
-0.728498;1.645992
-0.418481;1.750678
-0.964720;1.519643
-1.263235;1.282278
1.793721;0.150221
1.796300;0.115355
1.794031;0.146466
1.786555;0.219590
1.761159;0.371914
1.636685;0.749175
1.007682;1.491501
0.042918;1.799488
-1.795474;0.127567
-1.304930;-1.239821
1.341259;-1.200427
1.756161;-0.394840
1.757085;0.390706
0.030592;1.799740
-1.060776;1.454219
-1.234403;1.310058
-1.163859;1.373111
-1.119700;1.409351
-1.301238;1.243696
-1.453393;1.061908
1.696799;0.600726
1.690499;0.618235
1.642717;0.735855
1.528418;0.950757
1.301521;1.243399
0.996932;1.498708
0.651836;1.677829
-0.335203;1.768513
-1.567190;-0.885390
-0.937453;-1.536614
0.595763;-1.698548
1.292387;-1.252890
1.775977;-0.293095
-0.765213;1.629248
-1.500829;0.993737
-1.685813;0.630899
-1.750294;0.420084
-1.761058;0.372391
-1.737017;0.471986
-1.704080;0.579752
1.458361;1.055075
1.403906;1.126520
1.294711;1.250489
1.134492;1.397472
0.970861;1.515727
0.919153;1.547630
0.381001;1.759215
-0.154124;1.793389
-0.937329;1.536689
-1.028207;1.477427
-1.002841;1.494761
0.825308;1.599646
-0.707142;1.655280
-1.554247;0.907919
-1.791084;0.178934
-1.745437;-0.439827
-1.574032;-0.873168
-1.500742;-0.993868
-1.710592;-0.560244
-1.799243;-0.052202
1.203491;1.338511
1.130216;1.400933
1.035529;1.472304
0.945686;1.531561
0.931120;1.540460
0.723714;1.648101
0.288323;1.776758
-0.009289;1.799976
-0.881782;1.569223
-0.989382;1.503703
-0.838465;1.592789
-0.940353;1.534841
-1.325145;1.218192
-1.739946;0.461074
-1.748645;-0.426896
-1.481937;-1.021696
-1.220358;-1.323150
-1.144245;-1.389497
-1.500783;-0.993805
-1.737487;-0.470256
1.028446;1.477260
0.973117;1.514280
0.924019;1.544729
0.912409;1.551615
0.879420;1.570548
0.558409;1.711192
0.254056;1.781981
0.058586;1.799046
-0.504373;1.727891
-0.860971;1.580737
-0.806513;1.609203
-1.057476;1.456621
-1.476560;1.029451
-1.794744;0.137448
-1.630301;-0.762968
-1.278755;-1.266801
-1.074439;-1.444154
-1.255057;-1.290283
-1.491327;-1.007940
-1.696379;-0.601911
0.932967;1.539341
0.907220;1.554655
0.903235;1.556973
0.952865;1.527104
0.752206;1.635294
0.442752;1.744698
0.240440;1.783869
0.083469;1.798064
-0.357855;1.764069
-0.695645;1.660144
-0.935377;1.537878
-1.193555;1.347377
-1.605418;0.814024
-1.794592;-0.139429
-1.536006;-0.938449
-1.153531;-1.381798
-1.190316;-1.350240
-1.380385;-1.155222
-1.558368;-0.900826
-1.706485;-0.572634
0.891665;1.563628
0.896397;1.560920
0.931901;1.539987
0.866570;1.577674
0.636015;1.683890
0.364708;1.762665
0.237127;1.784312
0.089803;1.797758
-0.312752;1.772621
-0.798873;1.613010
-1.121693;1.407766
-1.316014;1.228050
-1.714774;0.547311
-1.759084;-0.381608
-1.485667;-1.016264
-1.335473;-1.206861
-1.416545;-1.110586
-1.528821;-0.950108
-1.645954;-0.728584
-1.740749;-0.458033
0.882848;1.568624
0.917202;1.548787
0.929936;1.541174
0.778342;1.623017
0.538735;1.717488
0.312664;1.772637
0.234797;1.784621
0.091556;1.797670
-0.276469;1.778641
-0.781047;1.621717
-1.196233;1.345000
-1.539150;0.933282
-1.799304;0.050047
-1.662257;-0.690579
-1.624723;-0.774775
-1.593111;-0.837852
-1.611669;-0.801574
-1.664628;-0.684846
-1.726884;-0.507810
-1.776206;-0.291708
0.886643;1.566481
0.955264;1.525605
0.864664;1.578720
0.690301;1.662373
0.462380;1.739599
0.279175;1.778219
0.229886;1.785260
0.089155;1.797791
-0.243622;1.783437
-0.720928;1.649322
-1.188715;1.351649
-1.542257;0.928139
-1.753040;0.408474
-1.799168;-0.054703
-1.769097;-0.332107
-1.743187;-0.448665
-1.741043;-0.456913
-1.758197;-0.385673
-1.781460;-0.257685
-1.797480;-0.095201
0.848966;1.587217
0.875847;1.572543
0.770144;1.626923
0.603572;1.695789
0.410099;1.752660
0.261928;1.780841
0.221158;1.786362
0.069879;1.798643
-0.228254;1.785469
-0.644779;1.680553
-1.084572;1.436559
-1.440451;1.079398
-1.666138;0.681164
-1.770177;0.326302
-1.798421;0.075378
-1.798908;-0.062702
-1.796837;-0.106665
-1.798294;-0.078349
-1.799999;0.001669
-1.796404;0.113722
