20;20;1.000000;1.000000
10.000000;10.000000
-0.267627;-1.779993
-0.290475;-1.776408
-0.307757;-1.773495
-0.311840;-1.772782
-0.295923;-1.775508
-0.253754;-1.782024
-0.178785;-1.791099
-0.066124;-1.798785
-0.081247;-1.798165
-0.323387;-1.770712
-0.622905;-1.688783
-0.904111;-1.556465
-1.113057;-1.414604
-1.245520;-1.299492
-1.322197;-1.221390
-1.363697;-1.174875
-1.383993;-1.150897
-1.391583;-1.141708
-1.391535;-1.141766
-1.386964;-1.147315
-0.103751;-1.797007
-0.158075;-1.793045
-0.206434;-1.788123
-0.237662;-1.784241
-0.242901;-1.783536
-0.216000;-1.786993
-0.154115;-1.793390
-0.061474;-1.798950
-0.078557;-1.798285
-0.309073;-1.773266
-0.627759;-1.686985
-0.933487;-1.539026
-1.149951;-1.384779
-1.276684;-1.268889
-1.343598;-1.197809
-1.375764;-1.160722
-1.388398;-1.145579
-1.390114;-1.143496
-1.388173;-1.145851
-1.396974;-1.135105
0.131059;-1.795223
0.029387;-1.799760
-0.069044;-1.798675
-0.146098;-1.794061
-0.188576;-1.790095
-0.189570;-1.789990
-0.147751;-1.793926
-0.065111;-1.798822
-0.087443;-1.797875
-0.335972;-1.768367
-0.679165;-1.666954
-0.996650;-1.498896
-1.203536;-1.338470
-1.313068;-1.231199
-1.364484;-1.173961
-1.384862;-1.149850
-1.388955;-1.144904
-1.389670;-1.144035
-1.399409;-1.132101
-1.413773;-1.114112
0.479772;-1.734883
0.317919;-1.771702
0.144232;-1.794212
-0.008076;-1.799982
-0.113273;-1.796432
-0.159479;-1.792921
-0.145189;-1.794135
-0.070731;-1.798610
-0.101275;-1.797149
-0.390591;-1.757111
-0.771854;-1.626112
-1.087667;-1.434217
-1.266700;-1.278855
-1.349029;-1.191689
-1.380887;-1.154622
-1.387967;-1.146101
-1.391499;-1.141810
-1.403418;-1.127128
-1.419495;-1.106812
-1.439645;-1.080473
0.954027;-1.526379
0.756873;-1.633139
0.498953;-1.729464
0.232103;-1.784973
0.018468;-1.799905
-0.107045;-1.796814
-0.138575;-1.794658
-0.077537;-1.798329
-0.121143;-1.795919
-0.477447;-1.735524
-0.905502;-1.555656
-1.195695;-1.345479
-1.328559;-1.214467
-1.376980;-1.159279
-1.387268;-1.146947
-1.394199;-1.138511
-1.409821;-1.119108
-1.429585;-1.093749
-1.452181;-1.063565
-1.477444;-1.028182
1.420909;-1.104997
1.282915;-1.262588
1.031321;-1.475255
0.665328;-1.672524
0.281375;-1.777872
0.004757;-1.799994
-0.116756;-1.796209
-0.085241;-1.797981
-0.151501;-1.793613
-0.616074;-1.691287
-1.079003;-1.440747
-1.302655;-1.242211
-1.374675;-1.162010
-1.386937;-1.147347
-1.399351;-1.132174
-1.421014;-1.104861
-1.446503;-1.071275
-1.473509;-1.033814
-1.501256;-0.993091
-1.529644;-0.948783
1.688766;-0.622953
1.644624;-0.731581
1.533734;-0.942158
1.278894;-1.266661
0.807892;-1.608512
0.273617;-1.779082
-0.049774;-1.799312
-0.092956;-1.797598
-0.205397;-1.788243
-0.851915;-1.585636
-1.272552;-1.273032
-1.378655;-1.157286
-1.389587;-1.144136
-1.411901;-1.116484
-1.442860;-1.076176
-1.476124;-1.030077
-1.508785;-0.981614
-1.539782;-0.932240
-1.569005;-0.882169
-1.596680;-0.831031
1.778497;-0.277398
1.771794;-0.317404
1.750471;-0.419346
1.688436;-0.623846
1.490585;-1.009037
0.927137;-1.542860
0.176766;-1.791299
-0.093807;-1.797554
-0.335773;-1.768405
-1.264207;-1.281320
-1.408733;-1.120478
-1.411711;-1.116724
-1.452407;-1.063256
-1.491545;-1.007618
-1.531173;-0.946313
-1.567815;-0.884283
-1.600040;-0.824543
-1.627976;-0.767915
-1.652317;-0.714036
-1.673778;-0.662169
1.797583;-0.093242
1.797134;-0.101529
1.795179;-0.131653
1.789558;-0.193601
1.770195;-0.326208
1.675038;-0.658974
1.046657;-1.464414
-0.024533;-1.799833
-0.838170;-1.592944
-1.650919;-0.717263
-1.769372;-0.330641
-1.786128;-0.223044
-1.626470;-0.771100
-1.637239;-0.747964
-1.663863;-0.686701
-1.688134;-0.624661
-1.707832;-0.568602
-1.723598;-0.518853
-1.736402;-0.474246
-1.747018;-0.433508
1.799834;-0.024401
1.799820;-0.025470
1.799776;-0.028421
1.799680;-0.033915
1.799437;-0.045022
1.798559;-0.072016
1.792123;-0.168214
1.303812;-1.240997
-1.379776;-1.155949
-1.151621;1.383391
0.803872;1.610524
-1.700010;0.591579
-1.784218;-0.237836
-1.779000;-0.274152
-1.782326;-0.251624
-1.785807;-0.225597
-1.788541;-0.202781
-1.790636;-0.183364
-1.792276;-0.166578
-1.793596;-0.151697
1.799965;-0.011183
1.799972;-0.010107
1.799988;-0.006507
1.800000;0.000173
1.799950;0.013395
1.799442;0.044820
1.793298;0.155181
1.233465;1.310940
-1.354466;1.185505
-0.915375;-1.549867
0.798123;-1.613382
-1.707624;-0.569226
-1.777005;0.286798
-1.772992;0.310645
-1.778382;0.278129
-1.783313;0.244531
-1.787018;0.215793
-1.789776;0.191579
-1.791876;0.170824
-1.793517;0.152627
1.798818;0.065211
1.798434;0.075070
1.796749;0.108131
1.791369;0.176062
1.771158;0.320934
1.666654;0.679901
1.004981;1.493323
-0.006713;1.799987
-0.702267;1.657354
-1.638052;0.746179
-1.698290;0.596499
-1.741585;0.454843
-1.608378;0.808158
-1.624720;0.774780
-1.654857;0.708130
-1.681816;0.641480
-1.703578;0.581224
-1.720927;0.527645
-1.734940;0.479566
-1.746468;0.435718
1.780759;0.262480
1.773357;0.308555
1.750389;0.419686
1.682496;0.639694
1.466415;1.043851
0.884589;1.567642
0.170574;1.791900
-0.076117;1.798390
-0.302839;1.774342
-1.213852;1.329121
-1.391123;1.142268
-1.395729;1.136635
-1.437384;1.083479
-1.478694;1.026384
-1.520564;0.963268
-1.559396;0.899046
-1.593656;0.836816
-1.623413;0.777516
-1.649341;0.720884
-1.672144;0.666284
1.686445;0.629207
1.636624;0.749308
1.514540;0.972711
1.241634;1.303205
0.763953;1.629839
0.253892;1.782004
-0.043742;1.799468
-0.078332;1.798295
-0.193118;1.789610
-0.825867;1.599357
-1.252886;1.292392
-1.364533;1.173903
-1.376771;1.159526
-1.399541;1.131939
-1.431689;1.090993
-1.466452;1.043800
-1.500749;0.993858
-1.533420;0.942668
-1.564293;0.890498
-1.593532;0.837051
1.400434;1.130834
1.250468;1.294731
0.987757;1.504771
0.622954;1.688765
0.256698;1.781602
0.000744;1.800000
-0.107700;1.796775
-0.071912;1.798563
-0.144476;1.794192
-0.603561;1.695793
-1.064803;1.451273
-1.289591;1.255768
-1.362189;1.176623
-1.374352;1.162393
-1.387599;1.146547
-1.410349;1.118443
-1.437112;1.083839
-1.465546;1.045072
-1.494842;1.002721
-1.524851;0.956467
0.915693;1.549679
0.714575;1.652084
0.461017;1.739961
0.207001;1.788058
0.008762;1.799979
-0.104396;1.796970
-0.128485;1.795409
-0.064628;1.798839
-0.116084;1.796253
-0.471446;1.737164
-0.897893;1.560060
-1.186246;1.353817
-1.317819;1.226113
-1.365230;1.173093
-1.374520;1.162194
-1.382584;1.152589
-1.399259;1.132286
-1.420222;1.105879
-1.444211;1.074363
-1.471068;1.037285
0.442388;1.744790
0.285202;1.777262
0.120560;1.795958
-0.020718;1.799881
-0.115700;1.796278
-0.154074;1.793394
-0.134723;1.794951
-0.057917;1.799068
-0.097198;1.797374
-0.388444;1.757587
-0.770255;1.626870
-1.083212;1.437586
-1.258984;1.286453
-1.339064;1.202875
-1.369385;1.168240
-1.375267;1.161309
-1.379889;1.155814
-1.392835;1.140180
-1.410136;1.118712
-1.431817;1.090826
0.102390;1.797086
0.007130;1.799986
-0.083491;1.798063
-0.152656;1.793515
-0.188194;1.790135
-0.183583;1.790614
-0.137494;1.794741
-0.052299;1.799240
-0.084137;1.798033
-0.337361;1.768103
-0.683485;1.665187
-0.997887;1.498072
-1.199738;1.341875
-1.305539;1.239180
-1.354567;1.185390
-1.373338;1.163591
-1.376234;1.160164
-1.378044;1.158013
-1.388818;1.145070
-1.404625;1.125624
-0.125405;1.795626
-0.174125;1.791558
-0.216596;1.786921
-0.242279;1.783620
-0.242685;1.783565
-0.211581;1.787522
-0.145502;1.794109
-0.048797;1.799338
-0.076689;1.798365
-0.316221;1.772006
-0.639104;1.682720
-0.940743;1.534601
-1.150463;1.384354
-1.271992;1.273592
-1.335574;1.206748
-1.365587;1.172677
-1.376724;1.159582
-1.377322;1.158872
-1.376552;1.159787
-1.386599;1.147755
-0.285315;1.777244
-0.303787;1.774180
-0.316840;1.771895
-0.317205;1.771830
-0.298310;1.775109
-0.253880;1.782006
-0.176677;1.791308
-0.057395;1.799085
-0.088812;1.797808
-0.342897;1.767037
-0.642649;1.681369
-0.916992;1.548911
-1.117598;1.411019
-1.243691;1.301243
-1.316215;1.227835
-1.355035;1.184854
-1.373500;1.163399
-1.379741;1.155990
-1.378628;1.157318
-1.375239;1.161343
