20;20;1.000000;1.000000
10.000000;10.000000
1.201961;-1.339884
1.189203;-1.351220
1.158245;-1.377849
1.098675;-1.425803
0.990720;-1.502822
0.807384;-1.608767
0.527648;-1.720926
0.164588;-1.792459
-0.233621;-1.784775
-0.616769;-1.691034
-0.935135;-1.538025
-1.156317;-1.379467
-1.288876;-1.256503
-1.360851;-1.178170
-1.396361;-1.135859
-1.410793;-1.117883
-1.413178;-1.114867
-1.408760;-1.120445
-1.400599;-1.130629
-1.407221;-1.122377
1.202366;-1.339521
1.204063;-1.337995
1.186111;-1.353935
1.142642;-1.390816
1.051270;-1.461106
0.876729;-1.572052
0.588211;-1.701178
0.212901;-1.787365
-0.180588;-1.790918
-0.577783;-1.704748
-0.935848;-1.537592
-1.181087;-1.358320
-1.315313;-1.228801
-1.379458;-1.156329
-1.405548;-1.124470
-1.411715;-1.116719
-1.407688;-1.121790
-1.398606;-1.133094
-1.408175;-1.121180
-1.427283;-1.096750
1.206213;-1.336058
1.203152;-1.338814
1.202347;-1.339538
1.175676;-1.363006
1.104239;-1.421498
0.940980;-1.534457
0.631735;-1.685500
0.231341;-1.785072
-0.115213;-1.796309
-0.508197;-1.726770
-0.935320;-1.537913
-1.214526;-1.328505
-1.345559;-1.195605
-1.396767;-1.135360
-1.410552;-1.118188
-1.407193;-1.122411
-1.398895;-1.132737
-1.413847;-1.114019
-1.432281;-1.090217
-1.457126;-1.056780
1.224709;-1.319124
1.209794;-1.332816
1.203634;-1.338381
1.199289;-1.342277
1.153022;-1.382223
1.011873;-1.488662
0.674218;-1.668960
0.204913;-1.788298
-0.016285;-1.799926
-0.405673;-1.753690
-0.954025;-1.526380
-1.264900;-1.280636
-1.378669;-1.157269
-1.409077;-1.120045
-1.406837;-1.122857
-1.403722;-1.126749
-1.423337;-1.101867
-1.445194;-1.073040
-1.470066;-1.038704
-1.499437;-0.995836
1.268058;-1.277509
1.239401;-1.305329
1.217148;-1.326104
1.204780;-1.337350
1.193439;-1.347480
1.098277;-1.426109
0.768984;-1.627471
0.205679;-1.788210
0.021520;-1.799871
-0.381250;-1.759161
-1.042720;-1.467220
-1.335318;-1.207031
-1.406824;-1.122874
-1.406488;-1.123295
-1.412760;-1.115396
-1.440377;-1.079497
-1.468029;-1.041582
-1.495834;-1.001240
-1.524875;-0.956429
-1.556114;-0.904715
1.350229;-1.190328
1.309936;-1.234531
1.271894;-1.273690
1.235697;-1.308837
1.208298;-1.334172
1.182241;-1.357316
0.954928;-1.525815
0.304715;-1.774021
0.020973;-1.799878
-0.520648;-1.723057
-1.220895;-1.322655
-1.402881;-1.127796
-1.405145;-1.124974
-1.434105;-1.087816
-1.475360;-1.031170
-1.509771;-0.980098
-1.540171;-0.931597
-1.568919;-0.882323
-1.597355;-0.829732
-1.626034;-0.772019
1.483627;-1.019240
1.441553;-1.077926
1.399758;-1.131670
1.353615;-1.186477
1.292122;-1.253164
1.219017;-1.324386
1.163965;-1.373021
0.595928;-1.698490
0.019034;-1.799899
-0.904417;-1.556287
-1.393774;-1.139032
-1.402879;-1.127798
-1.497006;-0.999487
-1.560140;-0.897755
-1.591651;-0.840623
-1.615060;-0.794720
-1.637453;-0.747495
-1.659467;-0.697258
-1.680988;-0.643646
-1.701803;-0.586400
1.656756;-0.703675
1.629762;-0.764117
1.607095;-0.810706
1.593554;-0.837010
1.580967;-0.860549
1.482901;-1.020296
1.241696;-1.303146
0.000000;0.000000
0.000000;0.000000
-1.386188;-1.148252
-1.442908;-1.076111
-1.657757;-0.701314
-1.736411;-0.474212
-1.738264;-0.467375
-1.725446;-0.512676
-1.728033;-0.503887
-1.736868;-0.472536
-1.747192;-0.432805
-1.757454;-0.389045
-1.767076;-0.342697
1.788985;-0.198831
1.784508;-0.235653
1.781940;-0.254341
1.784986;-0.232003
1.797518;-0.094484
1.799620;-0.036975
1.790455;-0.185125
0.000000;0.000000
0.000000;0.000000
-1.798268;-0.078951
-1.785568;-0.227476
-1.798168;-0.081189
-1.798369;-0.076607
-1.796858;-0.106303
-1.794856;-0.135988
-1.795217;-0.131131
-1.796239;-0.116294
-1.797374;-0.097197
-1.798419;-0.075414
-1.799261;-0.051565
1.754267;0.403169
1.752764;0.409655
1.750735;0.418241
1.752687;0.409984
1.766819;0.344020
1.757172;0.390317
1.569905;0.880568
1.052634;1.460124
-0.445724;1.743941
-1.296382;1.248757
-1.547142;0.919973
-1.734107;0.482567
-1.775350;0.296868
-1.779716;0.269463
-1.777177;0.285732
-1.777144;0.285937
-1.778504;0.277352
-1.779956;0.267871
-1.781068;0.260381
-1.781758;0.255614
1.563640;0.891643
1.541178;0.929930
1.514943;0.972084
1.484189;1.018421
1.429505;1.093853
1.281012;1.264518
1.069171;1.448058
0.846939;1.588299
-0.111328;1.796554
-1.118377;1.410401
-1.294336;1.250877
-1.418657;1.107886
-1.547333;0.919653
-1.615396;0.794037
-1.647542;0.724986
-1.667730;0.677255
-1.683743;0.636404
-1.697128;0.599796
-1.708327;0.567114
-1.717675;0.538138
1.353673;1.186410
1.315412;1.228695
1.270113;1.275466
1.213411;1.329524
1.138763;1.393993
1.060000;1.454785
1.013676;1.487435
0.528973;1.720520
-0.067244;1.798743
-0.778385;1.622996
-1.244236;1.300721
-1.292606;1.252665
-1.354965;1.184934
-1.426471;1.097808
-1.482593;1.020743
-1.524459;0.957092
-1.557334;0.902614
-1.584549;0.853934
-1.607841;0.809226
-1.628166;0.767511
1.199807;1.341813
1.162827;1.373984
1.123216;1.406551
1.082388;1.438206
1.048260;1.463267
1.042992;1.467027
0.918762;1.547862
0.468366;1.737997
-0.095216;1.797480
-0.691433;1.661903
-1.147676;1.386665
-1.279884;1.265661
-1.290882;1.254442
-1.325780;1.217500
-1.368989;1.168704
-1.410107;1.118748
-1.446834;1.070827
-1.479622;1.025045
-1.509384;0.980694
-1.536837;0.937087
1.105905;1.420202
1.079707;1.440220
1.056270;1.457495
1.039947;1.469187
1.041619;1.468002
1.001761;1.495485
0.838471;1.592786
0.455090;1.741520
-0.105751;1.796891
-0.674510;1.668843
-1.067839;1.449041
-1.237468;1.307162
-1.288488;1.256901
-1.289823;1.255530
-1.311611;1.232751
-1.339982;1.201852
-1.370025;1.167490
-1.399904;1.131489
-1.429300;1.094122
-1.458354;1.055084
1.055259;1.458228
1.041779;1.467888
1.034202;1.473237
1.037469;1.470938
1.028101;1.477501
0.951299;1.528080
0.769879;1.627048
0.415056;1.751493
-0.105464;1.796908
-0.633482;1.684844
-0.999577;1.496945
-1.187284;1.352907
-1.266193;1.279358
-1.290684;1.254646
-1.289266;1.256102
-1.304001;1.240798
-1.323873;1.219573
-1.346590;1.194444
-1.371245;1.166056
-1.397709;1.134200
1.032096;1.474713
1.029794;1.476321
1.034427;1.473079
1.040234;1.468984
0.996249;1.499162
0.899501;1.559133
0.706578;1.655520
0.368401;1.761897
-0.106766;1.796831
-0.588786;1.700980
-0.937662;1.536486
-1.136486;1.395851
-1.235109;1.309391
-1.277928;1.267636
-1.291242;1.254071
-1.289070;1.256304
-1.299552;1.245457
-1.314304;1.229880
-1.332496;1.210147
-1.354134;1.185884
1.025419;1.479363
1.031747;1.474957
1.045376;1.465329
1.018478;1.484150
0.959870;1.522711
0.847397;1.588055
0.646131;1.680034
0.321623;1.771033
-0.112004;1.796512
-0.550358;1.713799
-0.882365;1.568895
-1.087444;1.434386
-1.200531;1.341165
-1.257966;1.287448
-1.283570;1.261923
-1.291337;1.253973
-1.289115;1.256257
-1.296800;1.248322
-1.308532;1.236019
-1.324600;1.218784
1.028270;1.477383
1.040693;1.468658
1.031178;1.475355
0.991813;1.502101
0.919564;1.547386
0.793705;1.615559
0.586324;1.701830
0.274787;1.778902
-0.121982;1.795862
-0.520548;1.723087
-0.834291;1.594979
-1.041240;1.468271
-1.164751;1.372353
-1.234028;1.310411
-1.270214;1.275365
-1.286596;1.258837
-1.291305;1.254006
-1.289211;1.256159
-1.295095;1.250091
-1.305719;1.238991
1.036505;1.471617
1.039207;1.469710
1.010018;1.489920
0.958887;1.523331
0.873552;1.573819
0.736061;1.642624
0.524747;1.721813
0.226507;1.785692
-0.137005;1.794778
-0.499256;1.729377
-0.793409;1.615705
-0.998353;1.497762
-1.128794;1.402078
-1.207560;1.334841
-1.252951;1.292329
-1.277261;1.268307
-1.288362;1.257030
-1.291281;1.254031
-1.289275;1.256093
-1.294507;1.250701
1.044526;1.465935
1.018669;1.484020
0.978703;1.510675
0.915947;1.549529
0.818787;1.602993
0.671927;1.669884
0.459414;1.740385
0.175630;1.791411
-0.156973;1.793142
-0.485645;1.733248
-0.759280;1.632021
-0.958937;1.523299
-1.093151;1.430042
-1.179195;1.359963
-1.232464;1.311882
-1.264062;1.281463
-1.281448;1.264077
-1.289538;1.255823
-1.291552;1.253752
-1.289412;1.255952
