10;10;4.000000;4.000000
20.000000;20.000000
1.251786;-1.293457
1.217093;-1.326154
1.037849;-1.470670
0.597883;-1.697803
0.091106;-1.797693
-0.098072;-1.797326
-0.660510;-1.674433
-1.118430;-1.410360
-1.274768;-1.270813
-1.272439;-1.273145
1.358875;-1.180449
1.255614;-1.289742
1.260468;-1.284998
0.864358;-1.578887
0.150044;-1.793735
-0.152747;-1.793507
-0.912996;-1.551270
-1.365404;-1.172889
-1.280419;-1.265120
-1.426736;-1.097463
1.747039;-0.433423
1.708036;-0.567990
1.273022;-1.272562
1.353344;-1.186785
0.310320;-1.773049
-0.292890;-1.776011
-1.201151;-1.340610
-1.367654;-1.170266
-1.707934;0.568298
-1.799682;0.033839
1.432572;1.089833
1.799914;0.017601
1.540774;-0.930600
1.242241;-1.302627
0.596956;-1.698129
-0.653231;-1.677286
-1.261212;-1.284268
-1.384774;-1.149957
-1.719145;0.533423
-0.942412;1.533577
1.772336;0.314366
1.628700;-0.766378
1.221581;-1.322021
0.934515;-1.538402
1.046908;-1.464235
-1.202380;-1.339508
-0.949237;-1.529362
-1.219581;-1.323867
-1.732159;0.489514
-0.411735;1.752277
0.000000;0.000000
0.000000;0.000000
0.000000;0.000000
0.000000;0.000000
0.000000;0.000000
0.000000;0.000000
0.000000;0.000000
0.000000;0.000000
0.000000;0.000000
0.000000;0.000000
0.000000;0.000000
0.000000;0.000000
0.000000;0.000000
0.000000;0.000000
0.000000;0.000000
0.000000;0.000000
0.000000;0.000000
0.000000;0.000000
0.000000;0.000000
0.000000;0.000000
0.000000;0.000000
0.000000;0.000000
0.000000;0.000000
0.000000;0.000000
0.000000;0.000000
0.000000;0.000000
0.000000;0.000000
0.000000;0.000000
0.000000;0.000000
0.000000;0.000000
0.000000;0.000000
0.000000;0.000000
0.000000;0.000000
0.000000;0.000000
0.000000;0.000000
0.000000;0.000000
0.000000;0.000000
0.000000;0.000000
0.000000;0.000000
0.000000;0.000000
0.000000;0.000000
0.000000;0.000000
0.000000;0.000000
0.000000;0.000000
0.000000;0.000000
0.000000;0.000000
0.000000;0.000000
0.000000;0.000000
0.000000;0.000000
0.000000;0.000000
