10;10;4.000000;4.000000
20.000000;20.000000
0.020466;-1.799884
0.020466;-1.799884
0.020466;-1.799884
0.020466;-1.799884
0.020466;-1.799884
0.020466;-1.799884
0.020466;-1.799884
0.020466;-1.799884
0.020466;-1.799884
0.020466;-1.799884
0.020466;-1.799884
0.020466;-1.799884
0.020466;-1.799884
0.020466;-1.799884
0.020466;-1.799884
0.020466;-1.799884
0.020466;-1.799884
0.020466;-1.799884
0.020466;-1.799884
0.020466;-1.799884
0.020466;-1.799884
0.020466;-1.799884
0.020466;-1.799884
0.020466;-1.799884
0.020466;-1.799884
0.020466;-1.799884
0.020466;-1.799884
0.020466;-1.799884
0.020466;-1.799884
0.020466;-1.799884
0.020466;-1.799884
0.020466;-1.799884
0.020466;-1.799884
0.020466;-1.799884
0.020466;-1.799884
0.020466;-1.799884
0.020466;-1.799884
0.020466;-1.799884
0.020466;-1.799884
0.020466;-1.799884
0.020466;-1.799884
0.020466;-1.799884
0.020466;-1.799884
0.020466;-1.799884
0.000000;0.000000
0.000000;0.000000
0.020466;-1.799884
0.020466;-1.799884
0.020466;-1.799884
0.020466;-1.799884
0.000000;0.000000
0.000000;0.000000
0.000000;0.000000
0.000000;0.000000
0.000000;0.000000
0.000000;0.000000
0.000000;0.000000
0.000000;0.000000
0.000000;0.000000
0.000000;0.000000
0.000000;0.000000
0.000000;0.000000
0.000000;0.000000
0.000000;0.000000
0.000000;0.000000
0.000000;0.000000
0.000000;0.000000
0.000000;0.000000
0.000000;0.000000
0.000000;0.000000
0.000000;0.000000
0.000000;0.000000
0.000000;0.000000
0.000000;0.000000
0.000000;0.000000
0.000000;0.000000
0.000000;0.000000
0.000000;0.000000
0.000000;0.000000
0.000000;0.000000
0.000000;0.000000
0.000000;0.000000
0.000000;0.000000
0.000000;0.000000
0.000000;0.000000
0.000000;0.000000
0.000000;0.000000
0.000000;0.000000
0.000000;0.000000
0.000000;0.000000
0.000000;0.000000
0.000000;0.000000
0.000000;0.000000
0.000000;0.000000
0.000000;0.000000
0.000000;0.000000
0.000000;0.000000
0.000000;0.000000
0.000000;0.000000
0.000000;0.000000
