10;10;4.000000;4.000000
20.000000;20.000000
1.259516;-1.285932
1.419560;-1.106729
1.420498;-1.105525
1.024489;-1.480008
0.268105;-1.779921
-0.189327;-1.790015
-0.940338;-1.534850
-1.368380;-1.169417
-1.597122;-0.830182
-1.566072;-0.887366
1.307223;-1.237403
1.353610;-1.186482
1.327919;-1.215167
1.225744;-1.318162
0.242998;-1.783522
-0.283708;-1.777501
-1.158838;-1.377350
-1.424095;-1.100888
-1.569137;-0.881934
-1.629477;-0.764726
1.456100;-1.058193
1.420662;-1.105314
1.316556;-1.227469
1.199383;-1.342192
0.246131;-1.783093
-0.660486;-1.674442
-1.230443;-1.313777
-1.630373;-0.762813
-1.789917;-0.190258
-1.794109;-0.145507
1.669027;-0.674055
1.730507;-0.495326
1.626929;-0.770131
1.536471;-0.937687
0.683503;-1.665180
-1.170810;-1.367188
-1.452776;-1.062751
-1.504108;-0.988766
-1.647518;-0.725041
-1.678803;-0.649323
0.000000;0.000000
0.000000;0.000000
0.000000;0.000000
0.000000;0.000000
0.000000;0.000000
0.000000;0.000000
0.000000;0.000000
0.000000;0.000000
0.000000;0.000000
0.000000;0.000000
0.000000;0.000000
0.000000;0.000000
0.000000;0.000000
0.000000;0.000000
0.000000;0.000000
0.000000;0.000000
0.000000;0.000000
0.000000;0.000000
0.000000;0.000000
0.000000;0.000000
0.000000;0.000000
0.000000;0.000000
0.000000;0.000000
0.000000;0.000000
0.000000;0.000000
0.000000;0.000000
0.000000;0.000000
0.000000;0.000000
0.000000;0.000000
0.000000;0.000000
0.000000;0.000000
0.000000;0.000000
0.000000;0.000000
0.000000;0.000000
0.000000;0.000000
0.000000;0.000000
0.000000;0.000000
0.000000;0.000000
0.000000;0.000000
0.000000;0.000000
0.000000;0.000000
0.000000;0.000000
0.000000;0.000000
0.000000;0.000000
0.000000;0.000000
0.000000;0.000000
0.000000;0.000000
0.000000;0.000000
0.000000;0.000000
0.000000;0.000000
0.000000;0.000000
0.000000;0.000000
0.000000;0.000000
0.000000;0.000000
0.000000;0.000000
0.000000;0.000000
0.000000;0.000000
0.000000;0.000000
0.000000;0.000000
0.000000;0.000000
